{
"type": "FeatureCollection",
"crs": { "type": "name", "properties": { "name": "urn:ogc:def:crs:OGC:1.3:CRS84" } },
"features": [
{ "type": "Feature", "properties": { "osm_id": 78431205, "centroid": { "latitude": 53.800528, "longitude": -1.558348 }, "area": 8679, "type": "college" }, "geometry": { "type": "MultiPolygon", "coordinates": [ [ [ [ -1.5590447, 53.8006436 ], [ -1.5586911, 53.8006192 ], [ -1.5587145, 53.8005012 ], [ -1.5585785, 53.8004918 ], [ -1.5584889, 53.8009436 ], [ -1.5577954, 53.8008957 ], [ -1.5578459, 53.8006405 ], [ -1.5577458, 53.8006336 ], [ -1.5578318, 53.8001997 ], [ -1.5587603, 53.8002639 ], [ -1.5587678, 53.8002265 ], [ -1.5591225, 53.8002511 ], [ -1.5590447, 53.8006436 ] ] ] ] } },
{ "type": "Feature", "properties": { "osm_id": 81290288, "centroid": { "latitude": 53.650845, "longitude": -1.791126 }, "area": 2885, "type": "college" }, "geometry": { "type": "MultiPolygon", "coordinates": [ [ [ [ -1.7916526, 53.6508256 ], [ -1.7912972, 53.6506295 ], [ -1.7912275, 53.6506551 ], [ -1.7911425, 53.6506082 ], [ -1.790907, 53.6507841 ], [ -1.7908694, 53.650786 ], [ -1.7905905, 53.6508002 ], [ -1.7906115, 53.6510316 ], [ -1.7906729, 53.6510309 ], [ -1.7906868, 53.6511038 ], [ -1.7908007, 53.6510939 ], [ -1.7907687, 53.650867 ], [ -1.7908311, 53.650829 ], [ -1.7908989, 53.6508274 ], [ -1.7912927, 53.6510437 ], [ -1.7916526, 53.6508256 ] ] ] ] } },
{ "type": "Feature", "properties": { "osm_id": 105811584, "centroid": { "latitude": 53.697125, "longitude": -1.635778 }, "area": 4991, "type": "college" }, "geometry": { "type": "MultiPolygon", "coordinates": [ [ [ [ -1.6356398, 53.6973156 ], [ -1.6356985, 53.6973785 ], [ -1.6354228, 53.6974687 ], [ -1.6351423, 53.6971682 ], [ -1.6352668, 53.6971274 ], [ -1.6352382, 53.6970968 ], [ -1.6358683, 53.6968906 ], [ -1.6359218, 53.6968731 ], [ -1.6359743, 53.6969294 ], [ -1.6364, 53.6967901 ], [ -1.6364838, 53.6968798 ], [ -1.6363561, 53.6969216 ], [ -1.6364044, 53.6969732 ], [ -1.6361184, 53.6970668 ], [ -1.6362523, 53.6972102 ], [ -1.635916, 53.6973202 ], [ -1.6358481, 53.6972475 ], [ -1.6356398, 53.6973156 ] ] ] ] } },
{ "type": "Feature", "properties": { "osm_id": 105811585, "centroid": { "latitude": 53.696913, "longitude": -1.635433 }, "area": 1844, "type": "college" }, "geometry": { "type": "MultiPolygon", "coordinates": [ [ [ [ -1.6358683, 53.6968906 ], [ -1.6352382, 53.6970968 ], [ -1.6350126, 53.6968551 ], [ -1.635253, 53.6967765 ], [ -1.6352709, 53.6967957 ], [ -1.6353496, 53.69688 ], [ -1.6356431, 53.696784 ], [ -1.6356719, 53.6967746 ], [ -1.6357181, 53.6968241 ], [ -1.6358596, 53.6967778 ], [ -1.6359308, 53.6968541 ], [ -1.6358568, 53.6968783 ], [ -1.6358683, 53.6968906 ] ] ] ] } },
{ "type": "Feature", "properties": { "osm_id": 105811586, "centroid": { "latitude": 53.696523, "longitude": -1.636226 }, "area": 2479, "type": "college" }, "geometry": { "type": "MultiPolygon", "coordinates": [ [ [ [ -1.6364426, 53.6963053 ], [ -1.6367394, 53.6964111 ], [ -1.6366198, 53.6965287 ], [ -1.6364944, 53.6964879 ], [ -1.6363293, 53.696555 ], [ -1.6364013, 53.6966232 ], [ -1.6360247, 53.6967626 ], [ -1.6359534, 53.696695 ], [ -1.6359239, 53.6967063 ], [ -1.6357481, 53.6965459 ], [ -1.6358703, 53.6964975 ], [ -1.6358903, 53.6965151 ], [ -1.6364426, 53.6963053 ] ] ] ] } },
{ "type": "Feature", "properties": { "osm_id": 105811587, "centroid": { "latitude": 53.696760, "longitude": -1.636743 }, "area": 2461, "type": "college" }, "geometry": { "type": "MultiPolygon", "coordinates": [ [ [ [ -1.6370048, 53.6967449 ], [ -1.6369166, 53.6968389 ], [ -1.6369437, 53.696891 ], [ -1.6365896, 53.697011 ], [ -1.6364838, 53.6968798 ], [ -1.6364, 53.6967901 ], [ -1.6363344, 53.6967318 ], [ -1.6368984, 53.6965438 ], [ -1.637155, 53.6966244 ], [ -1.6370379, 53.696755 ], [ -1.6370048, 53.6967449 ] ] ] ] } },
{ "type": "Feature", "properties": { "osm_id": 105811588, "centroid": { "latitude": 53.696789, "longitude": -1.635460 }, "area": 419, "type": "college" }, "geometry": { "type": "MultiPolygon", "coordinates": [ [ [ [ -1.6353496, 53.69688 ], [ -1.6352709, 53.6967957 ], [ -1.6354877, 53.6967248 ], [ -1.635473, 53.6967091 ], [ -1.6355498, 53.6966839 ], [ -1.6356431, 53.696784 ], [ -1.6353496, 53.69688 ] ] ] ] } },
{ "type": "Feature", "properties": { "osm_id": 147216034, "centroid": { "latitude": 53.774693, "longitude": -1.778538 }, "area": 15554, "type": "college" }, "geometry": { "type": "MultiPolygon", "coordinates": [ [ [ [ -1.7797123, 53.774636 ], [ -1.779119, 53.774557 ], [ -1.779095, 53.774636 ], [ -1.7788104, 53.7745874 ], [ -1.7789373, 53.774482 ], [ -1.7779188, 53.7740929 ], [ -1.7776444, 53.7743422 ], [ -1.777569, 53.7743685 ], [ -1.7776307, 53.7744313 ], [ -1.7776581, 53.7744921 ], [ -1.7776616, 53.7745651 ], [ -1.777641, 53.7746239 ], [ -1.7775999, 53.7746563 ], [ -1.7776136, 53.7746847 ], [ -1.7775038, 53.7747373 ], [ -1.7775381, 53.7748184 ], [ -1.777473, 53.7748346 ], [ -1.7775038, 53.7748792 ], [ -1.7775518, 53.774867 ], [ -1.7775793, 53.774938 ], [ -1.7780834, 53.7747718 ], [ -1.7783886, 53.7751021 ], [ -1.7784229, 53.775092 ], [ -1.7784606, 53.7751285 ], [ -1.7785772, 53.7750879 ], [ -1.7785532, 53.7750575 ], [ -1.7788447, 53.7749623 ], [ -1.779215, 53.7753352 ], [ -1.7794722, 53.7752521 ], [ -1.7793076, 53.7750697 ], [ -1.7793728, 53.7748954 ], [ -1.779534, 53.7749177 ], [ -1.779558, 53.7748488 ], [ -1.7796197, 53.7748508 ], [ -1.7797123, 53.774636 ] ] ] ] } },
{ "type": "Feature", "properties": { "osm_id": 189414320, "centroid": { "latitude": 53.591897, "longitude": -1.666177 }, "area": 21063, "type": "college" }, "geometry": { "type": "MultiPolygon", "coordinates": [ [ [ [ -1.6672078, 53.5912118 ], [ -1.6667998, 53.591368 ], [ -1.6665893, 53.5914605 ], [ -1.6664779, 53.5914985 ], [ -1.6664243, 53.5914476 ], [ -1.6661775, 53.5915431 ], [ -1.6659898, 53.5913776 ], [ -1.6655003, 53.5915528 ], [ -1.6656196, 53.5916577 ], [ -1.66579, 53.5915783 ], [ -1.6658812, 53.5916579 ], [ -1.6645079, 53.5921896 ], [ -1.664819, 53.5924857 ], [ -1.6654144, 53.5922342 ], [ -1.6654426, 53.5922818 ], [ -1.6655566, 53.5923679 ], [ -1.6656706, 53.5923296 ], [ -1.6656438, 53.592301 ], [ -1.6657055, 53.592266 ], [ -1.6657752, 53.5923137 ], [ -1.6660998, 53.5921927 ], [ -1.6660327, 53.5921227 ], [ -1.6661386, 53.5920846 ], [ -1.6660944, 53.5920367 ], [ -1.6661655, 53.5920177 ], [ -1.66614, 53.5919826 ], [ -1.6662942, 53.5919238 ], [ -1.6665973, 53.592196 ], [ -1.6663653, 53.5922898 ], [ -1.6666818, 53.5925652 ], [ -1.6668964, 53.5924793 ], [ -1.6669607, 53.5925318 ], [ -1.6671109, 53.5924745 ], [ -1.6670573, 53.592422 ], [ -1.6671378, 53.5923822 ], [ -1.6668374, 53.5921084 ], [ -1.6666577, 53.5921768 ], [ -1.666494, 53.5920367 ], [ -1.6672571, 53.5917502 ], [ -1.6672451, 53.5917326 ], [ -1.6676232, 53.5915926 ], [ -1.6673644, 53.5913538 ], [ -1.6672078, 53.5912118 ] ] ] ] } },
{ "type": "Feature", "properties": { "osm_id": 201077137, "centroid": { "latitude": 53.774771, "longitude": -1.776459 }, "area": 16566, "type": "college" }, "geometry": { "type": "MultiPolygon", "coordinates": [ [ [ [ -1.7753205, 53.7752326 ], [ -1.7754846, 53.7752949 ], [ -1.7754529, 53.7753241 ], [ -1.7755591, 53.7753645 ], [ -1.7755999, 53.7753271 ], [ -1.7757259, 53.775375 ], [ -1.775981, 53.7751409 ], [ -1.7762843, 53.7752564 ], [ -1.7763256, 53.7752185 ], [ -1.7764555, 53.7752679 ], [ -1.7765136, 53.7752146 ], [ -1.7767265, 53.7752956 ], [ -1.7768325, 53.7751982 ], [ -1.7769825, 53.7750565 ], [ -1.7765779, 53.774907 ], [ -1.7766295, 53.7748583 ], [ -1.7770856, 53.7750268 ], [ -1.777275, 53.7748478 ], [ -1.7770866, 53.7747782 ], [ -1.7771168, 53.7747497 ], [ -1.7772635, 53.774804 ], [ -1.7775182, 53.774564 ], [ -1.7772106, 53.7744499 ], [ -1.7771502, 53.7745068 ], [ -1.7770577, 53.7744724 ], [ -1.7771253, 53.7744091 ], [ -1.7769882, 53.7743579 ], [ -1.7770248, 53.7743237 ], [ -1.7769197, 53.7742843 ], [ -1.7768734, 53.7743273 ], [ -1.7767451, 53.774279 ], [ -1.7768253, 53.7742049 ], [ -1.7764949, 53.77408 ], [ -1.7764156, 53.7741532 ], [ -1.7763121, 53.7741139 ], [ -1.7759893, 53.7744112 ], [ -1.7762564, 53.7745125 ], [ -1.7759054, 53.7748355 ], [ -1.775797, 53.7747944 ], [ -1.7753205, 53.7752326 ] ] ] ] } },
{ "type": "Feature", "properties": { "osm_id": 202630114, "centroid": { "latitude": 53.641476, "longitude": -1.786393 }, "area": 7683, "type": "college" }, "geometry": { "type": "MultiPolygon", "coordinates": [ [ [ [ -1.7857908, 53.6418517 ], [ -1.7859258, 53.6416091 ], [ -1.7865112, 53.641711 ], [ -1.7865316, 53.6416819 ], [ -1.7869123, 53.6417061 ], [ -1.7869901, 53.6416988 ], [ -1.786986, 53.6416697 ], [ -1.7871047, 53.64166 ], [ -1.787031, 53.6414537 ], [ -1.7871211, 53.6414416 ], [ -1.787072, 53.6412426 ], [ -1.7869737, 53.6412451 ], [ -1.7869574, 53.6411723 ], [ -1.7866708, 53.6411917 ], [ -1.7866831, 53.6412329 ], [ -1.7862901, 53.6412669 ], [ -1.7863065, 53.6413276 ], [ -1.7862533, 53.6414173 ], [ -1.7862124, 53.6414052 ], [ -1.7861878, 53.6414416 ], [ -1.786065, 53.6414198 ], [ -1.7861059, 53.6413324 ], [ -1.7861469, 53.6413421 ], [ -1.7861878, 53.6412742 ], [ -1.7862246, 53.6412863 ], [ -1.7862574, 53.6412184 ], [ -1.7859504, 53.6411553 ], [ -1.785537, 53.6418032 ], [ -1.7857908, 53.6418517 ] ] ] ] } },
{ "type": "Feature", "properties": { "osm_id": 381425101, "centroid": { "latitude": 53.831345, "longitude": -1.654181 }, "area": 9024, "type": "college" }, "geometry": { "type": "MultiPolygon", "coordinates": [ [ [ [ -1.654513, 53.8310429 ], [ -1.6542081, 53.8308006 ], [ -1.6534397, 53.8311149 ], [ -1.6537446, 53.8313428 ], [ -1.6536917, 53.8313692 ], [ -1.6538047, 53.8314564 ], [ -1.6537311, 53.8314901 ], [ -1.6538012, 53.8315446 ], [ -1.6536529, 53.8316107 ], [ -1.6537732, 53.831701 ], [ -1.6539203, 53.8316403 ], [ -1.6540429, 53.8317354 ], [ -1.6541351, 53.8316975 ], [ -1.6544363, 53.8319366 ], [ -1.6545962, 53.8318656 ], [ -1.6544491, 53.8317361 ], [ -1.6549313, 53.8315253 ], [ -1.654776, 53.8313999 ], [ -1.6542728, 53.831619 ], [ -1.6542075, 53.8315735 ], [ -1.6548636, 53.8312786 ], [ -1.6546885, 53.8311394 ], [ -1.6540662, 53.8314164 ], [ -1.6539284, 53.8313089 ], [ -1.654513, 53.8310429 ] ] ] ] } },
{ "type": "Feature", "properties": { "osm_id": 400957971, "centroid": { "latitude": 53.796348, "longitude": -1.714809 }, "area": 14515, "type": "college" }, "geometry": { "type": "MultiPolygon", "coordinates": [ [ [ [ -1.7159647, 53.7965473 ], [ -1.7154848, 53.7966928 ], [ -1.7154409, 53.7966423 ], [ -1.7153417, 53.7966724 ], [ -1.7152797, 53.796601 ], [ -1.715363, 53.7965757 ], [ -1.7153019, 53.7965053 ], [ -1.7142538, 53.7968231 ], [ -1.7137593, 53.7962541 ], [ -1.7141314, 53.7961413 ], [ -1.7139886, 53.795977 ], [ -1.714204, 53.7959117 ], [ -1.7143454, 53.7960744 ], [ -1.7149632, 53.795887 ], [ -1.715034, 53.7959685 ], [ -1.7149408, 53.7959968 ], [ -1.7151472, 53.7962343 ], [ -1.7152696, 53.7961972 ], [ -1.7151476, 53.7960568 ], [ -1.715457, 53.795963 ], [ -1.7159647, 53.7965473 ] ] ] ] } },
{ "type": "Feature", "properties": { "osm_id": 410855453, "centroid": { "latitude": 53.629204, "longitude": -1.793190 }, "area": 733, "type": "college" }, "geometry": { "type": "MultiPolygon", "coordinates": [ [ [ [ -1.7934189, 53.629282 ], [ -1.7932741, 53.6293552 ], [ -1.7931053, 53.6292329 ], [ -1.7930114, 53.6291648 ], [ -1.7929361, 53.6291102 ], [ -1.7931507, 53.6290657 ], [ -1.7934189, 53.629282 ] ] ] ] } },
{ "type": "Feature", "properties": { "osm_id": 410855456, "centroid": { "latitude": 53.629397, "longitude": -1.793094 }, "area": 799, "type": "college" }, "geometry": { "type": "MultiPolygon", "coordinates": [ [ [ [ -1.7933224, 53.6294411 ], [ -1.793081, 53.6295492 ], [ -1.7930595, 53.6295015 ], [ -1.7928556, 53.6293488 ], [ -1.7931024, 53.6292629 ], [ -1.7933224, 53.6294411 ] ] ] ] } },
{ "type": "Feature", "properties": { "osm_id": 410855465, "centroid": { "latitude": 53.629405, "longitude": -1.792834 }, "area": 1353, "type": "college" }, "geometry": { "type": "MultiPolygon", "coordinates": [ [ [ [ -1.7930595, 53.6295015 ], [ -1.79292, 53.6295778 ], [ -1.7928771, 53.6295556 ], [ -1.7927108, 53.6295969 ], [ -1.7925767, 53.6294156 ], [ -1.7926786, 53.6293965 ], [ -1.792625, 53.629352 ], [ -1.7930114, 53.6291648 ], [ -1.7931053, 53.6292329 ], [ -1.7928556, 53.6293488 ], [ -1.7930595, 53.6295015 ] ] ] ] } },
{ "type": "Feature", "properties": { "osm_id": 448484749, "centroid": { "latitude": 53.788189, "longitude": -1.533873 }, "area": 4583, "name": "UTC Leeds", "amenity": "college", "type": "college", "other_tags": "\"addr:city\"=>\"Leeds\",\"addr:postcode\"=>\"LS10 1LA\",\"addr:street\"=>\"Victoria Street\"" }, "geometry": { "type": "MultiPolygon", "coordinates": [ [ [ [ -1.5332896, 53.7882107 ], [ -1.5341429, 53.7878689 ], [ -1.5343917, 53.7880782 ], [ -1.5343038, 53.7881138 ], [ -1.5343825, 53.7882969 ], [ -1.533435, 53.7884553 ], [ -1.53336, 53.788383 ], [ -1.5333993, 53.7883693 ], [ -1.5333045, 53.7882846 ], [ -1.5333531, 53.7882654 ], [ -1.5332896, 53.7882107 ] ] ] ] } }
]
}
