{
"type": "FeatureCollection",
"crs": { "type": "name", "properties": { "name": "urn:ogc:def:crs:OGC:1.3:CRS84" } },
"features": [
{ "type": "Feature", "properties": { "osm_id": 97085959, "centroid": { "latitude": 53.677493, "longitude": -1.506748 }, "area": 4886, "name": "Mecca", "type": "bingo", "building": "yes", "other_tags": "\"addr:city\"=>\"Wakefield\",\"addr:postcode\"=>\"WF2 9SH\",\"addr:street\"=>\"Colinsway\",\"fhrs:id\"=>\"283791\"" }, "geometry": { "type": "MultiPolygon", "coordinates": [ [ [ [ -1.5072592, 53.6773331 ], [ -1.5070359, 53.6777894 ], [ -1.5062371, 53.6776523 ], [ -1.5063943, 53.6773309 ], [ -1.5064603, 53.6771959 ], [ -1.5072592, 53.6773331 ] ] ] ] } }
]
}
