{
"type": "FeatureCollection",
"crs": { "type": "name", "properties": { "name": "urn:ogc:def:crs:OGC:1.3:CRS84" } },
"features": [
{ "type": "Feature", "properties": { "osm_id": 224621155, "centroid": { "latitude": 53.849517, "longitude": -1.828196 }, "area": 312, "type": "childcare" }, "geometry": { "type": "MultiPolygon", "coordinates": [ [ [ [ -1.8281374, 53.8494909 ], [ -1.8280854, 53.8493905 ], [ -1.8281776, 53.8493752 ], [ -1.8282242, 53.8494762 ], [ -1.8283055, 53.8496393 ], [ -1.8282172, 53.8496543 ], [ -1.8281374, 53.8494909 ] ] ] ] } },
{ "type": "Feature", "properties": { "osm_id": 297611777, "centroid": { "latitude": 53.696780, "longitude": -1.580936 }, "area": 10203, "name": "Gawthorpe Nurseries", "type": "childcare" }, "geometry": { "type": "MultiPolygon", "coordinates": [ [ [ [ -1.5820777, 53.6968774 ], [ -1.5812326, 53.6971787 ], [ -1.5805495, 53.6973443 ], [ -1.5804755, 53.6961477 ], [ -1.5809931, 53.6961331 ], [ -1.5810794, 53.696819 ], [ -1.5820777, 53.6968774 ] ] ] ] } },
{ "type": "Feature", "properties": { "osm_id": 300510650, "centroid": { "latitude": 53.834856, "longitude": -1.602672 }, "area": 450, "type": "childcare", "building": "yes" }, "geometry": { "type": "MultiPolygon", "coordinates": [ [ [ [ -1.6025149, 53.8348966 ], [ -1.6027366, 53.8349371 ], [ -1.6027841, 53.8349458 ], [ -1.6028195, 53.8348785 ], [ -1.6027966, 53.8348743 ], [ -1.6028262, 53.8348179 ], [ -1.6025585, 53.8347689 ], [ -1.6025285, 53.834826 ], [ -1.60255, 53.8348299 ], [ -1.6025149, 53.8348966 ] ] ] ] } },
{ "type": "Feature", "properties": { "osm_id": 389171081, "centroid": { "latitude": 53.836440, "longitude": -1.625708 }, "area": 611, "name": "Kinder Haven Day Nursery", "type": "childcare", "building": "yes", "other_tags": "\"addr:city\"=>\"Horsforth\",\"addr:postcode\"=>\"LS18 4HH\",\"addr:street\"=>\"Wood Lane\",\"old_name\"=>\"The Ringway\",\"phone\"=>\"+44 113 2582110\"" }, "geometry": { "type": "MultiPolygon", "coordinates": [ [ [ [ -1.6258717, 53.8363718 ], [ -1.6257888, 53.8363239 ], [ -1.6257592, 53.8363418 ], [ -1.6257189, 53.8363185 ], [ -1.6255235, 53.8364362 ], [ -1.6255869, 53.8364728 ], [ -1.6255508, 53.8364946 ], [ -1.6256685, 53.8365627 ], [ -1.6257839, 53.8364932 ], [ -1.6257961, 53.8365002 ], [ -1.625864, 53.8364593 ], [ -1.6258415, 53.8364462 ], [ -1.625864, 53.8364327 ], [ -1.6258624, 53.8364127 ], [ -1.6258325, 53.8363954 ], [ -1.6258717, 53.8363718 ] ] ] ] } },
{ "type": "Feature", "properties": { "osm_id": 390266430, "centroid": { "latitude": 53.834389, "longitude": -1.620288 }, "area": 633, "name": "Woodside Methodist Playgroup", "type": "childcare", "building": "yes", "other_tags": "\"addr:city\"=>\"Horsforth\",\"addr:postcode\"=>\"LS18 4HP\",\"addr:street\"=>\"Outwood Lane\"" }, "geometry": { "type": "MultiPolygon", "coordinates": [ [ [ [ -1.6203465, 53.8344994 ], [ -1.6205246, 53.8344153 ], [ -1.6203247, 53.8342679 ], [ -1.6200094, 53.8344168 ], [ -1.6200821, 53.8344703 ], [ -1.6202873, 53.8343734 ], [ -1.620335, 53.8344086 ], [ -1.620267, 53.8344408 ], [ -1.6203465, 53.8344994 ] ] ] ] } },
{ "type": "Feature", "properties": { "osm_id": 455759991, "centroid": { "latitude": 53.833915, "longitude": -1.539950 }, "area": 360, "name": "CandyStripe Creche", "type": "childcare", "building": "yes", "other_tags": "\"addr:city\"=>\"Leeds\",\"addr:housenumber\"=>\"201a\",\"addr:postcode\"=>\"LS7 3PT\",\"addr:street\"=>\"Harrogate Road\",\"phone\"=>\"+44-113-2689443\",\"website\"=>\"http:\/\/www.candystripeinc.co.uk\/\"" }, "geometry": { "type": "MultiPolygon", "coordinates": [ [ [ [ -1.5400896, 53.8339584 ], [ -1.5398203, 53.8339677 ], [ -1.5398095, 53.83386 ], [ -1.5400789, 53.8338507 ], [ -1.5400896, 53.8339584 ] ] ] ] } }
]
}
