{
"type": "FeatureCollection",
"crs": { "type": "name", "properties": { "name": "urn:ogc:def:crs:OGC:1.3:CRS84" } },
"features": [
{ "type": "Feature", "properties": { "osm_id": 7768721, "centroid": { "latitude": 53.705433, "longitude": -1.503226 }, "area": 82, "name": "Newton Hill Cricket Club", "type": "pavilion", "other_tags": "\"addr:city\"=>\"Wakefield\",\"addr:postcode\"=>\"WF1 2JB\",\"addr:street\"=>\"Leeds Road\",\"fhrs:id\"=>\"313313\"" }, "geometry": { "type": "MultiPolygon", "coordinates": [ [ [ [ -1.5033098, 53.7054537 ], [ -1.5032655, 53.7054875 ], [ -1.503143, 53.7054312 ], [ -1.5031873, 53.7053974 ], [ -1.5033098, 53.7054537 ] ] ] ] } },
{ "type": "Feature", "properties": { "osm_id": 34999784, "centroid": { "latitude": 53.835704, "longitude": -1.647818 }, "area": 435, "type": "pavilion" }, "geometry": { "type": "MultiPolygon", "coordinates": [ [ [ [ -1.6478268, 53.8358241 ], [ -1.6476603, 53.8356421 ], [ -1.6478102, 53.8355944 ], [ -1.6479766, 53.8357763 ], [ -1.6478268, 53.8358241 ] ] ] ] } },
{ "type": "Feature", "properties": { "osm_id": 85763227, "centroid": { "latitude": 53.689151, "longitude": -1.499843 }, "area": 59, "type": "pavilion" }, "geometry": { "type": "MultiPolygon", "coordinates": [ [ [ [ -1.499906, 53.6891428 ], [ -1.4997975, 53.689161 ], [ -1.499778, 53.6891202 ], [ -1.4998865, 53.6891021 ], [ -1.499906, 53.6891428 ] ] ] ] } },
{ "type": "Feature", "properties": { "osm_id": 146973279, "centroid": { "latitude": 53.843501, "longitude": -1.862785 }, "area": 185, "type": "pavilion" }, "geometry": { "type": "MultiPolygon", "coordinates": [ [ [ [ -1.8629151, 53.8434833 ], [ -1.8628571, 53.8434326 ], [ -1.8626538, 53.8435135 ], [ -1.8627118, 53.8435642 ], [ -1.8629151, 53.8434833 ] ] ] ] } },
{ "type": "Feature", "properties": { "osm_id": 146973281, "centroid": { "latitude": 53.841845, "longitude": -1.864632 }, "area": 353, "type": "pavilion" }, "geometry": { "type": "MultiPolygon", "coordinates": [ [ [ [ -1.8645802, 53.8417563 ], [ -1.8644734, 53.8418502 ], [ -1.8646832, 53.8419333 ], [ -1.86479, 53.8418394 ], [ -1.8645802, 53.8417563 ] ] ] ] } },
{ "type": "Feature", "properties": { "osm_id": 199073927, "centroid": { "latitude": 53.792786, "longitude": -1.439300 }, "area": 529, "type": "pavilion" }, "geometry": { "type": "MultiPolygon", "coordinates": [ [ [ [ -1.4395034, 53.7928296 ], [ -1.4393722, 53.7929081 ], [ -1.4390961, 53.7927471 ], [ -1.4392273, 53.7926686 ], [ -1.4395034, 53.7928296 ] ] ] ] } },
{ "type": "Feature", "properties": { "osm_id": 199699005, "centroid": { "latitude": 53.637656, "longitude": -1.748262 }, "area": 546, "type": "pavilion" }, "geometry": { "type": "MultiPolygon", "coordinates": [ [ [ [ -1.7480413, 53.6375793 ], [ -1.748221, 53.6376652 ], [ -1.7482791, 53.6377109 ], [ -1.7483354, 53.6377872 ], [ -1.7483891, 53.6378286 ], [ -1.7484731, 53.6378004 ], [ -1.7484168, 53.6377352 ], [ -1.7483444, 53.6376588 ], [ -1.748331, 53.6376048 ], [ -1.7482076, 53.6375411 ], [ -1.7481933, 53.6375519 ], [ -1.748111, 53.6375125 ], [ -1.7480404, 53.6375535 ], [ -1.7480413, 53.6375793 ] ] ] ] } },
{ "type": "Feature", "properties": { "osm_id": 388487805, "centroid": { "latitude": 53.677164, "longitude": -1.520487 }, "area": 335, "name": "St Michaels Cricket Club", "type": "pavilion", "other_tags": "\"addr:city\"=>\"Wakefield\",\"addr:postcode\"=>\"WF2 9BL\",\"addr:street\"=>\"Dewsbury Road\",\"fhrs:id\"=>\"313248\"" }, "geometry": { "type": "MultiPolygon", "coordinates": [ [ [ [ -1.5203714, 53.6770835 ], [ -1.520664, 53.6771693 ], [ -1.5206019, 53.6772436 ], [ -1.5203093, 53.6771578 ], [ -1.5203714, 53.6770835 ] ] ] ] } },
{ "type": "Feature", "properties": { "osm_id": 435320179, "centroid": { "latitude": 53.662713, "longitude": -1.484276 }, "area": 283, "name": "Sandal Cricket Club", "type": "pavilion", "other_tags": "\"addr:city\"=>\"Wakefield\",\"addr:postcode\"=>\"WF2 6EE\",\"addr:street\"=>\"Barnsley Road\",\"fhrs:id\"=>\"796311\"" }, "geometry": { "type": "MultiPolygon", "coordinates": [ [ [ [ -1.4841403, 53.6627496 ], [ -1.484166, 53.6626594 ], [ -1.4844123, 53.662684 ], [ -1.4843867, 53.6627742 ], [ -1.4841403, 53.6627496 ] ] ] ] } },
{ "type": "Feature", "properties": { "osm_id": 436858800, "centroid": { "latitude": 53.641846, "longitude": -1.499043 }, "area": 247, "type": "pavilion" }, "geometry": { "type": "MultiPolygon", "coordinates": [ [ [ [ -1.4988534, 53.6417996 ], [ -1.498907, 53.6417654 ], [ -1.4990304, 53.6418219 ], [ -1.4992262, 53.6418783 ], [ -1.4991833, 53.64193 ], [ -1.4989781, 53.6418624 ], [ -1.4988534, 53.6417996 ] ] ] ] } }
]
}
