{
"type": "FeatureCollection",
"crs": { "type": "name", "properties": { "name": "urn:ogc:def:crs:OGC:1.3:CRS84" } },
"features": [
{ "type": "Feature", "properties": { "osm_id": 433168739, "centroid": { "latitude": 53.704274, "longitude": -1.505711 }, "area": 1099, "name": "Hedley Park Play Area", "type": "bench", "barrier": "fence", "leisure": "playground", "other_tags": "\"amenity_1\"=>\"waste_basket\",\"leisure_1\"=>\"picnic_table\"" }, "geometry": { "type": "MultiPolygon", "coordinates": [ [ [ [ -1.5059028, 53.7043601 ], [ -1.5059924, 53.7043423 ], [ -1.505879, 53.7041422 ], [ -1.5053953, 53.7042383 ], [ -1.5054669, 53.7043647 ], [ -1.505622, 53.7043338 ], [ -1.5057, 53.7043714 ], [ -1.5058101, 53.7043489 ], [ -1.5058258, 53.7043758 ], [ -1.5059028, 53.7043601 ] ] ] ] } }
]
}
