{
"type": "FeatureCollection",
"crs": { "type": "name", "properties": { "name": "urn:ogc:def:crs:OGC:1.3:CRS84" } },
"features": [
{ "type": "Feature", "properties": { "osm_id": 226950678, "centroid": { "latitude": 53.881607, "longitude": -1.616769 }, "area": 730, "name": "Bramhope Medical Centre", "type": "medical_centre", "other_tags": "\"building:levels\"=>\"2\"" }, "geometry": { "type": "MultiPolygon", "coordinates": [ [ [ [ -1.6168491, 53.8817372 ], [ -1.6165622, 53.8816566 ], [ -1.6166936, 53.8814859 ], [ -1.6169725, 53.8815602 ], [ -1.6168491, 53.8817372 ] ] ] ] } }
]
}
