{
"type": "FeatureCollection",
"crs": { "type": "name", "properties": { "name": "urn:ogc:def:crs:OGC:1.3:CRS84" } },
"features": [
{ "type": "Feature", "properties": { "osm_id": 24321862, "centroid": { "latitude": 53.713939, "longitude": -1.629674 }, "area": 14367, "name": "Batley Tesco Extra", "type": "supermarket", "shop": "supermarket", "other_tags": "\"brand\"=>\"Tesco\",\"floors\"=>\"2\"" }, "geometry": { "type": "MultiPolygon", "coordinates": [ [ [ [ -1.6295848, 53.7145242 ], [ -1.6300489, 53.7141909 ], [ -1.6301132, 53.7142223 ], [ -1.6301787, 53.7142542 ], [ -1.6306318, 53.7139289 ], [ -1.6306883, 53.7138883 ], [ -1.6299159, 53.7135116 ], [ -1.6298706, 53.7135441 ], [ -1.6294317, 53.71333 ], [ -1.6291349, 53.713543 ], [ -1.629293, 53.7136201 ], [ -1.6290628, 53.7137854 ], [ -1.6291522, 53.713829 ], [ -1.6287507, 53.7141173 ], [ -1.6295848, 53.7145242 ] ] ] ] } },
{ "type": "Feature", "properties": { "osm_id": 80509388, "centroid": { "latitude": 53.806556, "longitude": -1.476695 }, "area": 16243, "name": "Asda", "type": "supermarket", "shop": "supermarket", "other_tags": "\"addr:postcode\"=>\"LS14 6UF\",\"opening_hours\"=>\"Mo 07:00-24:00; Tu-Fr 00:00-24:00; Sa 00:00-22:00; Su 10:00-16:00\"" }, "geometry": { "type": "MultiPolygon", "coordinates": [ [ [ [ -1.4777636, 53.8066702 ], [ -1.4775861, 53.8065361 ], [ -1.4774678, 53.8065907 ], [ -1.4773792, 53.8065238 ], [ -1.4774528, 53.8064899 ], [ -1.4774627, 53.8064853 ], [ -1.4774724, 53.8064809 ], [ -1.4775894, 53.8064274 ], [ -1.4775381, 53.8063883 ], [ -1.4769936, 53.8059768 ], [ -1.4769411, 53.806001 ], [ -1.4768842, 53.8060272 ], [ -1.4768637, 53.8060117 ], [ -1.4768326, 53.8059882 ], [ -1.4766728, 53.8060619 ], [ -1.4766483, 53.8060733 ], [ -1.4756449, 53.8065385 ], [ -1.4757746, 53.8066338 ], [ -1.4757189, 53.8066593 ], [ -1.4763404, 53.8071287 ], [ -1.4768981, 53.8068711 ], [ -1.4770125, 53.8069575 ], [ -1.4773428, 53.806805 ], [ -1.4773916, 53.8068419 ], [ -1.4777636, 53.8066702 ] ] ] ] } },
{ "type": "Feature", "properties": { "osm_id": 80511193, "centroid": { "latitude": 53.821875, "longitude": -1.460609 }, "area": 19970, "type": "supermarket", "other_tags": "\"operator\"=>\"Tesco\"" }, "geometry": { "type": "MultiPolygon", "coordinates": [ [ [ [ -1.4601634, 53.8231617 ], [ -1.4606235, 53.8227971 ], [ -1.4605699, 53.8227729 ], [ -1.4608724, 53.8225441 ], [ -1.4609825, 53.8222858 ], [ -1.4608673, 53.8221353 ], [ -1.4610604, 53.822072 ], [ -1.4613275, 53.8220046 ], [ -1.4615537, 53.8220492 ], [ -1.4615905, 53.8219882 ], [ -1.460774, 53.8210001 ], [ -1.4597363, 53.8212997 ], [ -1.4606107, 53.8223766 ], [ -1.4605959, 53.8224363 ], [ -1.4598422, 53.8230214 ], [ -1.4601634, 53.8231617 ] ] ] ] } },
{ "type": "Feature", "properties": { "osm_id": 83600880, "centroid": { "latitude": 53.795512, "longitude": -1.471554 }, "area": 2900, "name": "Lidl", "type": "supermarket", "shop": "supermarket", "other_tags": "\"wheelchair\"=>\"limited\"" }, "geometry": { "type": "MultiPolygon", "coordinates": [ [ [ [ -1.4710755, 53.7955647 ], [ -1.4712192, 53.7953079 ], [ -1.4720353, 53.7954538 ], [ -1.4718716, 53.7957212 ], [ -1.4710755, 53.7955647 ] ] ] ] } },
{ "type": "Feature", "properties": { "osm_id": 85311799, "centroid": { "latitude": 53.828472, "longitude": -1.567709 }, "area": 7160, "name": "Waitrose", "type": "supermarket", "shop": "supermarket", "other_tags": "\"layer\"=>\"1\",\"level\"=>\"1\"" }, "geometry": { "type": "MultiPolygon", "coordinates": [ [ [ [ -1.568404, 53.828518 ], [ -1.56835, 53.8285426 ], [ -1.5681591, 53.8286296 ], [ -1.5679688, 53.8287163 ], [ -1.5677867, 53.8287992 ], [ -1.5675995, 53.8288786 ], [ -1.5675405, 53.8288329 ], [ -1.5671327, 53.8285167 ], [ -1.5670981, 53.828491 ], [ -1.5670055, 53.8284223 ], [ -1.5670668, 53.8283958 ], [ -1.5671571, 53.8283569 ], [ -1.5671939, 53.828341 ], [ -1.5673965, 53.8282536 ], [ -1.567568, 53.8281797 ], [ -1.5677701, 53.8280925 ], [ -1.5678284, 53.8280673 ], [ -1.568404, 53.828518 ] ] ] ] } },
{ "type": "Feature", "properties": { "osm_id": 112048567, "centroid": { "latitude": 53.691541, "longitude": -1.317546 }, "area": 2684, "name": "Asda", "type": "supermarket", "shop": "supermarket", "other_tags": "\"addr:postcode\"=>\"WF8 1NL\",\"addr:street\"=>\"Halfpenny Lane\",\"fhrs:id\"=>\"313276\"" }, "geometry": { "type": "MultiPolygon", "coordinates": [ [ [ [ -1.3175549, 53.69178 ], [ -1.3171905, 53.6915619 ], [ -1.3172628, 53.6915195 ], [ -1.3171615, 53.6914589 ], [ -1.3174693, 53.6912785 ], [ -1.317941, 53.6915609 ], [ -1.3178434, 53.6916181 ], [ -1.3179072, 53.6916563 ], [ -1.3177211, 53.6917652 ], [ -1.3176513, 53.6917235 ], [ -1.3175549, 53.69178 ] ] ] ] } },
{ "type": "Feature", "properties": { "osm_id": 146905010, "centroid": { "latitude": 53.826391, "longitude": -1.507284 }, "area": 2588, "name": "The co-operative food", "type": "supermarket", "shop": "supermarket" }, "geometry": { "type": "MultiPolygon", "coordinates": [ [ [ [ -1.5074875, 53.8264844 ], [ -1.5073739, 53.8266117 ], [ -1.5069296, 53.8264736 ], [ -1.5069524, 53.826448 ], [ -1.5068027, 53.8263998 ], [ -1.5069486, 53.8262419 ], [ -1.5070945, 53.8262889 ], [ -1.5071101, 53.8262714 ], [ -1.5073092, 53.8263333 ], [ -1.507408, 53.8262167 ], [ -1.5073961, 53.8262132 ], [ -1.5074497, 53.82615 ], [ -1.5075663, 53.8261844 ], [ -1.5075163, 53.8262434 ], [ -1.5077265, 53.8263102 ], [ -1.5075663, 53.8265064 ], [ -1.5074875, 53.8264844 ] ] ] ] } },
{ "type": "Feature", "properties": { "osm_id": 156402674, "centroid": { "latitude": 53.693675, "longitude": -1.310726 }, "area": 9326, "name": "Morrisons", "type": "supermarket", "shop": "supermarket" }, "geometry": { "type": "MultiPolygon", "coordinates": [ [ [ [ -1.3099119, 53.6935024 ], [ -1.310384, 53.6940487 ], [ -1.3108239, 53.6939248 ], [ -1.3108775, 53.6939947 ], [ -1.3112101, 53.6938899 ], [ -1.3112799, 53.6939597 ], [ -1.3115534, 53.6938899 ], [ -1.3116178, 53.6937946 ], [ -1.3115159, 53.6936739 ], [ -1.3113281, 53.693658 ], [ -1.311194, 53.6934738 ], [ -1.3110009, 53.6935278 ], [ -1.3107649, 53.6932451 ], [ -1.3099119, 53.6935024 ] ] ] ] } },
{ "type": "Feature", "properties": { "osm_id": 161932207, "centroid": { "latitude": 53.872680, "longitude": -1.711906 }, "area": 9630, "name": "Morrisons", "type": "supermarket", "shop": "supermarket", "other_tags": "\"addr:city\"=>\"Guiseley\",\"addr:housenumber\"=>\"89\",\"addr:place\"=>\"Guiseley\",\"addr:postcode\"=>\"LS20 8AR\",\"addr:street\"=>\"Otley Road\",\"fhrs:id\"=>\"320484\",\"source:addr\"=>\"FHRS Open Data\"" }, "geometry": { "type": "MultiPolygon", "coordinates": [ [ [ [ -1.7120411, 53.873097 ], [ -1.7115503, 53.8728911 ], [ -1.7115156, 53.8729178 ], [ -1.7114886, 53.8729386 ], [ -1.7111157, 53.8727899 ], [ -1.7111034, 53.8727512 ], [ -1.7110916, 53.872714 ], [ -1.7113231, 53.8725252 ], [ -1.7114001, 53.8725455 ], [ -1.7117112, 53.872276 ], [ -1.7118078, 53.8723108 ], [ -1.7119016, 53.8722269 ], [ -1.7124622, 53.8724673 ], [ -1.7123764, 53.8725464 ], [ -1.7125883, 53.8726397 ], [ -1.7125454, 53.8726856 ], [ -1.7126285, 53.8727267 ], [ -1.7123388, 53.8730572 ], [ -1.712143, 53.8730034 ], [ -1.7120411, 53.873097 ] ] ] ] } },
{ "type": "Feature", "properties": { "osm_id": 190654644, "centroid": { "latitude": 53.716103, "longitude": -1.633709 }, "area": 2245, "name": "Aldi", "type": "supermarket", "shop": "supermarket" }, "geometry": { "type": "MultiPolygon", "coordinates": [ [ [ [ -1.6338903, 53.7158312 ], [ -1.6339699, 53.7158795 ], [ -1.6339089, 53.7159147 ], [ -1.634097, 53.7160287 ], [ -1.6337585, 53.7162244 ], [ -1.6338114, 53.7162564 ], [ -1.6336308, 53.7163608 ], [ -1.6333102, 53.7161665 ], [ -1.6338903, 53.7158312 ] ] ] ] } },
{ "type": "Feature", "properties": { "osm_id": 201621377, "centroid": { "latitude": 53.646727, "longitude": -1.775968 }, "area": 16447, "name": "Sainsbury's", "type": "supermarket", "shop": "supermarket", "other_tags": "\"wheelchair\"=>\"yes\"" }, "geometry": { "type": "MultiPolygon", "coordinates": [ [ [ [ -1.7769166, 53.6468969 ], [ -1.7766972, 53.6469213 ], [ -1.7767206, 53.6469954 ], [ -1.7764722, 53.647023 ], [ -1.7764924, 53.6470868 ], [ -1.7752565, 53.647224 ], [ -1.775041, 53.6465417 ], [ -1.7751523, 53.6465293 ], [ -1.7751336, 53.6464701 ], [ -1.7752277, 53.6464596 ], [ -1.775212, 53.6464098 ], [ -1.7762877, 53.6462903 ], [ -1.7762992, 53.6463266 ], [ -1.7763828, 53.6463173 ], [ -1.7763687, 53.6462728 ], [ -1.7767076, 53.6462352 ], [ -1.7769166, 53.6468969 ] ] ] ] } },
{ "type": "Feature", "properties": { "osm_id": 211762690, "centroid": { "latitude": 53.679279, "longitude": -1.525044 }, "area": 11714, "name": "Morrisons", "type": "supermarket", "shop": "supermarket", "other_tags": "\"addr:city\"=>\"Wakefield\",\"addr:housename\"=>\"Morrisons Wakefield - Dewsbury Road\",\"addr:postcode\"=>\"WF2 9BY\",\"addr:street\"=>\"Dewsbury Road\",\"fhrs:id\"=>\"283879\",\"opening_hours\"=>\"Mo-Sa 07:00-22:00; Su,PH 10:00-16:00\"" }, "geometry": { "type": "MultiPolygon", "coordinates": [ [ [ [ -1.525794, 53.6794197 ], [ -1.525383, 53.6795427 ], [ -1.5246803, 53.679762 ], [ -1.5244711, 53.6795174 ], [ -1.5244228, 53.6795269 ], [ -1.5241868, 53.67926 ], [ -1.5240419, 53.6792314 ], [ -1.524101, 53.6791075 ], [ -1.5242458, 53.6791234 ], [ -1.5245569, 53.6790249 ], [ -1.5246438, 53.6791159 ], [ -1.5253268, 53.6788863 ], [ -1.5253574, 53.6789243 ], [ -1.5255143, 53.6788711 ], [ -1.5255565, 53.6789194 ], [ -1.5257707, 53.6788482 ], [ -1.5259069, 53.6789952 ], [ -1.5257302, 53.6790565 ], [ -1.5258015, 53.6791329 ], [ -1.525762, 53.6791479 ], [ -1.5258889, 53.6792999 ], [ -1.5257991, 53.6793255 ], [ -1.5257237, 53.679346 ], [ -1.525794, 53.6794197 ] ] ] ] } },
{ "type": "Feature", "properties": { "osm_id": 212732485, "centroid": { "latitude": 53.651071, "longitude": -1.809003 }, "area": 1291, "name": "The Co-operative food", "type": "supermarket" }, "geometry": { "type": "MultiPolygon", "coordinates": [ [ [ [ -1.8091071, 53.6512201 ], [ -1.8087906, 53.6511676 ], [ -1.8087799, 53.6511962 ], [ -1.8086726, 53.6511771 ], [ -1.8086994, 53.6511151 ], [ -1.8087558, 53.6511263 ], [ -1.8088335, 53.6509514 ], [ -1.8091366, 53.6509927 ], [ -1.8091661, 53.6509323 ], [ -1.8093941, 53.6509609 ], [ -1.8093566, 53.6510213 ], [ -1.8092064, 53.651007 ], [ -1.8091071, 53.6512201 ] ] ] ] } },
{ "type": "Feature", "properties": { "osm_id": 219023214, "centroid": { "latitude": 53.759224, "longitude": -1.794011 }, "area": 6635, "name": "Tesco", "type": "supermarket", "shop": "supermarket", "other_tags": "\"addr:street\"=>\"Halifax Road\",\"addr:postcode\"=>\"BD6 2DW\"" }, "geometry": { "type": "MultiPolygon", "coordinates": [ [ [ [ -1.7945372, 53.7591068 ], [ -1.7944607, 53.7588904 ], [ -1.7935262, 53.7590058 ], [ -1.7936048, 53.759228 ], [ -1.7932987, 53.7592658 ], [ -1.7933471, 53.7594028 ], [ -1.7936743, 53.7593624 ], [ -1.7937415, 53.7595526 ], [ -1.7945434, 53.7594536 ], [ -1.7944257, 53.7591206 ], [ -1.7945372, 53.7591068 ] ] ] ] } },
{ "type": "Feature", "properties": { "osm_id": 231039853, "centroid": { "latitude": 53.594583, "longitude": -1.288115 }, "area": 587, "name": "Sainsbury's Local", "type": "supermarket", "shop": "supermarket" }, "geometry": { "type": "MultiPolygon", "coordinates": [ [ [ [ -1.2882701, 53.5945309 ], [ -1.2881896, 53.5946933 ], [ -1.2880448, 53.5946774 ], [ -1.2879858, 53.5946615 ], [ -1.2880072, 53.5945628 ], [ -1.2880072, 53.5944832 ], [ -1.2880609, 53.5944482 ], [ -1.2882701, 53.5945309 ] ] ] ] } },
{ "type": "Feature", "properties": { "osm_id": 263362185, "centroid": { "latitude": 53.814571, "longitude": -1.456618 }, "area": 2504, "name": "Aldi", "type": "supermarket", "shop": "supermarket" }, "geometry": { "type": "MultiPolygon", "coordinates": [ [ [ [ -1.4568794, 53.8148215 ], [ -1.4568821, 53.8146853 ], [ -1.4567882, 53.8146884 ], [ -1.4567936, 53.81431 ], [ -1.45641, 53.8143052 ], [ -1.4564132, 53.8147575 ], [ -1.4565039, 53.8147581 ], [ -1.456461, 53.8148215 ], [ -1.4568794, 53.8148215 ] ] ] ] } },
{ "type": "Feature", "properties": { "osm_id": 268697431, "centroid": { "latitude": 53.687612, "longitude": -1.836548 }, "area": 8436, "name": "Morrisons", "type": "supermarket", "shop": "supermarket", "other_tags": "\"wheelchair\"=>\"yes\"" }, "geometry": { "type": "MultiPolygon", "coordinates": [ [ [ [ -1.8372863, 53.6877376 ], [ -1.836627, 53.6871712 ], [ -1.8358009, 53.6874698 ], [ -1.8364929, 53.6880657 ], [ -1.8372863, 53.6877376 ] ] ] ] } },
{ "type": "Feature", "properties": { "osm_id": 279883483, "centroid": { "latitude": 53.748769, "longitude": -1.546290 }, "area": 3587, "name": "ALDI", "type": "supermarket", "shop": "supermarket", "other_tags": "\"addr:city\"=>\"Leeds\",\"addr:postcode\"=>\"LS10 3SA\",\"addr:street\"=>\"Middleton Park Road\",\"operator\"=>\"Aldi\"" }, "geometry": { "type": "MultiPolygon", "coordinates": [ [ [ [ -1.5467122, 53.748595 ], [ -1.545862, 53.7485998 ], [ -1.54587, 53.7489423 ], [ -1.5467176, 53.748936 ], [ -1.5467122, 53.748595 ] ] ] ] } },
{ "type": "Feature", "properties": { "osm_id": 283134968, "centroid": { "latitude": 53.757126, "longitude": -1.628266 }, "area": 723, "name": "The Co-operative Food", "type": "supermarket", "shop": "supermarket", "other_tags": "\"alt_name\"=>\"Co-op\"" }, "geometry": { "type": "MultiPolygon", "coordinates": [ [ [ [ -1.6282701, 53.7572734 ], [ -1.6284048, 53.7572311 ], [ -1.6284689, 53.757211 ], [ -1.628263, 53.7569816 ], [ -1.6280641, 53.757044 ], [ -1.6282701, 53.7572734 ] ] ] ] } },
{ "type": "Feature", "properties": { "osm_id": 319289943, "centroid": { "latitude": 53.766244, "longitude": -1.367659 }, "area": 4076, "name": "The Co-operative Food", "type": "supermarket", "shop": "supermarket" }, "geometry": { "type": "MultiPolygon", "coordinates": [ [ [ [ -1.3679914, 53.7660309 ], [ -1.3679217, 53.7662695 ], [ -1.3681058, 53.7662883 ], [ -1.3680437, 53.7665011 ], [ -1.3672372, 53.7664188 ], [ -1.3673691, 53.7659673 ], [ -1.3679914, 53.7660309 ] ] ] ] } }
]
}
