{
"type": "FeatureCollection",
"crs": { "type": "name", "properties": { "name": "urn:ogc:def:crs:OGC:1.3:CRS84" } },
"features": [
{ "type": "Feature", "properties": { "osm_id": 199050391, "centroid": { "latitude": 53.796176, "longitude": -1.536087 }, "area": 2330, "name": "Mecca Bingo", "building": "yes", "type": "bingo", "other_tags": "\"levels\"=>\"3\"" }, "geometry": { "type": "MultiPolygon", "coordinates": [ [ [ [ -1.5363233, 53.7959474 ], [ -1.5363006, 53.7962737 ], [ -1.5362924, 53.7963901 ], [ -1.5359733, 53.7963896 ], [ -1.5359354, 53.7963818 ], [ -1.5358931, 53.7963672 ], [ -1.535865, 53.7963548 ], [ -1.5358499, 53.7963338 ], [ -1.5358439, 53.7963142 ], [ -1.5358436, 53.7962885 ], [ -1.5358647, 53.7959917 ], [ -1.5363233, 53.7959474 ] ] ] ] } },
{ "type": "Feature", "properties": { "osm_id": 238749856, "centroid": { "latitude": 53.679760, "longitude": -1.499437 }, "area": 2735, "name": "Gala Social Club", "building": "yes", "type": "bingo", "other_tags": "\"addr:city\"=>\"Wakefield\",\"addr:postcode\"=>\"WF1 1JN\",\"addr:street\"=>\"Denby Dale Road\",\"fhrs:id\"=>\"283486\"" }, "geometry": { "type": "MultiPolygon", "coordinates": [ [ [ [ -1.4997597, 53.6795845 ], [ -1.4996452, 53.6799685 ], [ -1.4995375, 53.6799573 ], [ -1.4995232, 53.6800055 ], [ -1.4992769, 53.6799798 ], [ -1.4992891, 53.679939 ], [ -1.4991544, 53.6799249 ], [ -1.4991747, 53.679857 ], [ -1.4991313, 53.6798524 ], [ -1.4992278, 53.6795289 ], [ -1.4997597, 53.6795845 ] ] ] ] } }
]
}
