{
"type": "FeatureCollection",
"crs": { "type": "name", "properties": { "name": "urn:ogc:def:crs:OGC:1.3:CRS84" } },
"features": [
{ "type": "Feature", "properties": { "osm_id": 4781512, "centroid": { "latitude": 53.893125, "longitude": -1.597528 }, "area": 169442, "type": "field" }, "geometry": { "type": "MultiPolygon", "coordinates": [ [ [ [ -1.5945197, 53.8937148 ], [ -1.5941388, 53.8930415 ], [ -1.5941549, 53.8927886 ], [ -1.5945465, 53.8920236 ], [ -1.5946485, 53.8918307 ], [ -1.5949167, 53.8917485 ], [ -1.5947182, 53.891268 ], [ -1.595762, 53.8910364 ], [ -1.595893, 53.8910278 ], [ -1.5962197, 53.8918296 ], [ -1.5962685, 53.891856 ], [ -1.5963704, 53.8918371 ], [ -1.5988898, 53.8910614 ], [ -1.5993976, 53.8927134 ], [ -1.5981035, 53.8932546 ], [ -1.5990262, 53.8937604 ], [ -1.5999704, 53.8937351 ], [ -1.600378, 53.8945444 ], [ -1.6005497, 53.8949237 ], [ -1.601062, 53.8959439 ], [ -1.5992404, 53.8958138 ], [ -1.5991277, 53.8957822 ], [ -1.5977169, 53.8930763 ], [ -1.5967996, 53.8933418 ], [ -1.5966172, 53.8933766 ], [ -1.5961612, 53.8935157 ], [ -1.5945197, 53.8937148 ] ] ] ] } },
{ "type": "Feature", "properties": { "osm_id": 4781513, "centroid": { "latitude": 53.894805, "longitude": -1.597031 }, "area": 112118, "type": "field" }, "geometry": { "type": "MultiPolygon", "coordinates": [ [ [ [ -1.5945197, 53.8937148 ], [ -1.5961612, 53.8935157 ], [ -1.5966172, 53.8933766 ], [ -1.5967996, 53.8933418 ], [ -1.5977169, 53.8930763 ], [ -1.5991277, 53.8957822 ], [ -1.5990048, 53.8958214 ], [ -1.597674, 53.8966894 ], [ -1.5964616, 53.8960698 ], [ -1.5955491, 53.8950477 ], [ -1.5945787, 53.8938381 ], [ -1.5945197, 53.8937148 ] ] ] ] } },
{ "type": "Feature", "properties": { "osm_id": 148588771, "centroid": { "latitude": 53.674500, "longitude": -1.923915 }, "area": 18235, "barrier": "wall", "type": "field" }, "geometry": { "type": "MultiPolygon", "coordinates": [ [ [ [ -1.9249464, 53.6741983 ], [ -1.9247033, 53.6749835 ], [ -1.92284, 53.6747925 ], [ -1.9231761, 53.674014 ], [ -1.9249464, 53.6741983 ] ] ] ] } },
{ "type": "Feature", "properties": { "osm_id": 148588773, "centroid": { "latitude": 53.675258, "longitude": -1.923696 }, "area": 17490, "barrier": "wall", "type": "field" }, "geometry": { "type": "MultiPolygon", "coordinates": [ [ [ [ -1.9244475, 53.6758283 ], [ -1.9225884, 53.6753807 ], [ -1.92284, 53.6747925 ], [ -1.9247033, 53.6749835 ], [ -1.9244475, 53.6758283 ] ] ] ] } },
{ "type": "Feature", "properties": { "osm_id": 148588782, "centroid": { "latitude": 53.672442, "longitude": -1.923921 }, "area": 71594, "barrier": "wall", "type": "field" }, "geometry": { "type": "MultiPolygon", "coordinates": [ [ [ [ -1.9252521, 53.6732545 ], [ -1.9235123, 53.6732737 ], [ -1.9229562, 53.6732799 ], [ -1.9219637, 53.6736962 ], [ -1.9215507, 53.67321 ], [ -1.9234175, 53.671764 ], [ -1.9237823, 53.6714748 ], [ -1.9240129, 53.6712429 ], [ -1.924181, 53.6710704 ], [ -1.9242807, 53.6709617 ], [ -1.9244405, 53.6710112 ], [ -1.9247425, 53.6711825 ], [ -1.9255633, 53.6716433 ], [ -1.9256974, 53.6717863 ], [ -1.9252521, 53.6732545 ] ] ] ] } },
{ "type": "Feature", "properties": { "osm_id": 148588783, "centroid": { "latitude": 53.674569, "longitude": -1.921987 }, "area": 29317, "barrier": "wall", "type": "field" }, "geometry": { "type": "MultiPolygon", "coordinates": [ [ [ [ -1.9225884, 53.6753807 ], [ -1.9219091, 53.675208 ], [ -1.9210719, 53.6749951 ], [ -1.9205368, 53.6748591 ], [ -1.9211911, 53.6743258 ], [ -1.9219637, 53.6736962 ], [ -1.923101, 53.6741824 ], [ -1.92284, 53.6747925 ], [ -1.9225884, 53.6753807 ] ] ] ] } },
{ "type": "Feature", "properties": { "osm_id": 148588787, "centroid": { "latitude": 53.673671, "longitude": -1.922851 }, "area": 9012, "barrier": "wall", "type": "field" }, "geometry": { "type": "MultiPolygon", "coordinates": [ [ [ [ -1.9219637, 53.6736962 ], [ -1.9229562, 53.6732799 ], [ -1.9235123, 53.6732737 ], [ -1.9231761, 53.674014 ], [ -1.923101, 53.6741824 ], [ -1.9219637, 53.6736962 ] ] ] ] } },
{ "type": "Feature", "properties": { "osm_id": 148588793, "centroid": { "latitude": 53.673691, "longitude": -1.924255 }, "area": 18600, "barrier": "wall", "type": "field" }, "geometry": { "type": "MultiPolygon", "coordinates": [ [ [ [ -1.9249464, 53.6741983 ], [ -1.9231761, 53.674014 ], [ -1.9235123, 53.6732737 ], [ -1.9252521, 53.6732545 ], [ -1.9249464, 53.6741983 ] ] ] ] } },
{ "type": "Feature", "properties": { "osm_id": 150454412, "centroid": { "latitude": 53.600297, "longitude": -1.804492 }, "area": 50450, "type": "field" }, "geometry": { "type": "MultiPolygon", "coordinates": [ [ [ [ -1.8048319, 53.6016733 ], [ -1.8047729, 53.6016701 ], [ -1.8044524, 53.601284 ], [ -1.8037, 53.6003777 ], [ -1.8028153, 53.5993204 ], [ -1.8041881, 53.5989038 ], [ -1.8061722, 53.601277 ], [ -1.8048319, 53.6016733 ] ] ] ] } },
{ "type": "Feature", "properties": { "osm_id": 150454415, "centroid": { "latitude": 53.599314, "longitude": -1.807422 }, "area": 58062, "type": "field" }, "geometry": { "type": "MultiPolygon", "coordinates": [ [ [ [ -1.807498, 53.6006992 ], [ -1.8066027, 53.5996023 ], [ -1.8061415, 53.5990372 ], [ -1.8059456, 53.5987972 ], [ -1.8056741, 53.5984645 ], [ -1.8074221, 53.5979472 ], [ -1.8091341, 53.6001804 ], [ -1.807498, 53.6006992 ] ] ] ] } },
{ "type": "Feature", "properties": { "osm_id": 151079657, "centroid": { "latitude": 53.635053, "longitude": -1.900936 }, "area": 3922, "type": "field" }, "geometry": { "type": "MultiPolygon", "coordinates": [ [ [ [ -1.9012569, 53.6352019 ], [ -1.9006643, 53.6353453 ], [ -1.9006446, 53.6353501 ], [ -1.900463, 53.6350301 ], [ -1.9010644, 53.6347997 ], [ -1.9012555, 53.6347236 ], [ -1.9013107, 53.6347088 ], [ -1.9013268, 53.6347342 ], [ -1.9013052, 53.634852 ], [ -1.9012569, 53.6352019 ] ] ] ] } },
{ "type": "Feature", "properties": { "osm_id": 151080204, "centroid": { "latitude": 53.638513, "longitude": -1.900701 }, "area": 5657, "barrier": "wall", "type": "field" }, "geometry": { "type": "MultiPolygon", "coordinates": [ [ [ [ -1.9012623, 53.6386719 ], [ -1.9001328, 53.6388523 ], [ -1.9003879, 53.6383602 ], [ -1.9007473, 53.6381216 ], [ -1.9008921, 53.6381121 ], [ -1.9012623, 53.6386719 ] ] ] ] } }
]
}
