{
"type": "FeatureCollection",
"crs": { "type": "name", "properties": { "name": "urn:ogc:def:crs:OGC:1.3:CRS84" } },
"features": [
{ "type": "Feature", "properties": { "osm_id": 6256151, "centroid": { "latitude": 53.675857, "longitude": -1.507233 }, "area": 761, "name": "Clarence Court", "type": "social_facility", "building": "yes", "other_tags": "\"social_facility\"=>\"assisted_living\"" }, "geometry": { "type": "MultiPolygon", "coordinates": [ [ [ [ -1.5069113, 53.6757819 ], [ -1.5075762, 53.6758394 ], [ -1.5075538, 53.67593 ], [ -1.506889, 53.6758725 ], [ -1.5069113, 53.6757819 ] ] ], [ [ [ -1.506683, 53.67593 ], [ -1.506845, 53.6759445 ], [ -1.5068239, 53.6760269 ], [ -1.5070759, 53.6760495 ], [ -1.5070529, 53.6761393 ], [ -1.5066389, 53.6761021 ], [ -1.506683, 53.67593 ] ] ] ] } },
{ "type": "Feature", "properties": { "osm_id": 66430054, "centroid": { "latitude": 53.825621, "longitude": -1.693085 }, "area": 1580, "name": "St. Lukes", "type": "social_facility", "building": "yes", "other_tags": "\"addr:city\"=>\"Calverley\",\"addr:postcode\"=>\"LS28 5PL\",\"addr:street\"=>\"Upper Carr Lane\",\"official_name\"=>\"St. Luke's Nursing Home\",\"operator\"=>\"ElderCare\",\"social_facility\"=>\"nursing_home\",\"social_facility:for\"=>\"senior\",\"website\"=>\"http:\/\/www.eldercare.org.uk\/st_lukes_house.html\"" }, "geometry": { "type": "MultiPolygon", "coordinates": [ [ [ [ -1.6932632, 53.8256036 ], [ -1.6932026, 53.8254953 ], [ -1.6933694, 53.8254628 ], [ -1.6935022, 53.8256999 ], [ -1.6933163, 53.8257362 ], [ -1.6932903, 53.82569 ], [ -1.6928432, 53.8257772 ], [ -1.6926768, 53.8254802 ], [ -1.6928456, 53.8254472 ], [ -1.6929657, 53.8256616 ], [ -1.6932632, 53.8256036 ] ] ] ] } },
{ "type": "Feature", "properties": { "osm_id": 68466248, "centroid": { "latitude": 53.923232, "longitude": -1.825380 }, "area": 3056, "name": "Abbeyfield", "type": "social_facility", "building": "yes" }, "geometry": { "type": "MultiPolygon", "coordinates": [ [ [ [ -1.8257317, 53.9232345 ], [ -1.8257531, 53.9233798 ], [ -1.8255278, 53.9233925 ], [ -1.825554, 53.9235262 ], [ -1.8254224, 53.9235357 ], [ -1.8254139, 53.9235018 ], [ -1.8252225, 53.9235102 ], [ -1.8252242, 53.9235409 ], [ -1.825103, 53.9235463 ], [ -1.8251094, 53.9235027 ], [ -1.8250879, 53.9232156 ], [ -1.825163, 53.9232156 ], [ -1.8251523, 53.9231271 ], [ -1.825206, 53.9231145 ], [ -1.8251845, 53.9229249 ], [ -1.8256351, 53.9228997 ], [ -1.8256458, 53.9230639 ], [ -1.825442, 53.9230829 ], [ -1.825442, 53.9231461 ], [ -1.8253536, 53.9231509 ], [ -1.8253577, 53.9232165 ], [ -1.8253353, 53.9232424 ], [ -1.8252917, 53.9232654 ], [ -1.8252041, 53.9232713 ], [ -1.825206, 53.9233356 ], [ -1.825442, 53.923323 ], [ -1.825442, 53.9232471 ], [ -1.8257317, 53.9232345 ] ] ] ] } },
{ "type": "Feature", "properties": { "osm_id": 118326896, "centroid": { "latitude": 53.904605, "longitude": -1.699559 }, "area": 536, "name": "Westgate House", "type": "social_facility", "building": "yes", "other_tags": "\"operator\"=>\"Autism First\",\"social_facility\"=>\"outreach\",\"source:name\"=>\"survey\"" }, "geometry": { "type": "MultiPolygon", "coordinates": [ [ [ [ -1.6997096, 53.9047195 ], [ -1.6995594, 53.9047502 ], [ -1.6994076, 53.9044928 ], [ -1.6995577, 53.904462 ], [ -1.6997096, 53.9047195 ] ] ] ] } },
{ "type": "Feature", "properties": { "osm_id": 142431252, "centroid": { "latitude": 53.792377, "longitude": -1.575228 }, "area": 1943, "name": "Bremner House Care Home", "type": "social_facility", "building": "residential", "other_tags": "\"old_name\"=>\"Castleton Care Home\",\"social_facility\"=>\"group_home\",\"social_facility:for\"=>\"senior\"" }, "geometry": { "type": "MultiPolygon", "coordinates": [ [ [ [ -1.5756296, 53.7921482 ], [ -1.5752492, 53.7920726 ], [ -1.5751983, 53.7921621 ], [ -1.575237, 53.7921698 ], [ -1.5751611, 53.7923032 ], [ -1.5751056, 53.7922922 ], [ -1.5750426, 53.7924027 ], [ -1.5750768, 53.7924095 ], [ -1.5749898, 53.7925622 ], [ -1.5749554, 53.7925554 ], [ -1.5749007, 53.7926514 ], [ -1.5752046, 53.7927118 ], [ -1.5752618, 53.7926114 ], [ -1.5751634, 53.7925918 ], [ -1.5752399, 53.7924575 ], [ -1.575279, 53.7924653 ], [ -1.5753422, 53.7923543 ], [ -1.5753173, 53.7923494 ], [ -1.5753938, 53.7922151 ], [ -1.5755714, 53.7922504 ], [ -1.5756296, 53.7921482 ] ] ] ] } },
{ "type": "Feature", "properties": { "osm_id": 247578520, "centroid": { "latitude": 53.820504, "longitude": -1.569164 }, "area": 7727, "name": "Mount St Joseph's Nursing Home", "type": "social_facility", "building": "residential", "other_tags": "\"addr:postcode\"=>\"LS6 2DE\",\"addr:street\"=>\"Shire Oak Road\",\"alt_name\"=>\"Little Sisters of the poor\",\"social_facility\"=>\"nursing_home\"" }, "geometry": { "type": "MultiPolygon", "coordinates": [ [ [ [ -1.5692787, 53.8210299 ], [ -1.569426, 53.8208063 ], [ -1.5693267, 53.8207835 ], [ -1.5694507, 53.8205954 ], [ -1.5696625, 53.8206441 ], [ -1.5697842, 53.8204595 ], [ -1.5696088, 53.8204192 ], [ -1.5697169, 53.8202552 ], [ -1.5695513, 53.8202171 ], [ -1.5695046, 53.820207 ], [ -1.5694331, 53.8203221 ], [ -1.5690949, 53.8202489 ], [ -1.5691947, 53.8200882 ], [ -1.5690822, 53.8200638 ], [ -1.5691913, 53.8198881 ], [ -1.5690587, 53.8198594 ], [ -1.5690994, 53.8197938 ], [ -1.569001, 53.8197725 ], [ -1.5688603, 53.8199983 ], [ -1.5689652, 53.8200211 ], [ -1.568854, 53.8201994 ], [ -1.5689681, 53.8202243 ], [ -1.5688573, 53.8204017 ], [ -1.5686932, 53.8206512 ], [ -1.5688389, 53.8206847 ], [ -1.5686992, 53.8208969 ], [ -1.5692787, 53.8210299 ] ] ] ] } },
{ "type": "Feature", "properties": { "osm_id": 283665585, "centroid": { "latitude": 53.739406, "longitude": -1.591132 }, "area": 493, "type": "social_facility" }, "geometry": { "type": "MultiPolygon", "coordinates": [ [ [ [ -1.5913374, 53.7394406 ], [ -1.5909616, 53.7394864 ], [ -1.5909262, 53.7393847 ], [ -1.591302, 53.7393389 ], [ -1.5913374, 53.7394406 ] ] ] ] } },
{ "type": "Feature", "properties": { "osm_id": 297720284, "centroid": { "latitude": 53.713514, "longitude": -1.612836 }, "area": 7410, "name": "Whitfield Centre", "type": "social_facility", "other_tags": "\"social_facility:for\"=>\"disabled\"" }, "geometry": { "type": "MultiPolygon", "coordinates": [ [ [ [ -1.6131957, 53.7139746 ], [ -1.6138299, 53.7138495 ], [ -1.6123939, 53.7130653 ], [ -1.6123028, 53.7130156 ], [ -1.6118503, 53.7131285 ], [ -1.6117756, 53.7132172 ], [ -1.6116752, 53.7133363 ], [ -1.6120502, 53.7131461 ], [ -1.6125491, 53.713481 ], [ -1.6124192, 53.7135873 ], [ -1.6127647, 53.7137437 ], [ -1.6130087, 53.7137677 ], [ -1.6131957, 53.7139746 ] ] ] ] } },
{ "type": "Feature", "properties": { "osm_id": 297753583, "centroid": { "latitude": 53.669045, "longitude": -1.576482 }, "area": 7710, "name": "Ellis Court Sheltered Housing", "type": "social_facility", "other_tags": "\"social_facility\"=>\"group_home\",\"social_facility_for\"=>\"senior\"" }, "geometry": { "type": "MultiPolygon", "coordinates": [ [ [ [ -1.5771004, 53.6693008 ], [ -1.5767582, 53.6693253 ], [ -1.5757588, 53.6692838 ], [ -1.5761269, 53.6687273 ], [ -1.5767909, 53.668747 ], [ -1.5769637, 53.6687526 ], [ -1.5769681, 53.6687702 ], [ -1.5771004, 53.6693008 ] ] ] ] } },
{ "type": "Feature", "properties": { "osm_id": 300066819, "centroid": { "latitude": 53.704513, "longitude": -1.641002 }, "area": 21179, "name": "Al-Hikmah Centre", "type": "social_facility" }, "geometry": { "type": "MultiPolygon", "coordinates": [ [ [ [ -1.64182, 53.7050481 ], [ -1.6420922, 53.7042984 ], [ -1.6415085, 53.7043786 ], [ -1.6415085, 53.7039667 ], [ -1.6403924, 53.7038672 ], [ -1.640341, 53.704456 ], [ -1.6400107, 53.704438 ], [ -1.6399337, 53.7048641 ], [ -1.6406677, 53.7049751 ], [ -1.64182, 53.7050481 ] ] ] ] } },
{ "type": "Feature", "properties": { "osm_id": 300267512, "centroid": { "latitude": 53.650037, "longitude": -1.738939 }, "area": 17853, "type": "social_facility", "other_tags": "\"social_facility\"=>\"group_home\",\"social_facility:for\"=>\"senior\",\"social_facility_for\"=>\"senior\"" }, "geometry": { "type": "MultiPolygon", "coordinates": [ [ [ [ -1.739944, 53.6498602 ], [ -1.7388223, 53.6494487 ], [ -1.7378017, 53.6500379 ], [ -1.7382795, 53.650384 ], [ -1.7393482, 53.6505552 ], [ -1.7395855, 53.6505197 ], [ -1.7395881, 53.6504224 ], [ -1.7398053, 53.6501504 ], [ -1.739944, 53.6498602 ] ] ] ] } },
{ "type": "Feature", "properties": { "osm_id": 330244135, "centroid": { "latitude": 53.806024, "longitude": -1.428417 }, "area": 1186, "name": "Barnbow Social Club", "type": "social_facility", "building": "yes" }, "geometry": { "type": "MultiPolygon", "coordinates": [ [ [ [ -1.4285136, 53.8061918 ], [ -1.4287466, 53.8060311 ], [ -1.4286472, 53.8059809 ], [ -1.4285975, 53.8060152 ], [ -1.4282859, 53.8058577 ], [ -1.4281027, 53.8059841 ], [ -1.4285136, 53.8061918 ] ] ] ] } },
{ "type": "Feature", "properties": { "osm_id": 374492443, "centroid": { "latitude": 53.794037, "longitude": -1.666519 }, "area": 2931, "name": "Airedale Residential Home", "type": "social_facility", "other_tags": "\"operator\"=>\"Bupa\",\"social_facility\"=>\"group_home\"" }, "geometry": { "type": "MultiPolygon", "coordinates": [ [ [ [ -1.6668526, 53.7942423 ], [ -1.666554, 53.79372 ], [ -1.6661789, 53.7937926 ], [ -1.6664174, 53.7942406 ], [ -1.6665325, 53.7943835 ], [ -1.6668526, 53.7942423 ] ] ] ] } },
{ "type": "Feature", "properties": { "osm_id": 375282714, "centroid": { "latitude": 53.795438, "longitude": -1.661689 }, "area": 421, "name": "Pudsey Wellbeing Centre", "type": "social_facility", "building": "yes", "other_tags": "\"social_facility\"=>\"outreach\"" }, "geometry": { "type": "MultiPolygon", "coordinates": [ [ [ [ -1.6617966, 53.7953472 ], [ -1.6616172, 53.7953356 ], [ -1.6615822, 53.795523 ], [ -1.6617616, 53.7955346 ], [ -1.6617966, 53.7953472 ] ] ] ] } },
{ "type": "Feature", "properties": { "osm_id": 392532711, "centroid": { "latitude": 53.817012, "longitude": -1.532280 }, "area": 895, "name": "Frederick Hurdle Day Centre", "type": "social_facility", "building": "yes", "other_tags": "\"addr:city\"=>\"Leeds\",\"addr:postcode\"=>\"LS7 3EZ\",\"addr:street\"=>\"Reginald Terrace\",\"fhrs:id\"=>\"320096\",\"social_facility\"=>\"day_care\",\"source:addr\"=>\"FHRS Open Data\"" }, "geometry": { "type": "MultiPolygon", "coordinates": [ [ [ [ -1.5325065, 53.8171194 ], [ -1.5325466, 53.8169827 ], [ -1.5324256, 53.8169703 ], [ -1.5324224, 53.8169811 ], [ -1.5323056, 53.8169692 ], [ -1.5323192, 53.8169229 ], [ -1.5321376, 53.8169044 ], [ -1.5321269, 53.8169408 ], [ -1.5320283, 53.8169308 ], [ -1.5320056, 53.8170082 ], [ -1.5321019, 53.8170181 ], [ -1.5320848, 53.8170764 ], [ -1.5325065, 53.8171194 ] ] ] ] } },
{ "type": "Feature", "properties": { "osm_id": 392532712, "centroid": { "latitude": 53.817202, "longitude": -1.531772 }, "area": 513, "name": "Leeds Black Elders Association", "type": "social_facility", "building": "yes", "other_tags": "\"social_facility\"=>\"outreach\"" }, "geometry": { "type": "MultiPolygon", "coordinates": [ [ [ [ -1.5317434, 53.8170802 ], [ -1.5319564, 53.8172575 ], [ -1.5318001, 53.8173218 ], [ -1.5315872, 53.8171481 ], [ -1.5317434, 53.8170802 ] ] ] ] } },
{ "type": "Feature", "properties": { "osm_id": 395697248, "centroid": { "latitude": 53.794549, "longitude": -1.581010 }, "area": 13315, "name": "Middlecross", "type": "social_facility", "other_tags": "\"social_facility\"=>\"group_home\",\"social_facility:for\"=>\"seniors\"" }, "geometry": { "type": "MultiPolygon", "coordinates": [ [ [ [ -1.5815885, 53.7941638 ], [ -1.5820083, 53.7946867 ], [ -1.5805892, 53.7950398 ], [ -1.5800827, 53.7943525 ], [ -1.5801192, 53.7942797 ], [ -1.5802333, 53.7942501 ], [ -1.5815885, 53.7941638 ] ] ] ] } },
{ "type": "Feature", "properties": { "osm_id": 404421358, "centroid": { "latitude": 53.865561, "longitude": -1.690342 }, "area": 395, "name": "Millfield House", "type": "social_facility", "building": "yes", "other_tags": "\"social_facility:for\"=>\"mental_health\"" }, "geometry": { "type": "MultiPolygon", "coordinates": [ [ [ [ -1.6904519, 53.8654651 ], [ -1.6903052, 53.8654474 ], [ -1.6902326, 53.8656564 ], [ -1.6903793, 53.8656741 ], [ -1.6904519, 53.8654651 ] ] ] ] } },
{ "type": "Feature", "properties": { "osm_id": 437350664, "centroid": { "latitude": 53.831499, "longitude": -1.700890 }, "area": 1490, "name": "Champion House Nursing Home", "type": "social_facility", "building": "yes", "other_tags": "\"addr:city\"=>\"Calverley\",\"addr:housename\"=>\"Champion House\",\"addr:postcode\"=>\"LS28 5QP\",\"addr:street\"=>\"Clara Drive\",\"social_facility\"=>\"nursing_home\",\"social_facility:for\"=>\"disabled\",\"website\"=>\"http:\/\/www.lcdisability.org\/?lid=21116\"" }, "geometry": { "type": "MultiPolygon", "coordinates": [ [ [ [ -1.7009909, 53.8316934 ], [ -1.7008502, 53.8316219 ], [ -1.7009837, 53.8315303 ], [ -1.7010038, 53.8315405 ], [ -1.7011972, 53.8314078 ], [ -1.7011425, 53.83138 ], [ -1.7011722, 53.8313597 ], [ -1.701112, 53.8313291 ], [ -1.7010881, 53.8313456 ], [ -1.701032, 53.8313171 ], [ -1.7009662, 53.8313624 ], [ -1.7008981, 53.8313278 ], [ -1.700855, 53.8313574 ], [ -1.7007562, 53.8313072 ], [ -1.7007048, 53.8313426 ], [ -1.700789, 53.8313853 ], [ -1.7006703, 53.8314668 ], [ -1.7007746, 53.8315197 ], [ -1.700652, 53.8316038 ], [ -1.7006959, 53.831626 ], [ -1.7006579, 53.8316521 ], [ -1.7007448, 53.8316962 ], [ -1.7007569, 53.8316879 ], [ -1.700896, 53.8317585 ], [ -1.7009909, 53.8316934 ] ] ] ] } },
{ "type": "Feature", "properties": { "osm_id": 444571960, "centroid": { "latitude": 53.683691, "longitude": -1.496528 }, "area": 177, "name": "Families and Babies", "type": "social_facility", "building": "yes", "other_tags": "\"addr:housename\"=>\"Westmorland House\",\"social_facility\"=>\"outreach\"" }, "geometry": { "type": "MultiPolygon", "coordinates": [ [ [ [ -1.4964339, 53.6837216 ], [ -1.4964524, 53.6836387 ], [ -1.4965367, 53.6836453 ], [ -1.4966213, 53.6836519 ], [ -1.4966046, 53.6837349 ], [ -1.4964339, 53.6837216 ] ] ] ] } },
{ "type": "Feature", "properties": { "osm_id": 458307486, "centroid": { "latitude": 53.707161, "longitude": -1.407391 }, "area": 415, "name": "Benson Lane Childrens Home", "type": "social_facility", "building": "house", "other_tags": "\"addr:housenumber\"=>\"119\",\"addr:postcode\"=>\"WF6 2HS\",\"addr:street\"=>\"Benson Lane\",\"fhrs:id\"=>\"284467\",\"social_facility\"=>\"group_home\",\"social_facility:for\"=>\"children\"" }, "geometry": { "type": "MultiPolygon", "coordinates": [ [ [ [ -1.4072308, 53.7071767 ], [ -1.4073272, 53.7071359 ], [ -1.4072876, 53.7071031 ], [ -1.4073336, 53.7070836 ], [ -1.4073524, 53.7070991 ], [ -1.4074561, 53.7070552 ], [ -1.4075592, 53.7071406 ], [ -1.4074188, 53.7072 ], [ -1.4074433, 53.7072203 ], [ -1.4073376, 53.7072651 ], [ -1.4072308, 53.7071767 ] ] ] ] } },
{ "type": "Feature", "properties": { "osm_id": 460401924, "centroid": { "latitude": 53.789641, "longitude": -1.652791 }, "area": 562, "name": "Attendance Strategy Team, Education Leeds, Leeds Council", "type": "social_facility", "building": "yes", "other_tags": "\"social_facility\"=>\"outreach\"" }, "geometry": { "type": "MultiPolygon", "coordinates": [ [ [ [ -1.6528756, 53.789637 ], [ -1.6528436, 53.7897619 ], [ -1.65267, 53.7897464 ], [ -1.652702, 53.7896215 ], [ -1.6526739, 53.789619 ], [ -1.6526979, 53.7895251 ], [ -1.6529404, 53.7895467 ], [ -1.6529163, 53.7896407 ], [ -1.6528756, 53.789637 ] ] ] ] } },
{ "type": "Feature", "properties": { "osm_id": 461181903, "centroid": { "latitude": 53.794582, "longitude": -1.661616 }, "area": 1192, "name": "Acacia Court Care Centre", "type": "social_facility", "building": "yes", "other_tags": "\"social_facility\"=>\"group_home\"" }, "geometry": { "type": "MultiPolygon", "coordinates": [ [ [ [ -1.6617136, 53.7947204 ], [ -1.6616926, 53.7947201 ], [ -1.66169, 53.7947856 ], [ -1.661507, 53.7947829 ], [ -1.6615097, 53.7947174 ], [ -1.6614949, 53.7947172 ], [ -1.6614976, 53.7946514 ], [ -1.6615124, 53.7946517 ], [ -1.6615161, 53.7945624 ], [ -1.6613743, 53.7945603 ], [ -1.6613787, 53.7944524 ], [ -1.6618762, 53.7944596 ], [ -1.6618718, 53.7945675 ], [ -1.661699, 53.794565 ], [ -1.6616953, 53.7946543 ], [ -1.6617163, 53.7946546 ], [ -1.6617136, 53.7947204 ] ] ] ] } },
{ "type": "Feature", "properties": { "osm_id": 461182016, "centroid": { "latitude": 53.792706, "longitude": -1.662650 }, "area": 769, "name": "Radcliffe Day Centre", "type": "social_facility", "building": "yes", "other_tags": "\"social_facility\"=>\"day_care\"" }, "geometry": { "type": "MultiPolygon", "coordinates": [ [ [ [ -1.6627817, 53.7927043 ], [ -1.662763, 53.7927777 ], [ -1.6627104, 53.7927731 ], [ -1.6626942, 53.7928366 ], [ -1.6625041, 53.7928197 ], [ -1.6624519, 53.7928151 ], [ -1.6624728, 53.7927329 ], [ -1.662525, 53.7927375 ], [ -1.6625582, 53.7926069 ], [ -1.6626741, 53.7926172 ], [ -1.6626892, 53.7925573 ], [ -1.6627933, 53.7925666 ], [ -1.6627782, 53.7926264 ], [ -1.6628268, 53.7926307 ], [ -1.6628076, 53.7927066 ], [ -1.6627817, 53.7927043 ] ] ] ] } },
{ "type": "Feature", "properties": { "osm_id": 461618689, "centroid": { "latitude": 53.688831, "longitude": -1.858476 }, "area": 1765, "name": "Calderdale Retreat", "type": "social_facility", "building": "apartments", "other_tags": "\"fhrs:id\"=>\"938926\",\"social_facility\"=>\"nursing_home\",\"social_facility:for\"=>\"senior\"" }, "geometry": { "type": "MultiPolygon", "coordinates": [ [ [ [ -1.8591444, 53.6888863 ], [ -1.8591511, 53.6887811 ], [ -1.8578072, 53.688772 ], [ -1.8578147, 53.6888804 ], [ -1.8591444, 53.6888863 ] ] ] ] } }
]
}
