{
"type": "FeatureCollection",
"crs": { "type": "name", "properties": { "name": "urn:ogc:def:crs:OGC:1.3:CRS84" } },
"features": [
{ "type": "Feature", "properties": { "osm_id": 237662539, "centroid": { "latitude": 53.801030, "longitude": -1.756922 }, "area": 173, "name": "Spring Gardens Community Orchard", "type": "orchard" }, "geometry": { "type": "MultiPolygon", "coordinates": [ [ [ [ -1.7569918, 53.8009651 ], [ -1.7570481, 53.8010158 ], [ -1.7568469, 53.8010919 ], [ -1.7567987, 53.8010412 ], [ -1.7569918, 53.8009651 ] ] ] ] } },
{ "type": "Feature", "properties": { "osm_id": 273658621, "centroid": { "latitude": 53.587635, "longitude": -1.790351 }, "area": 9428, "name": "Pure North's Orchard", "type": "orchard", "other_tags": "\"designation\"=>\"Orchard\"" }, "geometry": { "type": "MultiPolygon", "coordinates": [ [ [ [ -1.7911793, 53.5877733 ], [ -1.7908028, 53.5872805 ], [ -1.7894814, 53.5874755 ], [ -1.7897433, 53.5878839 ], [ -1.7901188, 53.5878744 ], [ -1.7903397, 53.5879643 ], [ -1.7903853, 53.5880009 ], [ -1.7911793, 53.5877733 ] ] ] ] } },
{ "type": "Feature", "properties": { "osm_id": 283127221, "centroid": { "latitude": 53.700360, "longitude": -1.540351 }, "area": 1226, "type": "orchard" }, "geometry": { "type": "MultiPolygon", "coordinates": [ [ [ [ -1.540552, 53.7004954 ], [ -1.540442, 53.7001445 ], [ -1.5402409, 53.7002191 ], [ -1.5401577, 53.7004398 ], [ -1.5401631, 53.7005113 ], [ -1.540552, 53.7004954 ] ] ] ] } },
{ "type": "Feature", "properties": { "osm_id": 338208585, "centroid": { "latitude": 53.802324, "longitude": -1.362358 }, "area": 173947, "type": "orchard" }, "geometry": { "type": "MultiPolygon", "coordinates": [ [ [ [ -1.36568, 53.8014421 ], [ -1.3655599, 53.8016756 ], [ -1.3630194, 53.8038489 ], [ -1.3627766, 53.8039813 ], [ -1.3625089, 53.8043033 ], [ -1.3623814, 53.8044162 ], [ -1.3620912, 53.8044747 ], [ -1.3617798, 53.8044915 ], [ -1.3614471, 53.8044455 ], [ -1.3611781, 53.8042657 ], [ -1.361164, 53.8041863 ], [ -1.3609162, 53.8039104 ], [ -1.3595076, 53.8031539 ], [ -1.3595642, 53.8030785 ], [ -1.3621415, 53.7996457 ], [ -1.3622906, 53.799625 ], [ -1.362343, 53.8006473 ], [ -1.3654873, 53.8014012 ], [ -1.36568, 53.8014421 ] ] ] ] } },
{ "type": "Feature", "properties": { "osm_id": 338208586, "centroid": { "latitude": 53.798560, "longitude": -1.355570 }, "area": 681624, "type": "orchard" }, "geometry": { "type": "MultiPolygon", "coordinates": [ [ [ [ -1.3595642, 53.8030785 ], [ -1.3566956, 53.8023706 ], [ -1.3560572, 53.8021678 ], [ -1.3552472, 53.8017338 ], [ -1.3543191, 53.8009132 ], [ -1.353552, 53.7998994 ], [ -1.353558, 53.7996016 ], [ -1.3536981, 53.7993478 ], [ -1.3536421, 53.7989451 ], [ -1.3532965, 53.7989341 ], [ -1.3476832, 53.7956848 ], [ -1.3474345, 53.7949359 ], [ -1.3530181, 53.7944655 ], [ -1.3536651, 53.7944619 ], [ -1.3543473, 53.7965844 ], [ -1.356131, 53.7966095 ], [ -1.3564849, 53.7966681 ], [ -1.3614681, 53.7982902 ], [ -1.360647, 53.7993103 ], [ -1.3621415, 53.7996457 ], [ -1.3595642, 53.8030785 ] ] ] ] } },
{ "type": "Feature", "properties": { "osm_id": 338208589, "centroid": { "latitude": 53.795662, "longitude": -1.358528 }, "area": 65364, "type": "orchard" }, "geometry": { "type": "MultiPolygon", "coordinates": [ [ [ [ -1.3592837, 53.7971948 ], [ -1.3596542, 53.7949405 ], [ -1.359646, 53.7942825 ], [ -1.3590362, 53.7944794 ], [ -1.3571742, 53.7944842 ], [ -1.357802, 53.796893 ], [ -1.3589178, 53.7972345 ], [ -1.3592837, 53.7971948 ] ] ] ] } },
{ "type": "Feature", "properties": { "osm_id": 338208591, "centroid": { "latitude": 53.795425, "longitude": -1.355766 }, "area": 58811, "type": "orchard" }, "geometry": { "type": "MultiPolygon", "coordinates": [ [ [ [ -1.35735, 53.7967546 ], [ -1.3567108, 53.7944986 ], [ -1.3540756, 53.7945103 ], [ -1.3544511, 53.7958443 ], [ -1.3558225, 53.7962871 ], [ -1.35735, 53.7967546 ] ] ] ] } },
{ "type": "Feature", "properties": { "osm_id": 436618864, "centroid": { "latitude": 53.777314, "longitude": -1.498022 }, "area": 148, "type": "orchard" }, "geometry": { "type": "MultiPolygon", "coordinates": [ [ [ [ -1.4981281, 53.777321 ], [ -1.4980547, 53.7773806 ], [ -1.4979509, 53.7773359 ], [ -1.4979217, 53.7772762 ], [ -1.4980498, 53.7772873 ], [ -1.4981281, 53.777321 ] ] ] ] } },
{ "type": "Feature", "properties": { "osm_id": 436879310, "centroid": { "latitude": 53.897050, "longitude": -1.697176 }, "area": 3274, "name": "Jonathan’s Orchard", "type": "orchard" }, "geometry": { "type": "MultiPolygon", "coordinates": [ [ [ [ -1.6967074, 53.8970878 ], [ -1.6968099, 53.8968161 ], [ -1.6976722, 53.8970056 ], [ -1.6976663, 53.8972057 ], [ -1.6972704, 53.8972058 ], [ -1.6968324, 53.897206 ], [ -1.6968611, 53.8971104 ], [ -1.6967074, 53.8970878 ] ] ] ] } },
{ "type": "Feature", "properties": { "osm_id": 453142150, "centroid": { "latitude": 53.870343, "longitude": -1.584675 }, "area": 28029, "name": "Cherry Orchard", "type": "orchard", "other_tags": "\"trees\"=>\"cherry_trees\"" }, "geometry": { "type": "MultiPolygon", "coordinates": [ [ [ [ -1.5864463, 53.8697609 ], [ -1.5866163, 53.8699528 ], [ -1.5865758, 53.8700268 ], [ -1.5864636, 53.8701569 ], [ -1.5863626, 53.870212 ], [ -1.5857902, 53.8703929 ], [ -1.5854424, 53.8705053 ], [ -1.5850945, 53.8706355 ], [ -1.5845671, 53.8707744 ], [ -1.5843539, 53.8708207 ], [ -1.5835762, 53.8710415 ], [ -1.5829173, 53.8702257 ], [ -1.5837501, 53.8701224 ], [ -1.5863713, 53.869778 ], [ -1.5864463, 53.8697609 ] ] ] ] } }
]
}
