{
"type": "FeatureCollection",
"crs": { "type": "name", "properties": { "name": "urn:ogc:def:crs:OGC:1.3:CRS84" } },
"features": [
{ "type": "Feature", "properties": { "osm_id": "4081160", "name": "Keighley and Worth Valley Railway", "type": "preserved" }, "geometry": { "type": "LineString", "coordinates": [ [ -1.9526697, 53.8146615 ], [ -1.9525391, 53.8148422 ], [ -1.9524816, 53.8149218 ], [ -1.9521749, 53.8152611 ], [ -1.9519749, 53.8154293 ], [ -1.9517068, 53.8156212 ], [ -1.9512561, 53.8159001 ], [ -1.9503946, 53.8163019 ], [ -1.9502097, 53.8163794 ], [ -1.9496812, 53.8166011 ], [ -1.9494624, 53.8167011 ], [ -1.9487683, 53.8170885 ], [ -1.948331, 53.8173836 ], [ -1.9479269, 53.8177109 ], [ -1.9474817, 53.8181404 ], [ -1.9471959, 53.8185635 ], [ -1.9468791, 53.819062 ], [ -1.9466873, 53.819725 ], [ -1.9466352, 53.8200915 ] ] } },
{ "type": "Feature", "properties": { "osm_id": "24466722", "type": "preserved", "other_tags": "\"designation\"=>\"Middleton Light Railway\",\"electrified\"=>\"no\"" }, "geometry": { "type": "LineString", "coordinates": [ [ -1.535915, 53.7610792 ], [ -1.5360566, 53.7611813 ], [ -1.5364312, 53.7614598 ], [ -1.5369501, 53.7618417 ], [ -1.5378012, 53.7624277 ], [ -1.5381614, 53.7627645 ], [ -1.5384351, 53.7630972 ], [ -1.5386452, 53.7635296 ], [ -1.5388551, 53.7644551 ], [ -1.539217, 53.7657017 ], [ -1.539962, 53.7679699 ], [ -1.5400626, 53.76854 ], [ -1.5400225, 53.769074 ], [ -1.5399352, 53.7694982 ], [ -1.5396646, 53.7708135 ], [ -1.5395597, 53.7712695 ], [ -1.5394945, 53.7717201 ] ] } },
{ "type": "Feature", "properties": { "osm_id": "27552642", "type": "preserved", "other_tags": "\"layer\"=>\"-1\",\"tunnel\"=>\"yes\",\"electrified\"=>\"no\"" }, "geometry": { "type": "LineString", "coordinates": [ [ -1.5394945, 53.7717201 ], [ -1.5393605, 53.7723593 ] ] } },
{ "type": "Feature", "properties": { "osm_id": "27552643", "type": "preserved", "other_tags": "\"electrified\"=>\"no\"" }, "geometry": { "type": "LineString", "coordinates": [ [ -1.5393605, 53.7723593 ], [ -1.5392737, 53.7727585 ], [ -1.5392576, 53.7728287 ] ] } },
{ "type": "Feature", "properties": { "osm_id": "28081126", "name": "Keighley and Worth Valley Railway", "type": "preserved", "other_tags": "\"layer\"=>\"1\",\"bridge\"=>\"viaduct\"" }, "geometry": { "type": "LineString", "coordinates": [ [ -1.9047065, 53.8636204 ], [ -1.904419, 53.8638499 ], [ -1.90411, 53.8640371 ] ] } },
{ "type": "Feature", "properties": { "osm_id": "28081127", "name": "Keighley and Worth Valley Railway", "type": "preserved" }, "geometry": { "type": "LineString", "coordinates": [ [ -1.90411, 53.8640371 ], [ -1.9037436, 53.8642305 ], [ -1.9032938, 53.8643907 ] ] } },
{ "type": "Feature", "properties": { "osm_id": "33873248", "type": "preserved", "other_tags": "\"electrified\"=>\"no\"" }, "geometry": { "type": "LineString", "coordinates": [ [ -1.5392576, 53.7728287 ], [ -1.5392247, 53.7730192 ], [ -1.5391729, 53.7733667 ], [ -1.5391209, 53.7737154 ], [ -1.539089, 53.7738015 ], [ -1.5390156, 53.7740037 ], [ -1.5389912, 53.7740625 ], [ -1.5389526, 53.774125 ], [ -1.5387657, 53.7743564 ], [ -1.5385946, 53.7746414 ], [ -1.5384364, 53.7751186 ] ] } },
{ "type": "Feature", "properties": { "osm_id": "33873249", "type": "preserved", "other_tags": "\"service\"=>\"spur\",\"electrified\"=>\"no\"" }, "geometry": { "type": "LineString", "coordinates": [ [ -1.5396646, 53.7708135 ], [ -1.5396662, 53.7711395 ], [ -1.539712, 53.7712787 ], [ -1.5400745, 53.7720976 ], [ -1.5401204, 53.7722022 ] ] } },
{ "type": "Feature", "properties": { "osm_id": "33873250", "type": "preserved", "other_tags": "\"service\"=>\"siding\",\"electrified\"=>\"no\"" }, "geometry": { "type": "LineString", "coordinates": [ [ -1.5369501, 53.7618417 ], [ -1.5366414, 53.7616651 ], [ -1.5362443, 53.7613804 ], [ -1.5360566, 53.7611813 ] ] } },
{ "type": "Feature", "properties": { "osm_id": "35979002", "name": "Keighley and Worth Valley Railway", "type": "preserved", "other_tags": "\"layer\"=>\"1\",\"bridge\"=>\"viaduct\"" }, "geometry": { "type": "LineString", "coordinates": [ [ -1.9003155, 53.8658145 ], [ -1.9002179, 53.8660136 ] ] } },
{ "type": "Feature", "properties": { "osm_id": "35979003", "name": "Keighley and Worth Valley Railway", "type": "preserved" }, "geometry": { "type": "LineString", "coordinates": [ [ -1.9002179, 53.8660136 ], [ -1.9001503, 53.8662789 ], [ -1.9001795, 53.866601 ] ] } },
{ "type": "Feature", "properties": { "osm_id": "45034688", "name": "Keighley and Worth Valley Railway", "type": "preserved", "other_tags": "\"layer\"=>\"-1\",\"tunnel\"=>\"yes\"" }, "geometry": { "type": "LineString", "coordinates": [ [ -1.9175272, 53.8524727 ], [ -1.916544, 53.8528606 ], [ -1.9156998, 53.8533079 ] ] } },
{ "type": "Feature", "properties": { "osm_id": "45034689", "name": "Keighley and Worth Valley Railway", "type": "preserved" }, "geometry": { "type": "LineString", "coordinates": [ [ -1.9156998, 53.8533079 ], [ -1.9151443, 53.8536646 ], [ -1.9142632, 53.8542738 ], [ -1.9131072, 53.855073 ], [ -1.9099635, 53.8569525 ], [ -1.9090204, 53.8575979 ], [ -1.9085968, 53.8579522 ], [ -1.9082908, 53.8582353 ], [ -1.9079312, 53.858631 ], [ -1.9074246, 53.8592586 ], [ -1.9070999, 53.8597933 ], [ -1.9066859, 53.8605052 ], [ -1.9061148, 53.8614997 ], [ -1.9057733, 53.862097 ], [ -1.9054014, 53.8627414 ], [ -1.9050949, 53.863224 ], [ -1.9049131, 53.8634273 ], [ -1.9047065, 53.8636204 ] ] } },
{ "type": "Feature", "properties": { "osm_id": "64312997", "type": "preserved", "other_tags": "\"electrified\"=>\"no\"" }, "geometry": { "type": "LineString", "coordinates": [ [ -1.5392247, 53.7730192 ], [ -1.5391639, 53.7731832 ], [ -1.5389272, 53.7738227 ], [ -1.5387125, 53.7741038 ], [ -1.5385014, 53.7743496 ], [ -1.5384221, 53.7744277 ], [ -1.5382362, 53.7745901 ], [ -1.5381662, 53.7746337 ], [ -1.5381009, 53.7746697 ], [ -1.5378721, 53.774764 ], [ -1.5374958, 53.7748993 ], [ -1.5373558, 53.7749455 ], [ -1.5371689, 53.774976 ], [ -1.5366852, 53.7750128 ], [ -1.5364955, 53.7750146 ], [ -1.5359834, 53.774985 ], [ -1.5355988, 53.7749777 ], [ -1.5351422, 53.7750255 ], [ -1.5348437, 53.7750947 ], [ -1.5344261, 53.7751683 ], [ -1.5330505, 53.7754024 ], [ -1.5320782, 53.7755678 ], [ -1.5315522, 53.7756585 ], [ -1.5313053, 53.7756801 ], [ -1.5310549, 53.7756747 ], [ -1.5306307, 53.7756202 ] ] } },
{ "type": "Feature", "properties": { "osm_id": "110003169", "name": "National Coal Mining Museum", "type": "preserved", "other_tags": "\"usage\"=>\"tourism\"" }, "geometry": { "type": "LineString", "coordinates": [ [ -1.624341, 53.6421822 ], [ -1.6241287, 53.6421174 ], [ -1.624015, 53.6420507 ], [ -1.6239695, 53.6419663 ], [ -1.623965, 53.6419348 ] ] } },
{ "type": "Feature", "properties": { "osm_id": "110003170", "type": "preserved" }, "geometry": { "type": "LineString", "coordinates": [ [ -1.6204754, 53.6434142 ], [ -1.6198934, 53.6439589 ], [ -1.6195286, 53.6442667 ], [ -1.619255, 53.6444629 ], [ -1.6188838, 53.6447288 ], [ -1.6184643, 53.6450544 ] ] } },
{ "type": "Feature", "properties": { "osm_id": "110003172", "name": "National Coal Mining Museum", "type": "preserved", "other_tags": "\"usage\"=>\"tourism\"" }, "geometry": { "type": "LineString", "coordinates": [ [ -1.6245802, 53.6421757 ], [ -1.6247338, 53.6421164 ], [ -1.6248116, 53.6420164 ], [ -1.6248104, 53.6419372 ], [ -1.6247721, 53.6418893 ], [ -1.6247037, 53.6418028 ], [ -1.6246864, 53.6417284 ], [ -1.624704, 53.641661 ], [ -1.6248091, 53.6413693 ] ] } },
{ "type": "Feature", "properties": { "osm_id": "110003173", "name": "National Coal Mining Museum", "type": "preserved", "other_tags": "\"usage\"=>\"tourism\"" }, "geometry": { "type": "LineString", "coordinates": [ [ -1.625227, 53.6425142 ], [ -1.6252258, 53.642361 ], [ -1.6252224, 53.6422472 ], [ -1.625191, 53.64221 ], [ -1.6251237, 53.6421835 ], [ -1.6250105, 53.6421785 ], [ -1.6247519, 53.642179 ], [ -1.6245802, 53.6421757 ], [ -1.624341, 53.6421822 ], [ -1.6235581, 53.6421677 ], [ -1.6226461, 53.6421458 ], [ -1.6224106, 53.6421494 ], [ -1.622132, 53.6421669 ], [ -1.6219446, 53.6421991 ], [ -1.6217725, 53.6422534 ], [ -1.6214185, 53.6424382 ], [ -1.6211296, 53.6427179 ], [ -1.6207759, 53.643023 ], [ -1.6204834, 53.6431628 ], [ -1.6198599, 53.6438248 ] ] } },
{ "type": "Feature", "properties": { "osm_id": "112325731", "name": "Keighley and Worth Valley Railway", "type": "preserved" }, "geometry": { "type": "LineString", "coordinates": [ [ -1.9471571, 53.8228656 ], [ -1.9472632, 53.823411 ], [ -1.9475494, 53.8246763 ], [ -1.947764, 53.825272 ], [ -1.9481113, 53.8259287 ], [ -1.9485572, 53.8267217 ], [ -1.9487606, 53.8270793 ], [ -1.9488945, 53.8273783 ], [ -1.9490002, 53.8277236 ], [ -1.9490671, 53.8281478 ], [ -1.9490958, 53.8285254 ], [ -1.9491121, 53.8290546 ], [ -1.9491472, 53.8299685 ], [ -1.9491163, 53.8304371 ], [ -1.9490241, 53.8308787 ], [ -1.9488416, 53.8313183 ], [ -1.9485193, 53.8318021 ], [ -1.948079, 53.8323994 ], [ -1.9478811, 53.8327592 ], [ -1.9477688, 53.8330143 ], [ -1.9471763, 53.8346147 ], [ -1.9469287, 53.8352304 ], [ -1.9468035, 53.8355856 ], [ -1.9467061, 53.8359623 ], [ -1.946695, 53.8361699 ], [ -1.9467203, 53.8364632 ], [ -1.9467834, 53.8366857 ], [ -1.9468782, 53.8368773 ] ] } },
{ "type": "Feature", "properties": { "osm_id": "112325735", "name": "Keighley and Worth Valley Railway", "type": "preserved", "other_tags": "\"layer\"=>\"1\",\"bridge\"=>\"viaduct\"" }, "geometry": { "type": "LineString", "coordinates": [ [ -1.9466352, 53.8200915 ], [ -1.9466332, 53.8202151 ] ] } },
{ "type": "Feature", "properties": { "osm_id": "112325737", "name": "Keighley and Worth Valley Railway", "type": "preserved" }, "geometry": { "type": "LineString", "coordinates": [ [ -1.9466332, 53.8202151 ], [ -1.9467109, 53.8208269 ], [ -1.9468711, 53.8215943 ], [ -1.9471351, 53.8227725 ] ] } },
{ "type": "Feature", "properties": { "osm_id": "112325742", "name": "Keighley and Worth Valley Railway", "type": "preserved", "other_tags": "\"layer\"=>\"1\",\"bridge\"=>\"viaduct\"" }, "geometry": { "type": "LineString", "coordinates": [ [ -1.9471351, 53.8227725 ], [ -1.9471571, 53.8228656 ] ] } },
{ "type": "Feature", "properties": { "osm_id": "113222485", "name": "Keighley and Worth Valley Railway", "type": "preserved", "other_tags": "\"layer\"=>\"1\",\"bridge\"=>\"viaduct\"" }, "geometry": { "type": "LineString", "coordinates": [ [ -1.9456899, 53.840536 ], [ -1.9455317, 53.8405927 ] ] } },
{ "type": "Feature", "properties": { "osm_id": "113222499", "name": "Keighley and Worth Valley Railway", "type": "preserved" }, "geometry": { "type": "LineString", "coordinates": [ [ -1.9455317, 53.8405927 ], [ -1.9448497, 53.8407949 ], [ -1.942734, 53.8411404 ], [ -1.9422996, 53.8412257 ], [ -1.9419545, 53.8413069 ], [ -1.9417853, 53.8413408 ], [ -1.941122, 53.8415187 ], [ -1.9402097, 53.8417807 ], [ -1.9389463, 53.8420922 ], [ -1.9384614, 53.842193 ], [ -1.937835, 53.842294 ], [ -1.9370852, 53.8423702 ], [ -1.9365003, 53.8424027 ], [ -1.9360292, 53.8424092 ], [ -1.9354395, 53.842389 ], [ -1.934895, 53.8423521 ], [ -1.9340523, 53.8422613 ], [ -1.9334839, 53.8422293 ], [ -1.9329032, 53.8422365 ], [ -1.9321249, 53.8422929 ], [ -1.9315496, 53.8423784 ], [ -1.9309795, 53.8425028 ], [ -1.930229, 53.8427159 ], [ -1.92971, 53.8429195 ], [ -1.9292872, 53.843119 ], [ -1.9289599, 53.8432951 ], [ -1.9278924, 53.8439133 ], [ -1.9265826, 53.8446743 ], [ -1.9257118, 53.8451821 ], [ -1.9249232, 53.845627 ], [ -1.924448, 53.8459194 ], [ -1.9236348, 53.8463958 ], [ -1.9231101, 53.8467755 ], [ -1.9227372, 53.8471143 ], [ -1.9224821, 53.8473961 ], [ -1.9222598, 53.8476713 ], [ -1.922055, 53.8480066 ], [ -1.9219192, 53.8483028 ], [ -1.9217602, 53.8488365 ], [ -1.92166, 53.8494691 ], [ -1.9214935, 53.8499407 ], [ -1.9212334, 53.8503669 ], [ -1.9209443, 53.8507097 ], [ -1.9205974, 53.8510218 ], [ -1.9202186, 53.8513155 ], [ -1.9197672, 53.8515891 ], [ -1.9194199, 53.8517615 ] ] } },
{ "type": "Feature", "properties": { "osm_id": "113465843", "type": "preserved", "other_tags": "\"service\"=>\"siding\"" }, "geometry": { "type": "LineString", "coordinates": [ [ -1.9496812, 53.8166011 ], [ -1.950097, 53.8163858 ], [ -1.9502956, 53.8162831 ], [ -1.9504416, 53.8162075 ], [ -1.9507209, 53.8160383 ] ] } },
{ "type": "Feature", "properties": { "osm_id": "113465845", "type": "preserved", "other_tags": "\"service\"=>\"yard\"" }, "geometry": { "type": "LineString", "coordinates": [ [ -1.9507209, 53.8160383 ], [ -1.9511371, 53.8157299 ], [ -1.9516116, 53.815402 ], [ -1.9517245, 53.8153155 ], [ -1.9518533, 53.8152169 ], [ -1.9519304, 53.8151248 ], [ -1.9520001, 53.8150425 ], [ -1.9520404, 53.8149681 ] ] } },
{ "type": "Feature", "properties": { "osm_id": "113944346", "name": "Keighley and Worth Valley Railway", "type": "preserved" }, "geometry": { "type": "LineString", "coordinates": [ [ -1.9472188, 53.8374704 ], [ -1.9473757, 53.8377014 ], [ -1.9474791, 53.8379163 ], [ -1.9475912, 53.8382729 ] ] } },
{ "type": "Feature", "properties": { "osm_id": "113944350", "name": "Keighley and Worth Valley Railway", "type": "preserved", "other_tags": "\"layer\"=>\"-1\",\"tunnel\"=>\"yes\"" }, "geometry": { "type": "LineString", "coordinates": [ [ -1.9468782, 53.8368773 ], [ -1.9472188, 53.8374704 ] ] } },
{ "type": "Feature", "properties": { "osm_id": "151204617", "type": "preserved", "other_tags": "\"electrified\"=>\"no\",\"service\"=>\"siding\"" }, "geometry": { "type": "LineString", "coordinates": [ [ -1.5306307, 53.7756202 ], [ -1.5310628, 53.7756988 ], [ -1.5313107, 53.7757065 ], [ -1.5315765, 53.7756844 ], [ -1.5320916, 53.7756002 ], [ -1.532604, 53.7755083 ], [ -1.5330505, 53.7754024 ] ] } },
{ "type": "Feature", "properties": { "osm_id": "155441032", "type": "preserved", "other_tags": "\"designation\"=>\"Shipley Glen Tramway\"" }, "geometry": { "type": "LineString", "coordinates": [ [ -1.7905944, 53.8428965 ], [ -1.7918558, 53.8437452 ], [ -1.7943986, 53.8450871 ] ] } },
{ "type": "Feature", "properties": { "osm_id": "177017834", "name": "Keighley and Worth Valley Railway", "type": "preserved", "other_tags": "\"layer\"=>\"1\",\"bridge\"=>\"viaduct\"" }, "geometry": { "type": "LineString", "coordinates": [ [ -1.9032938, 53.8643907 ], [ -1.902868, 53.8645266 ] ] } },
{ "type": "Feature", "properties": { "osm_id": "177017835", "name": "Keighley and Worth Valley Railway", "type": "preserved", "other_tags": "\"layer\"=>\"1\",\"bridge\"=>\"viaduct\"" }, "geometry": { "type": "LineString", "coordinates": [ [ -1.9194199, 53.8517615 ], [ -1.9191578, 53.8518848 ] ] } },
{ "type": "Feature", "properties": { "osm_id": "177017836", "name": "Keighley and Worth Valley Railway", "type": "preserved" }, "geometry": { "type": "LineString", "coordinates": [ [ -1.9191578, 53.8518848 ], [ -1.9187006, 53.8520655 ], [ -1.9175272, 53.8524727 ] ] } },
{ "type": "Feature", "properties": { "osm_id": "177017837", "name": "Keighley and Worth Valley Railway", "type": "preserved" }, "geometry": { "type": "LineString", "coordinates": [ [ -1.902868, 53.8645266 ], [ -1.9025327, 53.8646272 ], [ -1.9018511, 53.8648221 ], [ -1.9013564, 53.8649887 ], [ -1.9008611, 53.8652499 ], [ -1.9005596, 53.8654963 ], [ -1.9003155, 53.8658145 ] ] } },
{ "type": "Feature", "properties": { "osm_id": "199164444", "type": "preserved" }, "geometry": { "type": "LineString", "coordinates": [ [ -1.9489677, 53.8290007 ], [ -1.9488351, 53.8292478 ], [ -1.9487439, 53.8294741 ], [ -1.9487198, 53.8297148 ] ] } },
{ "type": "Feature", "properties": { "osm_id": "199164445", "type": "preserved" }, "geometry": { "type": "LineString", "coordinates": [ [ -1.9490002, 53.8277236 ], [ -1.948853, 53.8274231 ] ] } },
{ "type": "Feature", "properties": { "osm_id": "199164446", "type": "preserved" }, "geometry": { "type": "LineString", "coordinates": [ [ -1.9489209, 53.8295485 ], [ -1.9489531, 53.8291544 ], [ -1.9489677, 53.8290007 ], [ -1.94898, 53.828871 ], [ -1.9490095, 53.8286826 ], [ -1.9490229, 53.8283803 ], [ -1.9490038, 53.8280596 ], [ -1.9489311, 53.8277019 ], [ -1.948853, 53.8274231 ], [ -1.9486813, 53.8270495 ], [ -1.9483675, 53.8264859 ], [ -1.9479625, 53.8257624 ], [ -1.9478284, 53.825506 ], [ -1.9477988, 53.8253872 ], [ -1.947764, 53.825272 ] ] } },
{ "type": "Feature", "properties": { "osm_id": "199164448", "type": "preserved" }, "geometry": { "type": "LineString", "coordinates": [ [ -1.9488351, 53.8292478 ], [ -1.9487064, 53.8294108 ], [ -1.9486205, 53.8296071 ], [ -1.9486152, 53.8297195 ] ] } },
{ "type": "Feature", "properties": { "osm_id": "199166451", "name": "Keighley and Worth Valley Railway", "type": "preserved", "other_tags": "\"layer\"=>\"1\",\"bridge\"=>\"viaduct\"" }, "geometry": { "type": "LineString", "coordinates": [ [ -1.9465735, 53.8401118 ], [ -1.9461235, 53.8403548 ] ] } },
{ "type": "Feature", "properties": { "osm_id": "199166452", "type": "preserved" }, "geometry": { "type": "LineString", "coordinates": [ [ -1.9142632, 53.8542738 ], [ -1.913775, 53.8547209 ], [ -1.9135641, 53.8548849 ], [ -1.9133002, 53.8550377 ], [ -1.9129757, 53.8552256 ], [ -1.9122873, 53.8556364 ] ] } },
{ "type": "Feature", "properties": { "osm_id": "199166453", "type": "preserved" }, "geometry": { "type": "LineString", "coordinates": [ [ -1.9265826, 53.8446743 ], [ -1.927111, 53.8444173 ], [ -1.9280122, 53.8438887 ], [ -1.9289, 53.843376 ], [ -1.9292541, 53.8431719 ], [ -1.92971, 53.8429195 ] ] } },
{ "type": "Feature", "properties": { "osm_id": "199166454", "name": "Keighley and Worth Valley Railway", "type": "preserved", "other_tags": "\"layer\"=>\"1\",\"bridge\"=>\"viaduct\"" }, "geometry": { "type": "LineString", "coordinates": [ [ -1.9475912, 53.8382729 ], [ -1.9476146, 53.8384653 ], [ -1.9476022, 53.8386607 ] ] } },
{ "type": "Feature", "properties": { "osm_id": "199166455", "type": "preserved" }, "geometry": { "type": "LineString", "coordinates": [ [ -1.941122, 53.8415187 ], [ -1.9407527, 53.8416811 ], [ -1.9404442, 53.8417935 ], [ -1.9397495, 53.8419771 ] ] } },
{ "type": "Feature", "properties": { "osm_id": "199166456", "name": "Keighley and Worth Valley Railway", "type": "preserved" }, "geometry": { "type": "LineString", "coordinates": [ [ -1.9472301, 53.8395324 ], [ -1.946901, 53.8398577 ], [ -1.9465735, 53.8401118 ] ] } },
{ "type": "Feature", "properties": { "osm_id": "199166457", "name": "Keighley and Worth Valley Railway", "type": "preserved" }, "geometry": { "type": "LineString", "coordinates": [ [ -1.9461235, 53.8403548 ], [ -1.9456899, 53.840536 ] ] } },
{ "type": "Feature", "properties": { "osm_id": "199166458", "type": "preserved" }, "geometry": { "type": "LineString", "coordinates": [ [ -1.9407527, 53.8416811 ], [ -1.9403996, 53.8418768 ], [ -1.9400499, 53.8420135 ], [ -1.9394045, 53.8421886 ] ] } },
{ "type": "Feature", "properties": { "osm_id": "199166459", "type": "preserved" }, "geometry": { "type": "LineString", "coordinates": [ [ -1.9135185, 53.8549592 ], [ -1.9134112, 53.8550858 ], [ -1.9133414, 53.8551538 ] ] } },
{ "type": "Feature", "properties": { "osm_id": "199166460", "type": "preserved" }, "geometry": { "type": "LineString", "coordinates": [ [ -1.9133002, 53.8550377 ], [ -1.9130106, 53.855243 ], [ -1.9123383, 53.8556664 ] ] } },
{ "type": "Feature", "properties": { "osm_id": "199166461", "type": "preserved" }, "geometry": { "type": "LineString", "coordinates": [ [ -1.913775, 53.8547209 ], [ -1.9135185, 53.8549592 ], [ -1.9132958, 53.8551301 ] ] } },
{ "type": "Feature", "properties": { "osm_id": "199166462", "type": "preserved" }, "geometry": { "type": "LineString", "coordinates": [ [ -1.913775, 53.8547209 ], [ -1.914121, 53.8545105 ], [ -1.914408, 53.8543159 ] ] } },
{ "type": "Feature", "properties": { "osm_id": "199166464", "name": "Keighley and Worth Valley Railway", "type": "preserved", "other_tags": "\"layer\"=>\"1\",\"bridge\"=>\"viaduct\"" }, "geometry": { "type": "LineString", "coordinates": [ [ -1.947392, 53.8392794 ], [ -1.9472301, 53.8395324 ] ] } },
{ "type": "Feature", "properties": { "osm_id": "199166467", "name": "Keighley and Worth Valley Railway", "type": "preserved" }, "geometry": { "type": "LineString", "coordinates": [ [ -1.9476022, 53.8386607 ], [ -1.9474845, 53.8390897 ], [ -1.947392, 53.8392794 ] ] } },
{ "type": "Feature", "properties": { "osm_id": "199166470", "type": "preserved" }, "geometry": { "type": "LineString", "coordinates": [ [ -1.9404442, 53.8417935 ], [ -1.9409324, 53.8416811 ] ] } },
{ "type": "Feature", "properties": { "osm_id": "199167205", "type": "preserved" }, "geometry": { "type": "LineString", "coordinates": [ [ -1.9002418, 53.8672331 ], [ -1.9001888, 53.8672295 ], [ -1.9001579, 53.8672219 ], [ -1.9001165, 53.8672022 ], [ -1.9000836, 53.8671653 ], [ -1.9000795, 53.867134 ], [ -1.9000964, 53.8671006 ], [ -1.9001291, 53.8670757 ], [ -1.9001576, 53.8670637 ], [ -1.9002079, 53.8670534 ], [ -1.9002348, 53.8670522 ], [ -1.9002871, 53.8670582 ], [ -1.9003188, 53.867068 ], [ -1.900357, 53.86709 ], [ -1.9003789, 53.8671159 ], [ -1.9003856, 53.8671471 ], [ -1.9003663, 53.8671868 ], [ -1.900313, 53.8672197 ], [ -1.9002418, 53.8672331 ] ] } },
{ "type": "Feature", "properties": { "osm_id": "199167208", "type": "preserved" }, "geometry": { "type": "LineString", "coordinates": [ [ -1.9001395, 53.8660787 ], [ -1.9000555, 53.8662715 ], [ -1.900018, 53.8664661 ], [ -1.9000425, 53.8666163 ] ] } },
{ "type": "Feature", "properties": { "osm_id": "199167211", "type": "preserved" }, "geometry": { "type": "LineString", "coordinates": [ [ -1.9034619, 53.8642913 ], [ -1.9032326, 53.8643679 ] ] } },
{ "type": "Feature", "properties": { "osm_id": "199168923", "type": "preserved" }, "geometry": { "type": "LineString", "coordinates": [ [ -1.9489677, 53.8290007 ], [ -1.9490014, 53.829205 ], [ -1.9490631, 53.8295295 ], [ -1.9490738, 53.8297765 ], [ -1.9490712, 53.8300725 ], [ -1.9490551, 53.8301675 ] ] } },
{ "type": "Feature", "properties": { "osm_id": "199168924", "type": "preserved", "other_tags": "\"service\"=>\"siding\"" }, "geometry": { "type": "LineString", "coordinates": [ [ -1.9506404, 53.816121 ], [ -1.950938, 53.8159419 ], [ -1.9510533, 53.8158643 ] ] } },
{ "type": "Feature", "properties": { "osm_id": "199168925", "type": "preserved", "other_tags": "\"service\"=>\"siding\"" }, "geometry": { "type": "LineString", "coordinates": [ [ -1.9502956, 53.8162831 ], [ -1.9504659, 53.8161605 ], [ -1.9505812, 53.8160702 ] ] } },
{ "type": "Feature", "properties": { "osm_id": "199168926", "type": "preserved" }, "geometry": { "type": "LineString", "coordinates": [ [ -1.9525391, 53.8148422 ], [ -1.9523971, 53.8150884 ], [ -1.9522227, 53.8152721 ], [ -1.9520752, 53.8154004 ], [ -1.9518358, 53.8155798 ], [ -1.9515522, 53.8157693 ], [ -1.9511928, 53.815972 ], [ -1.9507475, 53.8161826 ], [ -1.9502097, 53.8163794 ] ] } },
{ "type": "Feature", "properties": { "osm_id": "199168928", "type": "preserved", "other_tags": "\"service\"=>\"siding\"" }, "geometry": { "type": "LineString", "coordinates": [ [ -1.950097, 53.8163858 ], [ -1.9496308, 53.816576 ] ] } },
{ "type": "Feature", "properties": { "osm_id": "199168933", "type": "preserved", "other_tags": "\"service\"=>\"siding\"" }, "geometry": { "type": "LineString", "coordinates": [ [ -1.950097, 53.8163858 ], [ -1.9503157, 53.8162396 ], [ -1.9505276, 53.8160559 ] ] } },
{ "type": "Feature", "properties": { "osm_id": "199168935", "type": "preserved", "other_tags": "\"service\"=>\"siding\"" }, "geometry": { "type": "LineString", "coordinates": [ [ -1.9504416, 53.8162075 ], [ -1.9506404, 53.816121 ], [ -1.9508226, 53.8160417 ], [ -1.9510962, 53.8158865 ] ] } },
{ "type": "Feature", "properties": { "osm_id": "199169094", "type": "preserved", "other_tags": "\"service\"=>\"yard\"" }, "geometry": { "type": "LineString", "coordinates": [ [ -1.9517292, 53.8152626 ], [ -1.9518151, 53.8150583 ], [ -1.9518865, 53.8148214 ], [ -1.9519294, 53.8146156 ], [ -1.9520072, 53.814283 ] ] } },
{ "type": "Feature", "properties": { "osm_id": "199169096", "type": "preserved", "other_tags": "\"service\"=>\"yard\"" }, "geometry": { "type": "LineString", "coordinates": [ [ -1.9517245, 53.8153155 ], [ -1.9518714, 53.815147 ], [ -1.9519599, 53.8150124 ], [ -1.951984, 53.8149696 ] ] } },
{ "type": "Feature", "properties": { "osm_id": "199169097", "type": "preserved", "other_tags": "\"service\"=>\"yard\"" }, "geometry": { "type": "LineString", "coordinates": [ [ -1.9516116, 53.815402 ], [ -1.9517292, 53.8152626 ], [ -1.9518392, 53.8151201 ], [ -1.9519277, 53.8149586 ] ] } },
{ "type": "Feature", "properties": { "osm_id": "200425324", "name": "Keighley and Worth Valley Railway", "type": "preserved" }, "geometry": { "type": "LineString", "coordinates": [ [ -1.9001503, 53.8662789 ], [ -1.9001101, 53.8664924 ] ] } },
{ "type": "Feature", "properties": { "osm_id": "260613593", "type": "preserved", "other_tags": "\"layer\"=>\"1\",\"bridge\"=>\"viaduct\"" }, "geometry": { "type": "LineString", "coordinates": [ [ -1.9002603, 53.8658044 ], [ -1.9001651, 53.8659952 ] ] } },
{ "type": "Feature", "properties": { "osm_id": "260613594", "type": "preserved", "other_tags": "\"layer\"=>\"1\",\"bridge\"=>\"viaduct\"" }, "geometry": { "type": "LineString", "coordinates": [ [ -1.9000425, 53.8666163 ], [ -1.900112, 53.8668161 ] ] } },
{ "type": "Feature", "properties": { "osm_id": "260613596", "type": "preserved" }, "geometry": { "type": "LineString", "coordinates": [ [ -1.9001987, 53.866805 ], [ -1.9002942, 53.8669848 ], [ -1.9004927, 53.8672078 ], [ -1.9008334, 53.8674751 ], [ -1.9011338, 53.8676475 ], [ -1.9016434, 53.8678753 ] ] } },
{ "type": "Feature", "properties": { "osm_id": "260613597", "type": "preserved" }, "geometry": { "type": "LineString", "coordinates": [ [ -1.9028138, 53.8645065 ], [ -1.9023971, 53.864625 ], [ -1.9019974, 53.8647357 ], [ -1.9014798, 53.8649034 ], [ -1.901132, 53.8650341 ], [ -1.9008092, 53.8652181 ], [ -1.9006644, 53.865351 ], [ -1.9003837, 53.8656288 ], [ -1.9002603, 53.8658044 ] ] } },
{ "type": "Feature", "properties": { "osm_id": "260613599", "type": "preserved" }, "geometry": { "type": "LineString", "coordinates": [ [ -1.9001651, 53.8659952 ], [ -1.9001395, 53.8660787 ], [ -1.9001021, 53.8662599 ], [ -1.9001101, 53.8664924 ], [ -1.9001316, 53.8666051 ] ] } },
{ "type": "Feature", "properties": { "osm_id": "260613601", "name": "Keighley and Worth Valley Railway", "type": "preserved", "other_tags": "\"layer\"=>\"1\",\"bridge\"=>\"viaduct\"" }, "geometry": { "type": "LineString", "coordinates": [ [ -1.9001795, 53.866601 ], [ -1.9002569, 53.8667942 ] ] } },
{ "type": "Feature", "properties": { "osm_id": "260613602", "type": "preserved", "other_tags": "\"layer\"=>\"1\",\"bridge\"=>\"viaduct\"" }, "geometry": { "type": "LineString", "coordinates": [ [ -1.9032326, 53.8643679 ], [ -1.9028138, 53.8645065 ] ] } },
{ "type": "Feature", "properties": { "osm_id": "260613603", "type": "preserved" }, "geometry": { "type": "LineString", "coordinates": [ [ -1.900112, 53.8668161 ], [ -1.9001933, 53.867038 ], [ -1.900263, 53.8672326 ], [ -1.9003237, 53.8674166 ] ] } },
{ "type": "Feature", "properties": { "osm_id": "260613604", "name": "Keighley and Worth Valley Railway", "type": "preserved" }, "geometry": { "type": "LineString", "coordinates": [ [ -1.9002569, 53.8667942 ], [ -1.9003731, 53.8669984 ], [ -1.9004874, 53.8671367 ], [ -1.9006128, 53.8672527 ], [ -1.9007677, 53.8673812 ], [ -1.9010308, 53.8675541 ], [ -1.9013457, 53.8677033 ], [ -1.9016689, 53.8678492 ] ] } },
{ "type": "Feature", "properties": { "osm_id": "260613605", "type": "preserved", "other_tags": "\"layer\"=>\"1\",\"bridge\"=>\"viaduct\"" }, "geometry": { "type": "LineString", "coordinates": [ [ -1.9001316, 53.8666051 ], [ -1.9001987, 53.866805 ] ] } },
{ "type": "Feature", "properties": { "osm_id": "304401949", "type": "preserved", "other_tags": "\"electrified\"=>\"no\"" }, "geometry": { "type": "LineString", "coordinates": [ [ -1.539089, 53.7738015 ], [ -1.5390157, 53.7739155 ], [ -1.538887, 53.7740898 ] ] } },
{ "type": "Feature", "properties": { "osm_id": "304401951", "type": "preserved", "other_tags": "\"electrified\"=>\"no\"" }, "geometry": { "type": "LineString", "coordinates": [ [ -1.5387125, 53.7741038 ], [ -1.5388709, 53.7738172 ], [ -1.5389648, 53.7735699 ], [ -1.539182, 53.7729612 ] ] } },
{ "type": "Feature", "properties": { "osm_id": "304401952", "type": "preserved", "other_tags": "\"electrified\"=>\"no\"" }, "geometry": { "type": "LineString", "coordinates": [ [ -1.5391729, 53.7733667 ], [ -1.5393081, 53.7728582 ] ] } },
{ "type": "Feature", "properties": { "osm_id": "304401953", "type": "preserved", "other_tags": "\"electrified\"=>\"no\"" }, "geometry": { "type": "LineString", "coordinates": [ [ -1.5390157, 53.7739155 ], [ -1.5388414, 53.7740787 ] ] } },
{ "type": "Feature", "properties": { "osm_id": "304401954", "type": "preserved", "other_tags": "\"electrified\"=>\"no\"" }, "geometry": { "type": "LineString", "coordinates": [ [ -1.5389648, 53.7735699 ], [ -1.5391639, 53.7731832 ] ] } }
]
}
