{
"type": "FeatureCollection",
"crs": { "type": "name", "properties": { "name": "urn:ogc:def:crs:OGC:1.3:CRS84" } },
"features": [
{ "type": "Feature", "properties": { "osm_id": 124914453, "centroid": { "latitude": 53.643728, "longitude": -1.779783 }, "area": 1125, "name": "St Paul's Hall", "type": "concert_hall", "building": "yes", "other_tags": "\"old_name\"=>\"St Paul's Church\",\"operator\"=>\"University of Huddersfield\"" }, "geometry": { "type": "MultiPolygon", "coordinates": [ [ [ [ -1.7794904, 53.6437643 ], [ -1.7794504, 53.6437422 ], [ -1.7794508, 53.6437105 ], [ -1.779485, 53.6436912 ], [ -1.7795333, 53.6436864 ], [ -1.7795333, 53.6436641 ], [ -1.7796057, 53.6436657 ], [ -1.7796057, 53.6436419 ], [ -1.7800134, 53.6436419 ], [ -1.7800094, 53.6436848 ], [ -1.7800859, 53.6436864 ], [ -1.7800912, 53.6437659 ], [ -1.7800108, 53.6437659 ], [ -1.7800108, 53.6438168 ], [ -1.7796138, 53.6438136 ], [ -1.7796165, 53.6437929 ], [ -1.7795306, 53.6437898 ], [ -1.7795333, 53.6437707 ], [ -1.7794904, 53.6437643 ] ] ] ] } }
]
}
