{
"type": "FeatureCollection",
"crs": { "type": "name", "properties": { "name": "urn:ogc:def:crs:OGC:1.3:CRS84" } },
"features": [
{ "type": "Feature", "properties": { "osm_id": 308901065, "centroid": { "latitude": 53.644728, "longitude": -1.409662 }, "area": 486631, "name": "HS2 - New Crofton Rolling Stock Depot (Proposed)", "boundary": "operational", "type": "proposed_rail_depot", "other_tags": "\"ref:section\"=>\"HSL17\"" }, "geometry": { "type": "MultiPolygon", "coordinates": [ [ [ [ -1.4024062, 53.6438076 ], [ -1.4021021, 53.6436936 ], [ -1.4015628, 53.6431556 ], [ -1.4009653, 53.6426307 ], [ -1.4006065, 53.6422539 ], [ -1.4001836, 53.6416922 ], [ -1.3999983, 53.6413613 ], [ -1.3999779, 53.641263 ], [ -1.3995506, 53.641151 ], [ -1.3994724, 53.6411178 ], [ -1.3993445, 53.6410333 ], [ -1.3992566, 53.6409235 ], [ -1.399219, 53.640791 ], [ -1.3992508, 53.640677 ], [ -1.3996311, 53.6403212 ], [ -1.3998055, 53.6402408 ], [ -1.4000172, 53.6401943 ], [ -1.4002449, 53.6401888 ], [ -1.4003994, 53.6402109 ], [ -1.4007302, 53.6403533 ], [ -1.4015437, 53.640878 ], [ -1.4017287, 53.6409812 ], [ -1.4017867, 53.6410428 ], [ -1.402346, 53.6413827 ], [ -1.4023882, 53.6414373 ], [ -1.4024102, 53.641556 ], [ -1.4025151, 53.641688 ], [ -1.4024204, 53.6418567 ], [ -1.4023951, 53.6418552 ], [ -1.4025371, 53.6419086 ], [ -1.4030989, 53.6420414 ], [ -1.4036116, 53.6422388 ], [ -1.4063753, 53.6429613 ], [ -1.4072136, 53.643166 ], [ -1.4087818, 53.6435006 ], [ -1.4102666, 53.6438479 ], [ -1.4112083, 53.6442516 ], [ -1.4117526, 53.6444113 ], [ -1.4128006, 53.6447804 ], [ -1.413438, 53.6450276 ], [ -1.4138011, 53.6451896 ], [ -1.4148654, 53.6456012 ], [ -1.4169791, 53.6460189 ], [ -1.4178333, 53.6462081 ], [ -1.4190941, 53.6465148 ], [ -1.419382, 53.6465877 ], [ -1.4196376, 53.6466955 ], [ -1.4201714, 53.6468635 ], [ -1.420951, 53.6471411 ], [ -1.4232274, 53.6476306 ], [ -1.4242481, 53.6478973 ], [ -1.423891, 53.6483877 ], [ -1.42256, 53.648011 ], [ -1.4214445, 53.6477328 ], [ -1.4207667, 53.6475396 ], [ -1.4200292, 53.6474238 ], [ -1.4193076, 53.6472752 ], [ -1.4178768, 53.6468827 ], [ -1.4168967, 53.6467121 ], [ -1.4164165, 53.6466553 ], [ -1.4148912, 53.6466099 ], [ -1.4138309, 53.6465627 ], [ -1.4135946, 53.6465657 ], [ -1.4137766, 53.6466095 ], [ -1.414804, 53.6467861 ], [ -1.4152008, 53.6468801 ], [ -1.415936, 53.6470982 ], [ -1.416356, 53.6472042 ], [ -1.4178074, 53.6476911 ], [ -1.4183462, 53.6478531 ], [ -1.4186316, 53.6479099 ], [ -1.4191165, 53.6480615 ], [ -1.4191591, 53.6480916 ], [ -1.4191699, 53.6481259 ], [ -1.4190866, 53.6482709 ], [ -1.4190656, 53.6483519 ], [ -1.4190689, 53.6485546 ], [ -1.4189346, 53.648616 ], [ -1.4188885, 53.6485804 ], [ -1.4184925, 53.6484628 ], [ -1.4113614, 53.6463799 ], [ -1.4105774, 53.6461951 ], [ -1.4024062, 53.6438076 ] ] ] ] } }
]
}
