{
"type": "FeatureCollection",
"crs": { "type": "name", "properties": { "name": "urn:ogc:def:crs:OGC:1.3:CRS84" } },
"features": [
{ "type": "Feature", "properties": { "osm_id": 78517297, "centroid": { "latitude": 53.792163, "longitude": -1.578695 }, "area": 1155, "name": "Sri Guru Nanak Sikh Temple", "amenity": "place_of_worship", "type": "temple", "other_tags": "\"religion\"=>\"sikh\"" }, "geometry": { "type": "MultiPolygon", "coordinates": [ [ [ [ -1.5789312, 53.7920509 ], [ -1.5786647, 53.7920001 ], [ -1.5786208, 53.7920803 ], [ -1.578552, 53.7920672 ], [ -1.578449, 53.7922558 ], [ -1.5787844, 53.7923197 ], [ -1.5789312, 53.7920509 ] ] ] ] } },
{ "type": "Feature", "properties": { "osm_id": 81290286, "centroid": { "latitude": 53.650579, "longitude": -1.792421 }, "area": 286, "name": "Huddersfield Apostolic Church", "amenity": "place_of_worship", "type": "temple", "other_tags": "\"religion\"=>\"christian\",\"addr:city\"=>\"Huddersfield\",\"addr:street\"=>\"Mountjoy Road\",\"denomination\"=>\"apostolic\",\"addr:postcode\"=>\"HD1 5QQ\"" }, "geometry": { "type": "MultiPolygon", "coordinates": [ [ [ [ -1.7925531, 53.6506276 ], [ -1.7923933, 53.6506495 ], [ -1.7923796, 53.6506142 ], [ -1.7922995, 53.6506251 ], [ -1.7922731, 53.6505572 ], [ -1.792513, 53.6505244 ], [ -1.7925531, 53.6506276 ] ] ] ] } },
{ "type": "Feature", "properties": { "osm_id": 252174599, "centroid": { "latitude": 53.792610, "longitude": -1.735008 }, "area": 1205, "name": "Bradford Mandir", "amenity": "place_of_worship", "type": "temple", "other_tags": "\"religion\"=>\"hindu\"" }, "geometry": { "type": "MultiPolygon", "coordinates": [ [ [ [ -1.7351608, 53.7927465 ], [ -1.7351974, 53.7926024 ], [ -1.7352535, 53.7926067 ], [ -1.7352754, 53.7925433 ], [ -1.7352096, 53.7925361 ], [ -1.7352169, 53.7925072 ], [ -1.7349021, 53.7924799 ], [ -1.7348338, 53.7925072 ], [ -1.7348216, 53.7925519 ], [ -1.7347875, 53.792549 ], [ -1.7347728, 53.7926398 ], [ -1.7348021, 53.7926413 ], [ -1.7347924, 53.7926831 ], [ -1.7348412, 53.7927205 ], [ -1.7351608, 53.7927465 ] ] ] ] } },
{ "type": "Feature", "properties": { "osm_id": 439206313, "centroid": { "latitude": 53.795989, "longitude": -1.738589 }, "area": 811, "name": "Gurdwara Singh Sabha Bradford", "amenity": "place_of_worship", "type": "temple", "other_tags": "\"religion\"=>\"sikh\"" }, "geometry": { "type": "MultiPolygon", "coordinates": [ [ [ [ -1.7386075, 53.7961322 ], [ -1.7386822, 53.7960575 ], [ -1.7387259, 53.7960728 ], [ -1.7387701, 53.7960286 ], [ -1.7387203, 53.7960112 ], [ -1.7387974, 53.7959341 ], [ -1.7385628, 53.7958522 ], [ -1.7383668, 53.7960482 ], [ -1.7386075, 53.7961322 ] ] ] ] } }
]
}
