{
"type": "FeatureCollection",
"crs": { "type": "name", "properties": { "name": "urn:ogc:def:crs:OGC:1.3:CRS84" } },
"features": [
{ "type": "Feature", "properties": { "osm_id": "36992061", "name": "Otley", "type": "weir", "other_tags": "\"layer\"=>\"1\",\"description\"=>\"Intact weir feeding water to paper mill, now closed\"" }, "geometry": { "type": "LineString", "coordinates": [ [ -1.693839, 53.9098736 ], [ -1.6931448, 53.9100757 ], [ -1.6923353, 53.9102119 ], [ -1.6911826, 53.9105519 ] ] } },
{ "type": "Feature", "properties": { "osm_id": "55501333", "type": "weir", "other_tags": "\"layer\"=>\"1\"" }, "geometry": { "type": "LineString", "coordinates": [ [ -1.4915415, 53.6763128 ], [ -1.4907674, 53.6767073 ], [ -1.4900931, 53.6770562 ] ] } },
{ "type": "Feature", "properties": { "osm_id": "55796495", "type": "weir" }, "geometry": { "type": "LineString", "coordinates": [ [ -1.465981, 53.7656447 ], [ -1.4654501, 53.765589 ] ] } },
{ "type": "Feature", "properties": { "osm_id": "56116945", "name": "Leeds Dam", "type": "weir", "other_tags": "\"layer\"=>\"1\"" }, "geometry": { "type": "LineString", "coordinates": [ [ -1.5342251, 53.7934001 ], [ -1.5335271, 53.7934114 ], [ -1.5328142, 53.7934265 ] ] } },
{ "type": "Feature", "properties": { "osm_id": "60137550", "type": "weir", "other_tags": "\"historic\"=>\"yes\"" }, "geometry": { "type": "LineString", "coordinates": [ [ -1.7097052, 53.9040065 ], [ -1.7095303, 53.9037285 ] ] } },
{ "type": "Feature", "properties": { "osm_id": "89118969", "type": "weir" }, "geometry": { "type": "LineString", "coordinates": [ [ -1.7496962, 53.9223198 ], [ -1.7501358, 53.9223893 ], [ -1.7504859, 53.9225409 ] ] } },
{ "type": "Feature", "properties": { "osm_id": "95070720", "type": "weir" }, "geometry": { "type": "LineString", "coordinates": [ [ -1.5258012, 53.9096345 ], [ -1.5260909, 53.9098968 ], [ -1.5261522, 53.9100451 ], [ -1.5262141, 53.9101868 ] ] } },
{ "type": "Feature", "properties": { "osm_id": "95070721", "type": "weir" }, "geometry": { "type": "LineString", "coordinates": [ [ -1.5328072, 53.9093565 ], [ -1.532704, 53.9091453 ], [ -1.5326409, 53.9090089 ], [ -1.5323288, 53.9088267 ], [ -1.5319252, 53.9085454 ] ] } },
{ "type": "Feature", "properties": { "osm_id": "96072752", "type": "weir" }, "geometry": { "type": "LineString", "coordinates": [ [ -1.3591948, 53.920005 ], [ -1.3591558, 53.9200706 ], [ -1.3591082, 53.9201295 ], [ -1.3590378, 53.9201844 ], [ -1.3589573, 53.9202286 ], [ -1.3588447, 53.9202539 ], [ -1.3587803, 53.9202539 ], [ -1.3586891, 53.9202539 ] ] } },
{ "type": "Feature", "properties": { "osm_id": "112467351", "type": "weir" }, "geometry": { "type": "LineString", "coordinates": [ [ -1.7718901, 53.8378384 ], [ -1.7720003, 53.8377957 ], [ -1.7721573, 53.8377049 ], [ -1.7722969, 53.8376249 ], [ -1.772385, 53.8375522 ], [ -1.7725928, 53.8374025 ], [ -1.7726591, 53.8372603 ] ] } },
{ "type": "Feature", "properties": { "osm_id": "112471117", "type": "weir" }, "geometry": { "type": "LineString", "coordinates": [ [ -1.6442358, 53.8194924 ], [ -1.6438753, 53.8194429 ], [ -1.643787, 53.8194357 ], [ -1.6434092, 53.8194279 ] ] } },
{ "type": "Feature", "properties": { "osm_id": "118343743", "type": "weir" }, "geometry": { "type": "LineString", "coordinates": [ [ -1.6485155, 53.9061615 ], [ -1.6483932, 53.9062198 ], [ -1.6481342, 53.9061249 ], [ -1.6478928, 53.9060949 ], [ -1.6477814, 53.9060609 ], [ -1.6474744, 53.9059874 ], [ -1.6473215, 53.9059447 ], [ -1.6471793, 53.9059037 ], [ -1.6470157, 53.9058847 ], [ -1.6467824, 53.9058989 ], [ -1.6469215, 53.9057594 ], [ -1.646952, 53.9057264 ], [ -1.6470908, 53.9057472 ], [ -1.6474744, 53.9058626 ], [ -1.647866, 53.9059779 ], [ -1.6483863, 53.906087 ], [ -1.6485155, 53.9061615 ] ] } },
{ "type": "Feature", "properties": { "osm_id": "128168252", "type": "weir" }, "geometry": { "type": "LineString", "coordinates": [ [ -1.3450601, 53.9074592 ], [ -1.345979, 53.9076703 ], [ -1.3467246, 53.907792 ] ] } },
{ "type": "Feature", "properties": { "osm_id": "128168893", "type": "weir" }, "geometry": { "type": "LineString", "coordinates": [ [ -1.3867592, 53.9267294 ], [ -1.387033, 53.9265778 ], [ -1.3873815, 53.9264103 ], [ -1.3875371, 53.9262587 ] ] } },
{ "type": "Feature", "properties": { "osm_id": "150612031", "type": "weir" }, "geometry": { "type": "LineString", "coordinates": [ [ -1.6046877, 53.8192883 ], [ -1.6047365, 53.819306 ], [ -1.6050583, 53.819325 ], [ -1.6055991, 53.8193467 ], [ -1.6062585, 53.8193639 ] ] } },
{ "type": "Feature", "properties": { "osm_id": "150612032", "type": "weir" }, "geometry": { "type": "LineString", "coordinates": [ [ -1.6045173, 53.8193575 ], [ -1.6045871, 53.8193294 ], [ -1.6046435, 53.8192702 ] ] } },
{ "type": "Feature", "properties": { "osm_id": "159046898", "type": "weir" }, "geometry": { "type": "LineString", "coordinates": [ [ -1.7915818, 53.5479065 ], [ -1.7914874, 53.5479205 ], [ -1.7912801, 53.5475399 ], [ -1.7909502, 53.5472652 ], [ -1.791257, 53.5472366 ], [ -1.7913597, 53.5475311 ], [ -1.7915818, 53.5479065 ] ] } },
{ "type": "Feature", "properties": { "osm_id": "184624353", "type": "weir" }, "geometry": { "type": "LineString", "coordinates": [ [ -1.5630735, 53.6085949 ], [ -1.5629796, 53.6085981 ] ] } },
{ "type": "Feature", "properties": { "osm_id": "184624354", "type": "weir" }, "geometry": { "type": "LineString", "coordinates": [ [ -1.5634652, 53.60782 ], [ -1.5634438, 53.6076449 ] ] } },
{ "type": "Feature", "properties": { "osm_id": "184624356", "type": "weir" }, "geometry": { "type": "LineString", "coordinates": [ [ -1.5631432, 53.6082575 ], [ -1.5630634, 53.6082777 ], [ -1.5630205, 53.608284 ], [ -1.5629501, 53.6082909 ], [ -1.562883, 53.6082814 ] ] } },
{ "type": "Feature", "properties": { "osm_id": "184624357", "type": "weir" }, "geometry": { "type": "LineString", "coordinates": [ [ -1.5632451, 53.6090484 ], [ -1.5631814, 53.6090574 ], [ -1.5630762, 53.6090675 ] ] } },
{ "type": "Feature", "properties": { "osm_id": "189044633", "type": "weir" }, "geometry": { "type": "LineString", "coordinates": [ [ -1.5326829, 53.7925374 ], [ -1.5326379, 53.792569 ] ] } },
{ "type": "Feature", "properties": { "osm_id": "193654514", "type": "weir" }, "geometry": { "type": "LineString", "coordinates": [ [ -1.8760765, 53.9496017 ], [ -1.8763823, 53.948934 ], [ -1.8764144, 53.9488472 ], [ -1.8764198, 53.948661 ], [ -1.8761588, 53.9480923 ] ] } },
{ "type": "Feature", "properties": { "osm_id": "196264687", "type": "weir" }, "geometry": { "type": "LineString", "coordinates": [ [ -1.8621333, 53.9398885 ], [ -1.8620647, 53.9399499 ], [ -1.8619363, 53.9399953 ], [ -1.8619574, 53.9399878 ], [ -1.8619363, 53.9399953 ], [ -1.8619092, 53.9399373 ], [ -1.8617319, 53.9399547 ], [ -1.8617375, 53.9400225 ], [ -1.8616624, 53.9400383 ], [ -1.861562, 53.9400371 ] ] } },
{ "type": "Feature", "properties": { "osm_id": "196264699", "type": "weir" }, "geometry": { "type": "LineString", "coordinates": [ [ -1.8620985, 53.9397578 ], [ -1.8619306, 53.9398615 ], [ -1.8617982, 53.9398975 ], [ -1.8614564, 53.9399422 ] ] } },
{ "type": "Feature", "properties": { "osm_id": "226729763", "type": "weir" }, "geometry": { "type": "LineString", "coordinates": [ [ -1.8027461, 53.8414473 ], [ -1.8029319, 53.8414929 ], [ -1.803111, 53.8415629 ], [ -1.803074, 53.8417364 ] ] } },
{ "type": "Feature", "properties": { "osm_id": "250452547", "type": "weir", "other_tags": "\"layer\"=>\"1\"" }, "geometry": { "type": "LineString", "coordinates": [ [ -1.734319, 53.6812754 ], [ -1.7341737, 53.6814048 ], [ -1.7339123, 53.6815473 ] ] } },
{ "type": "Feature", "properties": { "osm_id": "250452548", "type": "weir", "other_tags": "\"layer\"=>\"1\"" }, "geometry": { "type": "LineString", "coordinates": [ [ -1.7217426, 53.6836658 ], [ -1.7210279, 53.6835197 ], [ -1.7203831, 53.6833242 ] ] } },
{ "type": "Feature", "properties": { "osm_id": "250459114", "type": "weir", "other_tags": "\"layer\"=>\"1\"" }, "geometry": { "type": "LineString", "coordinates": [ [ -1.7461964, 53.6941994 ], [ -1.7457964, 53.6940249 ], [ -1.7455177, 53.6939006 ], [ -1.7453438, 53.6938258 ] ] } },
{ "type": "Feature", "properties": { "osm_id": "250526714", "type": "weir", "other_tags": "\"layer\"=>\"1\"" }, "geometry": { "type": "LineString", "coordinates": [ [ -1.6980888, 53.6733956 ], [ -1.6975453, 53.672985 ], [ -1.6971411, 53.6726705 ] ] } },
{ "type": "Feature", "properties": { "osm_id": "250533448", "type": "weir", "other_tags": "\"layer\"=>\"1\"" }, "geometry": { "type": "LineString", "coordinates": [ [ -1.6730154, 53.6745916 ], [ -1.6728673, 53.6745888 ], [ -1.6725387, 53.6746404 ], [ -1.6718061, 53.6747553 ] ] } },
{ "type": "Feature", "properties": { "osm_id": "250560211", "type": "weir" }, "geometry": { "type": "LineString", "coordinates": [ [ -1.6453227, 53.6803772 ], [ -1.6448155, 53.6804635 ], [ -1.6443728, 53.6805121 ], [ -1.6438481, 53.680525 ], [ -1.6434965, 53.6805186 ], [ -1.6430939, 53.6804376 ], [ -1.6423857, 53.6803484 ] ] } },
{ "type": "Feature", "properties": { "osm_id": "280004480", "type": "weir" }, "geometry": { "type": "LineString", "coordinates": [ [ -1.4935467, 53.8316068 ], [ -1.4932944, 53.8314008 ] ] } },
{ "type": "Feature", "properties": { "osm_id": "282415151", "type": "weir" }, "geometry": { "type": "LineString", "coordinates": [ [ -1.7825658, 53.6991363 ], [ -1.7823868, 53.6992282 ], [ -1.7821859, 53.6993229 ], [ -1.7819847, 53.6994126 ], [ -1.7817407, 53.6994999 ] ] } },
{ "type": "Feature", "properties": { "osm_id": "286823633", "type": "weir" }, "geometry": { "type": "LineString", "coordinates": [ [ -1.9169915, 53.6091509 ], [ -1.9169115, 53.6091831 ] ] } },
{ "type": "Feature", "properties": { "osm_id": "289425891", "type": "weir" }, "geometry": { "type": "LineString", "coordinates": [ [ -1.9332744, 53.9251287 ], [ -1.9333398, 53.9249505 ], [ -1.933418, 53.9247373 ] ] } },
{ "type": "Feature", "properties": { "osm_id": "293519963", "type": "weir" }, "geometry": { "type": "LineString", "coordinates": [ [ -1.8200677, 53.8411729 ], [ -1.8199454, 53.8410942 ] ] } },
{ "type": "Feature", "properties": { "osm_id": "293523829", "type": "weir" }, "geometry": { "type": "LineString", "coordinates": [ [ -1.8016798, 53.8401398 ], [ -1.8016018, 53.8401366 ] ] } },
{ "type": "Feature", "properties": { "osm_id": "293531360", "type": "weir", "other_tags": "\"layer\"=>\"1\"" }, "geometry": { "type": "LineString", "coordinates": [ [ -1.7455629, 53.8457542 ], [ -1.7454051, 53.8458235 ] ] } },
{ "type": "Feature", "properties": { "osm_id": "294471922", "type": "weir" }, "geometry": { "type": "LineString", "coordinates": [ [ -1.6218795, 53.8229262 ], [ -1.6218186, 53.8229473 ] ] } },
{ "type": "Feature", "properties": { "osm_id": "294471923", "type": "weir" }, "geometry": { "type": "LineString", "coordinates": [ [ -1.6122705, 53.8186525 ], [ -1.6121257, 53.8186184 ] ] } },
{ "type": "Feature", "properties": { "osm_id": "294473021", "type": "weir" }, "geometry": { "type": "LineString", "coordinates": [ [ -1.5866089, 53.8035938 ], [ -1.5865927, 53.803463 ], [ -1.5865839, 53.8034006 ], [ -1.5865575, 53.8033556 ], [ -1.5864872, 53.8033071 ], [ -1.5858845, 53.803148 ], [ -1.5854197, 53.8030785 ], [ -1.5851029, 53.8030404 ], [ -1.5849227, 53.8030239 ] ] } },
{ "type": "Feature", "properties": { "osm_id": "294476534", "type": "weir" }, "geometry": { "type": "LineString", "coordinates": [ [ -1.5618991, 53.7947231 ], [ -1.5618663, 53.7947254 ], [ -1.5618133, 53.7947367 ] ] } },
{ "type": "Feature", "properties": { "osm_id": "294500482", "type": "weir", "other_tags": "\"layer\"=>\"1\"" }, "geometry": { "type": "LineString", "coordinates": [ [ -1.5121908, 53.7771789 ], [ -1.5122222, 53.7773598 ], [ -1.5122252, 53.7775843 ], [ -1.5121647, 53.7778228 ] ] } },
{ "type": "Feature", "properties": { "osm_id": "294505116", "type": "weir", "other_tags": "\"layer\"=>\"1\"" }, "geometry": { "type": "LineString", "coordinates": [ [ -1.5126432, 53.7768285 ], [ -1.5125961, 53.7767993 ] ] } },
{ "type": "Feature", "properties": { "osm_id": "294512699", "type": "weir", "other_tags": "\"layer\"=>\"1\"" }, "geometry": { "type": "LineString", "coordinates": [ [ -1.5048122, 53.776339 ], [ -1.5042161, 53.7763703 ] ] } },
{ "type": "Feature", "properties": { "osm_id": "294522010", "type": "weir" }, "geometry": { "type": "LineString", "coordinates": [ [ -1.4659045, 53.7659261 ], [ -1.4653721, 53.7658754 ] ] } },
{ "type": "Feature", "properties": { "osm_id": "294522011", "type": "weir" }, "geometry": { "type": "LineString", "coordinates": [ [ -1.466159, 53.7658691 ], [ -1.4661177, 53.7658736 ] ] } },
{ "type": "Feature", "properties": { "osm_id": "294522012", "type": "weir", "other_tags": "\"layer\"=>\"1\"" }, "geometry": { "type": "LineString", "coordinates": [ [ -1.492457, 53.7718627 ], [ -1.4927984, 53.7716779 ] ] } },
{ "type": "Feature", "properties": { "osm_id": "294523672", "type": "weir", "other_tags": "\"layer\"=>\"1\"" }, "geometry": { "type": "LineString", "coordinates": [ [ -1.477297, 53.766512 ], [ -1.477307, 53.7663556 ] ] } },
{ "type": "Feature", "properties": { "osm_id": "295162009", "type": "weir" }, "geometry": { "type": "LineString", "coordinates": [ [ -1.4659696, 53.7656784 ], [ -1.4654405, 53.7656243 ] ] } },
{ "type": "Feature", "properties": { "osm_id": "295213221", "type": "weir" }, "geometry": { "type": "LineString", "coordinates": [ [ -1.4234331, 53.7515903 ], [ -1.4237769, 53.7513492 ] ] } },
{ "type": "Feature", "properties": { "osm_id": "295213222", "type": "weir" }, "geometry": { "type": "LineString", "coordinates": [ [ -1.44573, 53.7606562 ], [ -1.4456775, 53.7606429 ] ] } },
{ "type": "Feature", "properties": { "osm_id": "295213223", "type": "weir" }, "geometry": { "type": "LineString", "coordinates": [ [ -1.4225871, 53.7484407 ], [ -1.4224117, 53.7484812 ], [ -1.4222291, 53.7485281 ] ] } },
{ "type": "Feature", "properties": { "osm_id": "295357071", "type": "weir" }, "geometry": { "type": "LineString", "coordinates": [ [ -1.3582247, 53.7310767 ], [ -1.3581972, 53.7311275 ] ] } },
{ "type": "Feature", "properties": { "osm_id": "295410488", "type": "weir" }, "geometry": { "type": "LineString", "coordinates": [ [ -1.3528013, 53.7282344 ], [ -1.3526209, 53.7286038 ], [ -1.352673, 53.7286685 ], [ -1.3524596, 53.7287413 ], [ -1.3525082, 53.7287916 ], [ -1.3528135, 53.7286767 ], [ -1.3528963, 53.728717 ] ] } },
{ "type": "Feature", "properties": { "osm_id": "295462319", "type": "weir" }, "geometry": { "type": "LineString", "coordinates": [ [ -1.2539183, 53.7121488 ], [ -1.2540114, 53.71207 ], [ -1.2540663, 53.7119853 ], [ -1.2540949, 53.7119006 ], [ -1.254107, 53.7118274 ], [ -1.2540949, 53.7117198 ], [ -1.2540567, 53.7116153 ], [ -1.2540114, 53.7114678 ] ] } },
{ "type": "Feature", "properties": { "osm_id": "398113400", "type": "weir" }, "geometry": { "type": "LineString", "coordinates": [ [ -1.9341515, 53.6019105 ], [ -1.9340265, 53.6020468 ] ] } }
]
}
