{
"type": "FeatureCollection",
"crs": { "type": "name", "properties": { "name": "urn:ogc:def:crs:OGC:1.3:CRS84" } },
"features": [
{ "type": "Feature", "properties": { "osm_id": 1926492, "centroid": { "latitude": 53.805350, "longitude": -1.524543 }, "area": 7259, "type": "hospital" }, "geometry": { "type": "MultiPolygon", "coordinates": [ [ [ [ -1.5242197, 53.805502 ], [ -1.5241597, 53.8053775 ], [ -1.5237248, 53.8054507 ], [ -1.5236738, 53.805345 ], [ -1.524124, 53.8052693 ], [ -1.5239888, 53.8049891 ], [ -1.5241687, 53.8049588 ], [ -1.5243029, 53.8052373 ], [ -1.5246107, 53.8051855 ], [ -1.5244746, 53.8049033 ], [ -1.5246558, 53.8048728 ], [ -1.5247912, 53.8051536 ], [ -1.5251899, 53.8050865 ], [ -1.5252404, 53.8051912 ], [ -1.5248557, 53.8052559 ], [ -1.5249153, 53.8053795 ], [ -1.5250774, 53.8053494 ], [ -1.5250861, 53.805376 ], [ -1.5250965, 53.80542 ], [ -1.5250965, 53.8054497 ], [ -1.525093, 53.8054845 ], [ -1.5250844, 53.80551 ], [ -1.5250722, 53.8055438 ], [ -1.5250536, 53.805567 ], [ -1.5250393, 53.8055847 ], [ -1.5249873, 53.8056297 ], [ -1.5249423, 53.8056072 ], [ -1.5249052, 53.8056292 ], [ -1.524873, 53.8056482 ], [ -1.524918, 53.8056778 ], [ -1.5248574, 53.8057034 ], [ -1.5248002, 53.8057229 ], [ -1.5247465, 53.8057331 ], [ -1.5246772, 53.8057423 ], [ -1.5246217, 53.8057464 ], [ -1.5245368, 53.8057443 ], [ -1.5245403, 53.8056778 ], [ -1.5245039, 53.8056727 ], [ -1.5244675, 53.8056676 ], [ -1.5244259, 53.8056594 ], [ -1.5243913, 53.8056512 ], [ -1.5243497, 53.8056359 ], [ -1.5243168, 53.8056226 ], [ -1.5242735, 53.8056011 ], [ -1.5242405, 53.8055786 ], [ -1.5242145, 53.8055479 ], [ -1.5241834, 53.8055059 ], [ -1.5242197, 53.805502 ] ], [ [ -1.5245765, 53.8053445 ], [ -1.5245732, 53.8053637 ], [ -1.5245507, 53.805375 ], [ -1.5245247, 53.8053801 ], [ -1.5245022, 53.805376 ], [ -1.5244815, 53.8053604 ], [ -1.5244551, 53.8053649 ], [ -1.5244376, 53.8053286 ], [ -1.5243537, 53.8053427 ], [ -1.5244241, 53.8054887 ], [ -1.5244606, 53.8055162 ], [ -1.5245022, 53.8055325 ], [ -1.524549, 53.8055397 ], [ -1.5245975, 53.8055418 ], [ -1.5246408, 53.8055366 ], [ -1.524665, 53.8055274 ], [ -1.5246165, 53.8055008 ], [ -1.5246685, 53.8054589 ], [ -1.5247312, 53.8054964 ], [ -1.5247448, 53.8054568 ], [ -1.5247455, 53.8054284 ], [ -1.5246773, 53.8052871 ], [ -1.5246061, 53.8052991 ], [ -1.5246241, 53.8053365 ], [ -1.5245765, 53.8053445 ] ] ] ] } },
{ "type": "Feature", "properties": { "osm_id": 2262263, "centroid": { "latitude": 53.914356, "longitude": -1.700559 }, "area": 6573, "name": "Wharfedale Hospital", "amenity": "hospital", "type": "hospital", "other_tags": "\"addr:city\"=>\"Otley\",\"addr:country\"=>\"GB\",\"addr:postcode\"=>\"LS21 2LY\",\"addr:street\"=>\"Newall Carr Road\",\"description\"=>\"Minor injuries only, no emergency ward\",\"designation\"=>\"building\",\"emergency\"=>\"no\",\"is_in:town\"=>\"Otley\"" }, "geometry": { "type": "MultiPolygon", "coordinates": [ [ [ [ -1.7000493, 53.9141813 ], [ -1.7001074, 53.914173 ], [ -1.7000124, 53.914112 ], [ -1.700047, 53.914073 ], [ -1.7001247, 53.9141001 ], [ -1.7009988, 53.914052 ], [ -1.7010578, 53.9145338 ], [ -1.7010257, 53.9145408 ], [ -1.7011026, 53.9145919 ], [ -1.7010598, 53.9146298 ], [ -1.7009925, 53.914605 ], [ -1.7008778, 53.9146148 ], [ -1.7001255, 53.9146652 ], [ -1.7000711, 53.9142407 ], [ -1.7000493, 53.9141813 ] ], [ [ -1.7007819, 53.9144671 ], [ -1.7003664, 53.9144869 ], [ -1.700333, 53.9142434 ], [ -1.7007484, 53.9142236 ], [ -1.7007819, 53.9144671 ] ] ] ] } },
{ "type": "Feature", "properties": { "osm_id": 4111831, "centroid": { "latitude": 53.805041, "longitude": -1.560147 }, "area": 3901, "name": "The Mount", "amenity": "hospital", "type": "hospital" }, "geometry": { "type": "MultiPolygon", "coordinates": [ [ [ [ -1.5605759, 53.8052854 ], [ -1.5603107, 53.8051837 ], [ -1.5604612, 53.8050467 ], [ -1.5606171, 53.8051064 ], [ -1.5607097, 53.8050222 ], [ -1.5599436, 53.8047287 ], [ -1.5598493, 53.8048146 ], [ -1.5599352, 53.8048474 ], [ -1.5597937, 53.8049763 ], [ -1.5596704, 53.8049291 ], [ -1.5595612, 53.8050285 ], [ -1.560474, 53.8053782 ], [ -1.5605759, 53.8052854 ] ], [ [ -1.5602987, 53.8049859 ], [ -1.5600909, 53.8049079 ], [ -1.5599468, 53.8050418 ], [ -1.5601546, 53.8051198 ], [ -1.5602987, 53.8049859 ] ] ] ] } },
{ "type": "Feature", "properties": { "osm_id": 4111833, "centroid": { "latitude": 53.802745, "longitude": -1.552759 }, "area": 8820, "type": "hospital", "other_tags": "\"addr:housename\"=>\"Jubilee Wing\"" }, "geometry": { "type": "MultiPolygon", "coordinates": [ [ [ [ -1.5518345, 53.8025974 ], [ -1.5518933, 53.8025988 ], [ -1.5520654, 53.8025794 ], [ -1.5520511, 53.8025593 ], [ -1.552065, 53.8025339 ], [ -1.5520956, 53.8025239 ], [ -1.5521404, 53.8025222 ], [ -1.5521734, 53.8025376 ], [ -1.5521828, 53.8025602 ], [ -1.5522403, 53.802551 ], [ -1.5523773, 53.8025381 ], [ -1.5525461, 53.8025398 ], [ -1.5525369, 53.8025527 ], [ -1.5535059, 53.8025534 ], [ -1.5535822, 53.8025213 ], [ -1.5536818, 53.8025198 ], [ -1.5536782, 53.8028921 ], [ -1.5536778, 53.8029339 ], [ -1.5525528, 53.8029364 ], [ -1.5524844, 53.8029362 ], [ -1.5520501, 53.8029397 ], [ -1.5519012, 53.802942 ], [ -1.5518959, 53.8028646 ], [ -1.5518428, 53.8028792 ], [ -1.5517968, 53.8028917 ], [ -1.5517402, 53.8028853 ], [ -1.5517084, 53.8028641 ], [ -1.5516979, 53.8028323 ], [ -1.5517299, 53.8027999 ], [ -1.5517763, 53.8027894 ], [ -1.5518267, 53.8027977 ], [ -1.5518567, 53.8027664 ], [ -1.5518589, 53.8027457 ], [ -1.5518689, 53.8026526 ], [ -1.5518237, 53.8026501 ], [ -1.5518345, 53.8025974 ] ], [ [ -1.5532663, 53.8028077 ], [ -1.5532678, 53.8027174 ], [ -1.5528897, 53.8027151 ], [ -1.5528881, 53.8028054 ], [ -1.5532663, 53.8028077 ] ] ] ] } },
{ "type": "Feature", "properties": { "osm_id": 4111834, "centroid": { "latitude": 53.803240, "longitude": -1.552185 }, "area": 4741, "name": "A&E", "type": "hospital" }, "geometry": { "type": "MultiPolygon", "coordinates": [ [ [ [ -1.5524894, 53.803536 ], [ -1.5518684, 53.8035369 ], [ -1.5518598, 53.8031162 ], [ -1.5518574, 53.8030011 ], [ -1.5518562, 53.8029411 ], [ -1.5519012, 53.802942 ], [ -1.5520501, 53.8029397 ], [ -1.5524844, 53.8029362 ], [ -1.5524938, 53.8033477 ], [ -1.552598, 53.8033471 ], [ -1.5525986, 53.8034294 ], [ -1.5524859, 53.8034306 ], [ -1.5524894, 53.803536 ] ], [ [ -1.5522738, 53.8034001 ], [ -1.5522673, 53.8031656 ], [ -1.5520863, 53.8031674 ], [ -1.5520928, 53.8034018 ], [ -1.5522738, 53.8034001 ] ] ] ] } },
{ "type": "Feature", "properties": { "osm_id": 4703313, "centroid": { "latitude": 53.805629, "longitude": -1.467673 }, "area": 12827, "type": "hospital" }, "geometry": { "type": "MultiPolygon", "coordinates": [ [ [ [ -1.4680449, 53.8056156 ], [ -1.4681222, 53.8060265 ], [ -1.4679277, 53.8060393 ], [ -1.4678849, 53.8058119 ], [ -1.4677648, 53.8058198 ], [ -1.4678585, 53.8063169 ], [ -1.4679699, 53.8063096 ], [ -1.4679256, 53.8060745 ], [ -1.4683742, 53.806045 ], [ -1.4684186, 53.8062803 ], [ -1.4685484, 53.8062717 ], [ -1.4684538, 53.8057714 ], [ -1.4683312, 53.8057795 ], [ -1.4683579, 53.8059208 ], [ -1.4681663, 53.8059334 ], [ -1.468106, 53.8056149 ], [ -1.4689476, 53.8055593 ], [ -1.4689701, 53.8056785 ], [ -1.468662, 53.8056989 ], [ -1.4686922, 53.8058583 ], [ -1.4691949, 53.8058252 ], [ -1.4691653, 53.8056684 ], [ -1.4694795, 53.8056477 ], [ -1.4695167, 53.8058451 ], [ -1.4696605, 53.8058357 ], [ -1.4695841, 53.8054303 ], [ -1.4692795, 53.8054503 ], [ -1.4692894, 53.8055032 ], [ -1.4683858, 53.8055623 ], [ -1.4683024, 53.8051173 ], [ -1.4680399, 53.8051344 ], [ -1.4680469, 53.805172 ], [ -1.4682429, 53.8051593 ], [ -1.4683161, 53.8055559 ], [ -1.4675462, 53.8056055 ], [ -1.4675266, 53.805499 ], [ -1.4675814, 53.8054955 ], [ -1.4674732, 53.8049012 ], [ -1.4672723, 53.8049139 ], [ -1.4673166, 53.8051587 ], [ -1.4669184, 53.8051882 ], [ -1.4669343, 53.8052609 ], [ -1.4670949, 53.8052482 ], [ -1.4671613, 53.8056225 ], [ -1.4663296, 53.8056738 ], [ -1.4662801, 53.8053942 ], [ -1.4660322, 53.8054094 ], [ -1.4660086, 53.8052744 ], [ -1.4658338, 53.805285 ], [ -1.4658958, 53.8056433 ], [ -1.4660867, 53.8056318 ], [ -1.4660605, 53.8054795 ], [ -1.4661789, 53.8054724 ], [ -1.4662627, 53.8059647 ], [ -1.4661352, 53.8059723 ], [ -1.4661131, 53.8058415 ], [ -1.4659576, 53.8058506 ], [ -1.4659809, 53.8059897 ], [ -1.4658912, 53.8059949 ], [ -1.465866, 53.8058423 ], [ -1.4657302, 53.8058501 ], [ -1.4657671, 53.8060754 ], [ -1.4659995, 53.8060622 ], [ -1.4660185, 53.8061784 ], [ -1.4661303, 53.806172 ], [ -1.4661045, 53.8060131 ], [ -1.4663403, 53.8059998 ], [ -1.4662957, 53.8057244 ], [ -1.4669164, 53.8056893 ], [ -1.4669776, 53.8056856 ], [ -1.4680449, 53.8056156 ] ], [ [ -1.4673623, 53.8052185 ], [ -1.4674191, 53.8054932 ], [ -1.467457, 53.8054889 ], [ -1.4674818, 53.8056204 ], [ -1.4672577, 53.8056383 ], [ -1.4671774, 53.805229 ], [ -1.4673623, 53.8052185 ] ] ] ] } },
{ "type": "Feature", "properties": { "osm_id": 43567789, "centroid": { "latitude": 53.802135, "longitude": -1.552938 }, "area": 4215, "name": "Old Medical School", "type": "hospital" }, "geometry": { "type": "MultiPolygon", "coordinates": [ [ [ [ -1.5535008, 53.8021674 ], [ -1.5527786, 53.8024223 ], [ -1.5527735, 53.8024344 ], [ -1.5527153, 53.8024487 ], [ -1.5526341, 53.8024473 ], [ -1.5525812, 53.8024197 ], [ -1.55263, 53.8018919 ], [ -1.5530311, 53.8018484 ], [ -1.5535008, 53.8021674 ] ] ] ] } },
{ "type": "Feature", "properties": { "osm_id": 43567899, "centroid": { "latitude": 53.801887, "longitude": -1.553603 }, "area": 1611, "name": "Institute of Pathology", "type": "hospital" }, "geometry": { "type": "MultiPolygon", "coordinates": [ [ [ [ -1.5536915, 53.8021042 ], [ -1.5532637, 53.8017844 ], [ -1.5535146, 53.8016673 ], [ -1.55356, 53.8017013 ], [ -1.5537002, 53.801806 ], [ -1.553825, 53.8018995 ], [ -1.5539424, 53.801987 ], [ -1.5536915, 53.8021042 ] ] ] ] } },
{ "type": "Feature", "properties": { "osm_id": 43569855, "centroid": { "latitude": 53.802815, "longitude": -1.550497 }, "area": 7738, "name": "Leeds General Infirmary", "amenity": "hospital", "type": "hospital", "other_tags": "\"loc_name\"=>\"LGI\"" }, "geometry": { "type": "MultiPolygon", "coordinates": [ [ [ [ -1.5504408, 53.8026701 ], [ -1.5503935, 53.8031349 ], [ -1.5505121, 53.8031415 ], [ -1.5505453, 53.8027879 ], [ -1.5507521, 53.8027967 ], [ -1.5507463, 53.8028402 ], [ -1.5508764, 53.8028488 ], [ -1.5508562, 53.8029151 ], [ -1.5507173, 53.8029021 ], [ -1.5506934, 53.8031211 ], [ -1.5505625, 53.8031188 ], [ -1.5505612, 53.8032302 ], [ -1.5502584, 53.8032194 ], [ -1.549936, 53.8029941 ], [ -1.5499624, 53.8026625 ], [ -1.5495732, 53.8026419 ], [ -1.5494591, 53.8024969 ], [ -1.5504245, 53.8025693 ], [ -1.550698, 53.8025713 ], [ -1.5507718, 53.8025365 ], [ -1.5510653, 53.8027478 ], [ -1.5513208, 53.8026295 ], [ -1.5518237, 53.8026501 ], [ -1.5518689, 53.8026526 ], [ -1.5518589, 53.8027457 ], [ -1.5517141, 53.8027397 ], [ -1.5513572, 53.8027213 ], [ -1.5510844, 53.8028489 ], [ -1.5509473, 53.8032059 ], [ -1.5508296, 53.8031928 ], [ -1.5509546, 53.8028061 ], [ -1.5507708, 53.8026779 ], [ -1.5504408, 53.8026701 ] ] ] ] } },
{ "type": "Feature", "properties": { "osm_id": 43569929, "centroid": { "latitude": 53.803322, "longitude": -1.550704 }, "area": 957, "type": "hospital" }, "geometry": { "type": "MultiPolygon", "coordinates": [ [ [ [ -1.5508923, 53.8032386 ], [ -1.5507967, 53.803473 ], [ -1.5505157, 53.8034331 ], [ -1.5506303, 53.803152 ], [ -1.5507866, 53.8031742 ], [ -1.5507676, 53.8032209 ], [ -1.5508923, 53.8032386 ] ] ] ] } },
{ "type": "Feature", "properties": { "osm_id": 142843705, "centroid": { "latitude": 53.802421, "longitude": -1.554489 }, "area": 16908, "type": "hospital", "other_tags": "\"addr:housename\"=>\"Clarendon Wing\"" }, "geometry": { "type": "MultiPolygon", "coordinates": [ [ [ [ -1.5552154, 53.8026997 ], [ -1.5552186, 53.8020619 ], [ -1.5552198, 53.8018979 ], [ -1.5541415, 53.8019011 ], [ -1.5541361, 53.8021799 ], [ -1.5536802, 53.8021894 ], [ -1.5536778, 53.8029339 ], [ -1.5536782, 53.8028921 ], [ -1.5549762, 53.8028813 ], [ -1.5551136, 53.8028805 ], [ -1.5551139, 53.8027011 ], [ -1.5552154, 53.8026997 ] ] ] ] } },
{ "type": "Feature", "properties": { "osm_id": 160973730, "centroid": { "latitude": 53.832295, "longitude": -1.524065 }, "area": 2293, "name": "Gledhow Christian Care Home", "type": "hospital" }, "geometry": { "type": "MultiPolygon", "coordinates": [ [ [ [ -1.5239794, 53.8325842 ], [ -1.5244731, 53.8322523 ], [ -1.5239386, 53.8319812 ], [ -1.5238012, 53.8320877 ], [ -1.5241618, 53.8322625 ], [ -1.5239493, 53.8324069 ], [ -1.5237926, 53.8323258 ], [ -1.5236552, 53.8324196 ], [ -1.5239794, 53.8325842 ] ] ] ] } },
{ "type": "Feature", "properties": { "osm_id": 164966038, "centroid": { "latitude": 53.736914, "longitude": -1.610363 }, "area": 1958, "name": "NHS Britannia House (leeds Teaching Hospitals)", "type": "hospital" }, "geometry": { "type": "MultiPolygon", "coordinates": [ [ [ [ -1.6107809, 53.7371399 ], [ -1.6100327, 53.7370125 ], [ -1.6102299, 53.7366021 ], [ -1.610434, 53.736637 ], [ -1.6102934, 53.7369334 ], [ -1.6108353, 53.7370245 ], [ -1.6107809, 53.7371399 ] ] ] ] } },
{ "type": "Feature", "properties": { "osm_id": 165621874, "centroid": { "latitude": 53.824268, "longitude": -1.712275 }, "area": 1448, "name": "Ashcroft Surgery", "amenity": "hospital", "type": "hospital" }, "geometry": { "type": "MultiPolygon", "coordinates": [ [ [ [ -1.7127957, 53.8242494 ], [ -1.7127386, 53.8241554 ], [ -1.712241, 53.8242548 ], [ -1.7122061, 53.8241994 ], [ -1.7120801, 53.8242231 ], [ -1.7120407, 53.8241492 ], [ -1.7118709, 53.8241788 ], [ -1.7119969, 53.8244099 ], [ -1.7127957, 53.8242494 ] ] ] ] } },
{ "type": "Feature", "properties": { "osm_id": 165621875, "centroid": { "latitude": 53.823844, "longitude": -1.711373 }, "area": 4402, "name": "Eccleshill Diagnostic Clinic", "amenity": "hospital", "type": "hospital" }, "geometry": { "type": "MultiPolygon", "coordinates": [ [ [ [ -1.7112521, 53.8241998 ], [ -1.7109302, 53.8236362 ], [ -1.7115391, 53.8235159 ], [ -1.711785, 53.8239698 ], [ -1.7115552, 53.8241286 ], [ -1.7112521, 53.8241998 ] ] ] ] } },
{ "type": "Feature", "properties": { "osm_id": 169332510, "centroid": { "latitude": 53.823685, "longitude": -1.712331 }, "area": 2979, "amenity": "hospital", "type": "hospital" }, "geometry": { "type": "MultiPolygon", "coordinates": [ [ [ [ -1.7120153, 53.8239581 ], [ -1.7118807, 53.8236998 ], [ -1.7121131, 53.8236505 ], [ -1.7122123, 53.8238247 ], [ -1.7123706, 53.823793 ], [ -1.7121532, 53.8234106 ], [ -1.712553, 53.8233275 ], [ -1.7126085, 53.8234202 ], [ -1.7124349, 53.8234605 ], [ -1.7125959, 53.8237471 ], [ -1.7127729, 53.8237107 ], [ -1.7128265, 53.8238057 ], [ -1.7120153, 53.8239581 ] ] ] ] } },
{ "type": "Feature", "properties": { "osm_id": 169963337, "centroid": { "latitude": 53.914581, "longitude": -1.701221 }, "area": 142, "type": "hospital" }, "geometry": { "type": "MultiPolygon", "coordinates": [ [ [ [ -1.701307, 53.9146199 ], [ -1.7011824, 53.9146253 ], [ -1.7011796, 53.9146033 ], [ -1.701148, 53.9146047 ], [ -1.7011397, 53.9145385 ], [ -1.7012321, 53.9145345 ], [ -1.7012354, 53.9145609 ], [ -1.7012993, 53.9145581 ], [ -1.701307, 53.9146199 ] ] ] ] } },
{ "type": "Feature", "properties": { "osm_id": 183629475, "centroid": { "latitude": 53.740369, "longitude": -1.423350 }, "area": 2340, "type": "hospital" }, "geometry": { "type": "MultiPolygon", "coordinates": [ [ [ [ -1.4237123, 53.7405722 ], [ -1.4233814, 53.7405563 ], [ -1.4233841, 53.7405276 ], [ -1.4229133, 53.7405037 ], [ -1.4229187, 53.7403908 ], [ -1.4231985, 53.7404035 ], [ -1.4232604, 53.7400392 ], [ -1.4234756, 53.7400535 ], [ -1.4234191, 53.740386 ], [ -1.4237311, 53.7404035 ], [ -1.4237123, 53.7405722 ] ] ] ] } },
{ "type": "Feature", "properties": { "osm_id": 186188101, "centroid": { "latitude": 53.802383, "longitude": -1.555361 }, "area": 2264, "name": "Leeds Children's Hospital", "type": "hospital" }, "geometry": { "type": "MultiPolygon", "coordinates": [ [ [ [ -1.5552154, 53.8026997 ], [ -1.5555031, 53.8027014 ], [ -1.5555053, 53.8025735 ], [ -1.5555029, 53.8024547 ], [ -1.5555063, 53.8020649 ], [ -1.5552186, 53.8020619 ], [ -1.5552154, 53.8026997 ] ] ] ] } },
{ "type": "Feature", "properties": { "osm_id": 414225655, "centroid": { "latitude": 53.802502, "longitude": -1.555562 }, "area": 170, "name": "Leeds Children's Hospital", "type": "hospital" }, "geometry": { "type": "MultiPolygon", "coordinates": [ [ [ [ -1.555621, 53.8025727 ], [ -1.5556186, 53.8024539 ], [ -1.5555974, 53.8024541 ], [ -1.5555029, 53.8024547 ], [ -1.5555053, 53.8025735 ], [ -1.5555973, 53.8025729 ], [ -1.555621, 53.8025727 ] ] ] ] } },
{ "type": "Feature", "properties": { "osm_id": 453110622, "centroid": { "latitude": 53.806636, "longitude": -1.798638 }, "area": 776, "name": "Sovereign Lecture Theatre", "type": "hospital" }, "geometry": { "type": "MultiPolygon", "coordinates": [ [ [ [ -1.7984924, 53.8065649 ], [ -1.7984626, 53.8065968 ], [ -1.7984522, 53.8066328 ], [ -1.7984619, 53.806668 ], [ -1.7984902, 53.8066995 ], [ -1.7985342, 53.806724 ], [ -1.7985891, 53.8067388 ], [ -1.7986492, 53.8067425 ], [ -1.7987081, 53.8067345 ], [ -1.7987596, 53.8067158 ], [ -1.7987982, 53.8066884 ], [ -1.7988198, 53.8066551 ], [ -1.798822, 53.8066186 ], [ -1.7988038, 53.8065838 ], [ -1.7987672, 53.8065544 ], [ -1.7987164, 53.8065337 ], [ -1.7986569, 53.806524 ], [ -1.7985952, 53.8065263 ], [ -1.7985383, 53.8065405 ], [ -1.7984924, 53.8065649 ] ] ] ] } }
]
}
