{
"type": "FeatureCollection",
"crs": { "type": "name", "properties": { "name": "urn:ogc:def:crs:OGC:1.3:CRS84" } },
"features": [
{ "type": "Feature", "properties": { "osm_id": 36991885, "centroid": { "latitude": 53.907421, "longitude": -1.694836 }, "area": 870, "name": "Otley Police Station", "type": "police", "building": "police_station" }, "geometry": { "type": "MultiPolygon", "coordinates": [ [ [ [ -1.6950851, 53.9074687 ], [ -1.6947726, 53.9075049 ], [ -1.6946384, 53.9075205 ], [ -1.6945877, 53.9073688 ], [ -1.6950343, 53.9073169 ], [ -1.6950851, 53.9074687 ] ] ] ] } },
{ "type": "Feature", "properties": { "osm_id": 41406074, "centroid": { "latitude": 53.661549, "longitude": -1.435315 }, "area": 24704, "name": "West Yorkshire Police Driving School", "type": "police" }, "geometry": { "type": "MultiPolygon", "coordinates": [ [ [ [ -1.4362666, 53.6620642 ], [ -1.4340516, 53.6619451 ], [ -1.4341258, 53.6616996 ], [ -1.4342008, 53.6615619 ], [ -1.4344769, 53.661255 ], [ -1.4345801, 53.6611402 ], [ -1.4348654, 53.6608864 ], [ -1.4352476, 53.6609949 ], [ -1.4356014, 53.6610934 ], [ -1.436285, 53.6611953 ], [ -1.4365099, 53.6612291 ], [ -1.4362666, 53.6620642 ] ] ] ] } },
{ "type": "Feature", "properties": { "osm_id": 83688264, "centroid": { "latitude": 53.809539, "longitude": -1.466305 }, "area": 2538, "name": "Killingbeck", "type": "police", "building": "yes" }, "geometry": { "type": "MultiPolygon", "coordinates": [ [ [ [ -1.4669907, 53.8096573 ], [ -1.4671534, 53.8095902 ], [ -1.4670279, 53.8095042 ], [ -1.4664419, 53.809455 ], [ -1.4664265, 53.8095363 ], [ -1.4656916, 53.8094841 ], [ -1.4657063, 53.8094018 ], [ -1.4654395, 53.8093911 ], [ -1.4654053, 53.8095428 ], [ -1.4669907, 53.8096573 ] ] ] ] } },
{ "type": "Feature", "properties": { "osm_id": 83688268, "centroid": { "latitude": 53.809157, "longitude": -1.466292 }, "area": 3036, "name": "Killingbeck", "type": "police", "building": "yes" }, "geometry": { "type": "MultiPolygon", "coordinates": [ [ [ [ -1.4667533, 53.8093682 ], [ -1.4667962, 53.8091338 ], [ -1.4669035, 53.8090641 ], [ -1.4667962, 53.8090023 ], [ -1.4667319, 53.8090388 ], [ -1.4659701, 53.8090071 ], [ -1.465498, 53.8092415 ], [ -1.4656375, 53.8093238 ], [ -1.4660667, 53.8091401 ], [ -1.4664583, 53.8091591 ], [ -1.4664315, 53.8093428 ], [ -1.4667533, 53.8093682 ] ] ] ] } },
{ "type": "Feature", "properties": { "osm_id": 87266643, "centroid": { "latitude": 53.683259, "longitude": -1.492571 }, "area": 57, "type": "police", "building": "yes" }, "geometry": { "type": "MultiPolygon", "coordinates": [ [ [ [ -1.4926237, 53.6832656 ], [ -1.4926193, 53.6833111 ], [ -1.4925188, 53.6833076 ], [ -1.4925233, 53.6832622 ], [ -1.4926237, 53.6832656 ] ] ] ] } },
{ "type": "Feature", "properties": { "osm_id": 90200396, "centroid": { "latitude": 53.806542, "longitude": -1.680092 }, "area": 3067, "name": "Pudsey Police Station", "type": "police" }, "geometry": { "type": "MultiPolygon", "coordinates": [ [ [ [ -1.6796493, 53.8064818 ], [ -1.6796917, 53.806328 ], [ -1.680094, 53.8063593 ], [ -1.6800734, 53.8064199 ], [ -1.680247, 53.8064321 ], [ -1.6802582, 53.8063913 ], [ -1.6805026, 53.8064127 ], [ -1.6804784, 53.8065191 ], [ -1.6804504, 53.806518 ], [ -1.6803848, 53.8068144 ], [ -1.6801582, 53.8067922 ], [ -1.6801808, 53.8066803 ], [ -1.6798129, 53.8066558 ], [ -1.6797772, 53.8066241 ], [ -1.6797378, 53.8066183 ], [ -1.6797179, 53.8065901 ], [ -1.6797393, 53.8064927 ], [ -1.6796493, 53.8064818 ] ] ] ] } },
{ "type": "Feature", "properties": { "osm_id": 90916295, "centroid": { "latitude": 53.875654, "longitude": -1.897408 }, "area": 4380, "name": "Keighley Police Station", "type": "police" }, "geometry": { "type": "MultiPolygon", "coordinates": [ [ [ [ -1.8970417, 53.8754116 ], [ -1.8969572, 53.8758394 ], [ -1.8977729, 53.8758968 ], [ -1.8978595, 53.8754691 ], [ -1.8970417, 53.8754116 ] ] ] ] } },
{ "type": "Feature", "properties": { "osm_id": 93276022, "centroid": { "latitude": 53.839333, "longitude": -1.593511 }, "area": 28998, "name": "Weetwood Police Station", "type": "police", "other_tags": "\"operator\"=>\"West Yorkshire Police\"" }, "geometry": { "type": "MultiPolygon", "coordinates": [ [ [ [ -1.5942049, 53.8405318 ], [ -1.5935555, 53.8403718 ], [ -1.5933821, 53.8400325 ], [ -1.5926428, 53.8398925 ], [ -1.5929904, 53.8393244 ], [ -1.593236, 53.8389231 ], [ -1.5931174, 53.8388369 ], [ -1.5928618, 53.8387616 ], [ -1.5925059, 53.8385138 ], [ -1.5929655, 53.8382654 ], [ -1.5932726, 53.8382122 ], [ -1.5934936, 53.8382167 ], [ -1.5937035, 53.838288 ], [ -1.5937745, 53.8384115 ], [ -1.5940128, 53.838968 ], [ -1.5941902, 53.8395748 ], [ -1.5942354, 53.8401314 ], [ -1.5942049, 53.8405318 ] ] ] ] } },
{ "type": "Feature", "properties": { "osm_id": 97203313, "centroid": { "latitude": 53.689568, "longitude": -1.633224 }, "area": 3467, "type": "police", "building": "yes" }, "geometry": { "type": "MultiPolygon", "coordinates": [ [ [ [ -1.6330124, 53.6897322 ], [ -1.6327959, 53.6897362 ], [ -1.6327678, 53.6893693 ], [ -1.6334326, 53.6893525 ], [ -1.6334358, 53.6894364 ], [ -1.6334721, 53.6894337 ], [ -1.6334766, 53.6894525 ], [ -1.6337895, 53.6896512 ], [ -1.6333837, 53.6898794 ], [ -1.6332, 53.6897546 ], [ -1.6335311, 53.6895747 ], [ -1.6334562, 53.6895317 ], [ -1.6334494, 53.6895666 ], [ -1.6331796, 53.6895666 ], [ -1.6331796, 53.6895908 ], [ -1.6331434, 53.6895908 ], [ -1.6331456, 53.6896257 ], [ -1.6330595, 53.6896257 ], [ -1.6330595, 53.6895371 ], [ -1.6330096, 53.6895371 ], [ -1.6330124, 53.6897322 ] ] ] ] } },
{ "type": "Feature", "properties": { "osm_id": 109109287, "centroid": { "latitude": 53.739819, "longitude": -1.876103 }, "area": 375, "type": "police" }, "geometry": { "type": "MultiPolygon", "coordinates": [ [ [ [ -1.8762326, 53.7398896 ], [ -1.8760856, 53.7399216 ], [ -1.8759722, 53.7397397 ], [ -1.8761192, 53.7397077 ], [ -1.8762326, 53.7398896 ] ] ] ] } },
{ "type": "Feature", "properties": { "osm_id": 131383245, "centroid": { "latitude": 53.839733, "longitude": -1.593005 }, "area": 419, "type": "police", "building": "yes" }, "geometry": { "type": "MultiPolygon", "coordinates": [ [ [ [ -1.5931243, 53.8398036 ], [ -1.5931104, 53.8396533 ], [ -1.592884, 53.8396656 ], [ -1.5929017, 53.8398152 ], [ -1.5931243, 53.8398036 ] ] ] ] } },
{ "type": "Feature", "properties": { "osm_id": 131383250, "centroid": { "latitude": 53.839709, "longitude": -1.593597 }, "area": 3385, "type": "police", "building": "yes" }, "geometry": { "type": "MultiPolygon", "coordinates": [ [ [ [ -1.5936297, 53.8392066 ], [ -1.5934258, 53.8392193 ], [ -1.5934473, 53.8396245 ], [ -1.5932327, 53.8396308 ], [ -1.5932542, 53.8397985 ], [ -1.5935677, 53.8397834 ], [ -1.5936136, 53.8401562 ], [ -1.5938764, 53.8401531 ], [ -1.5938335, 53.8397384 ], [ -1.5937477, 53.8397416 ], [ -1.5937423, 53.8396276 ], [ -1.5936779, 53.8396308 ], [ -1.5936297, 53.8392066 ] ] ] ] } },
{ "type": "Feature", "properties": { "osm_id": 154325720, "centroid": { "latitude": 53.711410, "longitude": -1.540852 }, "area": 1074, "name": "WYP Stable Block", "type": "police", "building": "stable" }, "geometry": { "type": "MultiPolygon", "coordinates": [ [ [ [ -1.5412009, 53.7112898 ], [ -1.5412969, 53.7113088 ], [ -1.5411765, 53.7115221 ], [ -1.5407323, 53.7114342 ], [ -1.5406739, 53.7115378 ], [ -1.5404991, 53.7115032 ], [ -1.5406602, 53.7112179 ], [ -1.5407516, 53.711236 ], [ -1.540679, 53.7113646 ], [ -1.5411105, 53.7114499 ], [ -1.5412009, 53.7112898 ] ] ] ] } },
{ "type": "Feature", "properties": { "osm_id": 154325721, "centroid": { "latitude": 53.711278, "longitude": -1.538751 }, "area": 549, "name": "Dogs", "type": "police", "building": "yes" }, "geometry": { "type": "MultiPolygon", "coordinates": [ [ [ [ -1.5388716, 53.7112019 ], [ -1.5389682, 53.7112589 ], [ -1.5387497, 53.7113887 ], [ -1.5386558, 53.7113334 ], [ -1.5386425, 53.7113413 ], [ -1.5385552, 53.7112898 ], [ -1.5385787, 53.7112758 ], [ -1.5385435, 53.7112551 ], [ -1.5385858, 53.7112299 ], [ -1.5386195, 53.7112497 ], [ -1.5387275, 53.7111855 ], [ -1.5388136, 53.7112363 ], [ -1.5388716, 53.7112019 ] ] ] ] } },
{ "type": "Feature", "properties": { "osm_id": 154325728, "centroid": { "latitude": 53.711018, "longitude": -1.539026 }, "area": 603, "name": "NPAS 31 - Carr Gate", "aeroway": "hanger", "type": "police", "building": "yes" }, "geometry": { "type": "MultiPolygon", "coordinates": [ [ [ [ -1.5390513, 53.7108931 ], [ -1.5390698, 53.7109043 ], [ -1.5392308, 53.7110022 ], [ -1.5390015, 53.7111344 ], [ -1.5388219, 53.7110253 ], [ -1.5390513, 53.7108931 ] ] ] ] } },
{ "type": "Feature", "properties": { "osm_id": 161114651, "centroid": { "latitude": 53.776665, "longitude": -1.543230 }, "area": 2400, "name": "Holbeck Police Station", "type": "police", "building": "civic", "other_tags": "\"phone\"=>\"0113 2414659\",\"addr:postcode\"=>\"LS11 5EF\",\"addr:housenumber\"=>\"10\"" }, "geometry": { "type": "MultiPolygon", "coordinates": [ [ [ [ -1.5437569, 53.7769535 ], [ -1.5425822, 53.776494 ], [ -1.5427178, 53.7763765 ], [ -1.5438899, 53.7768465 ], [ -1.5437569, 53.7769535 ] ] ] ] } },
{ "type": "Feature", "properties": { "osm_id": 178334015, "centroid": { "latitude": 53.805494, "longitude": -1.549328 }, "area": 129, "name": "Hyde Park Police Station", "type": "police", "building": "yes", "other_tags": "\"addr:street\"=>\"Woodhouse Lane\",\"addr:postcode\"=>\"LS2 3ED\",\"addr:housenumber\"=>\"153\"" }, "geometry": { "type": "MultiPolygon", "coordinates": [ [ [ [ -1.5492827, 53.8055359 ], [ -1.5492282, 53.805483 ], [ -1.5493718, 53.8054313 ], [ -1.5494263, 53.8054842 ], [ -1.5492827, 53.8055359 ] ] ] ] } },
{ "type": "Feature", "properties": { "osm_id": 254429259, "centroid": { "latitude": 53.579203, "longitude": -1.781887 }, "area": 992, "name": "Holmfirth Police Station", "type": "police", "building": "yes" }, "geometry": { "type": "MultiPolygon", "coordinates": [ [ [ [ -1.7820979, 53.5790223 ], [ -1.7819658, 53.5792492 ], [ -1.7820067, 53.5792608 ], [ -1.7819523, 53.5793449 ], [ -1.7819123, 53.5793341 ], [ -1.7818742, 53.5793977 ], [ -1.7817416, 53.5793686 ], [ -1.7817743, 53.579305 ], [ -1.7816345, 53.579277 ], [ -1.7816745, 53.5791929 ], [ -1.7818143, 53.5792177 ], [ -1.7819359, 53.5789902 ], [ -1.7820979, 53.5790223 ] ] ] ] } },
{ "type": "Feature", "properties": { "osm_id": 286250789, "centroid": { "latitude": 53.744302, "longitude": -1.605738 }, "area": 1155, "name": "Morley Police Station", "type": "police", "building": "yes" }, "geometry": { "type": "MultiPolygon", "coordinates": [ [ [ [ -1.6057261, 53.7444784 ], [ -1.6054727, 53.7442499 ], [ -1.6058415, 53.7441068 ], [ -1.6058973, 53.7441571 ], [ -1.6057908, 53.7441984 ], [ -1.6059885, 53.7443766 ], [ -1.6057261, 53.7444784 ] ] ] ] } },
{ "type": "Feature", "properties": { "osm_id": 309136164, "centroid": { "latitude": 53.622057, "longitude": -1.544520 }, "area": 215, "type": "police", "building": "yes" }, "geometry": { "type": "MultiPolygon", "coordinates": [ [ [ [ -1.5446282, 53.6220262 ], [ -1.5445097, 53.6219917 ], [ -1.5444121, 53.6221097 ], [ -1.5445306, 53.6221442 ], [ -1.5446282, 53.6220262 ] ] ] ] } },
{ "type": "Feature", "properties": { "osm_id": 338295146, "centroid": { "latitude": 53.711721, "longitude": -1.535033 }, "area": 11640, "type": "police", "building": "yes", "other_tags": "\"notes\"=>\"Questimate,  requires accurate survey\",\"notes_1\"=>\"Fire Arms area\"" }, "geometry": { "type": "MultiPolygon", "coordinates": [ [ [ [ -1.5339642, 53.7120111 ], [ -1.5361889, 53.7118471 ], [ -1.5361012, 53.7114304 ], [ -1.5338765, 53.7115944 ], [ -1.5339642, 53.7120111 ] ] ] ] } },
{ "type": "Feature", "properties": { "osm_id": 338295147, "centroid": { "latitude": 53.712429, "longitude": -1.536073 }, "area": 7186, "name": "West Yorkshire Police Bishopgarth House", "type": "police", "building": "yes", "office": "government", "other_tags": "\"addr:postcode\"=>\"WF2 0QD\",\"notes\"=>\"Questimate,  requires accurate survey\"" }, "geometry": { "type": "MultiPolygon", "coordinates": [ [ [ [ -1.5354046, 53.7126692 ], [ -1.5353732, 53.7124389 ], [ -1.5353482, 53.7122549 ], [ -1.5367419, 53.7121884 ], [ -1.5367983, 53.7126027 ], [ -1.5354046, 53.7126692 ] ] ] ] } },
{ "type": "Feature", "properties": { "osm_id": 421973109, "centroid": { "latitude": 53.707917, "longitude": -1.779681 }, "area": 836, "name": "Brighouse Police Station", "type": "police", "building": "yes", "other_tags": "\"addr:city\"=>\"Brighouse\",\"addr:postcode\"=>\"HD6 4AS\",\"addr:street\"=>\"Woodvale Road\"" }, "geometry": { "type": "MultiPolygon", "coordinates": [ [ [ [ -1.7798076, 53.7080518 ], [ -1.7797861, 53.7079989 ], [ -1.7798908, 53.7079807 ], [ -1.7798631, 53.707926 ], [ -1.7798107, 53.7079333 ], [ -1.7797306, 53.70776 ], [ -1.7795396, 53.7077874 ], [ -1.7795858, 53.7078968 ], [ -1.7794749, 53.7079114 ], [ -1.7795088, 53.7079898 ], [ -1.7796289, 53.7079716 ], [ -1.7796782, 53.7080755 ], [ -1.7798076, 53.7080518 ] ] ] ] } },
{ "type": "Feature", "properties": { "osm_id": 450630235, "centroid": { "latitude": 53.713146, "longitude": -1.535327 }, "area": 13698, "name": "West Yorkshire Police Learning & Development Centre", "type": "police", "building": "warehouse", "other_tags": "\"notes\"=>\"Questimate,  requires accurate survey\"" }, "geometry": { "type": "MultiPolygon", "coordinates": [ [ [ [ -1.5344284, 53.7128822 ], [ -1.5345841, 53.7135442 ], [ -1.5362258, 53.713409 ], [ -1.5360702, 53.712747 ], [ -1.5344284, 53.7128822 ] ] ] ] } },
{ "type": "Feature", "properties": { "osm_id": 456606988, "centroid": { "latitude": 53.775194, "longitude": -1.574704 }, "area": 8417, "name": "WYP HW", "type": "police", "building": "yes" }, "geometry": { "type": "MultiPolygon", "coordinates": [ [ [ [ -1.5753175, 53.7747682 ], [ -1.5739388, 53.7751106 ], [ -1.5744109, 53.7756749 ], [ -1.5749741, 53.7755227 ], [ -1.5748078, 53.7752532 ], [ -1.575532, 53.7750884 ], [ -1.5753175, 53.7747682 ] ] ] ] } },
{ "type": "Feature", "properties": { "osm_id": 462227584, "centroid": { "latitude": 53.924668, "longitude": -1.385397 }, "area": 5, "name": "TARDIS", "type": "police", "building": "yes" }, "geometry": { "type": "MultiPolygon", "coordinates": [ [ [ [ -1.3853929, 53.9245723 ], [ -1.3853754, 53.9245603 ], [ -1.3853954, 53.9245502 ], [ -1.3854129, 53.9245622 ], [ -1.3853929, 53.9245723 ] ] ] ] } }
]
}
