{
"type": "FeatureCollection",
"crs": { "type": "name", "properties": { "name": "urn:ogc:def:crs:OGC:1.3:CRS84" } },
"features": [
{ "type": "Feature", "properties": { "osm_id": 178825277, "centroid": { "latitude": 53.790948, "longitude": -1.531421 }, "area": 3908, "name": "New Dock Hall", "type": "conference_centre", "building": "yes", "other_tags": "\"old_name\"=>\"Saviles Hall\"" }, "geometry": { "type": "MultiPolygon", "coordinates": [ [ [ [ -1.5315683, 53.7912686 ], [ -1.5317131, 53.7911387 ], [ -1.5318151, 53.7911292 ], [ -1.5316219, 53.7906635 ], [ -1.5310533, 53.7907375 ], [ -1.531064, 53.7907808 ], [ -1.5310104, 53.7907903 ], [ -1.5311552, 53.7911197 ], [ -1.5315683, 53.7912686 ] ] ] ] } },
{ "type": "Feature", "properties": { "osm_id": 204188833, "centroid": { "latitude": 53.798056, "longitude": -1.527615 }, "area": 838, "name": "Team Talk Conference Venue", "type": "conference_centre", "building": "yes", "other_tags": "\"addr:street\"=>\"Marsh Lane\",\"addr:housenumber\"=>\"96\"" }, "geometry": { "type": "MultiPolygon", "coordinates": [ [ [ [ -1.5275012, 53.7979248 ], [ -1.5277715, 53.7979589 ], [ -1.5277502, 53.7980001 ], [ -1.5278292, 53.7980234 ], [ -1.5276773, 53.7981831 ], [ -1.5274344, 53.7981472 ], [ -1.5275012, 53.7979248 ] ] ] ] } }
]
}
