{
"type": "FeatureCollection",
"crs": { "type": "name", "properties": { "name": "urn:ogc:def:crs:OGC:1.3:CRS84" } },
"features": [
{ "type": "Feature", "properties": { "osm_id": 90513291, "centroid": { "latitude": 53.843822, "longitude": -1.551166 }, "area": 364, "type": "swimming_pool" }, "geometry": { "type": "MultiPolygon", "coordinates": [ [ [ [ -1.5513646, 53.8437891 ], [ -1.5513399, 53.8437643 ], [ -1.5513478, 53.8437581 ], [ -1.5513491, 53.8437525 ], [ -1.5513466, 53.8437481 ], [ -1.5513396, 53.8437455 ], [ -1.5513313, 53.8437445 ], [ -1.5513206, 53.8437449 ], [ -1.5513007, 53.843725 ], [ -1.5509634, 53.843842 ], [ -1.5510273, 53.8439061 ], [ -1.5513646, 53.8437891 ] ] ] ] } },
{ "type": "Feature", "properties": { "osm_id": 254434288, "centroid": { "latitude": 53.578650, "longitude": -1.781975 }, "area": 1165, "name": "Holmfirth Swimming Pool", "building": "yes", "type": "swimming_pool" }, "geometry": { "type": "MultiPolygon", "coordinates": [ [ [ [ -1.781658, 53.5785866 ], [ -1.7816804, 53.5785755 ], [ -1.7817003, 53.5785611 ], [ -1.7816954, 53.5785145 ], [ -1.7818225, 53.5785186 ], [ -1.7820126, 53.5785613 ], [ -1.7819946, 53.5785933 ], [ -1.7823541, 53.5786741 ], [ -1.7822848, 53.5787808 ], [ -1.781915, 53.5787 ], [ -1.781897, 53.5787244 ], [ -1.7817327, 53.5786863 ], [ -1.7816819, 53.5786777 ], [ -1.7816867, 53.5786084 ], [ -1.781658, 53.5785866 ] ] ] ] } },
{ "type": "Feature", "properties": { "osm_id": 283382039, "centroid": { "latitude": 53.764667, "longitude": -1.543501 }, "area": 2920, "type": "swimming_pool" }, "geometry": { "type": "MultiPolygon", "coordinates": [ [ [ [ -1.5432712, 53.764904 ], [ -1.543954, 53.7647156 ], [ -1.5437299, 53.7644316 ], [ -1.543047, 53.76462 ], [ -1.5432712, 53.764904 ] ] ] ] } },
{ "type": "Feature", "properties": { "osm_id": 300077435, "centroid": { "latitude": 53.712507, "longitude": -1.634065 }, "area": 4490, "name": "Batley Baths & Recreation Centre", "type": "swimming_pool" }, "geometry": { "type": "MultiPolygon", "coordinates": [ [ [ [ -1.6344892, 53.7122478 ], [ -1.6343512, 53.7127799 ], [ -1.6336504, 53.7127317 ], [ -1.6336504, 53.7126081 ], [ -1.6337707, 53.7122667 ], [ -1.6344892, 53.7122478 ] ] ] ] } },
{ "type": "Feature", "properties": { "osm_id": 390114578, "centroid": { "latitude": 53.833350, "longitude": -1.623389 }, "area": 33, "type": "swimming_pool", "other_tags": "\"access\"=>\"private\"" }, "geometry": { "type": "MultiPolygon", "coordinates": [ [ [ [ -1.6234314, 53.8333009 ], [ -1.6233759, 53.8332858 ], [ -1.6233448, 53.8333256 ], [ -1.6234003, 53.8333407 ], [ -1.6234314, 53.8333009 ] ] ] ] } },
{ "type": "Feature", "properties": { "osm_id": 396770042, "centroid": { "latitude": 53.847287, "longitude": -1.653103 }, "area": 67, "type": "swimming_pool", "other_tags": "\"access\"=>\"private\"" }, "geometry": { "type": "MultiPolygon", "coordinates": [ [ [ [ -1.6531775, 53.8472659 ], [ -1.6530369, 53.8472555 ], [ -1.6530289, 53.8472932 ], [ -1.6531695, 53.8473036 ], [ -1.6531775, 53.8472659 ] ] ] ] } },
{ "type": "Feature", "properties": { "osm_id": 398929886, "centroid": { "latitude": 53.844880, "longitude": -1.696801 }, "area": 81, "type": "swimming_pool", "other_tags": "\"access\"=>\"private\"" }, "geometry": { "type": "MultiPolygon", "coordinates": [ [ [ [ -1.6968383, 53.8448635 ], [ -1.6968287, 53.8448704 ], [ -1.6968215, 53.8448808 ], [ -1.6968114, 53.8448916 ], [ -1.6967926, 53.8448955 ], [ -1.6967707, 53.8448955 ], [ -1.6967555, 53.8448943 ], [ -1.6967412, 53.8448895 ], [ -1.696726, 53.8448793 ], [ -1.6967245, 53.8448698 ], [ -1.6967301, 53.8448617 ], [ -1.6967407, 53.844853 ], [ -1.6967519, 53.8448509 ], [ -1.6967621, 53.8448527 ], [ -1.6967768, 53.844853 ], [ -1.6967844, 53.8448479 ], [ -1.69679, 53.8448413 ], [ -1.6967946, 53.844832 ], [ -1.6968093, 53.8448245 ], [ -1.6968261, 53.8448197 ], [ -1.696847, 53.8448209 ], [ -1.6968622, 53.8448257 ], [ -1.6968713, 53.8448317 ], [ -1.6968719, 53.8448416 ], [ -1.6968703, 53.8448506 ], [ -1.6968622, 53.844859 ], [ -1.6968383, 53.8448635 ] ] ] ] } },
{ "type": "Feature", "properties": { "osm_id": 398930556, "centroid": { "latitude": 53.845338, "longitude": -1.699807 }, "area": 48, "type": "swimming_pool", "other_tags": "\"access\"=>\"private\"" }, "geometry": { "type": "MultiPolygon", "coordinates": [ [ [ [ -1.6998713, 53.8453792 ], [ -1.6997809, 53.8453382 ], [ -1.6997454, 53.8453654 ], [ -1.6998358, 53.8454065 ], [ -1.6998713, 53.8453792 ] ] ] ] } },
{ "type": "Feature", "properties": { "osm_id": 421972657, "centroid": { "latitude": 53.707463, "longitude": -1.778783 }, "area": 3369, "name": "Brighouse Swimming Pool", "type": "swimming_pool", "other_tags": "\"addr:city\"=>\"Brighouse\",\"addr:postcode\"=>\"HD6 4AS\",\"addr:street\"=>\"Woodvale Road\",\"operator\"=>\"Calderdale Council\"" }, "geometry": { "type": "MultiPolygon", "coordinates": [ [ [ [ -1.7792451, 53.7075572 ], [ -1.7790292, 53.7072157 ], [ -1.7785585, 53.70731 ], [ -1.7785727, 53.7073456 ], [ -1.7783214, 53.707398 ], [ -1.778509, 53.7077059 ], [ -1.7792451, 53.7075572 ] ] ] ] } }
]
}
