{
"type": "FeatureCollection",
"crs": { "type": "name", "properties": { "name": "urn:ogc:def:crs:OGC:1.3:CRS84" } },
"features": [
{ "type": "Feature", "properties": { "osm_id": 95070727, "centroid": { "latitude": 53.905926, "longitude": -1.511614 }, "area": 798, "name": "Harewood Castle", "type": "ruin", "historic": "castle", "other_tags": "\"wikipedia\"=>\"en:Harewood Castle\",\"description\"=>\"C14th castle build by by Sir William De Aldeburgh and occupied until about 1600.\"" }, "geometry": { "type": "MultiPolygon", "coordinates": [ [ [ [ -1.5118738, 53.9059719 ], [ -1.5117306, 53.9060571 ], [ -1.5115805, 53.9059696 ], [ -1.5115267, 53.9060015 ], [ -1.5113577, 53.905903 ], [ -1.5115546, 53.9057858 ], [ -1.5118738, 53.9059719 ] ] ] ] } },
{ "type": "Feature", "properties": { "osm_id": 243756166, "centroid": { "latitude": 53.951226, "longitude": -1.894259 }, "area": 190, "name": "High Lathe", "type": "ruin", "other_tags": "\"source:name\"=>\"OS 1854\"" }, "geometry": { "type": "MultiPolygon", "coordinates": [ [ [ [ -1.8942052, 53.9512873 ], [ -1.8941186, 53.9512128 ], [ -1.8941647, 53.9511943 ], [ -1.8941926, 53.9512183 ], [ -1.8943038, 53.9511736 ], [ -1.8943241, 53.9511911 ], [ -1.8943674, 53.9511736 ], [ -1.8944057, 53.9512066 ], [ -1.8942052, 53.9512873 ] ] ] ] } },
{ "type": "Feature", "properties": { "osm_id": 339248584, "centroid": { "latitude": 53.839312, "longitude": -2.026626 }, "area": 280, "type": "ruin" }, "geometry": { "type": "MultiPolygon", "coordinates": [ [ [ [ -2.0267425, 53.8393998 ], [ -2.0264474, 53.8392689 ], [ -2.0265098, 53.8392199 ], [ -2.0268049, 53.8393508 ], [ -2.0267425, 53.8393998 ] ] ] ] } },
{ "type": "Feature", "properties": { "osm_id": 461536024, "centroid": { "latitude": 53.885164, "longitude": -1.659588 }, "area": 223, "name": "3.7\" gun site", "type": "ruin", "other_tags": "\"description\"=>\"3.7\\\" (95mm)  WWII anti-aircraft gun emplacement.\"" }, "geometry": { "type": "MultiPolygon", "coordinates": [ [ [ [ -1.6596413, 53.8852324 ], [ -1.6596172, 53.8852102 ], [ -1.6595689, 53.8852102 ], [ -1.6595501, 53.885196 ], [ -1.6595126, 53.8851754 ], [ -1.6594938, 53.8851581 ], [ -1.6595099, 53.8851296 ], [ -1.6594724, 53.8851154 ], [ -1.6595206, 53.8850869 ], [ -1.6596145, 53.8851043 ], [ -1.6596574, 53.8851407 ], [ -1.6596869, 53.8851391 ], [ -1.6596762, 53.885166 ], [ -1.6596628, 53.8851897 ], [ -1.6597003, 53.8852086 ], [ -1.6596413, 53.8852324 ] ] ] ] } },
{ "type": "Feature", "properties": { "osm_id": 461536025, "centroid": { "latitude": 53.885365, "longitude": -1.659082 }, "area": 218, "name": "Predictor\/control unit", "type": "ruin", "other_tags": "\"description\"=>\"WWII anti-aircraft gun central predictor\/control bunker\"" }, "geometry": { "type": "MultiPolygon", "coordinates": [ [ [ [ -1.6590378, 53.8854663 ], [ -1.6589601, 53.8854347 ], [ -1.6590083, 53.8854047 ], [ -1.6589761, 53.8853873 ], [ -1.6589922, 53.8853699 ], [ -1.6589922, 53.885362 ], [ -1.6590083, 53.8853541 ], [ -1.6590432, 53.8853636 ], [ -1.6591398, 53.8853019 ], [ -1.6592229, 53.8853367 ], [ -1.6591934, 53.8853636 ], [ -1.6591612, 53.8854063 ], [ -1.6591371, 53.8853952 ], [ -1.6591693, 53.885362 ], [ -1.6591505, 53.8853446 ], [ -1.6590888, 53.8853999 ], [ -1.6591156, 53.8854157 ], [ -1.6590378, 53.8854663 ] ] ] ] } },
{ "type": "Feature", "properties": { "osm_id": 461536026, "centroid": { "latitude": 53.885432, "longitude": -1.659708 }, "area": 232, "name": "3.7\" gun site", "type": "ruin", "other_tags": "\"description\"=>\"3.7\\\" (95mm)  WWII anti-aircraft gun emplacement.\"" }, "geometry": { "type": "MultiPolygon", "coordinates": [ [ [ [ -1.6597003, 53.8855059 ], [ -1.6596306, 53.8855011 ], [ -1.6596306, 53.8854821 ], [ -1.6595984, 53.8854505 ], [ -1.6596306, 53.8854426 ], [ -1.6596333, 53.88543 ], [ -1.6596413, 53.8854078 ], [ -1.6596279, 53.885392 ], [ -1.6596547, 53.8853794 ], [ -1.6596682, 53.8853936 ], [ -1.6597057, 53.8853889 ], [ -1.6597164, 53.8853573 ], [ -1.6597862, 53.885362 ], [ -1.6597754, 53.8853873 ], [ -1.659805, 53.8853936 ], [ -1.6598103, 53.885411 ], [ -1.6597889, 53.8854157 ], [ -1.6597862, 53.8854474 ], [ -1.6597647, 53.8854568 ], [ -1.6597781, 53.8854758 ], [ -1.6597513, 53.8854932 ], [ -1.6597379, 53.8854821 ], [ -1.6597003, 53.8854853 ], [ -1.6597003, 53.8855059 ] ] ] ] } },
{ "type": "Feature", "properties": { "osm_id": 461536027, "centroid": { "latitude": 53.885658, "longitude": -1.659407 }, "area": 201, "name": "3.7\" gun site", "type": "ruin", "other_tags": "\"description\"=>\"3.7\\\" (95mm)  WWII anti-aircraft gun emplacement.\"" }, "geometry": { "type": "MultiPolygon", "coordinates": [ [ [ [ -1.6594965, 53.8855991 ], [ -1.6595501, 53.8856402 ], [ -1.659467, 53.8856703 ], [ -1.6593946, 53.8857193 ], [ -1.6593543, 53.8857145 ], [ -1.6593704, 53.8856924 ], [ -1.6593409, 53.8856877 ], [ -1.6593061, 53.885713 ], [ -1.6592631, 53.8856798 ], [ -1.6592953, 53.8856671 ], [ -1.6593061, 53.8856513 ], [ -1.6593463, 53.8856418 ], [ -1.6593919, 53.885626 ], [ -1.659416, 53.8855991 ], [ -1.6594589, 53.8856197 ], [ -1.6594965, 53.8855991 ] ] ] ] } },
{ "type": "Feature", "properties": { "osm_id": 461536031, "centroid": { "latitude": 53.885656, "longitude": -1.658909 }, "area": 222, "name": "3.7\" gun site", "type": "ruin", "other_tags": "\"description\"=>\"3.7\\\" (95mm)  WWII anti-aircraft gun emplacement.\"" }, "geometry": { "type": "MultiPolygon", "coordinates": [ [ [ [ -1.6590432, 53.8856703 ], [ -1.6590191, 53.8857066 ], [ -1.6589949, 53.8856987 ], [ -1.6589359, 53.8857145 ], [ -1.6589091, 53.8856892 ], [ -1.6588689, 53.8856718 ], [ -1.6587991, 53.8856703 ], [ -1.6587803, 53.8856276 ], [ -1.6588125, 53.8855975 ], [ -1.658842, 53.8856039 ], [ -1.658893, 53.8855928 ], [ -1.658944, 53.885626 ], [ -1.6589949, 53.8856197 ], [ -1.6590217, 53.8856387 ], [ -1.6589815, 53.885656 ], [ -1.6590432, 53.8856703 ] ] ] ] } }
]
}
