{
"type": "FeatureCollection",
"crs": { "type": "name", "properties": { "name": "urn:ogc:def:crs:OGC:1.3:CRS84" } },
"features": [
{ "type": "Feature", "properties": { "osm_id": "30566187", "type": "mooring", "man_made": "pier" }, "geometry": { "type": "LineString", "coordinates": [ [ -1.7709471, 53.8132882 ], [ -1.7709534, 53.8132416 ], [ -1.7709723, 53.8131937 ], [ -1.7710177, 53.8131244 ], [ -1.7710744, 53.8131017 ] ] } }
]
}
