{
"type": "FeatureCollection",
"crs": { "type": "name", "properties": { "name": "urn:ogc:def:crs:OGC:1.3:CRS84" } },
"features": [
{ "type": "Feature", "properties": { "osm_id": 35097121, "centroid": { "latitude": 53.888514, "longitude": -1.779809 }, "area": 72175, "type": "wetland" }, "geometry": { "type": "MultiPolygon", "coordinates": [ [ [ [ -1.7804303, 53.8905868 ], [ -1.7793145, 53.8905868 ], [ -1.7788854, 53.8869953 ], [ -1.7797437, 53.8860847 ], [ -1.7807736, 53.8882093 ], [ -1.7804303, 53.8905868 ] ] ] ] } },
{ "type": "Feature", "properties": { "osm_id": 36958349, "centroid": { "latitude": 53.951831, "longitude": -1.963524 }, "area": 13206, "type": "wetland", "other_tags": "\"wetland\"=>\"marsh\"" }, "geometry": { "type": "MultiPolygon", "coordinates": [ [ [ [ -1.9630951, 53.9512718 ], [ -1.9641251, 53.9513223 ], [ -1.9638676, 53.9524587 ], [ -1.9629664, 53.9523072 ], [ -1.9630951, 53.9512718 ] ] ] ] } },
{ "type": "Feature", "properties": { "osm_id": 38112495, "centroid": { "latitude": 53.912399, "longitude": -1.674471 }, "area": 71456, "type": "wetland" }, "geometry": { "type": "MultiPolygon", "coordinates": [ [ [ [ -1.6731191, 53.9118735 ], [ -1.6753936, 53.9117724 ], [ -1.6776681, 53.9116207 ], [ -1.6767669, 53.9127835 ], [ -1.6743637, 53.9127835 ], [ -1.6721321, 53.9133143 ], [ -1.6711021, 53.9130615 ], [ -1.6731191, 53.9118735 ] ] ] ] } },
{ "type": "Feature", "properties": { "osm_id": 52127080, "centroid": { "latitude": 53.836500, "longitude": -1.805091 }, "area": 7056, "type": "wetland", "other_tags": "\"wetland\"=>\"swamp\"" }, "geometry": { "type": "MultiPolygon", "coordinates": [ [ [ [ -1.8056113, 53.8364745 ], [ -1.8057521, 53.8365313 ], [ -1.8057373, 53.8365751 ], [ -1.8056039, 53.8366997 ], [ -1.8054037, 53.8367741 ], [ -1.8052407, 53.836796 ], [ -1.8049627, 53.8367916 ], [ -1.804807, 53.8367457 ], [ -1.8046106, 53.8366954 ], [ -1.8045216, 53.8366297 ], [ -1.8045846, 53.8365685 ], [ -1.804529, 53.8365051 ], [ -1.804492, 53.8364482 ], [ -1.804492, 53.8363935 ], [ -1.8045476, 53.8363235 ], [ -1.8046402, 53.836247 ], [ -1.8047366, 53.8362404 ], [ -1.8048404, 53.8362033 ], [ -1.8049441, 53.8361879 ], [ -1.8050961, 53.8362295 ], [ -1.8052777, 53.8362404 ], [ -1.8054186, 53.8362361 ], [ -1.8055409, 53.8362645 ], [ -1.8055409, 53.8363432 ], [ -1.8056261, 53.8364263 ], [ -1.8056113, 53.8364745 ] ] ] ] } },
{ "type": "Feature", "properties": { "osm_id": 55622576, "centroid": { "latitude": 53.912509, "longitude": -1.810805 }, "area": 12054, "type": "wetland" }, "geometry": { "type": "MultiPolygon", "coordinates": [ [ [ [ -1.8099661, 53.9122561 ], [ -1.8115969, 53.9122688 ], [ -1.812026, 53.9126353 ], [ -1.8112106, 53.912787 ], [ -1.8099875, 53.9127238 ], [ -1.8096228, 53.912471 ], [ -1.8099661, 53.9122561 ] ] ] ] } },
{ "type": "Feature", "properties": { "osm_id": 55626505, "centroid": { "latitude": 53.903247, "longitude": -1.802425 }, "area": 68441, "type": "wetland" }, "geometry": { "type": "MultiPolygon", "coordinates": [ [ [ [ -1.8002887, 53.9020109 ], [ -1.8014903, 53.9025356 ], [ -1.8044622, 53.9036164 ], [ -1.8061144, 53.9040968 ], [ -1.8072946, 53.9045077 ], [ -1.8070586, 53.904849 ], [ -1.8060823, 53.9047036 ], [ -1.8032177, 53.9037492 ], [ -1.8007393, 53.9028959 ], [ -1.7995162, 53.9027441 ], [ -1.798733, 53.9026557 ], [ -1.7982502, 53.9027884 ], [ -1.7979049, 53.9022021 ], [ -1.7983084, 53.9021426 ], [ -1.799038, 53.9020921 ], [ -1.7998963, 53.9020415 ], [ -1.8001416, 53.9020224 ], [ -1.8002887, 53.9020109 ] ] ] ] } },
{ "type": "Feature", "properties": { "osm_id": 55676799, "centroid": { "latitude": 53.901449, "longitude": -1.793580 }, "area": 52945, "type": "wetland" }, "geometry": { "type": "MultiPolygon", "coordinates": [ [ [ [ -1.7968353, 53.9023108 ], [ -1.7957409, 53.9016281 ], [ -1.7930158, 53.9017419 ], [ -1.7894968, 53.9015775 ], [ -1.7892178, 53.9011224 ], [ -1.7928441, 53.9012235 ], [ -1.7965563, 53.9010213 ], [ -1.7969855, 53.9015522 ], [ -1.7968353, 53.9023108 ] ] ] ] } },
{ "type": "Feature", "properties": { "osm_id": 60673429, "centroid": { "latitude": 53.905354, "longitude": -1.703935 }, "area": 1814, "type": "wetland" }, "geometry": { "type": "MultiPolygon", "coordinates": [ [ [ [ -1.7042364, 53.9053005 ], [ -1.7042685, 53.9053448 ], [ -1.7041505, 53.9055091 ], [ -1.7039896, 53.9055028 ], [ -1.7038501, 53.9054775 ], [ -1.7036999, 53.9054649 ], [ -1.7036034, 53.9054017 ], [ -1.7036785, 53.9053132 ], [ -1.7036892, 53.9052437 ], [ -1.7038287, 53.9051741 ], [ -1.7042364, 53.9053005 ] ] ] ] } },
{ "type": "Feature", "properties": { "osm_id": 113465847, "centroid": { "latitude": 53.824194, "longitude": -1.946216 }, "area": 2104, "type": "wetland", "other_tags": "\"wetland\"=>\"bog\"" }, "geometry": { "type": "MultiPolygon", "coordinates": [ [ [ [ -1.9465565, 53.8248807 ], [ -1.9465282, 53.8247121 ], [ -1.9457991, 53.823218 ], [ -1.9457385, 53.8232414 ], [ -1.9464228, 53.8247309 ], [ -1.9464872, 53.8248918 ], [ -1.9464773, 53.8250996 ], [ -1.9465607, 53.8251025 ], [ -1.9465565, 53.8248807 ] ] ] ] } },
{ "type": "Feature", "properties": { "osm_id": 138507922, "centroid": { "latitude": 53.820721, "longitude": -1.646783 }, "area": 168281, "type": "wetland" }, "geometry": { "type": "MultiPolygon", "coordinates": [ [ [ [ -1.651933, 53.8217855 ], [ -1.6517697, 53.8211161 ], [ -1.6515691, 53.8206327 ], [ -1.6513018, 53.8202184 ], [ -1.6509341, 53.8199816 ], [ -1.6503659, 53.8197942 ], [ -1.6497643, 53.8196561 ], [ -1.6490959, 53.8196561 ], [ -1.647124, 53.8196561 ], [ -1.6459041, 53.8196166 ], [ -1.6450184, 53.8196758 ], [ -1.6445125, 53.8196698 ], [ -1.643765, 53.8200412 ], [ -1.642612, 53.8204749 ], [ -1.6419164, 53.8208776 ], [ -1.6417001, 53.8212096 ], [ -1.6414155, 53.8218473 ], [ -1.641489, 53.8226837 ], [ -1.6420145, 53.8227005 ], [ -1.6423627, 53.8227142 ], [ -1.6424658, 53.8227258 ], [ -1.6428459, 53.8221755 ], [ -1.6429697, 53.8219793 ], [ -1.6428728, 53.8218613 ], [ -1.6431403, 53.8214212 ], [ -1.6434741, 53.8211512 ], [ -1.6438944, 53.8209396 ], [ -1.6444568, 53.8207827 ], [ -1.6450873, 53.8206294 ], [ -1.6457097, 53.8205608 ], [ -1.6468708, 53.820552 ], [ -1.647944, 53.8207018 ], [ -1.6487795, 53.8209385 ], [ -1.6492296, 53.8211654 ], [ -1.6497142, 53.8214416 ], [ -1.6501487, 53.8218066 ], [ -1.651933, 53.8217855 ] ] ] ] } },
{ "type": "Feature", "properties": { "osm_id": 141056599, "centroid": { "latitude": 53.911781, "longitude": -1.847021 }, "area": 19259, "name": "Hollin Hall Peat Pits", "type": "wetland" }, "geometry": { "type": "MultiPolygon", "coordinates": [ [ [ [ -1.846894, 53.9113346 ], [ -1.8477416, 53.9114674 ], [ -1.8481385, 53.9117201 ], [ -1.8482995, 53.9120361 ], [ -1.8479025, 53.9121372 ], [ -1.8473371, 53.912111 ], [ -1.8467545, 53.9122636 ], [ -1.8466472, 53.9121436 ], [ -1.8461215, 53.9120108 ], [ -1.8457245, 53.9118529 ], [ -1.845864, 53.9116253 ], [ -1.8461644, 53.9115369 ], [ -1.8462964, 53.9113741 ], [ -1.846894, 53.9113346 ] ] ] ] } },
{ "type": "Feature", "properties": { "osm_id": 167472805, "centroid": { "latitude": 53.647188, "longitude": -1.710906 }, "area": 1575, "type": "wetland" }, "geometry": { "type": "MultiPolygon", "coordinates": [ [ [ [ -1.711259, 53.6472339 ], [ -1.7111902, 53.6472869 ], [ -1.7111001, 53.6473235 ], [ -1.7111101, 53.6473167 ], [ -1.7109574, 53.6472898 ], [ -1.7109274, 53.6472883 ], [ -1.7107975, 53.6472818 ], [ -1.7106323, 53.6472408 ], [ -1.7105014, 53.6471922 ], [ -1.7104955, 53.6471429 ], [ -1.710533, 53.6471413 ], [ -1.7105808, 53.6471159 ], [ -1.7106763, 53.6471155 ], [ -1.7108624, 53.6470688 ], [ -1.7110328, 53.6470686 ], [ -1.711077, 53.6470686 ], [ -1.7111088, 53.6470686 ], [ -1.711259, 53.6472339 ] ] ] ] } },
{ "type": "Feature", "properties": { "osm_id": 170612439, "centroid": { "latitude": 53.619997, "longitude": -1.719309 }, "area": 751, "type": "wetland" }, "geometry": { "type": "MultiPolygon", "coordinates": [ [ [ [ -1.7192201, 53.6202917 ], [ -1.7191745, 53.6203118 ], [ -1.7192362, 53.6201485 ], [ -1.7191826, 53.6200435 ], [ -1.7191933, 53.6199481 ], [ -1.7192663, 53.6198695 ], [ -1.7194446, 53.6198326 ], [ -1.719538, 53.6198749 ], [ -1.7195205, 53.6199035 ], [ -1.7194224, 53.6199521 ], [ -1.7193406, 53.6199965 ], [ -1.7193223, 53.6200439 ], [ -1.7192952, 53.620104 ], [ -1.7192899, 53.6201963 ], [ -1.7192201, 53.6202917 ] ] ] ] } },
{ "type": "Feature", "properties": { "osm_id": 170774414, "centroid": { "latitude": 53.619987, "longitude": -1.719972 }, "area": 568, "type": "wetland" }, "geometry": { "type": "MultiPolygon", "coordinates": [ [ [ [ -1.720104, 53.6201397 ], [ -1.7200718, 53.620092 ], [ -1.7200396, 53.6200443 ], [ -1.7199967, 53.6200125 ], [ -1.7199484, 53.6199775 ], [ -1.7198786, 53.6199775 ], [ -1.7197875, 53.6199615 ], [ -1.7196265, 53.6199243 ], [ -1.7197606, 53.6198979 ], [ -1.7198465, 53.6198947 ], [ -1.7199323, 53.6198915 ], [ -1.7200315, 53.6198985 ], [ -1.7200753, 53.6199719 ], [ -1.7201576, 53.6200379 ], [ -1.7201844, 53.6201238 ], [ -1.7201415, 53.6201652 ], [ -1.720104, 53.6201397 ] ] ] ] } },
{ "type": "Feature", "properties": { "osm_id": 175322384, "centroid": { "latitude": 53.891533, "longitude": -1.453423 }, "area": 32988, "name": "Eask Keswick Marsh", "landuse": "conservation", "leisure": "nature_reserve", "type": "wetland", "other_tags": "\"access\"=>\"permissive\",\"managed\"=>\"yes\",\"wetland\"=>\"marsh\",\"operator\"=>\"East Keswick Wildlife Trust\"" }, "geometry": { "type": "MultiPolygon", "coordinates": [ [ [ [ -1.4551952, 53.8920901 ], [ -1.4550128, 53.891717 ], [ -1.4549487, 53.8915413 ], [ -1.4548894, 53.8914009 ], [ -1.4548733, 53.8912365 ], [ -1.4548755, 53.8911657 ], [ -1.4548733, 53.891069 ], [ -1.454919, 53.8910037 ], [ -1.4545328, 53.8909942 ], [ -1.4542431, 53.8909341 ], [ -1.4538139, 53.8909815 ], [ -1.4535135, 53.8910321 ], [ -1.4534652, 53.8911301 ], [ -1.4534009, 53.8911965 ], [ -1.4531702, 53.8913008 ], [ -1.4528322, 53.8912439 ], [ -1.4521929, 53.8913194 ], [ -1.4517663, 53.8913005 ], [ -1.4517201, 53.8912725 ], [ -1.4516637, 53.8912995 ], [ -1.4514844, 53.8913854 ], [ -1.4513382, 53.891521 ], [ -1.4513732, 53.8917622 ], [ -1.4514015, 53.8919537 ], [ -1.4514045, 53.8919742 ], [ -1.4520002, 53.8918574 ], [ -1.4525761, 53.8918742 ], [ -1.4529406, 53.8918704 ], [ -1.4530236, 53.8918757 ], [ -1.4531085, 53.8919001 ], [ -1.4533357, 53.8918348 ], [ -1.4535054, 53.8918397 ], [ -1.4538192, 53.8918488 ], [ -1.4539317, 53.8918521 ], [ -1.4542189, 53.8918604 ], [ -1.4543111, 53.8918631 ], [ -1.4548154, 53.8921034 ], [ -1.4552231, 53.8921603 ], [ -1.4551952, 53.8920901 ] ] ] ] } },
{ "type": "Feature", "properties": { "osm_id": 186039881, "centroid": { "latitude": 53.599923, "longitude": -1.311510 }, "area": 47098, "name": "South Kirkby Marsh", "type": "wetland" }, "geometry": { "type": "MultiPolygon", "coordinates": [ [ [ [ -1.3131159, 53.5990856 ], [ -1.312742, 53.5991522 ], [ -1.3100385, 53.5996364 ], [ -1.3091441, 53.6000175 ], [ -1.311546, 53.6008095 ], [ -1.313381, 53.5998015 ], [ -1.3133072, 53.5997063 ], [ -1.3131159, 53.5990856 ] ] ] ] } },
{ "type": "Feature", "properties": { "osm_id": 190935808, "centroid": { "latitude": 53.639638, "longitude": -1.358855 }, "area": 3077, "type": "wetland" }, "geometry": { "type": "MultiPolygon", "coordinates": [ [ [ [ -1.3596494, 53.639715 ], [ -1.3595797, 53.6397118 ], [ -1.3595574, 53.6397255 ], [ -1.35951, 53.6397325 ], [ -1.3594724, 53.6397357 ], [ -1.3593946, 53.6397484 ], [ -1.3593509, 53.639762 ], [ -1.3592846, 53.6397802 ], [ -1.3591881, 53.6397802 ], [ -1.3591183, 53.639777 ], [ -1.3590888, 53.6397659 ], [ -1.3590164, 53.6397595 ], [ -1.3589164, 53.639762 ], [ -1.3588582, 53.6397595 ], [ -1.3587938, 53.63975 ], [ -1.3587107, 53.6397516 ], [ -1.3586356, 53.6397388 ], [ -1.3585765, 53.6397213 ], [ -1.3585149, 53.6397182 ], [ -1.3584424, 53.6397118 ], [ -1.3583531, 53.6397128 ], [ -1.3582922, 53.6397102 ], [ -1.3582305, 53.6397054 ], [ -1.3581662, 53.6396991 ], [ -1.3581206, 53.6396911 ], [ -1.3580964, 53.6396784 ], [ -1.358142, 53.6396546 ], [ -1.3582091, 53.6396371 ], [ -1.3582547, 53.6396212 ], [ -1.3583486, 53.63961 ], [ -1.3584022, 53.6395973 ], [ -1.3584344, 53.6395655 ], [ -1.3584639, 53.6395353 ], [ -1.358488, 53.6395146 ], [ -1.3585149, 53.6394876 ], [ -1.3585551, 53.6394606 ], [ -1.3585497, 53.6394272 ], [ -1.3585604, 53.6393954 ], [ -1.3585873, 53.6393747 ], [ -1.3586409, 53.6393763 ], [ -1.3586892, 53.6393985 ], [ -1.3587294, 53.639424 ], [ -1.3587884, 53.6394415 ], [ -1.3588225, 53.6394695 ], [ -1.3587957, 53.6395251 ], [ -1.3588283, 53.63956 ], [ -1.3588218, 53.6395801 ], [ -1.358801, 53.6396047 ], [ -1.3588169, 53.6396165 ], [ -1.3588654, 53.6396173 ], [ -1.3589137, 53.6396237 ], [ -1.3589566, 53.6396269 ], [ -1.3589861, 53.6396332 ], [ -1.3590143, 53.639642 ], [ -1.3590411, 53.6396436 ], [ -1.3590666, 53.639646 ], [ -1.3590894, 53.6396436 ], [ -1.3591001, 53.6396412 ], [ -1.359133, 53.6396482 ], [ -1.3591518, 53.6396489 ], [ -1.3591698, 53.6396348 ], [ -1.3591873, 53.6396293 ], [ -1.3592873, 53.6396053 ], [ -1.3593544, 53.6395989 ], [ -1.3594107, 53.6395878 ], [ -1.3594795, 53.6395989 ], [ -1.359526, 53.6396196 ], [ -1.3595609, 53.6396514 ], [ -1.359603, 53.6396825 ], [ -1.3596521, 53.6396879 ], [ -1.3597701, 53.6396959 ], [ -1.3596494, 53.639715 ] ] ] ] } },
{ "type": "Feature", "properties": { "osm_id": 190936015, "centroid": { "latitude": 53.639547, "longitude": -1.359081 }, "area": 336, "type": "wetland" }, "geometry": { "type": "MultiPolygon", "coordinates": [ [ [ [ -1.3588689, 53.6394669 ], [ -1.3589199, 53.6394733 ], [ -1.3589869, 53.6394812 ], [ -1.3590325, 53.6394987 ], [ -1.3591023, 53.6395083 ], [ -1.3591747, 53.639513 ], [ -1.3592337, 53.639521 ], [ -1.35929, 53.639521 ], [ -1.359316, 53.6395442 ], [ -1.3593107, 53.6395712 ], [ -1.3593007, 53.6395878 ], [ -1.3592686, 53.6396021 ], [ -1.359239, 53.6395957 ], [ -1.3592168, 53.6395911 ], [ -1.3592014, 53.6395742 ], [ -1.3591712, 53.6395712 ], [ -1.3591497, 53.6395657 ], [ -1.3591363, 53.6395625 ], [ -1.3590901, 53.6395472 ], [ -1.3590284, 53.6395408 ], [ -1.3589928, 53.639545 ], [ -1.3589647, 53.6395339 ], [ -1.3589238, 53.6395273 ], [ -1.3588855, 53.6395195 ], [ -1.3588587, 53.6395172 ], [ -1.3588393, 53.6395217 ], [ -1.3588246, 53.6395186 ], [ -1.3588152, 53.6395106 ], [ -1.3588152, 53.6394963 ], [ -1.3588192, 53.6394844 ], [ -1.3588299, 53.639474 ], [ -1.3588689, 53.6394669 ] ] ] ] } },
{ "type": "Feature", "properties": { "osm_id": 207466313, "centroid": { "latitude": 53.929748, "longitude": -1.910875 }, "area": 62138, "name": "Great Sea Moor", "type": "wetland", "other_tags": "\"source:name\"=>\"OS 1854\"" }, "geometry": { "type": "MultiPolygon", "coordinates": [ [ [ [ -1.9126729, 53.9299986 ], [ -1.9125468, 53.9301242 ], [ -1.9122276, 53.9301913 ], [ -1.9119299, 53.9303958 ], [ -1.911482, 53.9305671 ], [ -1.9110287, 53.93062 ], [ -1.9106558, 53.9306208 ], [ -1.9100389, 53.9305198 ], [ -1.909363, 53.9303713 ], [ -1.9089982, 53.9301818 ], [ -1.9090733, 53.9298091 ], [ -1.9093657, 53.9293567 ], [ -1.9092825, 53.9292343 ], [ -1.9094569, 53.9292303 ], [ -1.9103018, 53.9288932 ], [ -1.9113103, 53.9288711 ], [ -1.9115973, 53.9288861 ], [ -1.9125897, 53.9293535 ], [ -1.9129545, 53.9296599 ], [ -1.9126782, 53.929746 ], [ -1.9126729, 53.9299986 ] ] ] ] } },
{ "type": "Feature", "properties": { "osm_id": 224253220, "centroid": { "latitude": 53.598170, "longitude": -1.425347 }, "area": 46384, "type": "wetland" }, "geometry": { "type": "MultiPolygon", "coordinates": [ [ [ [ -1.4272691, 53.5971294 ], [ -1.4276194, 53.5970054 ], [ -1.4276062, 53.5972575 ], [ -1.4279431, 53.5972685 ], [ -1.4275939, 53.597325 ], [ -1.4277626, 53.5974611 ], [ -1.4282567, 53.5975595 ], [ -1.4278914, 53.597604 ], [ -1.4281486, 53.5976606 ], [ -1.428321, 53.5977795 ], [ -1.4282365, 53.5979325 ], [ -1.4279623, 53.5979649 ], [ -1.4278658, 53.5979967 ], [ -1.4277049, 53.5979967 ], [ -1.4273878, 53.5978837 ], [ -1.4271532, 53.5979708 ], [ -1.4268146, 53.5982402 ], [ -1.4267926, 53.5983879 ], [ -1.4266445, 53.5984439 ], [ -1.4264773, 53.5983848 ], [ -1.4262866, 53.5983119 ], [ -1.4260417, 53.5983218 ], [ -1.4257078, 53.5983897 ], [ -1.4252483, 53.5984803 ], [ -1.4250796, 53.5984383 ], [ -1.4250949, 53.5982622 ], [ -1.4249439, 53.598307 ], [ -1.4247988, 53.5982734 ], [ -1.4246279, 53.5984575 ], [ -1.4242521, 53.5984898 ], [ -1.423978, 53.5986353 ], [ -1.42397, 53.5987805 ], [ -1.4237782, 53.5988566 ], [ -1.4235497, 53.5988497 ], [ -1.4232546, 53.5989651 ], [ -1.4229751, 53.598971 ], [ -1.4227724, 53.5991124 ], [ -1.4223923, 53.5991905 ], [ -1.422057, 53.5992354 ], [ -1.4218545, 53.5993871 ], [ -1.4216394, 53.5993799 ], [ -1.4214836, 53.5994382 ], [ -1.4213403, 53.5995851 ], [ -1.4207387, 53.5997035 ], [ -1.421056, 53.5995555 ], [ -1.4211864, 53.5993868 ], [ -1.4214821, 53.5992255 ], [ -1.4216431, 53.5990854 ], [ -1.4220937, 53.5989294 ], [ -1.4223458, 53.5988626 ], [ -1.4224424, 53.5988244 ], [ -1.4225872, 53.5987671 ], [ -1.4227213, 53.5987384 ], [ -1.4229037, 53.5986939 ], [ -1.4229949, 53.5986652 ], [ -1.4230485, 53.5986111 ], [ -1.4231505, 53.5985665 ], [ -1.4232846, 53.598522 ], [ -1.4234187, 53.5984997 ], [ -1.4234992, 53.5984678 ], [ -1.4236279, 53.5984201 ], [ -1.4239015, 53.5983214 ], [ -1.4241482, 53.5982291 ], [ -1.4244664, 53.5981657 ], [ -1.4246423, 53.5981178 ], [ -1.4248081, 53.5979967 ], [ -1.4249315, 53.5979967 ], [ -1.4250602, 53.5979426 ], [ -1.4257951, 53.5976815 ], [ -1.4259024, 53.5976019 ], [ -1.4260741, 53.5974587 ], [ -1.4261975, 53.5973823 ], [ -1.4263598, 53.5975046 ], [ -1.4265776, 53.5973634 ], [ -1.4268592, 53.5972843 ], [ -1.4270322, 53.5970985 ], [ -1.4271301, 53.5971241 ], [ -1.4272691, 53.5971294 ] ] ] ] } },
{ "type": "Feature", "properties": { "osm_id": 226447862, "centroid": { "latitude": 53.843471, "longitude": -1.826787 }, "area": 24784, "name": "Bingley South Bog", "type": "wetland", "other_tags": "\"description\"=>\"Site of Scientific Interest (SSI)\"" }, "geometry": { "type": "MultiPolygon", "coordinates": [ [ [ [ -1.8278291, 53.8442228 ], [ -1.8278935, 53.844381 ], [ -1.8276424, 53.8445768 ], [ -1.8274536, 53.8446057 ], [ -1.8267991, 53.8444918 ], [ -1.8266007, 53.8442892 ], [ -1.8264236, 53.8441342 ], [ -1.8266972, 53.8439284 ], [ -1.826826, 53.8437417 ], [ -1.8265685, 53.843422 ], [ -1.8265363, 53.8431847 ], [ -1.8262305, 53.8429251 ], [ -1.8259247, 53.8430422 ], [ -1.8257692, 53.842903 ], [ -1.8257102, 53.8425453 ], [ -1.8256254, 53.8425607 ], [ -1.8255235, 53.8426493 ], [ -1.8254956, 53.8424884 ], [ -1.8262198, 53.8422478 ], [ -1.8264569, 53.8422727 ], [ -1.8266393, 53.8425512 ], [ -1.8269708, 53.8429789 ], [ -1.8271049, 53.8432701 ], [ -1.8273463, 53.8435898 ], [ -1.8274107, 53.8436436 ], [ -1.8273206, 53.8438172 ], [ -1.8275877, 53.8438873 ], [ -1.8278291, 53.8442228 ] ] ] ] } },
{ "type": "Feature", "properties": { "osm_id": 229004906, "centroid": { "latitude": 53.908422, "longitude": -1.711650 }, "area": 14924, "type": "wetland" }, "geometry": { "type": "MultiPolygon", "coordinates": [ [ [ [ -1.712553, 53.9085539 ], [ -1.7124672, 53.9085982 ], [ -1.7123062, 53.9086424 ], [ -1.7121507, 53.9086772 ], [ -1.7119468, 53.9087404 ], [ -1.7118181, 53.9087593 ], [ -1.7112355, 53.9087988 ], [ -1.7108975, 53.9088526 ], [ -1.7107688, 53.9088747 ], [ -1.7107044, 53.9088178 ], [ -1.7106111, 53.9087467 ], [ -1.7107634, 53.9085176 ], [ -1.7108954, 53.9083991 ], [ -1.7108525, 53.9082032 ], [ -1.7109544, 53.9081463 ], [ -1.7110724, 53.9080862 ], [ -1.7112173, 53.9080926 ], [ -1.7113514, 53.9081368 ], [ -1.711625, 53.9081621 ], [ -1.7117001, 53.9081621 ], [ -1.7118002, 53.9080815 ], [ -1.7119897, 53.9079567 ], [ -1.7120434, 53.9078903 ], [ -1.7121507, 53.9079314 ], [ -1.7123813, 53.9080357 ], [ -1.7125906, 53.9081842 ], [ -1.7126335, 53.9082727 ], [ -1.7125691, 53.9084275 ], [ -1.712553, 53.9085539 ] ] ] ] } },
{ "type": "Feature", "properties": { "osm_id": 295976425, "centroid": { "latitude": 53.648450, "longitude": -1.544665 }, "area": 73144, "type": "wetland" }, "geometry": { "type": "MultiPolygon", "coordinates": [ [ [ [ -1.5474811, 53.647563 ], [ -1.5465378, 53.6474108 ], [ -1.5461828, 53.6476128 ], [ -1.5455337, 53.6479727 ], [ -1.5449873, 53.648017 ], [ -1.5440673, 53.6480502 ], [ -1.542741, 53.6479395 ], [ -1.5414661, 53.6495007 ], [ -1.5447491, 53.6489609 ], [ -1.5470655, 53.6486011 ], [ -1.5473842, 53.6485947 ], [ -1.5474279, 53.6484429 ], [ -1.5474811, 53.647563 ] ] ] ] } },
{ "type": "Feature", "properties": { "osm_id": 296030460, "centroid": { "latitude": 53.655401, "longitude": -1.567825 }, "area": 102195, "type": "wetland" }, "geometry": { "type": "MultiPolygon", "coordinates": [ [ [ [ -1.5730886, 53.6567149 ], [ -1.572573, 53.6566755 ], [ -1.5710716, 53.6566838 ], [ -1.5697687, 53.6566824 ], [ -1.5680195, 53.6566633 ], [ -1.5667857, 53.6564439 ], [ -1.5672094, 53.655735 ], [ -1.5664101, 53.6554647 ], [ -1.5663887, 53.655328 ], [ -1.5634007, 53.6542535 ], [ -1.5641269, 53.6531141 ], [ -1.5641464, 53.6530835 ], [ -1.5651656, 53.653411 ], [ -1.5652192, 53.6535795 ], [ -1.5651495, 53.6536876 ], [ -1.5646453, 53.6536876 ], [ -1.5642858, 53.6537384 ], [ -1.5641625, 53.6538529 ], [ -1.564377, 53.6541327 ], [ -1.564715, 53.6543679 ], [ -1.5661527, 53.6549147 ], [ -1.5665174, 53.6539832 ], [ -1.5684594, 53.6546159 ], [ -1.5698326, 53.655239 ], [ -1.5697575, 53.6554298 ], [ -1.5694679, 53.6554171 ], [ -1.5689797, 53.6553567 ], [ -1.5683735, 53.655026 ], [ -1.5674079, 53.6548416 ], [ -1.5670002, 53.6546509 ], [ -1.5665818, 53.6550387 ], [ -1.5678907, 53.6555887 ], [ -1.5713025, 53.6563009 ], [ -1.5714706, 53.6560174 ], [ -1.5720519, 53.6561957 ], [ -1.5723406, 53.6563932 ], [ -1.5731537, 53.6565221 ], [ -1.5730886, 53.6567149 ] ] ] ] } },
{ "type": "Feature", "properties": { "osm_id": 307052991, "centroid": { "latitude": 53.697023, "longitude": -1.469048 }, "area": 2539, "type": "wetland", "other_tags": "\"wetland\"=>\"marsh\"" }, "geometry": { "type": "MultiPolygon", "coordinates": [ [ [ [ -1.4688233, 53.6972162 ], [ -1.4690346, 53.6971858 ], [ -1.4692873, 53.6971591 ], [ -1.4695898, 53.6971079 ], [ -1.469636, 53.6970956 ], [ -1.4696274, 53.6970619 ], [ -1.4695925, 53.6970365 ], [ -1.4695067, 53.6970333 ], [ -1.4694155, 53.6970349 ], [ -1.4692626, 53.6970031 ], [ -1.4692036, 53.6969825 ], [ -1.4691822, 53.6969587 ], [ -1.4691312, 53.6969206 ], [ -1.4690266, 53.6968888 ], [ -1.4689917, 53.6968872 ], [ -1.468981, 53.6968697 ], [ -1.4689783, 53.6968459 ], [ -1.4689622, 53.6968046 ], [ -1.4689408, 53.6967745 ], [ -1.4689139, 53.6967522 ], [ -1.4688791, 53.6967443 ], [ -1.4688361, 53.6967522 ], [ -1.4687718, 53.6967459 ], [ -1.4687181, 53.6967951 ], [ -1.4687294, 53.6968367 ], [ -1.4687503, 53.6968602 ], [ -1.4687664, 53.6968999 ], [ -1.4687643, 53.6969495 ], [ -1.4687664, 53.6969952 ], [ -1.468783, 53.6970447 ], [ -1.4687879, 53.697073 ], [ -1.4687691, 53.6970984 ], [ -1.4687321, 53.6971273 ], [ -1.4687396, 53.6971556 ], [ -1.4687777, 53.6971781 ], [ -1.4688233, 53.6972162 ] ] ] ] } },
{ "type": "Feature", "properties": { "osm_id": 307054920, "centroid": { "latitude": 53.698673, "longitude": -1.467104 }, "area": 98509, "type": "wetland", "other_tags": "\"wetland\"=>\"marsh\"" }, "geometry": { "type": "MultiPolygon", "coordinates": [ [ [ [ -1.4684016, 53.6978908 ], [ -1.4685095, 53.6977577 ], [ -1.4686216, 53.697624 ], [ -1.4686972, 53.6976307 ], [ -1.468783, 53.6980182 ], [ -1.4688254, 53.6982719 ], [ -1.4688844, 53.6984457 ], [ -1.4689429, 53.6986386 ], [ -1.4689874, 53.698806 ], [ -1.4690293, 53.6990119 ], [ -1.4689649, 53.6990723 ], [ -1.4689756, 53.6991104 ], [ -1.4690674, 53.6991425 ], [ -1.4691317, 53.6992758 ], [ -1.4691956, 53.6995423 ], [ -1.4692176, 53.6996411 ], [ -1.4691746, 53.6996951 ], [ -1.4688952, 53.6997932 ], [ -1.4688201, 53.6998631 ], [ -1.4686859, 53.6999139 ], [ -1.4685518, 53.6999615 ], [ -1.4684124, 53.7000028 ], [ -1.4683056, 53.7000379 ], [ -1.4681179, 53.7000538 ], [ -1.467914, 53.7000728 ], [ -1.467715, 53.700079 ], [ -1.4675326, 53.7000377 ], [ -1.4673395, 53.7000028 ], [ -1.4671946, 53.6999679 ], [ -1.466943, 53.699911 ], [ -1.4667875, 53.6998824 ], [ -1.4666045, 53.6998345 ], [ -1.46653, 53.6998253 ], [ -1.4664597, 53.699771 ], [ -1.4663583, 53.6997268 ], [ -1.4663084, 53.6997557 ], [ -1.4661598, 53.6997306 ], [ -1.4660359, 53.6996789 ], [ -1.4658696, 53.6996471 ], [ -1.4656765, 53.6995645 ], [ -1.4655268, 53.6995299 ], [ -1.4654625, 53.6994664 ], [ -1.4653927, 53.6993933 ], [ -1.4653434, 53.6991933 ], [ -1.4652892, 53.6989757 ], [ -1.4657784, 53.6987032 ], [ -1.4658986, 53.6982313 ], [ -1.4657747, 53.6978028 ], [ -1.4650719, 53.6973728 ], [ -1.4644379, 53.6971543 ], [ -1.4644861, 53.6970844 ], [ -1.4646793, 53.6970559 ], [ -1.4654195, 53.6969955 ], [ -1.4663637, 53.6969129 ], [ -1.4666534, 53.6969034 ], [ -1.4666587, 53.6969383 ], [ -1.4664817, 53.6969733 ], [ -1.4659774, 53.6970749 ], [ -1.4658428, 53.6970778 ], [ -1.4657521, 53.6970654 ], [ -1.4655668, 53.69709 ], [ -1.4654136, 53.6971413 ], [ -1.4652801, 53.6972845 ], [ -1.4652908, 53.697329 ], [ -1.4653176, 53.6973639 ], [ -1.4656604, 53.6972937 ], [ -1.4657677, 53.6972652 ], [ -1.4659447, 53.6972493 ], [ -1.4660847, 53.6972464 ], [ -1.4662451, 53.697227 ], [ -1.4664222, 53.6972175 ], [ -1.4666206, 53.6971985 ], [ -1.4668138, 53.6971667 ], [ -1.4669211, 53.6971381 ], [ -1.4670552, 53.6971413 ], [ -1.4671035, 53.6971953 ], [ -1.4671254, 53.6972686 ], [ -1.467163, 53.6973353 ], [ -1.4672274, 53.697383 ], [ -1.4672274, 53.6974719 ], [ -1.4672429, 53.6975383 ], [ -1.4672488, 53.6975735 ], [ -1.4673025, 53.6977069 ], [ -1.46734, 53.69778 ], [ -1.4673722, 53.6978435 ], [ -1.4674312, 53.6979134 ], [ -1.4675219, 53.6978813 ], [ -1.4675439, 53.6978308 ], [ -1.4675809, 53.6978019 ], [ -1.4676297, 53.6978181 ], [ -1.4677048, 53.6978816 ], [ -1.4677423, 53.6979483 ], [ -1.4677799, 53.6980214 ], [ -1.4677692, 53.6981071 ], [ -1.4676941, 53.6981674 ], [ -1.4675921, 53.6982119 ], [ -1.467576, 53.6982786 ], [ -1.4675814, 53.6983866 ], [ -1.4675814, 53.6984946 ], [ -1.4675117, 53.6985867 ], [ -1.4675331, 53.6986343 ], [ -1.4676565, 53.6987042 ], [ -1.4677155, 53.6986978 ], [ -1.4677906, 53.6986534 ], [ -1.4678652, 53.6986308 ], [ -1.4679194, 53.698574 ], [ -1.4679516, 53.6985168 ], [ -1.46801, 53.698399 ], [ -1.4680481, 53.6983326 ], [ -1.468112, 53.6982402 ], [ -1.4681602, 53.6981417 ], [ -1.468289, 53.6979861 ], [ -1.4684016, 53.6978908 ] ] ] ] } },
{ "type": "Feature", "properties": { "osm_id": 402788160, "centroid": { "latitude": 53.729797, "longitude": -1.690222 }, "area": 3908, "type": "wetland" }, "geometry": { "type": "MultiPolygon", "coordinates": [ [ [ [ -1.6905615, 53.7299627 ], [ -1.6906607, 53.7298421 ], [ -1.6905159, 53.7295517 ], [ -1.689789, 53.7296422 ], [ -1.6897595, 53.7296708 ], [ -1.6899472, 53.7300246 ], [ -1.6900572, 53.73005 ], [ -1.6905615, 53.7299627 ] ] ] ] } }
]
}
