{
"type": "FeatureCollection",
"crs": { "type": "name", "properties": { "name": "urn:ogc:def:crs:OGC:1.3:CRS84" } },
"features": [
{ "type": "Feature", "properties": { "osm_id": 43044778, "centroid": { "latitude": 53.841499, "longitude": -1.793375 }, "area": 65, "type": "shelter", "building": "yes" }, "geometry": { "type": "MultiPolygon", "coordinates": [ [ [ [ -1.7933968, 53.8415059 ], [ -1.7934184, 53.8414278 ], [ -1.7933491, 53.8414255 ], [ -1.7933322, 53.8415025 ], [ -1.7933968, 53.8415059 ] ] ] ] } },
{ "type": "Feature", "properties": { "osm_id": 85208218, "centroid": { "latitude": 53.839491, "longitude": -1.496766 }, "area": 99, "type": "shelter", "building": "yes" }, "geometry": { "type": "MultiPolygon", "coordinates": [ [ [ [ -1.496816, 53.8395175 ], [ -1.4967873, 53.8395285 ], [ -1.4967479, 53.8395291 ], [ -1.496719, 53.8395193 ], [ -1.4967016, 53.8395026 ], [ -1.4967011, 53.8394798 ], [ -1.4967232, 53.8394599 ], [ -1.496756, 53.8394513 ], [ -1.4967925, 53.839454 ], [ -1.4968194, 53.8394663 ], [ -1.4968334, 53.8394936 ], [ -1.496816, 53.8395175 ] ] ] ] } },
{ "type": "Feature", "properties": { "osm_id": 89300764, "centroid": { "latitude": 53.905496, "longitude": -1.694151 }, "area": 87, "name": "Buttercross", "type": "shelter", "building": "shelter", "other_tags": "\"description\"=>\"Former location for farmer's wives to sell butter, now a covered seating area.\"" }, "geometry": { "type": "MultiPolygon", "coordinates": [ [ [ [ -1.6942042, 53.9055476 ], [ -1.694122, 53.9055557 ], [ -1.6940984, 53.9054729 ], [ -1.6941806, 53.9054648 ], [ -1.6942042, 53.9055476 ] ] ] ] } },
{ "type": "Feature", "properties": { "osm_id": 95105029, "centroid": { "latitude": 53.919779, "longitude": -1.821665 }, "area": 48, "type": "shelter", "building": "yes" }, "geometry": { "type": "MultiPolygon", "coordinates": [ [ [ [ -1.8217287, 53.9198276 ], [ -1.8216429, 53.9198679 ], [ -1.8216055, 53.9198404 ], [ -1.8216914, 53.9198 ], [ -1.8217287, 53.9198276 ] ] ] ] } },
{ "type": "Feature", "properties": { "osm_id": 151441867, "centroid": { "latitude": 53.817965, "longitude": -1.593679 }, "area": 12, "type": "shelter", "building": "yes", "other_tags": "\"bench\"=>\"yes\",\"shelter_type\"=>\"public_transport\"" }, "geometry": { "type": "MultiPolygon", "coordinates": [ [ [ [ -1.59371, 53.817943 ], [ -1.5937011, 53.8179582 ], [ -1.5936462, 53.8179469 ], [ -1.5936552, 53.8179317 ], [ -1.59371, 53.817943 ] ] ] ] } },
{ "type": "Feature", "properties": { "osm_id": 151441983, "centroid": { "latitude": 53.817525, "longitude": -1.589869 }, "area": 14, "type": "shelter", "building": "yes", "other_tags": "\"shelter_type\"=>\"public_transport\"" }, "geometry": { "type": "MultiPolygon", "coordinates": [ [ [ [ -1.5898522, 53.8173584 ], [ -1.5898492, 53.8173129 ], [ -1.5898744, 53.8173124 ], [ -1.5898774, 53.8173579 ], [ -1.5898522, 53.8173584 ] ] ] ] } },
{ "type": "Feature", "properties": { "osm_id": 151441984, "centroid": { "latitude": 53.817302, "longitude": -1.589423 }, "area": 16, "type": "shelter", "building": "yes", "other_tags": "\"shelter_type\"=>\"public_transport\"" }, "geometry": { "type": "MultiPolygon", "coordinates": [ [ [ [ -1.5894088, 53.8173261 ], [ -1.5894073, 53.8172858 ], [ -1.5894384, 53.8172854 ], [ -1.5894399, 53.8173257 ], [ -1.5894088, 53.8173261 ] ] ] ] } },
{ "type": "Feature", "properties": { "osm_id": 151442645, "centroid": { "latitude": 53.812103, "longitude": -1.577786 }, "area": 58, "type": "shelter", "building": "yes", "other_tags": "\"shelter_type\"=>\"public_transport\"" }, "geometry": { "type": "MultiPolygon", "coordinates": [ [ [ [ -1.5778688, 53.8121755 ], [ -1.5778424, 53.8121857 ], [ -1.5777048, 53.8120622 ], [ -1.5777312, 53.8120519 ], [ -1.5778688, 53.8121755 ] ] ] ] } },
{ "type": "Feature", "properties": { "osm_id": 155437993, "centroid": { "latitude": 53.840846, "longitude": -1.789095 }, "area": 91, "type": "shelter", "building": "yes" }, "geometry": { "type": "MultiPolygon", "coordinates": [ [ [ [ -1.7891482, 53.8408169 ], [ -1.7890727, 53.8408088 ], [ -1.7890435, 53.8409035 ], [ -1.789119, 53.8409116 ], [ -1.7891482, 53.8408169 ] ] ] ] } },
{ "type": "Feature", "properties": { "osm_id": 280004701, "centroid": { "latitude": 53.836044, "longitude": -1.495293 }, "area": 115, "type": "shelter", "building": "yes" }, "geometry": { "type": "MultiPolygon", "coordinates": [ [ [ [ -1.495294, 53.8361319 ], [ -1.4952695, 53.8361293 ], [ -1.495242, 53.8361185 ], [ -1.4952283, 53.8361062 ], [ -1.4952228, 53.8360931 ], [ -1.4952251, 53.8360784 ], [ -1.4952373, 53.8360638 ], [ -1.4952556, 53.8360539 ], [ -1.4952778, 53.8360483 ], [ -1.4953027, 53.8360475 ], [ -1.4953318, 53.8360534 ], [ -1.4953505, 53.8360632 ], [ -1.4953627, 53.8360767 ], [ -1.495366, 53.8360913 ], [ -1.4953593, 53.8361075 ], [ -1.495345, 53.8361195 ], [ -1.4953246, 53.8361279 ], [ -1.495294, 53.8361319 ] ] ] ] } },
{ "type": "Feature", "properties": { "osm_id": 363596938, "centroid": { "latitude": 53.919131, "longitude": -1.816359 }, "area": 44, "type": "shelter", "building": "yes" }, "geometry": { "type": "MultiPolygon", "coordinates": [ [ [ [ -1.8164204, 53.9191461 ], [ -1.8164199, 53.9191755 ], [ -1.8162995, 53.9191748 ], [ -1.8163, 53.9191454 ], [ -1.8164204, 53.9191461 ] ] ] ] } },
{ "type": "Feature", "properties": { "osm_id": 368251062, "centroid": { "latitude": 53.890662, "longitude": -1.731561 }, "area": 24, "type": "shelter", "building": "yes" }, "geometry": { "type": "MultiPolygon", "coordinates": [ [ [ [ -1.7315729, 53.890719 ], [ -1.731521, 53.8906986 ], [ -1.7315507, 53.8906723 ], [ -1.7316026, 53.8906927 ], [ -1.7315729, 53.890719 ] ] ] ] } },
{ "type": "Feature", "properties": { "osm_id": 394927857, "centroid": { "latitude": 53.663136, "longitude": -1.481290 }, "area": 58, "type": "shelter", "other_tags": "\"shelter_type\"=>\"public_transport\"" }, "geometry": { "type": "MultiPolygon", "coordinates": [ [ [ [ -1.4813198, 53.6631592 ], [ -1.4812228, 53.6631234 ], [ -1.4812592, 53.6630888 ], [ -1.4813562, 53.6631245 ], [ -1.4813198, 53.6631592 ] ] ] ] } },
{ "type": "Feature", "properties": { "osm_id": 394927858, "centroid": { "latitude": 53.663050, "longitude": -1.481531 }, "area": 54, "type": "shelter", "other_tags": "\"shelter_type\"=>\"public_transport\"" }, "geometry": { "type": "MultiPolygon", "coordinates": [ [ [ [ -1.4815786, 53.6630758 ], [ -1.4814555, 53.6630311 ], [ -1.481482, 53.6630055 ], [ -1.4816051, 53.6630503 ], [ -1.4815786, 53.6630758 ] ] ] ] } },
{ "type": "Feature", "properties": { "osm_id": 403370229, "centroid": { "latitude": 53.830940, "longitude": -1.947160 }, "area": 19, "type": "shelter", "building": "yes" }, "geometry": { "type": "MultiPolygon", "coordinates": [ [ [ [ -1.9471393, 53.8309647 ], [ -1.9471467, 53.8309611 ], [ -1.9471558, 53.8309591 ], [ -1.9471655, 53.8309589 ], [ -1.9471747, 53.8309606 ], [ -1.9471825, 53.830964 ], [ -1.947188, 53.8309687 ], [ -1.9471906, 53.8309741 ], [ -1.9471901, 53.8309798 ], [ -1.9471865, 53.8309851 ], [ -1.9471801, 53.8309895 ], [ -1.9471718, 53.8309923 ], [ -1.9471623, 53.8309934 ], [ -1.9471527, 53.8309926 ], [ -1.947144, 53.8309901 ], [ -1.9471373, 53.830986 ], [ -1.9471331, 53.8309808 ], [ -1.9471321, 53.8309751 ], [ -1.9471342, 53.8309695 ], [ -1.9471393, 53.8309647 ] ] ] ] } },
{ "type": "Feature", "properties": { "osm_id": 403402523, "centroid": { "latitude": 53.836547, "longitude": -1.932754 }, "area": 17, "type": "shelter" }, "geometry": { "type": "MultiPolygon", "coordinates": [ [ [ [ -1.9327266, 53.8363553 ], [ -1.9327218, 53.836351 ], [ -1.9327195, 53.836346 ], [ -1.93272, 53.8363408 ], [ -1.9327233, 53.836336 ], [ -1.932729, 53.8363321 ], [ -1.9327366, 53.8363295 ], [ -1.9327451, 53.8363284 ], [ -1.9327539, 53.8363289 ], [ -1.9327621, 53.8363312 ], [ -1.9327686, 53.836335 ], [ -1.9327727, 53.8363399 ], [ -1.9327737, 53.8363453 ], [ -1.9327717, 53.8363505 ], [ -1.9327668, 53.8363551 ], [ -1.9327597, 53.8363585 ], [ -1.932751, 53.8363602 ], [ -1.9327419, 53.8363602 ], [ -1.9327336, 53.8363585 ], [ -1.9327266, 53.8363553 ] ] ] ] } },
{ "type": "Feature", "properties": { "osm_id": 440729062, "centroid": { "latitude": 53.820673, "longitude": -1.647757 }, "area": 25, "type": "shelter", "building": "yes", "leisure": "bird_hide" }, "geometry": { "type": "MultiPolygon", "coordinates": [ [ [ [ -1.6477895, 53.8207569 ], [ -1.6477117, 53.8207375 ], [ -1.6477278, 53.8207151 ], [ -1.6478056, 53.8207345 ], [ -1.6477895, 53.8207569 ] ] ] ] } },
{ "type": "Feature", "properties": { "osm_id": 440729063, "centroid": { "latitude": 53.821735, "longitude": -1.650165 }, "area": 26, "type": "shelter", "building": "yes" }, "geometry": { "type": "MultiPolygon", "coordinates": [ [ [ [ -1.6501539, 53.8216903 ], [ -1.6502057, 53.8217102 ], [ -1.6501742, 53.8217387 ], [ -1.6501632, 53.8217345 ], [ -1.6501224, 53.8217188 ], [ -1.6501539, 53.8216903 ] ] ] ] } },
{ "type": "Feature", "properties": { "osm_id": 440729064, "centroid": { "latitude": 53.821218, "longitude": -1.649148 }, "area": 21, "type": "shelter", "building": "yes", "leisure": "bird_hide" }, "geometry": { "type": "MultiPolygon", "coordinates": [ [ [ [ -1.6491577, 53.8213301 ], [ -1.6491121, 53.8213024 ], [ -1.649143, 53.8212846 ], [ -1.6491886, 53.8213123 ], [ -1.6491737, 53.8213209 ], [ -1.6491577, 53.8213301 ] ] ] ] } },
{ "type": "Feature", "properties": { "osm_id": 440729065, "centroid": { "latitude": 53.820954, "longitude": -1.648843 }, "area": 35, "type": "shelter", "building": "yes", "leisure": "bird_hide" }, "geometry": { "type": "MultiPolygon", "coordinates": [ [ [ [ -1.6488993, 53.8209228 ], [ -1.6488463, 53.8209322 ], [ -1.6487974, 53.820941 ], [ -1.6487843, 53.8209154 ], [ -1.6488862, 53.8208972 ], [ -1.6488993, 53.8209228 ] ] ] ] } },
{ "type": "Feature", "properties": { "osm_id": 440729066, "centroid": { "latitude": 53.820661, "longitude": -1.644444 }, "area": 32, "type": "shelter", "building": "yes", "leisure": "bird_hide" }, "geometry": { "type": "MultiPolygon", "coordinates": [ [ [ [ -1.6444816, 53.8206623 ], [ -1.6444595, 53.8206672 ], [ -1.6444383, 53.8206718 ], [ -1.6444056, 53.82062 ], [ -1.6444488, 53.8206105 ], [ -1.6444816, 53.8206623 ] ] ] ] } },
{ "type": "Feature", "properties": { "osm_id": 440729067, "centroid": { "latitude": 53.821090, "longitude": -1.643500 }, "area": 11, "type": "shelter", "building": "yes", "leisure": "bird_hide" }, "geometry": { "type": "MultiPolygon", "coordinates": [ [ [ [ -1.6434989, 53.8211941 ], [ -1.6434756, 53.8211809 ], [ -1.6435071, 53.8211615 ], [ -1.6435253, 53.8211718 ], [ -1.6435304, 53.8211747 ], [ -1.6434989, 53.8211941 ] ] ] ] } },
{ "type": "Feature", "properties": { "osm_id": 446594565, "centroid": { "latitude": 53.552276, "longitude": -1.668339 }, "area": 11, "type": "shelter", "other_tags": "\"shelter_type\"=>\"public_transport\"" }, "geometry": { "type": "MultiPolygon", "coordinates": [ [ [ [ -1.6683444, 53.55218 ], [ -1.6683634, 53.5521722 ], [ -1.6683265, 53.5521406 ], [ -1.6683075, 53.5521485 ], [ -1.6683444, 53.55218 ] ] ] ] } },
{ "type": "Feature", "properties": { "osm_id": 449773184, "centroid": { "latitude": 53.841758, "longitude": -1.791330 }, "area": 167, "type": "shelter", "building": "yes" }, "geometry": { "type": "MultiPolygon", "coordinates": [ [ [ [ -1.7912003, 53.8417766 ], [ -1.7912108, 53.8417236 ], [ -1.7914629, 53.8417497 ], [ -1.7914479, 53.8418021 ], [ -1.7912003, 53.8417766 ] ] ] ] } },
{ "type": "Feature", "properties": { "osm_id": 451739523, "centroid": { "latitude": 53.808501, "longitude": -1.443997 }, "area": 17, "type": "shelter" }, "geometry": { "type": "MultiPolygon", "coordinates": [ [ [ [ -1.4439845, 53.8085581 ], [ -1.4439778, 53.8085616 ], [ -1.4439734, 53.8085663 ], [ -1.4439718, 53.8085715 ], [ -1.4439732, 53.8085767 ], [ -1.4439774, 53.8085814 ], [ -1.4439839, 53.8085851 ], [ -1.4439921, 53.8085873 ], [ -1.444001, 53.8085878 ], [ -1.4440098, 53.8085865 ], [ -1.4440174, 53.8085837 ], [ -1.444023, 53.8085795 ], [ -1.444026, 53.8085745 ], [ -1.4440261, 53.8085692 ], [ -1.4440233, 53.8085642 ], [ -1.4440179, 53.80856 ], [ -1.4440104, 53.808557 ], [ -1.4440017, 53.8085556 ], [ -1.4439928, 53.808556 ], [ -1.4439845, 53.8085581 ] ] ] ] } },
{ "type": "Feature", "properties": { "osm_id": 453124041, "centroid": { "latitude": 53.826736, "longitude": -1.459627 }, "area": 235, "type": "shelter" }, "geometry": { "type": "MultiPolygon", "coordinates": [ [ [ [ -1.4597434, 53.8267592 ], [ -1.4595424, 53.8267885 ], [ -1.4595099, 53.8266989 ], [ -1.4597137, 53.8266697 ], [ -1.4597434, 53.8267592 ] ] ] ] } },
{ "type": "Feature", "properties": { "osm_id": 464444197, "centroid": { "latitude": 53.711273, "longitude": -1.540939 }, "area": 202, "type": "shelter" }, "geometry": { "type": "MultiPolygon", "coordinates": [ [ [ [ -1.5408594, 53.7112414 ], [ -1.5408806, 53.7112275 ], [ -1.5409082, 53.7112186 ], [ -1.5409386, 53.7112155 ], [ -1.540969, 53.7112183 ], [ -1.5409962, 53.7112268 ], [ -1.5410174, 53.71124 ], [ -1.5410303, 53.7112566 ], [ -1.5410336, 53.7112747 ], [ -1.5410268, 53.7112924 ], [ -1.5410108, 53.711308 ], [ -1.5409873, 53.7113197 ], [ -1.5409586, 53.7113263 ], [ -1.540927, 53.711327 ], [ -1.5408969, 53.7113216 ], [ -1.5408714, 53.7113105 ], [ -1.5408534, 53.7112952 ], [ -1.540845, 53.7112772 ], [ -1.5408471, 53.7112586 ], [ -1.5408594, 53.7112414 ] ] ] ] } }
]
}
