{
"type": "FeatureCollection",
"crs": { "type": "name", "properties": { "name": "urn:ogc:def:crs:OGC:1.3:CRS84" } },
"features": [
{ "type": "Feature", "properties": { "osm_id": 54117225, "centroid": { "latitude": 53.768375, "longitude": -1.577196 }, "area": 718, "type": "shrubs" }, "geometry": { "type": "MultiPolygon", "coordinates": [ [ [ [ -1.5772658, 53.7682772 ], [ -1.5773151, 53.7682957 ], [ -1.5773517, 53.7683226 ], [ -1.5773716, 53.7683551 ], [ -1.5773727, 53.7683896 ], [ -1.5773545, 53.7684228 ], [ -1.577319, 53.7684507 ], [ -1.5772701, 53.7684702 ], [ -1.5772131, 53.7684792 ], [ -1.5771543, 53.7684768 ], [ -1.5771, 53.7684631 ], [ -1.5770562, 53.7684397 ], [ -1.5770278, 53.7684092 ], [ -1.5770177, 53.7683748 ], [ -1.5770271, 53.7683404 ], [ -1.5770547, 53.7683099 ], [ -1.5770975, 53.7682864 ], [ -1.5771508, 53.7682722 ], [ -1.577209, 53.7682691 ], [ -1.5772658, 53.7682772 ] ] ] ] } }
]
}
