{
"type": "FeatureCollection",
"crs": { "type": "name", "properties": { "name": "urn:ogc:def:crs:OGC:1.3:CRS84" } },
"features": [
{ "type": "Feature", "properties": { "osm_id": 131134308, "centroid": { "latitude": 53.673925, "longitude": -1.747402 }, "area": 28931, "type": "grassland" }, "geometry": { "type": "MultiPolygon", "coordinates": [ [ [ [ -1.748905, 53.6754605 ], [ -1.749139, 53.675393 ], [ -1.7491218, 53.6752521 ], [ -1.7491238, 53.6751759 ], [ -1.7488604, 53.6752012 ], [ -1.7485329, 53.6751801 ], [ -1.7481983, 53.6751042 ], [ -1.7477925, 53.6750156 ], [ -1.7475078, 53.6749439 ], [ -1.7472444, 53.6748723 ], [ -1.7469098, 53.6747753 ], [ -1.7466179, 53.6747247 ], [ -1.7464328, 53.6746614 ], [ -1.7464399, 53.6745813 ], [ -1.7472, 53.6739075 ], [ -1.7491711, 53.6724881 ], [ -1.7499774, 53.67196 ], [ -1.7497408, 53.6718584 ], [ -1.7489163, 53.6724885 ], [ -1.7484649, 53.6726443 ], [ -1.7473113, 53.6733277 ], [ -1.7474883, 53.6734707 ], [ -1.7473274, 53.6735713 ], [ -1.7459978, 53.6738483 ], [ -1.7456813, 53.674497 ], [ -1.7459105, 53.6746433 ], [ -1.7457441, 53.6745985 ], [ -1.7457233, 53.6747162 ], [ -1.7459654, 53.6747664 ], [ -1.7460667, 53.674799 ], [ -1.7465122, 53.6748405 ], [ -1.7473976, 53.6750404 ], [ -1.7479931, 53.6752026 ], [ -1.7485623, 53.6754374 ], [ -1.748905, 53.6754605 ] ] ] ] } },
{ "type": "Feature", "properties": { "osm_id": 175340659, "centroid": { "latitude": 53.895148, "longitude": -1.449735 }, "area": 5257, "landuse": "conservation", "type": "grassland", "other_tags": "\"managed\"=>\"yes\",\"operator\"=>\"East Keswick Wildlife Trust\"" }, "geometry": { "type": "MultiPolygon", "coordinates": [ [ [ [ -1.4491491, 53.8949954 ], [ -1.4492996, 53.8952699 ], [ -1.4493905, 53.8954379 ], [ -1.4502656, 53.8952859 ], [ -1.4502093, 53.8949094 ], [ -1.4497799, 53.8949227 ], [ -1.4491491, 53.8949954 ] ] ] ] } },
{ "type": "Feature", "properties": { "osm_id": 175340665, "centroid": { "latitude": 53.896843, "longitude": -1.449344 }, "area": 14636, "landuse": "conservation", "type": "grassland", "other_tags": "\"access\"=>\"private\",\"managed\"=>\"yes\"" }, "geometry": { "type": "MultiPolygon", "coordinates": [ [ [ [ -1.4501113, 53.8966783 ], [ -1.4497499, 53.8963452 ], [ -1.4488762, 53.8964616 ], [ -1.4487038, 53.8964976 ], [ -1.4483612, 53.8965691 ], [ -1.4484044, 53.8966502 ], [ -1.4485329, 53.8968472 ], [ -1.4489133, 53.8970717 ], [ -1.4492996, 53.8973467 ], [ -1.4494839, 53.8974725 ], [ -1.4495349, 53.8975073 ], [ -1.4496139, 53.8975612 ], [ -1.4499448, 53.8973928 ], [ -1.4496382, 53.8971299 ], [ -1.4495975, 53.8971034 ], [ -1.4499497, 53.8969443 ], [ -1.4502404, 53.8967957 ], [ -1.4501113, 53.8966783 ] ] ] ] } },
{ "type": "Feature", "properties": { "osm_id": 175407454, "centroid": { "latitude": 53.897798, "longitude": -1.449473 }, "area": 3733, "name": "Frank Shires Meadow", "landuse": "conservation", "leisure": "nature_reserve", "type": "grassland", "other_tags": "\"managed\"=>\"yes\",\"operator\"=>\"East Keswick Wildlife Trust\"" }, "geometry": { "type": "MultiPolygon", "coordinates": [ [ [ [ -1.4489294, 53.8977323 ], [ -1.449017, 53.8977077 ], [ -1.4490548, 53.8976981 ], [ -1.4494283, 53.8976027 ], [ -1.4494839, 53.8974725 ], [ -1.4495349, 53.8975073 ], [ -1.4496139, 53.8975612 ], [ -1.4499409, 53.8977887 ], [ -1.4498931, 53.8978717 ], [ -1.4496526, 53.89799 ], [ -1.4496217, 53.8979998 ], [ -1.4495606, 53.8980193 ], [ -1.4495948, 53.8980407 ], [ -1.449572, 53.898056 ], [ -1.4495331, 53.8980775 ], [ -1.4494866, 53.8980975 ], [ -1.4491427, 53.8978929 ], [ -1.4489294, 53.8977323 ] ] ] ] } },
{ "type": "Feature", "properties": { "osm_id": 175498458, "centroid": { "latitude": 53.895985, "longitude": -1.450242 }, "area": 15030, "landuse": "conservation", "leisure": "nature_reserve", "type": "grassland", "other_tags": "\"access\"=>\"permissive\",\"managed\"=>\"yes\",\"operator\"=>\"East Keswick Wildlife Trust\",\"ownership\"=>\"conservation_organization\",\"conservation_organization\"=>\"East Keswick Wildlife Trust\"" }, "geometry": { "type": "MultiPolygon", "coordinates": [ [ [ [ -1.4497499, 53.8963452 ], [ -1.4499648, 53.8962593 ], [ -1.449766, 53.8959342 ], [ -1.4495622, 53.8955612 ], [ -1.4493905, 53.8954379 ], [ -1.4502656, 53.8952859 ], [ -1.4503081, 53.8953428 ], [ -1.4510885, 53.8963898 ], [ -1.4501113, 53.8966783 ], [ -1.4497499, 53.8963452 ] ] ] ] } },
{ "type": "Feature", "properties": { "osm_id": 178379878, "centroid": { "latitude": 53.908769, "longitude": -1.446782 }, "area": 12568, "type": "grassland" }, "geometry": { "type": "MultiPolygon", "coordinates": [ [ [ [ -1.4460517, 53.9092588 ], [ -1.4461479, 53.9092601 ], [ -1.4463249, 53.9092222 ], [ -1.4467058, 53.9091243 ], [ -1.4469799, 53.9089673 ], [ -1.4471416, 53.908884 ], [ -1.4473254, 53.9087893 ], [ -1.4477116, 53.9086408 ], [ -1.4481274, 53.9083801 ], [ -1.4480706, 53.9083418 ], [ -1.4479772, 53.9083089 ], [ -1.4477101, 53.9083535 ], [ -1.4470006, 53.9084455 ], [ -1.4466012, 53.9085238 ], [ -1.4462954, 53.9085933 ], [ -1.4460943, 53.9086676 ], [ -1.4458284, 53.9088784 ], [ -1.4458177, 53.9089605 ], [ -1.4458343, 53.9090287 ], [ -1.4458563, 53.9090799 ], [ -1.4458816, 53.9091659 ], [ -1.4459473, 53.9092633 ], [ -1.4460517, 53.9092588 ] ] ] ] } },
{ "type": "Feature", "properties": { "osm_id": 186494888, "centroid": { "latitude": 53.876347, "longitude": -1.428275 }, "area": 23946, "landuse": "conservation", "leisure": "nature_reserve", "type": "grassland", "other_tags": "\"nam\"=>\"Hetchell Wood\"" }, "geometry": { "type": "MultiPolygon", "coordinates": [ [ [ [ -1.4283997, 53.877042 ], [ -1.4282387, 53.8773782 ], [ -1.4286679, 53.8777934 ], [ -1.4290541, 53.8774585 ], [ -1.4292043, 53.8769006 ], [ -1.4289576, 53.8764203 ], [ -1.428802, 53.8762371 ], [ -1.4287886, 53.8759939 ], [ -1.4283889, 53.8759057 ], [ -1.4285391, 53.875765 ], [ -1.428176, 53.875642 ], [ -1.4280563, 53.8755657 ], [ -1.4281207, 53.8754241 ], [ -1.4274019, 53.8751223 ], [ -1.4272082, 53.8752277 ], [ -1.4269942, 53.8751897 ], [ -1.4267866, 53.8753244 ], [ -1.4268049, 53.8755389 ], [ -1.4279812, 53.875845 ], [ -1.428228, 53.8763083 ], [ -1.4284056, 53.8767836 ], [ -1.4283997, 53.877042 ] ] ] ] } },
{ "type": "Feature", "properties": { "osm_id": 205923898, "centroid": { "latitude": 53.635015, "longitude": -1.780803 }, "area": 5597, "type": "grassland" }, "geometry": { "type": "MultiPolygon", "coordinates": [ [ [ [ -1.7812871, 53.6352207 ], [ -1.781238, 53.6352654 ], [ -1.7811897, 53.6353004 ], [ -1.7811253, 53.6353131 ], [ -1.7809974, 53.6353002 ], [ -1.7809384, 53.6352939 ], [ -1.7808235, 53.635254 ], [ -1.7807683, 53.635233 ], [ -1.7806744, 53.6352045 ], [ -1.7805406, 53.6351573 ], [ -1.7804556, 53.6351221 ], [ -1.7803885, 53.6350965 ], [ -1.7802936, 53.6350611 ], [ -1.7802072, 53.6350396 ], [ -1.7802142, 53.6349631 ], [ -1.7802571, 53.6348518 ], [ -1.7803322, 53.63475 ], [ -1.7804717, 53.6347182 ], [ -1.7806264, 53.6347279 ], [ -1.7808311, 53.6347881 ], [ -1.7810349, 53.6348613 ], [ -1.7812111, 53.6349251 ], [ -1.7813353, 53.6350013 ], [ -1.781389, 53.6350426 ], [ -1.7814373, 53.6351126 ], [ -1.7814043, 53.6351668 ], [ -1.7812871, 53.6352207 ] ] ] ] } },
{ "type": "Feature", "properties": { "osm_id": 358273476, "centroid": { "latitude": 53.798194, "longitude": -1.383662 }, "area": 2295, "type": "grassland" }, "geometry": { "type": "MultiPolygon", "coordinates": [ [ [ [ -1.3839525, 53.798345 ], [ -1.3839264, 53.7983682 ], [ -1.383848, 53.7983825 ], [ -1.3837772, 53.7983869 ], [ -1.3837193, 53.798377 ], [ -1.3836914, 53.7983693 ], [ -1.3836746, 53.7983582 ], [ -1.3836503, 53.7983582 ], [ -1.3836018, 53.7983659 ], [ -1.3835906, 53.7983869 ], [ -1.3835272, 53.7983682 ], [ -1.3835011, 53.7983428 ], [ -1.3833243, 53.7981431 ], [ -1.3834082, 53.798014 ], [ -1.3834526, 53.7979991 ], [ -1.3835216, 53.797998 ], [ -1.3836205, 53.7980167 ], [ -1.3838667, 53.7980696 ], [ -1.3839394, 53.798096 ], [ -1.3839506, 53.7981236 ], [ -1.3839581, 53.798161 ], [ -1.383945, 53.7982359 ], [ -1.3839562, 53.798291 ], [ -1.3839525, 53.798345 ] ] ] ] } },
{ "type": "Feature", "properties": { "osm_id": 358273477, "centroid": { "latitude": 53.798316, "longitude": -1.383329 }, "area": 534, "type": "grassland" }, "geometry": { "type": "MultiPolygon", "coordinates": [ [ [ [ -1.3834451, 53.7983968 ], [ -1.3833537, 53.7984034 ], [ -1.3832754, 53.7984111 ], [ -1.3832306, 53.7984056 ], [ -1.3831803, 53.7983902 ], [ -1.3831907, 53.7983484 ], [ -1.3833142, 53.7981585 ], [ -1.3833616, 53.7982215 ], [ -1.3834331, 53.7982956 ], [ -1.3834924, 53.7983571 ], [ -1.3834843, 53.7983869 ], [ -1.3834451, 53.7983968 ] ] ] ] } },
{ "type": "Feature", "properties": { "osm_id": 389006890, "centroid": { "latitude": 53.837838, "longitude": -1.616712 }, "area": 43837, "type": "grassland" }, "geometry": { "type": "MultiPolygon", "coordinates": [ [ [ [ -1.6169133, 53.8368572 ], [ -1.6148856, 53.8372181 ], [ -1.6147765, 53.8372426 ], [ -1.6152038, 53.8379393 ], [ -1.6160726, 53.8380883 ], [ -1.6165941, 53.8382745 ], [ -1.6170487, 53.8385681 ], [ -1.6176388, 53.8386757 ], [ -1.6182665, 53.8389036 ], [ -1.6186942, 53.8387767 ], [ -1.6189339, 53.8386257 ], [ -1.6182723, 53.8383071 ], [ -1.6173094, 53.8376662 ], [ -1.6169133, 53.8368572 ] ] ] ] } },
{ "type": "Feature", "properties": { "osm_id": 446602943, "centroid": { "latitude": 53.806461, "longitude": -1.475525 }, "area": 5000, "type": "grassland" }, "geometry": { "type": "MultiPolygon", "coordinates": [ [ [ [ -1.4762616, 53.8071116 ], [ -1.4760795, 53.8071704 ], [ -1.4757916, 53.8069995 ], [ -1.4754311, 53.8067622 ], [ -1.4749162, 53.8063457 ], [ -1.4748529, 53.8062155 ], [ -1.4749199, 53.8061822 ], [ -1.4749723, 53.8061636 ], [ -1.4756, 53.8059402 ], [ -1.4761084, 53.8057261 ], [ -1.4762506, 53.8057522 ], [ -1.4751003, 53.8062809 ], [ -1.4756447, 53.8066939 ], [ -1.4762616, 53.8071116 ] ] ] ] } },
{ "type": "Feature", "properties": { "osm_id": 448568489, "centroid": { "latitude": 53.798976, "longitude": -1.424720 }, "area": 3105, "name": "roundabout 1", "type": "grassland" }, "geometry": { "type": "MultiPolygon", "coordinates": [ [ [ [ -1.4245789, 53.7991791 ], [ -1.424476, 53.7991416 ], [ -1.4243989, 53.7990864 ], [ -1.4243556, 53.7990182 ], [ -1.4243524, 53.7989455 ], [ -1.4243898, 53.7988761 ], [ -1.4244636, 53.7988177 ], [ -1.4245657, 53.7987769 ], [ -1.4246848, 53.798758 ], [ -1.4248078, 53.7987633 ], [ -1.424921, 53.798792 ], [ -1.4250122, 53.798841 ], [ -1.4250711, 53.798905 ], [ -1.4250913, 53.7989755 ], [ -1.425072, 53.799046 ], [ -1.4250154, 53.7991092 ], [ -1.4249273, 53.7991582 ], [ -1.4248172, 53.7991879 ], [ -1.4246968, 53.7991952 ], [ -1.4245789, 53.7991791 ] ] ] ] } },
{ "type": "Feature", "properties": { "osm_id": 450147648, "centroid": { "latitude": 53.803851, "longitude": -1.451585 }, "area": 471, "type": "grassland" }, "geometry": { "type": "MultiPolygon", "coordinates": [ [ [ [ -1.4518388, 53.8041129 ], [ -1.4518605, 53.8041139 ], [ -1.4518668, 53.8040981 ], [ -1.4517387, 53.803932 ], [ -1.451579, 53.8037951 ], [ -1.4514517, 53.8036938 ], [ -1.4514039, 53.8036731 ], [ -1.4513945, 53.8036678 ], [ -1.4513841, 53.8036642 ], [ -1.451371, 53.8036627 ], [ -1.4513578, 53.803664 ], [ -1.4513461, 53.8036678 ], [ -1.4513374, 53.8036737 ], [ -1.4513326, 53.8036811 ], [ -1.4513323, 53.8036889 ], [ -1.4513366, 53.8036964 ], [ -1.4513477, 53.8037128 ], [ -1.4513806, 53.8037391 ], [ -1.4515251, 53.8038356 ], [ -1.4516752, 53.8039429 ], [ -1.4518388, 53.8041129 ] ] ] ] } },
{ "type": "Feature", "properties": { "osm_id": 450147649, "centroid": { "latitude": 53.803533, "longitude": -1.451457 }, "area": 25, "type": "grassland" }, "geometry": { "type": "MultiPolygon", "coordinates": [ [ [ [ -1.4514648, 53.8035039 ], [ -1.4514205, 53.8035253 ], [ -1.4514192, 53.8035356 ], [ -1.4514326, 53.8035427 ], [ -1.4514487, 53.8035482 ], [ -1.4514943, 53.8035284 ], [ -1.4514889, 53.8035118 ], [ -1.4514648, 53.8035039 ] ] ] ] } },
{ "type": "Feature", "properties": { "osm_id": 450147650, "centroid": { "latitude": 53.803382, "longitude": -1.451265 }, "area": 471, "type": "grassland" }, "geometry": { "type": "MultiPolygon", "coordinates": [ [ [ [ -1.451049, 53.8033439 ], [ -1.4512623, 53.8034595 ], [ -1.4513333, 53.8034722 ], [ -1.4513682, 53.8034595 ], [ -1.4513977, 53.8034183 ], [ -1.4514017, 53.8033621 ], [ -1.4513653, 53.8032984 ], [ -1.4512056, 53.8033075 ], [ -1.451049, 53.8033439 ] ] ] ] } },
{ "type": "Feature", "properties": { "osm_id": 450147651, "centroid": { "latitude": 53.803773, "longitude": -1.451790 }, "area": 463, "type": "grassland" }, "geometry": { "type": "MultiPolygon", "coordinates": [ [ [ [ -1.451914, 53.8039577 ], [ -1.4519596, 53.8039197 ], [ -1.451961, 53.8038785 ], [ -1.4519342, 53.8038294 ], [ -1.4517987, 53.8037177 ], [ -1.4516847, 53.8036243 ], [ -1.4516056, 53.8036037 ], [ -1.451556, 53.803606 ], [ -1.4515841, 53.8036338 ], [ -1.4517129, 53.8037478 ], [ -1.451843, 53.8038666 ], [ -1.451914, 53.8039577 ] ] ] ] } },
{ "type": "Feature", "properties": { "osm_id": 450147652, "centroid": { "latitude": 53.803508, "longitude": -1.451047 }, "area": 235, "type": "grassland" }, "geometry": { "type": "MultiPolygon", "coordinates": [ [ [ [ -1.450927, 53.8034167 ], [ -1.4509015, 53.8034309 ], [ -1.4508787, 53.8034437 ], [ -1.4510021, 53.8035236 ], [ -1.4510919, 53.8035712 ], [ -1.4511778, 53.8035894 ], [ -1.4512073, 53.8035815 ], [ -1.45121, 53.8035617 ], [ -1.451104, 53.8035031 ], [ -1.4510222, 53.8034619 ], [ -1.450927, 53.8034167 ] ] ] ] } },
{ "type": "Feature", "properties": { "osm_id": 450147655, "centroid": { "latitude": 53.803504, "longitude": -1.451812 }, "area": 62, "type": "grassland" }, "geometry": { "type": "MultiPolygon", "coordinates": [ [ [ [ -1.4518161, 53.8034959 ], [ -1.4517545, 53.8034896 ], [ -1.4517558, 53.8035141 ], [ -1.4517799, 53.8035379 ], [ -1.4518121, 53.8035498 ], [ -1.4518389, 53.8035498 ], [ -1.4518577, 53.8035387 ], [ -1.4518711, 53.8035015 ], [ -1.4518161, 53.8034959 ] ] ] ] } },
{ "type": "Feature", "properties": { "osm_id": 450147725, "centroid": { "latitude": 53.804248, "longitude": -1.451923 }, "area": 89, "type": "grassland" }, "geometry": { "type": "MultiPolygon", "coordinates": [ [ [ [ -1.4519516, 53.8043331 ], [ -1.4519878, 53.8043299 ], [ -1.4519516, 53.8042483 ], [ -1.4518872, 53.8041335 ], [ -1.4518765, 53.8041303 ], [ -1.4518577, 53.8041359 ], [ -1.451855, 53.8041422 ], [ -1.4518845, 53.8041929 ], [ -1.4519261, 53.8042697 ], [ -1.4519516, 53.8043331 ] ] ] ] } },
{ "type": "Feature", "properties": { "osm_id": 450147726, "centroid": { "latitude": 53.804381, "longitude": -1.452005 }, "area": 26, "type": "grassland" }, "geometry": { "type": "MultiPolygon", "coordinates": [ [ [ [ -1.4520227, 53.8044899 ], [ -1.4520347, 53.8044843 ], [ -1.4520347, 53.804474 ], [ -1.4520213, 53.8044439 ], [ -1.4520106, 53.8044384 ], [ -1.4519865, 53.8044408 ], [ -1.4519784, 53.8044463 ], [ -1.4519891, 53.8044772 ], [ -1.4520039, 53.8044907 ], [ -1.4520227, 53.8044899 ] ] ] ] } },
{ "type": "Feature", "properties": { "osm_id": 450502180, "centroid": { "latitude": 53.808065, "longitude": -1.453714 }, "area": 226, "type": "grassland" }, "geometry": { "type": "MultiPolygon", "coordinates": [ [ [ [ -1.4535154, 53.8080427 ], [ -1.4535824, 53.8080712 ], [ -1.4537004, 53.8081045 ], [ -1.4539338, 53.8081401 ], [ -1.4539043, 53.808114 ], [ -1.4537809, 53.8080641 ], [ -1.4537004, 53.8080372 ], [ -1.4536213, 53.8080245 ], [ -1.4535596, 53.8080277 ], [ -1.4535154, 53.8080427 ] ] ] ] } },
{ "type": "Feature", "properties": { "osm_id": 450676280, "centroid": { "latitude": 53.806980, "longitude": -1.449323 }, "area": 59, "type": "grassland" }, "geometry": { "type": "MultiPolygon", "coordinates": [ [ [ [ -1.4493116, 53.80693 ], [ -1.4492995, 53.8069474 ], [ -1.4493103, 53.8070417 ], [ -1.4493129, 53.8070646 ], [ -1.449329, 53.8070646 ], [ -1.4493384, 53.8070512 ], [ -1.4493425, 53.8069902 ], [ -1.4493465, 53.8069482 ], [ -1.4493384, 53.80693 ], [ -1.4493116, 53.80693 ] ] ] ] } },
{ "type": "Feature", "properties": { "osm_id": 451711453, "centroid": { "latitude": 53.822695, "longitude": -1.456566 }, "area": 2276, "type": "grassland" }, "geometry": { "type": "MultiPolygon", "coordinates": [ [ [ [ -1.4568226, 53.8225822 ], [ -1.4567459, 53.8225384 ], [ -1.4566489, 53.822512 ], [ -1.4565425, 53.8225061 ], [ -1.4564389, 53.8225213 ], [ -1.456353, 53.8225541 ], [ -1.4562891, 53.8226013 ], [ -1.456254, 53.822658 ], [ -1.4562512, 53.8227184 ], [ -1.456281, 53.8227762 ], [ -1.4563404, 53.8228254 ], [ -1.4564232, 53.8228609 ], [ -1.4565208, 53.822879 ], [ -1.4566231, 53.822878 ], [ -1.4567235, 53.8228564 ], [ -1.4568061, 53.8228165 ], [ -1.4568617, 53.8227627 ], [ -1.456884, 53.8227011 ], [ -1.4568705, 53.8226385 ], [ -1.4568226, 53.8225822 ] ] ] ] } },
{ "type": "Feature", "properties": { "osm_id": 453344955, "centroid": { "latitude": 53.783872, "longitude": -1.459335 }, "area": 280, "type": "grassland" }, "geometry": { "type": "MultiPolygon", "coordinates": [ [ [ [ -1.4592088, 53.7839298 ], [ -1.4591845, 53.7839217 ], [ -1.4591818, 53.7839169 ], [ -1.4591798, 53.7839122 ], [ -1.4591818, 53.7839086 ], [ -1.4592455, 53.7838611 ], [ -1.4592992, 53.783831 ], [ -1.459332, 53.7838195 ], [ -1.4593669, 53.7838111 ], [ -1.459391, 53.7838092 ], [ -1.4594232, 53.7838068 ], [ -1.4594366, 53.7838104 ], [ -1.4594534, 53.7838119 ], [ -1.4594558, 53.7838188 ], [ -1.4594583, 53.7838289 ], [ -1.4594052, 53.7839252 ], [ -1.4593774, 53.7839232 ], [ -1.45937, 53.7839421 ], [ -1.4592161, 53.7839174 ], [ -1.4592088, 53.7839298 ] ] ] ] } },
{ "type": "Feature", "properties": { "osm_id": 456380216, "centroid": { "latitude": 53.796095, "longitude": -1.473147 }, "area": 404, "type": "grassland" }, "geometry": { "type": "MultiPolygon", "coordinates": [ [ [ [ -1.4729753, 53.7959519 ], [ -1.4729954, 53.7960564 ], [ -1.4732435, 53.7962164 ], [ -1.4733481, 53.7961982 ], [ -1.4733548, 53.7961919 ], [ -1.4733508, 53.7961855 ], [ -1.4731255, 53.7960358 ], [ -1.4729914, 53.7959542 ], [ -1.4729753, 53.7959519 ] ] ] ] } },
{ "type": "Feature", "properties": { "osm_id": 456380217, "centroid": { "latitude": 53.796340, "longitude": -1.473177 }, "area": 479, "type": "grassland" }, "geometry": { "type": "MultiPolygon", "coordinates": [ [ [ [ -1.4734152, 53.796439 ], [ -1.4733803, 53.7963828 ], [ -1.4733454, 53.7963448 ], [ -1.4733066, 53.7963123 ], [ -1.4732529, 53.7962814 ], [ -1.4731939, 53.7962925 ], [ -1.4731215, 53.7962996 ], [ -1.4730705, 53.7963052 ], [ -1.4729579, 53.7963115 ], [ -1.4729418, 53.7963353 ], [ -1.4729297, 53.7963527 ], [ -1.4729431, 53.7963614 ], [ -1.4729552, 53.7963677 ], [ -1.4730343, 53.7963812 ], [ -1.4732677, 53.7964058 ], [ -1.4733508, 53.7964161 ], [ -1.4734152, 53.796439 ] ] ] ] } },
{ "type": "Feature", "properties": { "osm_id": 461483680, "centroid": { "latitude": 53.801738, "longitude": -1.486642 }, "area": 2152, "type": "grassland" }, "geometry": { "type": "MultiPolygon", "coordinates": [ [ [ [ -1.4868308, 53.801631 ], [ -1.4866551, 53.8015739 ], [ -1.4865921, 53.8015549 ], [ -1.4865492, 53.8015522 ], [ -1.4864882, 53.8015605 ], [ -1.4864338, 53.8015791 ], [ -1.486409, 53.801591 ], [ -1.4863876, 53.8016072 ], [ -1.4863701, 53.8016302 ], [ -1.4863601, 53.8016603 ], [ -1.4863594, 53.8016896 ], [ -1.4863567, 53.801787 ], [ -1.4863608, 53.8018107 ], [ -1.4863802, 53.8018408 ], [ -1.4863983, 53.8018654 ], [ -1.4864198, 53.8018848 ], [ -1.4864533, 53.8019105 ], [ -1.4864855, 53.8019288 ], [ -1.486511, 53.8019402 ], [ -1.4865217, 53.8019399 ], [ -1.4868764, 53.8018266 ], [ -1.4870566, 53.8017734 ], [ -1.4870653, 53.8017689 ], [ -1.4870675, 53.8017632 ], [ -1.4870521, 53.8017422 ], [ -1.4870139, 53.8017141 ], [ -1.4869502, 53.8016793 ], [ -1.4868918, 53.8016508 ], [ -1.4868308, 53.801631 ] ] ] ] } },
{ "type": "Feature", "properties": { "osm_id": 461922224, "centroid": { "latitude": 53.837844, "longitude": -1.593829 }, "area": 1832, "type": "grassland" }, "geometry": { "type": "MultiPolygon", "coordinates": [ [ [ [ -1.594049, 53.837926 ], [ -1.593986, 53.8379696 ], [ -1.593868, 53.8380036 ], [ -1.593766, 53.8380171 ], [ -1.5936561, 53.838006 ], [ -1.5935823, 53.8379648 ], [ -1.5935488, 53.8379165 ], [ -1.5935595, 53.8378556 ], [ -1.5935689, 53.8378168 ], [ -1.5936051, 53.8377725 ], [ -1.5936494, 53.8377385 ], [ -1.5937084, 53.8377061 ], [ -1.5937097, 53.8377061 ], [ -1.5937835, 53.8376815 ], [ -1.5938693, 53.8376641 ], [ -1.5939699, 53.8376768 ], [ -1.5940517, 53.8377203 ], [ -1.5941027, 53.8377812 ], [ -1.594108, 53.837843 ], [ -1.5940892, 53.8378904 ], [ -1.594049, 53.837926 ] ] ] ] } }
]
}
