{
"type": "FeatureCollection",
"crs": { "type": "name", "properties": { "name": "urn:ogc:def:crs:OGC:1.3:CRS84" } },
"features": [
{ "type": "Feature", "properties": { "osm_id": "4923499", "name": "Hawksclough Bridge", "type": "road", "other_tags": "\"layer\"=>\"1\",\"bridge\"=>\"yes\",\"surface\"=>\"unpaved\"" }, "geometry": { "type": "LineString", "coordinates": [ [ -1.9910535, 53.7336464 ], [ -1.9912245, 53.7334442 ] ] } },
{ "type": "Feature", "properties": { "osm_id": "34956166", "name": "Owler Park Road", "type": "road", "other_tags": "\"access\"=>\"private\"" }, "geometry": { "type": "LineString", "coordinates": [ [ -1.8478417, 53.9407758 ], [ -1.847742, 53.9407104 ] ] } },
{ "type": "Feature", "properties": { "osm_id": "35030021", "type": "road" }, "geometry": { "type": "LineString", "coordinates": [ [ -1.6897362, 53.6799272 ], [ -1.6897073, 53.6800316 ] ] } },
{ "type": "Feature", "properties": { "osm_id": "36795445", "type": "road", "other_tags": "\"foot\"=>\"yes\",\"surface\"=>\"paved\"" }, "geometry": { "type": "LineString", "coordinates": [ [ -1.9602161, 53.8582126 ], [ -1.9600413, 53.8579766 ], [ -1.9597494, 53.857683 ], [ -1.9592945, 53.8574197 ], [ -1.9588654, 53.8572172 ], [ -1.9585467, 53.8571692 ] ] } },
{ "type": "Feature", "properties": { "osm_id": "40820203", "type": "road" }, "geometry": { "type": "LineString", "coordinates": [ [ -1.7844314, 53.7509796 ], [ -1.7844143, 53.750807 ], [ -1.7840023, 53.7507157 ], [ -1.7833843, 53.7504721 ], [ -1.7827835, 53.7504619 ], [ -1.7821397, 53.7502691 ], [ -1.781393, 53.7499138 ], [ -1.7809982, 53.7496753 ], [ -1.7807407, 53.749254 ], [ -1.7807064, 53.7485739 ], [ -1.7806549, 53.7483912 ], [ -1.7803115, 53.7481019 ], [ -1.7801227, 53.7477821 ], [ -1.780466, 53.7475081 ], [ -1.780981, 53.7473253 ], [ -1.7814531, 53.747102 ], [ -1.7819938, 53.7468482 ], [ -1.7826547, 53.7465132 ] ] } },
{ "type": "Feature", "properties": { "osm_id": "55360005", "type": "road", "other_tags": "\"access\"=>\"private\",\"bicycle\"=>\"private\"" }, "geometry": { "type": "LineString", "coordinates": [ [ -1.891412, 53.830959 ], [ -1.8911014, 53.8306062 ], [ -1.890749, 53.830206 ], [ -1.890753, 53.830158 ], [ -1.892622, 53.829159 ], [ -1.893388, 53.828652 ], [ -1.893617, 53.828586 ] ] } },
{ "type": "Feature", "properties": { "osm_id": "56227901", "type": "road" }, "geometry": { "type": "LineString", "coordinates": [ [ -1.8654879, 53.8645222 ], [ -1.8655809, 53.864396 ] ] } },
{ "type": "Feature", "properties": { "osm_id": "56666691", "type": "road", "other_tags": "\"is_in\"=>\"Ilkley\"" }, "geometry": { "type": "LineString", "coordinates": [ [ -1.8544701, 53.9223598 ], [ -1.8549165, 53.9223057 ], [ -1.8557185, 53.9223134 ], [ -1.855803, 53.9223134 ], [ -1.856936, 53.9225425 ], [ -1.8573198, 53.9225979 ], [ -1.8573657, 53.9226049 ] ] } },
{ "type": "Feature", "properties": { "osm_id": "60668106", "name": "Newall Close", "type": "road" }, "geometry": { "type": "LineString", "coordinates": [ [ -1.7338801, 53.8955467 ], [ -1.7344166, 53.8952622 ], [ -1.7344595, 53.8951927 ], [ -1.7345982, 53.8949594 ] ] } },
{ "type": "Feature", "properties": { "osm_id": "60669430", "type": "road" }, "geometry": { "type": "LineString", "coordinates": [ [ -1.7329038, 53.8915573 ], [ -1.732185, 53.8916269 ], [ -1.7319919, 53.8916016 ], [ -1.7315949, 53.8914625 ], [ -1.7314049, 53.8914774 ] ] } },
{ "type": "Feature", "properties": { "osm_id": "60672305", "type": "road" }, "geometry": { "type": "LineString", "coordinates": [ [ -1.7554022, 53.8721928 ], [ -1.7548488, 53.8731447 ] ] } },
{ "type": "Feature", "properties": { "osm_id": "60672306", "type": "road" }, "geometry": { "type": "LineString", "coordinates": [ [ -1.7592002, 53.8715539 ], [ -1.7594469, 53.8716741 ], [ -1.7596722, 53.8718702 ], [ -1.7601765, 53.87206 ], [ -1.760459, 53.872276 ] ] } },
{ "type": "Feature", "properties": { "osm_id": "60676832", "name": "The Coppice", "type": "road", "other_tags": "\"abutters\"=>\"residential\",\"source:name\"=>\"OS_OpenData_Locator\"" }, "geometry": { "type": "LineString", "coordinates": [ [ -1.8307237, 53.9347075 ], [ -1.8303538, 53.9348073 ], [ -1.8299963, 53.9348055 ] ] } },
{ "type": "Feature", "properties": { "osm_id": "60682741", "name": "Pines Gardens", "type": "road", "other_tags": "\"source:name\"=>\"OS_OpenData_Locator\"" }, "geometry": { "type": "LineString", "coordinates": [ [ -1.8343878, 53.9214922 ], [ -1.8343127, 53.921568 ], [ -1.8342698, 53.9218081 ], [ -1.8343664, 53.9218839 ], [ -1.8346239, 53.9219028 ], [ -1.8347097, 53.9219787 ], [ -1.834699, 53.9220545 ], [ -1.8344951, 53.9222467 ] ] } },
{ "type": "Feature", "properties": { "osm_id": "60682926", "name": "College Drive", "type": "road" }, "geometry": { "type": "LineString", "coordinates": [ [ -1.8271304, 53.9202983 ], [ -1.8262846, 53.9203656 ], [ -1.8256975, 53.9204181 ], [ -1.8253542, 53.9205381 ], [ -1.8242491, 53.9205887 ], [ -1.8240452, 53.9206961 ], [ -1.8237295, 53.9210738 ], [ -1.8237019, 53.9211067 ], [ -1.8233413, 53.9213229 ], [ -1.8230367, 53.921429 ] ] } },
{ "type": "Feature", "properties": { "osm_id": "60683001", "name": "Ivy Court", "type": "road", "other_tags": "\"source:name\"=>\"OS_OpenData_Locator\"" }, "geometry": { "type": "LineString", "coordinates": [ [ -1.8246925, 53.9212071 ], [ -1.8245388, 53.9212394 ], [ -1.8241525, 53.9212837 ], [ -1.8241486, 53.9212825 ], [ -1.8239487, 53.9212205 ], [ -1.8237295, 53.9210738 ] ] } },
{ "type": "Feature", "properties": { "osm_id": "60683207", "type": "road" }, "geometry": { "type": "LineString", "coordinates": [ [ -1.8213664, 53.9226512 ], [ -1.821703, 53.9227136 ], [ -1.8218673, 53.92268 ], [ -1.8219281, 53.9226113 ], [ -1.8219515, 53.9224581 ] ] } },
{ "type": "Feature", "properties": { "osm_id": "60683404", "name": "Brodrick Drive", "type": "road" }, "geometry": { "type": "LineString", "coordinates": [ [ -1.8253005, 53.9198305 ], [ -1.8249552, 53.9195933 ], [ -1.8248499, 53.9195209 ], [ -1.8245924, 53.9194703 ], [ -1.8241849, 53.9193458 ] ] } },
{ "type": "Feature", "properties": { "osm_id": "60683615", "name": "Brodrick Drive", "type": "road" }, "geometry": { "type": "LineString", "coordinates": [ [ -1.8272102, 53.9195272 ], [ -1.82702, 53.9195496 ], [ -1.8267811, 53.9195777 ], [ -1.8264592, 53.9196851 ], [ -1.8260232, 53.9197213 ], [ -1.8257295, 53.9197965 ], [ -1.8253005, 53.9198305 ], [ -1.8249894, 53.9198684 ], [ -1.8248284, 53.9199568 ], [ -1.8248606, 53.9202411 ] ] } },
{ "type": "Feature", "properties": { "osm_id": "60684611", "type": "road" }, "geometry": { "type": "LineString", "coordinates": [ [ -1.7577088, 53.8744524 ], [ -1.7586855, 53.8747891 ] ] } },
{ "type": "Feature", "properties": { "osm_id": "60685008", "type": "road" }, "geometry": { "type": "LineString", "coordinates": [ [ -1.7661367, 53.9010217 ], [ -1.7664662, 53.9010434 ] ] } },
{ "type": "Feature", "properties": { "osm_id": "60685395", "name": "Rowley Drive", "type": "road" }, "geometry": { "type": "LineString", "coordinates": [ [ -1.7883611, 53.9221492 ], [ -1.7885972, 53.9221113 ], [ -1.7895306, 53.9220355 ], [ -1.7905927, 53.9217891 ], [ -1.7911529, 53.9217171 ] ] } },
{ "type": "Feature", "properties": { "osm_id": "60685413", "name": "Cragg Drive", "type": "road" }, "geometry": { "type": "LineString", "coordinates": [ [ -1.7888547, 53.9191607 ], [ -1.7889619, 53.9195398 ], [ -1.7889298, 53.9199063 ], [ -1.7887366, 53.9202285 ], [ -1.7885113, 53.9205571 ], [ -1.788386, 53.9207968 ] ] } },
{ "type": "Feature", "properties": { "osm_id": "60685561", "name": "Wheatley Rise", "type": "road", "other_tags": "\"source:name\"=>\"OS_OpenData_Locator\"" }, "geometry": { "type": "LineString", "coordinates": [ [ -1.7963327, 53.9209362 ], [ -1.7966574, 53.921044 ], [ -1.7972768, 53.9212078 ], [ -1.7974377, 53.9212773 ], [ -1.7975404, 53.9214157 ], [ -1.7976081, 53.9215768 ] ] } },
{ "type": "Feature", "properties": { "osm_id": "60685824", "type": "road" }, "geometry": { "type": "LineString", "coordinates": [ [ -1.8023958, 53.9240777 ], [ -1.8013108, 53.9240762 ], [ -1.8012042, 53.9245337 ] ] } },
{ "type": "Feature", "properties": { "osm_id": "60685877", "type": "road" }, "geometry": { "type": "LineString", "coordinates": [ [ -1.8027548, 53.9255064 ], [ -1.802675, 53.9252227 ], [ -1.8025668, 53.9244229 ] ] } },
{ "type": "Feature", "properties": { "osm_id": "60685965", "type": "road" }, "geometry": { "type": "LineString", "coordinates": [ [ -1.8004528, 53.9250151 ], [ -1.8008769, 53.9249847 ], [ -1.8009596, 53.9253809 ] ] } },
{ "type": "Feature", "properties": { "osm_id": "60686005", "type": "road" }, "geometry": { "type": "LineString", "coordinates": [ [ -1.7998826, 53.924965 ], [ -1.7980943, 53.9251002 ], [ -1.797942, 53.9250544 ], [ -1.7978641, 53.9247799 ] ] } },
{ "type": "Feature", "properties": { "osm_id": "60686544", "type": "road" }, "geometry": { "type": "LineString", "coordinates": [ [ -1.8364263, 53.9309683 ], [ -1.8357021, 53.9311075 ], [ -1.8352219, 53.9311649 ], [ -1.8350484, 53.9311574 ], [ -1.834943, 53.9311159 ], [ -1.8345488, 53.930823 ], [ -1.8343945, 53.9306003 ], [ -1.8343169, 53.9297676 ], [ -1.8343631, 53.9293405 ], [ -1.8345143, 53.9291909 ] ] } },
{ "type": "Feature", "properties": { "osm_id": "60996690", "type": "road" }, "geometry": { "type": "LineString", "coordinates": [ [ -1.7859374, 53.9158827 ], [ -1.7857413, 53.9164144 ], [ -1.7856129, 53.9165406 ], [ -1.7854034, 53.9166512 ], [ -1.7850501, 53.9166387 ], [ -1.7845511, 53.9166155 ], [ -1.7844509, 53.9166138 ] ] } },
{ "type": "Feature", "properties": { "osm_id": "61094640", "name": "Whins Lane", "type": "road" }, "geometry": { "type": "LineString", "coordinates": [ [ -1.3277308, 53.9079218 ], [ -1.3280076, 53.9079038 ], [ -1.3283703, 53.9078989 ], [ -1.3291519, 53.9079511 ], [ -1.3302998, 53.9081596 ], [ -1.3318877, 53.9083534 ], [ -1.3334233, 53.9084613 ], [ -1.3335481, 53.9084701 ], [ -1.3340708, 53.9085232 ], [ -1.3346322, 53.9085336 ], [ -1.3351219, 53.9084975 ], [ -1.3352968, 53.9084704 ], [ -1.33545, 53.9084809 ] ] } },
{ "type": "Feature", "properties": { "osm_id": "61094655", "name": "Ings Lane", "type": "road" }, "geometry": { "type": "LineString", "coordinates": [ [ -1.3272223, 53.9046596 ], [ -1.3274541, 53.9060937 ], [ -1.3280076, 53.9079038 ] ] } },
{ "type": "Feature", "properties": { "osm_id": "61156425", "name": "Moor Lane", "type": "road" }, "geometry": { "type": "LineString", "coordinates": [ [ -1.3448357, 53.9310423 ], [ -1.3448143, 53.9300064 ], [ -1.344943, 53.9298801 ], [ -1.3477355, 53.9294936 ], [ -1.3471234, 53.9271081 ], [ -1.3468058, 53.9260027 ], [ -1.3463807, 53.9249147 ], [ -1.3463807, 53.9243714 ], [ -1.3463271, 53.9240791 ], [ -1.3462737, 53.9238685 ], [ -1.3462807, 53.9237972 ] ] } },
{ "type": "Feature", "properties": { "osm_id": "61156469", "name": "Croft Lane", "type": "road" }, "geometry": { "type": "LineString", "coordinates": [ [ -1.3274121, 53.9245483 ], [ -1.3283133, 53.9247504 ], [ -1.3285933, 53.9248181 ], [ -1.328696, 53.924814 ], [ -1.328742, 53.9247389 ], [ -1.3287682, 53.9242525 ] ] } },
{ "type": "Feature", "properties": { "osm_id": "61156744", "type": "road" }, "geometry": { "type": "LineString", "coordinates": [ [ -1.3445913, 53.9108055 ], [ -1.3438701, 53.9105965 ], [ -1.3437414, 53.9104701 ] ] } },
{ "type": "Feature", "properties": { "osm_id": "61156784", "type": "road" }, "geometry": { "type": "LineString", "coordinates": [ [ -1.3478934, 53.9120121 ], [ -1.3472068, 53.9114813 ], [ -1.3467562, 53.9113802 ], [ -1.3445913, 53.9108055 ] ] } },
{ "type": "Feature", "properties": { "osm_id": "61216489", "name": "Sleights Lane", "type": "road" }, "geometry": { "type": "LineString", "coordinates": [ [ -1.5008706, 53.8982107 ], [ -1.5012139, 53.8999112 ] ] } },
{ "type": "Feature", "properties": { "osm_id": "62055414", "type": "road" }, "geometry": { "type": "LineString", "coordinates": [ [ -1.7681717, 53.8805845 ], [ -1.7684587, 53.8802271 ], [ -1.7685399, 53.8800868 ], [ -1.7685891, 53.8799663 ], [ -1.7687703, 53.8796018 ], [ -1.7690206, 53.879296 ], [ -1.7692258, 53.8790557 ], [ -1.7692246, 53.8790038 ], [ -1.7690482, 53.8787132 ], [ -1.7690654, 53.8786025 ], [ -1.7693318, 53.878231 ], [ -1.7694545, 53.8780856 ], [ -1.7694485, 53.8780045 ] ] } },
{ "type": "Feature", "properties": { "osm_id": "62310064", "type": "road" }, "geometry": { "type": "LineString", "coordinates": [ [ -1.8144578, 53.8641953 ], [ -1.8138221, 53.8641109 ], [ -1.8137685, 53.8641679 ], [ -1.8137685, 53.8643007 ], [ -1.8138543, 53.8646107 ], [ -1.8138114, 53.8647942 ], [ -1.813747, 53.865022 ] ] } },
{ "type": "Feature", "properties": { "osm_id": "72843529", "type": "road", "other_tags": "\"foot\"=>\"yes\",\"oneway\"=>\"no\",\"bicycle\"=>\"yes\",\"surface\"=>\"gravel\",\"cycleway\"=>\"no\",\"sidewalk\"=>\"both\"" }, "geometry": { "type": "LineString", "coordinates": [ [ -1.8118162, 53.7839206 ], [ -1.8118732, 53.784121 ], [ -1.8118734, 53.7842385 ], [ -1.8118763, 53.7842914 ] ] } },
{ "type": "Feature", "properties": { "osm_id": "79178790", "type": "road" }, "geometry": { "type": "LineString", "coordinates": [ [ -1.8083495, 53.6380793 ], [ -1.8084675, 53.6383591 ], [ -1.808704, 53.6385499 ], [ -1.8089244, 53.6386817 ] ] } },
{ "type": "Feature", "properties": { "osm_id": "86327507", "name": "The Street", "type": "road" }, "geometry": { "type": "LineString", "coordinates": [ [ -1.8978806, 53.9428703 ], [ -1.8975695, 53.9428513 ], [ -1.8971832, 53.9427313 ], [ -1.8968469, 53.9426873 ], [ -1.8966929, 53.9427011 ], [ -1.8963318, 53.9428299 ] ] } },
{ "type": "Feature", "properties": { "osm_id": "88645541", "type": "road" }, "geometry": { "type": "LineString", "coordinates": [ [ -1.8245402, 53.6685871 ], [ -1.8237311, 53.6678464 ] ] } },
{ "type": "Feature", "properties": { "osm_id": "91890045", "type": "road" }, "geometry": { "type": "LineString", "coordinates": [ [ -1.7844179, 53.9168852 ], [ -1.7845665, 53.9171759 ], [ -1.7846262, 53.9172516 ], [ -1.7848744, 53.9175662 ], [ -1.7856074, 53.9184464 ], [ -1.7857281, 53.918543 ] ] } },
{ "type": "Feature", "properties": { "osm_id": "91890046", "type": "road" }, "geometry": { "type": "LineString", "coordinates": [ [ -1.7844509, 53.9166138 ], [ -1.7844179, 53.9168852 ], [ -1.784184, 53.9172716 ], [ -1.7837119, 53.9182446 ], [ -1.7836561, 53.9183419 ], [ -1.7835671, 53.9184973 ], [ -1.7833954, 53.9186489 ], [ -1.7832398, 53.9188101 ], [ -1.7831862, 53.9189428 ], [ -1.7832559, 53.9191607 ], [ -1.7832881, 53.9193661 ], [ -1.7832345, 53.9195335 ], [ -1.7831597, 53.9196786 ] ] } },
{ "type": "Feature", "properties": { "osm_id": "91892929", "type": "road" }, "geometry": { "type": "LineString", "coordinates": [ [ -1.767061, 53.8802998 ], [ -1.7683106, 53.8802366 ], [ -1.7684587, 53.8802271 ] ] } },
{ "type": "Feature", "properties": { "osm_id": "92439393", "name": "St. Paul's Road", "type": "road", "other_tags": "\"surface\"=>\"unpaved\"" }, "geometry": { "type": "LineString", "coordinates": [ [ -1.9027146, 53.8640058 ], [ -1.9019447, 53.8638077 ], [ -1.9015084, 53.8637219 ] ] } },
{ "type": "Feature", "properties": { "osm_id": "92439399", "type": "road" }, "geometry": { "type": "LineString", "coordinates": [ [ -1.9035286, 53.8640639 ], [ -1.9031679, 53.8641036 ], [ -1.9028838, 53.8641891 ] ] } },
{ "type": "Feature", "properties": { "osm_id": "93271819", "type": "road" }, "geometry": { "type": "LineString", "coordinates": [ [ -1.5757457, 53.8409113 ], [ -1.5750896, 53.8408795 ], [ -1.5748746, 53.8409373 ], [ -1.5747694, 53.8409656 ], [ -1.5738574, 53.8412682 ], [ -1.5732872, 53.841442 ], [ -1.5726664, 53.8415897 ], [ -1.5715845, 53.8417882 ], [ -1.5709951, 53.8419487 ], [ -1.5705191, 53.8420925 ], [ -1.5701607, 53.8422606 ], [ -1.5699168, 53.8424195 ], [ -1.5694068, 53.8427316 ] ] } },
{ "type": "Feature", "properties": { "osm_id": "96053559", "type": "road" }, "geometry": { "type": "LineString", "coordinates": [ [ -1.8137278, 53.9404739 ], [ -1.8136401, 53.9403572 ], [ -1.8136132, 53.9403225 ], [ -1.8124223, 53.939432 ], [ -1.8121273, 53.9390563 ], [ -1.8119235, 53.9387499 ], [ -1.8118924, 53.9386985 ] ] } },
{ "type": "Feature", "properties": { "osm_id": "107878497", "name": "Green Slacks Lane", "type": "road" }, "geometry": { "type": "LineString", "coordinates": [ [ -1.9145882, 53.6419742 ], [ -1.9144347, 53.642019 ], [ -1.9139509, 53.6420636 ], [ -1.9131419, 53.642154 ], [ -1.9127494, 53.6422111 ], [ -1.9117784, 53.6423097 ], [ -1.9109415, 53.6424147 ], [ -1.9100397, 53.6425026 ] ] } },
{ "type": "Feature", "properties": { "osm_id": "107943455", "type": "road" }, "geometry": { "type": "LineString", "coordinates": [ [ -1.8900738, 53.6445511 ], [ -1.8909002, 53.6447668 ], [ -1.8915349, 53.6449414 ], [ -1.891614, 53.6449285 ], [ -1.8916713, 53.6448934 ], [ -1.8923103, 53.6443896 ], [ -1.8928301, 53.6440512 ], [ -1.8934883, 53.6436498 ], [ -1.8940279, 53.6433376 ], [ -1.8942935, 53.6431576 ] ] } },
{ "type": "Feature", "properties": { "osm_id": "113668770", "type": "road" }, "geometry": { "type": "LineString", "coordinates": [ [ -1.8510102, 53.6171216 ], [ -1.8509619, 53.6175293 ], [ -1.8508967, 53.6182 ], [ -1.8507889, 53.6189449 ], [ -1.8507428, 53.6189882 ], [ -1.8505721, 53.6190407 ] ] } },
{ "type": "Feature", "properties": { "osm_id": "118219161", "type": "road" }, "geometry": { "type": "LineString", "coordinates": [ [ -1.3207182, 53.7850836 ], [ -1.3216348, 53.7848764 ], [ -1.3218302, 53.7848702 ], [ -1.3219686, 53.7848427 ], [ -1.3220456, 53.7847746 ], [ -1.3220547, 53.7846936 ], [ -1.3219005, 53.7844089 ], [ -1.3217073, 53.7843345 ], [ -1.3217717, 53.7842648 ], [ -1.3218575, 53.784254 ], [ -1.3220718, 53.7841407 ] ] } },
{ "type": "Feature", "properties": { "osm_id": "118914198", "name": "Heather Court", "type": "road" }, "geometry": { "type": "LineString", "coordinates": [ [ -1.825608, 53.9214575 ], [ -1.8259795, 53.9214358 ], [ -1.8260251, 53.9216068 ], [ -1.8261482, 53.9217829 ] ] } },
{ "type": "Feature", "properties": { "osm_id": "118914209", "type": "road" }, "geometry": { "type": "LineString", "coordinates": [ [ -1.8256027, 53.9219803 ], [ -1.8254042, 53.9224399 ], [ -1.8235103, 53.9225334 ] ] } },
{ "type": "Feature", "properties": { "osm_id": "118914210", "type": "road" }, "geometry": { "type": "LineString", "coordinates": [ [ -1.8241017, 53.9216239 ], [ -1.8234902, 53.9216483 ], [ -1.8234121, 53.9217048 ], [ -1.8234865, 53.9220616 ], [ -1.8235171, 53.9222229 ] ] } },
{ "type": "Feature", "properties": { "osm_id": "118914220", "name": "Regency Court", "type": "road", "other_tags": "\"source:name\"=>\"OS_OpenData_Locator\"" }, "geometry": { "type": "LineString", "coordinates": [ [ -1.830042, 53.9194351 ], [ -1.8303534, 53.9194726 ], [ -1.8305658, 53.9193892 ], [ -1.8307645, 53.9192711 ], [ -1.8308505, 53.9192411 ], [ -1.8309724, 53.9192165 ], [ -1.8312819, 53.9192064 ] ] } },
{ "type": "Feature", "properties": { "osm_id": "118914861", "name": "Queen's Gardens", "type": "road", "other_tags": "\"is_in:town\"=>\"Ilkley\",\"postal_code\"=>\"LS29\",\"source:name\"=>\"OS_OpenData_Locator\"" }, "geometry": { "type": "LineString", "coordinates": [ [ -1.8288555, 53.9200142 ], [ -1.8287539, 53.9200197 ], [ -1.8286627, 53.9201287 ], [ -1.828495, 53.9205494 ] ] } },
{ "type": "Feature", "properties": { "osm_id": "118914862", "name": "Parish Ghyll Walk", "type": "road", "other_tags": "\"is_in:town\"=>\"Ilkley\",\"postal_code\"=>\"LS29\",\"source:name\"=>\"OS_OpenData_Locator\"" }, "geometry": { "type": "LineString", "coordinates": [ [ -1.8305835, 53.9203167 ], [ -1.8305587, 53.9204835 ], [ -1.8304773, 53.9206961 ], [ -1.83041, 53.9208107 ], [ -1.8298674, 53.9216123 ], [ -1.8297812, 53.9216957 ], [ -1.8295317, 53.9217778 ], [ -1.8292069, 53.9218711 ] ] } },
{ "type": "Feature", "properties": { "osm_id": "122771741", "name": "Driveway", "type": "road", "other_tags": "\"oneway\"=>\"no\"" }, "geometry": { "type": "LineString", "coordinates": [ [ -1.6721268, 53.6701464 ], [ -1.6716648, 53.6702417 ] ] } },
{ "type": "Feature", "properties": { "osm_id": "125486018", "type": "road", "other_tags": "\"layer\"=>\"1\",\"bridge\"=>\"yes\"" }, "geometry": { "type": "LineString", "coordinates": [ [ -1.729184, 53.6800275 ], [ -1.7293996, 53.6804088 ] ] } },
{ "type": "Feature", "properties": { "osm_id": "125486021", "type": "road" }, "geometry": { "type": "LineString", "coordinates": [ [ -1.7274776, 53.6777425 ], [ -1.7278429, 53.6784833 ], [ -1.7280397, 53.6787099 ], [ -1.729184, 53.6800275 ] ] } },
{ "type": "Feature", "properties": { "osm_id": "127571832", "name": "Grove Road (Private)", "type": "road", "other_tags": "\"bicycle\"=>\"no\",\"surface\"=>\"asphalt\"" }, "geometry": { "type": "LineString", "coordinates": [ [ -1.5622166, 53.6596792 ], [ -1.5613811, 53.6597371 ] ] } },
{ "type": "Feature", "properties": { "osm_id": "128568082", "name": "East Lee Lane", "type": "road", "other_tags": "\"surface\"=>\"asphalt\"" }, "geometry": { "type": "LineString", "coordinates": [ [ -2.0639336, 53.7279773 ], [ -2.0637304, 53.7277734 ], [ -2.0621332, 53.7258417 ], [ -2.0621067, 53.7257202 ], [ -2.0621645, 53.7254683 ], [ -2.0621907, 53.7254065 ], [ -2.0614418, 53.7252536 ], [ -2.0614075, 53.7252393 ], [ -2.0613512, 53.7252157 ], [ -2.061285, 53.7251464 ], [ -2.0611657, 53.7248236 ], [ -2.0611392, 53.7247073 ], [ -2.0611603, 53.7245828 ], [ -2.0617047, 53.7233453 ], [ -2.0616324, 53.7232624 ], [ -2.0614308, 53.7231533 ], [ -2.0610917, 53.7229926 ], [ -2.0608881, 53.7228182 ], [ -2.0607955, 53.7225641 ], [ -2.0608127, 53.7223959 ], [ -2.061053, 53.7220817 ], [ -2.0611186, 53.7219105 ], [ -2.0609415, 53.721723 ], [ -2.0604737, 53.7216754 ], [ -2.0599745, 53.7217224 ], [ -2.0595526, 53.7219308 ], [ -2.059489, 53.7219023 ], [ -2.0601539, 53.7214501 ], [ -2.0605166, 53.7212437 ], [ -2.0609598, 53.7210453 ], [ -2.0608419, 53.7209732 ] ] } },
{ "type": "Feature", "properties": { "osm_id": "134706395", "name": "Rose Garth", "type": "road", "other_tags": "\"source:name\"=>\"OS_OpenData_Locator\"" }, "geometry": { "type": "LineString", "coordinates": [ [ -1.7664662, 53.9010434 ], [ -1.7668868, 53.9010711 ], [ -1.7678696, 53.9012148 ] ] } },
{ "type": "Feature", "properties": { "osm_id": "138276631", "name": "Pottery Lane", "type": "road", "other_tags": "\"foot\"=>\"yes\",\"horse\"=>\"yes\",\"access\"=>\"yes\",\"oneway\"=>\"no\",\"bicycle\"=>\"yes\",\"cycleway\"=>\"lane\",\"motor_vehicle\"=>\"no\"" }, "geometry": { "type": "LineString", "coordinates": [ [ -1.4413267, 53.7583741 ], [ -1.4411416, 53.7583044 ], [ -1.440872, 53.7582313 ], [ -1.4405818, 53.7581728 ], [ -1.4403222, 53.7581393 ], [ -1.4401442, 53.7581108 ] ] } },
{ "type": "Feature", "properties": { "osm_id": "138776486", "type": "road" }, "geometry": { "type": "LineString", "coordinates": [ [ -1.3815223, 53.7504067 ], [ -1.3815236, 53.7505043 ], [ -1.3815357, 53.750563 ], [ -1.381521, 53.7506328 ], [ -1.3814809, 53.7507221 ], [ -1.3814539, 53.7507557 ], [ -1.3813493, 53.7508706 ], [ -1.3812244, 53.7509542 ] ] } },
{ "type": "Feature", "properties": { "osm_id": "140549929", "type": "road" }, "geometry": { "type": "LineString", "coordinates": [ [ -1.7459686, 53.801819 ], [ -1.7462417, 53.8020003 ], [ -1.7464327, 53.8021472 ], [ -1.7467245, 53.8023488 ], [ -1.7469823, 53.802496 ], [ -1.7472017, 53.8026625 ], [ -1.7471319, 53.802767 ], [ -1.7466011, 53.8030585 ], [ -1.746183, 53.803281 ] ] } },
{ "type": "Feature", "properties": { "osm_id": "140549930", "name": "Prospect Road", "type": "road" }, "geometry": { "type": "LineString", "coordinates": [ [ -1.7474974, 53.8012477 ], [ -1.7465883, 53.8015703 ], [ -1.7460953, 53.8017456 ] ] } },
{ "type": "Feature", "properties": { "osm_id": "140914590", "name": "Myrtle Lane", "type": "road", "other_tags": "\"foot\"=>\"yes\",\"bicycle\"=>\"no\",\"surface\"=>\"asphalt\",\"source:name\"=>\"OS_OpenData_Locator\"" }, "geometry": { "type": "LineString", "coordinates": [ [ -1.7649796, 53.8952158 ], [ -1.7643948, 53.8952992 ], [ -1.7641239, 53.8952897 ], [ -1.7637484, 53.8954035 ] ] } },
{ "type": "Feature", "properties": { "osm_id": "141056592", "name": "Regency Court", "type": "road", "other_tags": "\"source:name\"=>\"OS_OpenData_Locator\"" }, "geometry": { "type": "LineString", "coordinates": [ [ -1.8307645, 53.9192711 ], [ -1.8306537, 53.9191931 ], [ -1.8305091, 53.9191454 ], [ -1.8302755, 53.9191099 ] ] } },
{ "type": "Feature", "properties": { "osm_id": "141056613", "type": "road" }, "geometry": { "type": "LineString", "coordinates": [ [ -1.8282553, 53.9222835 ], [ -1.8286791, 53.9223594 ], [ -1.8288792, 53.922415 ] ] } },
{ "type": "Feature", "properties": { "osm_id": "143250153", "name": "Low Beck", "type": "road", "other_tags": "\"source:name\"=>\"OS_OpenData_Locator\"" }, "geometry": { "type": "LineString", "coordinates": [ [ -1.8075128, 53.9292573 ], [ -1.8074753, 53.9291784 ], [ -1.8077435, 53.929131 ], [ -1.8078561, 53.9291531 ], [ -1.8083336, 53.9290805 ], [ -1.8083658, 53.9290331 ], [ -1.8083947, 53.9287796 ] ] } },
{ "type": "Feature", "properties": { "osm_id": "144582388", "type": "road", "other_tags": "\"access\"=>\"unknown\"" }, "geometry": { "type": "LineString", "coordinates": [ [ -1.3729586, 53.9172431 ], [ -1.3729781, 53.9173604 ], [ -1.3731001, 53.9174921 ], [ -1.3733116, 53.9176861 ], [ -1.3735719, 53.9179089 ], [ -1.3739564, 53.9181024 ], [ -1.3745143, 53.9182225 ], [ -1.3768317, 53.9188227 ], [ -1.3771858, 53.919006 ], [ -1.3791389, 53.9200573 ] ] } },
{ "type": "Feature", "properties": { "osm_id": "145181493", "name": "Harp Lane", "type": "road", "other_tags": "\"source:name\"=>\"OS_OpenData_Locator\"" }, "geometry": { "type": "LineString", "coordinates": [ [ -1.854671, 53.7724297 ], [ -1.8544526, 53.7726167 ], [ -1.8542517, 53.7726445 ], [ -1.8538204, 53.7726732 ], [ -1.8536192, 53.7727 ], [ -1.8533643, 53.7727777 ], [ -1.8531842, 53.7727998 ], [ -1.8529732, 53.7728238 ], [ -1.8527962, 53.7728823 ], [ -1.8526079, 53.7729686 ], [ -1.8522411, 53.7731442 ], [ -1.8518451, 53.7733255 ], [ -1.8516211, 53.773408 ], [ -1.8513825, 53.7734751 ], [ -1.8512424, 53.7735123 ] ] } },
{ "type": "Feature", "properties": { "osm_id": "145665154", "type": "road" }, "geometry": { "type": "LineString", "coordinates": [ [ -1.5423486, 53.706018 ], [ -1.5422413, 53.7059228 ], [ -1.5424451, 53.705764 ], [ -1.5423271, 53.7055798 ], [ -1.5418361, 53.7052277 ] ] } },
{ "type": "Feature", "properties": { "osm_id": "145665155", "type": "road" }, "geometry": { "type": "LineString", "coordinates": [ [ -1.5404552, 53.7056615 ], [ -1.5406642, 53.7061197 ], [ -1.5415868, 53.7064372 ] ] } },
{ "type": "Feature", "properties": { "osm_id": "145799320", "name": "Carleton Grange Stables", "type": "road" }, "geometry": { "type": "LineString", "coordinates": [ [ -1.2950776, 53.675802 ], [ -1.2945673, 53.676135 ], [ -1.2945446, 53.6761697 ], [ -1.2945673, 53.6762053 ], [ -1.2950425, 53.6765274 ] ] } },
{ "type": "Feature", "properties": { "osm_id": "147534467", "type": "road" }, "geometry": { "type": "LineString", "coordinates": [ [ -1.4297289, 53.8375421 ], [ -1.4307754, 53.8390049 ] ] } },
{ "type": "Feature", "properties": { "osm_id": "147534928", "type": "road" }, "geometry": { "type": "LineString", "coordinates": [ [ -1.4176759, 53.8384874 ], [ -1.4212177, 53.8416225 ], [ -1.4212139, 53.8417113 ] ] } },
{ "type": "Feature", "properties": { "osm_id": "147534929", "type": "road" }, "geometry": { "type": "LineString", "coordinates": [ [ -1.4235456, 53.835693 ], [ -1.4225253, 53.8361829 ], [ -1.4217099, 53.8367401 ], [ -1.4216826, 53.8367536 ], [ -1.4206692, 53.8372529 ], [ -1.419135, 53.8381645 ], [ -1.4176759, 53.8384874 ], [ -1.4160022, 53.8385444 ], [ -1.4147382, 53.8385513 ] ] } },
{ "type": "Feature", "properties": { "osm_id": "148874528", "type": "road" }, "geometry": { "type": "LineString", "coordinates": [ [ -1.3933638, 53.8294099 ], [ -1.3936312, 53.8291698 ], [ -1.3938565, 53.8290495 ], [ -1.3940938, 53.8289249 ] ] } },
{ "type": "Feature", "properties": { "osm_id": "150737131", "name": "Hebble Court", "type": "road" }, "geometry": { "type": "LineString", "coordinates": [ [ -1.7864071, 53.5769256 ], [ -1.7862221, 53.5768889 ], [ -1.7860584, 53.5768411 ], [ -1.7859404, 53.5768348 ], [ -1.7857608, 53.5768745 ] ] } },
{ "type": "Feature", "properties": { "osm_id": "150737132", "type": "road" }, "geometry": { "type": "LineString", "coordinates": [ [ -1.785286, 53.5770115 ], [ -1.7851143, 53.576916 ], [ -1.7842437, 53.5766561 ] ] } },
{ "type": "Feature", "properties": { "osm_id": "150737136", "type": "road" }, "geometry": { "type": "LineString", "coordinates": [ [ -1.7862677, 53.5809242 ], [ -1.786273, 53.5806503 ], [ -1.7863025, 53.5805755 ], [ -1.7863803, 53.5805245 ], [ -1.787676, 53.5803107 ] ] } },
{ "type": "Feature", "properties": { "osm_id": "150737141", "type": "road" }, "geometry": { "type": "LineString", "coordinates": [ [ -1.7851492, 53.5772679 ], [ -1.7847898, 53.5771549 ], [ -1.784492, 53.5770641 ], [ -1.7840606, 53.5769392 ] ] } },
{ "type": "Feature", "properties": { "osm_id": "151087521", "name": "Dyson's Hill", "type": "road", "other_tags": "\"source:name\"=>\"OS_OpenData_Locator\"" }, "geometry": { "type": "LineString", "coordinates": [ [ -1.7976422, 53.605227 ], [ -1.7977207, 53.6045885 ] ] } },
{ "type": "Feature", "properties": { "osm_id": "151939996", "type": "road" }, "geometry": { "type": "LineString", "coordinates": [ [ -1.5001436, 53.8560105 ], [ -1.4999245, 53.8560904 ] ] } },
{ "type": "Feature", "properties": { "osm_id": "151939998", "type": "road" }, "geometry": { "type": "LineString", "coordinates": [ [ -1.5000363, 53.8562414 ], [ -1.4999988, 53.8561054 ], [ -1.4999245, 53.8560904 ], [ -1.4997627, 53.8560579 ], [ -1.4991461, 53.8560467 ] ] } },
{ "type": "Feature", "properties": { "osm_id": "152323071", "type": "road" }, "geometry": { "type": "LineString", "coordinates": [ [ -1.7607122, 53.8004704 ], [ -1.7608436, 53.8006795 ] ] } },
{ "type": "Feature", "properties": { "osm_id": "152495377", "name": "Captain Street", "type": "road" }, "geometry": { "type": "LineString", "coordinates": [ [ -1.7476351, 53.7987169 ], [ -1.7475853, 53.7987102 ], [ -1.747521, 53.7986943 ], [ -1.747059, 53.7983424 ] ] } },
{ "type": "Feature", "properties": { "osm_id": "152604360", "name": "Windsor Street", "type": "road", "other_tags": "\"maxspeed\"=>\"20 mph\"" }, "geometry": { "type": "LineString", "coordinates": [ [ -1.8645859, 53.7188409 ], [ -1.8649639, 53.7187932 ] ] } },
{ "type": "Feature", "properties": { "osm_id": "152607640", "type": "road" }, "geometry": { "type": "LineString", "coordinates": [ [ -1.7358721, 53.811187 ], [ -1.7359067, 53.8111532 ], [ -1.7362467, 53.8108213 ] ] } },
{ "type": "Feature", "properties": { "osm_id": "152800448", "type": "road" }, "geometry": { "type": "LineString", "coordinates": [ [ -1.7368968, 53.795214 ], [ -1.7369504, 53.7953565 ], [ -1.7373903, 53.7956576 ], [ -1.7374869, 53.7957494 ], [ -1.7376639, 53.7959459 ], [ -1.7378195, 53.7960314 ], [ -1.7380014, 53.7960678 ] ] } },
{ "type": "Feature", "properties": { "osm_id": "152802571", "type": "road" }, "geometry": { "type": "LineString", "coordinates": [ [ -1.7323906, 53.8085611 ], [ -1.7324523, 53.8084201 ], [ -1.732903, 53.8083715 ] ] } },
{ "type": "Feature", "properties": { "osm_id": "152802577", "type": "road" }, "geometry": { "type": "LineString", "coordinates": [ [ -1.7364748, 53.8079058 ], [ -1.7368227, 53.8078898 ] ] } },
{ "type": "Feature", "properties": { "osm_id": "152802585", "type": "road" }, "geometry": { "type": "LineString", "coordinates": [ [ -1.7320615, 53.8085856 ], [ -1.7321178, 53.8086316 ], [ -1.7321312, 53.8086822 ], [ -1.732091, 53.8087187 ], [ -1.7316625, 53.8089177 ] ] } },
{ "type": "Feature", "properties": { "osm_id": "152853281", "type": "road", "other_tags": "\"foot\"=>\"yes\",\"access\"=>\"private\",\"surface\"=>\"asphalt\",\"maxspeed\"=>\"5 mph\",\"motor_vehicle\"=>\"private\"" }, "geometry": { "type": "LineString", "coordinates": [ [ -1.9729038, 53.7305466 ], [ -1.9728716, 53.7304403 ], [ -1.9722762, 53.7304863 ], [ -1.9723331, 53.7308571 ] ] } },
{ "type": "Feature", "properties": { "osm_id": "153049476", "type": "road" }, "geometry": { "type": "LineString", "coordinates": [ [ -1.942421, 53.8078579 ], [ -1.9422695, 53.8077762 ], [ -1.9420911, 53.8076932 ], [ -1.9415533, 53.8075433 ], [ -1.9414863, 53.8075338 ], [ -1.9414045, 53.8075839 ], [ -1.9414072, 53.8076171 ], [ -1.941434, 53.8076583 ], [ -1.9416942, 53.8078341 ], [ -1.9417129, 53.8078753 ], [ -1.9416995, 53.8079307 ], [ -1.9416566, 53.8079482 ], [ -1.9415574, 53.8079672 ], [ -1.9414916, 53.8079646 ], [ -1.9413709, 53.8079551 ], [ -1.9412784, 53.8079767 ], [ -1.9411869, 53.8079978 ] ] } },
{ "type": "Feature", "properties": { "osm_id": "153353409", "type": "road" }, "geometry": { "type": "LineString", "coordinates": [ [ -1.8598438, 53.7082371 ], [ -1.859833, 53.7078943 ], [ -1.8596388, 53.7078538 ], [ -1.8595219, 53.70778 ], [ -1.8594415, 53.7076656 ], [ -1.8594334, 53.7075306 ], [ -1.8594521, 53.7073891 ] ] } },
{ "type": "Feature", "properties": { "osm_id": "153353791", "name": "Crowtrees Lane", "type": "road" }, "geometry": { "type": "LineString", "coordinates": [ [ -1.7943713, 53.6885877 ], [ -1.7953312, 53.687209 ], [ -1.795336, 53.6870629 ] ] } },
{ "type": "Feature", "properties": { "osm_id": "153353793", "type": "road" }, "geometry": { "type": "LineString", "coordinates": [ [ -1.7919036, 53.6881589 ], [ -1.7924508, 53.6882097 ], [ -1.7925801, 53.6882577 ], [ -1.7926922, 53.6883622 ] ] } },
{ "type": "Feature", "properties": { "osm_id": "170626399", "type": "road" }, "geometry": { "type": "LineString", "coordinates": [ [ -1.8362748, 53.921889 ], [ -1.8361916, 53.9218242 ], [ -1.8361112, 53.9218226 ], [ -1.8360656, 53.9218337 ], [ -1.8360629, 53.9218811 ], [ -1.8361031, 53.9219174 ], [ -1.8361916, 53.921919 ], [ -1.8362748, 53.921889 ], [ -1.8364223, 53.9219095 ], [ -1.8365215, 53.9219616 ], [ -1.8365537, 53.9220169 ], [ -1.8365323, 53.9220706 ], [ -1.8364464, 53.9220975 ], [ -1.8362158, 53.9221749 ], [ -1.8361568, 53.9222459 ], [ -1.8361165, 53.9223589 ] ] } },
{ "type": "Feature", "properties": { "osm_id": "177046930", "name": "Duckett Lane", "type": "road", "other_tags": "\"source:name\"=>\"OS_OpenData_Locator\"" }, "geometry": { "type": "LineString", "coordinates": [ [ -1.7570437, 53.7954496 ], [ -1.7568448, 53.7953803 ], [ -1.7566659, 53.7953136 ], [ -1.7565045, 53.7952333 ], [ -1.7562933, 53.7950919 ], [ -1.7561964, 53.7950299 ], [ -1.756086, 53.7949836 ] ] } },
{ "type": "Feature", "properties": { "osm_id": "177320951", "name": "North View Road", "type": "road", "other_tags": "\"source:name\"=>\"OS_OpenData_StreetView\"" }, "geometry": { "type": "LineString", "coordinates": [ [ -1.750147, 53.8083861 ], [ -1.7502102, 53.8083089 ], [ -1.7505741, 53.8078916 ] ] } },
{ "type": "Feature", "properties": { "osm_id": "186361416", "type": "road", "other_tags": "\"designation\"=>\"public_bridleway\"" }, "geometry": { "type": "LineString", "coordinates": [ [ -1.3075149, 53.6176264 ], [ -1.3077004, 53.6174435 ], [ -1.3079419, 53.6173577 ], [ -1.3089241, 53.6170265 ], [ -1.3106641, 53.6165165 ], [ -1.3107554, 53.6164409 ], [ -1.3107851, 53.6163013 ], [ -1.3106778, 53.6160085 ], [ -1.3110161, 53.6154937 ] ] } },
{ "type": "Feature", "properties": { "osm_id": "186361739", "type": "road" }, "geometry": { "type": "LineString", "coordinates": [ [ -1.3046749, 53.6167775 ], [ -1.3046775, 53.6168277 ], [ -1.3047677, 53.6174979 ], [ -1.3047794, 53.6175914 ], [ -1.3047741, 53.6176471 ] ] } },
{ "type": "Feature", "properties": { "osm_id": "188237443", "type": "road" }, "geometry": { "type": "LineString", "coordinates": [ [ -1.3304805, 53.5925951 ], [ -1.3304881, 53.5928405 ], [ -1.3305377, 53.5929027 ], [ -1.3318024, 53.593094 ] ] } },
{ "type": "Feature", "properties": { "osm_id": "188237676", "type": "road" }, "geometry": { "type": "LineString", "coordinates": [ [ -1.3305377, 53.5929027 ], [ -1.3307451, 53.5931553 ], [ -1.3306921, 53.5936495 ], [ -1.3306894, 53.5938851 ] ] } },
{ "type": "Feature", "properties": { "osm_id": "188238213", "type": "road" }, "geometry": { "type": "LineString", "coordinates": [ [ -1.3343147, 53.59196 ], [ -1.3345275, 53.5919796 ], [ -1.3358901, 53.5917918 ], [ -1.3360295, 53.5918968 ], [ -1.3361792, 53.5919565 ], [ -1.3365445, 53.5919 ], [ -1.3366465, 53.5917631 ], [ -1.3366089, 53.5917313 ] ] } },
{ "type": "Feature", "properties": { "osm_id": "188238245", "type": "road" }, "geometry": { "type": "LineString", "coordinates": [ [ -1.3364694, 53.5916708 ], [ -1.3358901, 53.5917918 ] ] } },
{ "type": "Feature", "properties": { "osm_id": "189887202", "type": "road" }, "geometry": { "type": "LineString", "coordinates": [ [ -1.3173598, 53.6221937 ], [ -1.3160849, 53.6209403 ], [ -1.315943, 53.6208158 ], [ -1.3156343, 53.6207398 ], [ -1.315409, 53.6207462 ], [ -1.3152266, 53.6206857 ], [ -1.3151032, 53.6205712 ] ] } },
{ "type": "Feature", "properties": { "osm_id": "190078296", "type": "road", "other_tags": "\"foot\"=>\"yes\",\"access\"=>\"permissive\",\"bicycle\"=>\"yes\",\"surface\"=>\"asphalt\",\"cycleway\"=>\"no\",\"sidewalk\"=>\"none\",\"designation\"=>\"Private Road\",\"motor_vehicle\"=>\"designated\"" }, "geometry": { "type": "LineString", "coordinates": [ [ -1.9242231, 53.7989581 ], [ -1.9236378, 53.7991046 ], [ -1.9234289, 53.799167 ], [ -1.9233394, 53.7992163 ] ] } },
{ "type": "Feature", "properties": { "osm_id": "191061205", "type": "road" }, "geometry": { "type": "LineString", "coordinates": [ [ -1.2919827, 53.6321991 ], [ -1.2921417, 53.6324036 ] ] } },
{ "type": "Feature", "properties": { "osm_id": "191071327", "type": "road" }, "geometry": { "type": "LineString", "coordinates": [ [ -1.3240376, 53.6172684 ], [ -1.3241368, 53.6173734 ], [ -1.3242736, 53.6175866 ], [ -1.3250032, 53.6181339 ] ] } },
{ "type": "Feature", "properties": { "osm_id": "191071562", "type": "road" }, "geometry": { "type": "LineString", "coordinates": [ [ -1.3245177, 53.6163298 ], [ -1.324051, 53.6162438 ], [ -1.3236645, 53.6162806 ], [ -1.3232571, 53.6164157 ], [ -1.3231442, 53.6167706 ], [ -1.3229993, 53.6168979 ], [ -1.3226294, 53.6169471 ], [ -1.3219964, 53.6170107 ], [ -1.3221678, 53.6175121 ], [ -1.322377, 53.6183235 ], [ -1.3225058, 53.619434 ], [ -1.3225433, 53.6201531 ], [ -1.3225273, 53.6209994 ], [ -1.3226286, 53.6211708 ] ] } },
{ "type": "Feature", "properties": { "osm_id": "191096258", "type": "road", "other_tags": "\"oneway\"=>\"no\"" }, "geometry": { "type": "LineString", "coordinates": [ [ -1.2547975, 53.6131903 ], [ -1.2547466, 53.6132094 ], [ -1.2546546, 53.6132489 ], [ -1.2546411, 53.613259 ], [ -1.2545859, 53.6133187 ] ] } },
{ "type": "Feature", "properties": { "osm_id": "191099369", "type": "road" }, "geometry": { "type": "LineString", "coordinates": [ [ -1.2476136, 53.6105952 ], [ -1.2476063, 53.6105267 ] ] } },
{ "type": "Feature", "properties": { "osm_id": "191118422", "type": "road", "other_tags": "\"oneway\"=>\"no\"" }, "geometry": { "type": "LineString", "coordinates": [ [ -1.2417876, 53.6299054 ], [ -1.2422152, 53.6295265 ], [ -1.2437279, 53.6287185 ], [ -1.2471501, 53.627156 ] ] } },
{ "type": "Feature", "properties": { "osm_id": "191122822", "type": "road", "other_tags": "\"oneway\"=>\"no\"" }, "geometry": { "type": "LineString", "coordinates": [ [ -1.2663245, 53.6344383 ], [ -1.2660117, 53.6346859 ], [ -1.2656915, 53.6349409 ], [ -1.2654538, 53.6351694 ], [ -1.2653106, 53.6353257 ], [ -1.2651561, 53.6356836 ] ] } },
{ "type": "Feature", "properties": { "osm_id": "191656633", "type": "road" }, "geometry": { "type": "LineString", "coordinates": [ [ -1.2475975, 53.6104424 ], [ -1.2476063, 53.6105267 ], [ -1.247796, 53.6104997 ], [ -1.2480213, 53.6105061 ], [ -1.2481661, 53.6104552 ], [ -1.2483324, 53.6104679 ], [ -1.2486218, 53.6105403 ] ] } },
{ "type": "Feature", "properties": { "osm_id": "194098396", "type": "road" }, "geometry": { "type": "LineString", "coordinates": [ [ -1.6286339, 53.6821493 ], [ -1.6291365, 53.6820253 ] ] } },
{ "type": "Feature", "properties": { "osm_id": "196256476", "type": "road" }, "geometry": { "type": "LineString", "coordinates": [ [ -1.8822293, 53.9431375 ], [ -1.88189, 53.9438659 ] ] } },
{ "type": "Feature", "properties": { "osm_id": "196335221", "type": "road" }, "geometry": { "type": "LineString", "coordinates": [ [ -1.3250032, 53.6181339 ], [ -1.3257837, 53.6190551 ], [ -1.3260439, 53.6194576 ], [ -1.3265683, 53.6203241 ] ] } },
{ "type": "Feature", "properties": { "osm_id": "196335222", "type": "road" }, "geometry": { "type": "LineString", "coordinates": [ [ -1.3242575, 53.6172986 ], [ -1.3247481, 53.6172145 ], [ -1.32485, 53.6172989 ], [ -1.3250032, 53.6181339 ] ] } },
{ "type": "Feature", "properties": { "osm_id": "198406758", "type": "road" }, "geometry": { "type": "LineString", "coordinates": [ [ -1.3464851, 53.9235047 ], [ -1.3462941, 53.9233987 ], [ -1.3462222, 53.923372 ], [ -1.3461801, 53.9233733 ] ] } },
{ "type": "Feature", "properties": { "osm_id": "198779693", "type": "road" }, "geometry": { "type": "LineString", "coordinates": [ [ -1.3155592, 53.6204789 ], [ -1.315943, 53.6208158 ] ] } },
{ "type": "Feature", "properties": { "osm_id": "204978028", "type": "road" }, "geometry": { "type": "LineString", "coordinates": [ [ -1.8246802, 53.7381083 ], [ -1.8246424, 53.7381067 ], [ -1.8242803, 53.7380924 ], [ -1.8241838, 53.7380813 ], [ -1.824124, 53.7380542 ], [ -1.8240979, 53.7380067 ], [ -1.8240953, 53.7377783 ], [ -1.8241194, 53.7375578 ], [ -1.8241891, 53.7371754 ], [ -1.8241999, 53.7370533 ], [ -1.8241972, 53.7369819 ], [ -1.8241704, 53.7369041 ], [ -1.8241114, 53.7367661 ] ] } },
{ "type": "Feature", "properties": { "osm_id": "207844757", "type": "road", "other_tags": "\"access\"=>\"unknown\"" }, "geometry": { "type": "LineString", "coordinates": [ [ -1.8482513, 53.9275037 ], [ -1.848879, 53.9275827 ], [ -1.8490345, 53.9275511 ], [ -1.8492488, 53.9275155 ], [ -1.849394, 53.927529 ], [ -1.8497695, 53.927649 ], [ -1.8498443, 53.927649 ], [ -1.8499143, 53.927649 ], [ -1.8500377, 53.9275985 ], [ -1.8502314, 53.927513 ] ] } },
{ "type": "Feature", "properties": { "osm_id": "207845855", "type": "road", "other_tags": "\"access\"=>\"unknown\"" }, "geometry": { "type": "LineString", "coordinates": [ [ -1.8472375, 53.9272573 ], [ -1.8471785, 53.92727 ], [ -1.8471138, 53.9272755 ], [ -1.8466256, 53.927326 ], [ -1.8460624, 53.9273671 ], [ -1.8459926, 53.9273671 ], [ -1.8458964, 53.9273584 ], [ -1.8458049, 53.9273165 ], [ -1.845761, 53.927248 ] ] } },
{ "type": "Feature", "properties": { "osm_id": "215660122", "type": "road", "other_tags": "\"foot\"=>\"yes\",\"surface\"=>\"paved\"" }, "geometry": { "type": "LineString", "coordinates": [ [ -1.958462, 53.8571565 ], [ -1.9581358, 53.8572577 ], [ -1.9579492, 53.8572588 ] ] } },
{ "type": "Feature", "properties": { "osm_id": "215660124", "type": "road", "other_tags": "\"foot\"=>\"yes\",\"layer\"=>\"1\",\"bridge\"=>\"yes\",\"surface\"=>\"paved\"" }, "geometry": { "type": "LineString", "coordinates": [ [ -1.9585467, 53.8571692 ], [ -1.958462, 53.8571565 ] ] } },
{ "type": "Feature", "properties": { "osm_id": "218413200", "type": "road" }, "geometry": { "type": "LineString", "coordinates": [ [ -1.718639, 53.8920164 ], [ -1.7192783, 53.8921047 ] ] } },
{ "type": "Feature", "properties": { "osm_id": "218908388", "type": "road", "other_tags": "\"layer\"=>\"1\",\"bridge\"=>\"yes\"" }, "geometry": { "type": "LineString", "coordinates": [ [ -1.8649711, 53.8622254 ], [ -1.8649952, 53.8621669 ] ] } },
{ "type": "Feature", "properties": { "osm_id": "230985638", "name": "Woodlands Way", "type": "road", "other_tags": "\"source:name\"=>\"OS_OpenData_Locator\"" }, "geometry": { "type": "LineString", "coordinates": [ [ -1.2642486, 53.6200525 ], [ -1.2644525, 53.6202593 ], [ -1.2634756, 53.6205822 ], [ -1.2624897, 53.6207631 ] ] } },
{ "type": "Feature", "properties": { "osm_id": "230985641", "name": "Woodlands Way", "type": "road", "other_tags": "\"source:name\"=>\"OS_OpenData_Locator\"" }, "geometry": { "type": "LineString", "coordinates": [ [ -1.2644525, 53.6202593 ], [ -1.2646032, 53.6204586 ] ] } },
{ "type": "Feature", "properties": { "osm_id": "230985645", "name": "Walton Wood Mews", "type": "road", "other_tags": "\"source:name\"=>\"OS_OpenData_Locator\"" }, "geometry": { "type": "LineString", "coordinates": [ [ -1.2634756, 53.6205822 ], [ -1.2637073, 53.6209009 ] ] } },
{ "type": "Feature", "properties": { "osm_id": "231226635", "name": "Haslegrave Park", "type": "road", "other_tags": "\"source:name\"=>\"OS_OpenData_Locator\"" }, "geometry": { "type": "LineString", "coordinates": [ [ -1.5263966, 53.6371262 ], [ -1.5263108, 53.6369926 ], [ -1.5263161, 53.6368844 ], [ -1.5264342, 53.6367731 ], [ -1.5265884, 53.6367286 ], [ -1.5271054, 53.6366266 ] ] } },
{ "type": "Feature", "properties": { "osm_id": "231687121", "name": "Holme Farm Mews", "type": "road", "other_tags": "\"source:name\"=>\"OS_OpenData_Locator\"" }, "geometry": { "type": "LineString", "coordinates": [ [ -1.2934655, 53.6758484 ], [ -1.293797, 53.6760125 ], [ -1.2937139, 53.6760824 ] ] } },
{ "type": "Feature", "properties": { "osm_id": "231687122", "name": "Holme Farm Way", "type": "road", "other_tags": "\"source:name\"=>\"OS_OpenData_Locator\"" }, "geometry": { "type": "LineString", "coordinates": [ [ -1.2949626, 53.6750064 ], [ -1.2944783, 53.6753278 ], [ -1.2941833, 53.6755216 ], [ -1.2940384, 53.67552 ], [ -1.2938775, 53.6755708 ], [ -1.2934655, 53.6758484 ], [ -1.2933893, 53.6758997 ], [ -1.2931535, 53.6760627 ] ] } },
{ "type": "Feature", "properties": { "osm_id": "231706225", "name": "Sunnydale Gardens", "type": "road", "other_tags": "\"source:name\"=>\"OS_OpenData_Locator\"" }, "geometry": { "type": "LineString", "coordinates": [ [ -1.5726938, 53.6781669 ], [ -1.5724953, 53.6780525 ], [ -1.5724095, 53.6779604 ], [ -1.572398, 53.6778968 ] ] } },
{ "type": "Feature", "properties": { "osm_id": "236816724", "name": "Fieldhouse Street", "type": "road" }, "geometry": { "type": "LineString", "coordinates": [ [ -1.719272, 53.7949461 ], [ -1.7194626, 53.7948692 ] ] } },
{ "type": "Feature", "properties": { "osm_id": "238570781", "name": "Hill Top Lane", "type": "road", "other_tags": "\"foot\"=>\"yes\",\"source:name\"=>\"OS_OpenData_Locator\"" }, "geometry": { "type": "LineString", "coordinates": [ [ -1.835361, 53.8695593 ], [ -1.8349774, 53.8695786 ], [ -1.8345533, 53.8696285 ], [ -1.8334126, 53.8697627 ], [ -1.8329685, 53.8698573 ], [ -1.8318956, 53.8699205 ], [ -1.8317084, 53.8699805 ] ] } },
{ "type": "Feature", "properties": { "osm_id": "238786953", "type": "road" }, "geometry": { "type": "LineString", "coordinates": [ [ -1.8658437, 53.8811583 ], [ -1.8657498, 53.8813259 ], [ -1.8656265, 53.8818951 ], [ -1.8654602, 53.8825402 ], [ -1.865436, 53.8826018 ], [ -1.8653717, 53.8826398 ], [ -1.8652563, 53.882654 ], [ -1.8645643, 53.8825734 ], [ -1.8642183, 53.8825402 ], [ -1.8640681, 53.8825718 ], [ -1.8639298, 53.8826127 ], [ -1.8639064, 53.8826277 ], [ -1.8638091, 53.8826901 ], [ -1.8636148, 53.8829844 ], [ -1.8635436, 53.8832103 ], [ -1.8634916, 53.8834002 ], [ -1.8634253, 53.8834949 ] ] } },
{ "type": "Feature", "properties": { "osm_id": "243651126", "type": "road" }, "geometry": { "type": "LineString", "coordinates": [ [ -1.8342153, 53.8220007 ], [ -1.8338325, 53.82213 ], [ -1.8323216, 53.8226403 ], [ -1.8316595, 53.8227692 ], [ -1.8311481, 53.822879 ] ] } },
{ "type": "Feature", "properties": { "osm_id": "243651130", "type": "road" }, "geometry": { "type": "LineString", "coordinates": [ [ -1.8330918, 53.8203499 ], [ -1.8329508, 53.8202456 ], [ -1.8317664, 53.8193692 ], [ -1.8315787, 53.8192963 ], [ -1.8313909, 53.8191839 ], [ -1.8309682, 53.8187982 ] ] } },
{ "type": "Feature", "properties": { "osm_id": "259563031", "type": "road" }, "geometry": { "type": "LineString", "coordinates": [ [ -1.649334, 53.738529 ], [ -1.6498646, 53.7384029 ], [ -1.6503313, 53.7383569 ], [ -1.6507095, 53.7383394 ], [ -1.6509801, 53.7383542 ], [ -1.651412, 53.7385541 ], [ -1.6517982, 53.7387746 ], [ -1.6526119, 53.7390813 ], [ -1.6527404, 53.7391297 ] ] } },
{ "type": "Feature", "properties": { "osm_id": "261704151", "name": "East Lee Lane", "type": "road" }, "geometry": { "type": "LineString", "coordinates": [ [ -2.0607487, 53.7209042 ], [ -2.0605528, 53.7207593 ] ] } },
{ "type": "Feature", "properties": { "osm_id": "261704171", "name": "East Lee Lane", "type": "road", "other_tags": "\"layer\"=>\"-1\",\"tunnel\"=>\"yes\"" }, "geometry": { "type": "LineString", "coordinates": [ [ -2.0608419, 53.7209732 ], [ -2.0607487, 53.7209042 ] ] } },
{ "type": "Feature", "properties": { "osm_id": "261704180", "name": "Canal Side", "type": "road", "other_tags": "\"layer\"=>\"1\"" }, "geometry": { "type": "LineString", "coordinates": [ [ -1.8822379, 53.6220321 ], [ -1.8821595, 53.6221873 ] ] } },
{ "type": "Feature", "properties": { "osm_id": "262081285", "type": "road" }, "geometry": { "type": "LineString", "coordinates": [ [ -1.4056095, 53.9145116 ], [ -1.406226, 53.9139936 ], [ -1.4063873, 53.9139618 ], [ -1.4064544, 53.9138811 ] ] } },
{ "type": "Feature", "properties": { "osm_id": "262081292", "type": "road" }, "geometry": { "type": "LineString", "coordinates": [ [ -1.4055769, 53.9137424 ], [ -1.4064544, 53.9138811 ], [ -1.4065053, 53.9138892 ], [ -1.4066205, 53.913905 ] ] } },
{ "type": "Feature", "properties": { "osm_id": "269573590", "type": "road", "other_tags": "\"foot\"=>\"private\",\"motor_vehicle\"=>\"private\"" }, "geometry": { "type": "LineString", "coordinates": [ [ -1.8275381, 53.6413125 ], [ -1.8276911, 53.6417385 ] ] } },
{ "type": "Feature", "properties": { "osm_id": "274084538", "type": "road", "other_tags": "\"oneway\"=>\"no\",\"surface\"=>\"asphalt\"" }, "geometry": { "type": "LineString", "coordinates": [ [ -1.7909272, 53.6759044 ], [ -1.7916694, 53.6759661 ], [ -1.7926028, 53.6754132 ], [ -1.7936811, 53.6749969 ], [ -1.7941692, 53.6748221 ], [ -1.7947808, 53.6747268 ], [ -1.7953923, 53.6746569 ], [ -1.7966529, 53.674587 ], [ -1.7970499, 53.6745552 ], [ -1.7976615, 53.6745743 ], [ -1.798096, 53.6745266 ], [ -1.7982033, 53.6745107 ], [ -1.7983427, 53.6744821 ], [ -1.7985734, 53.6744376 ], [ -1.7987236, 53.6743899 ], [ -1.798906, 53.6742946 ], [ -1.7991206, 53.6740754 ], [ -1.7993512, 53.6738529 ], [ -1.7996889, 53.6735545 ], [ -1.7998501, 53.6734207 ], [ -1.7999628, 53.6733 ], [ -1.8001452, 53.6730203 ], [ -1.8003973, 53.6725659 ], [ -1.8014702, 53.6722831 ], [ -1.8019852, 53.6720892 ], [ -1.8020817, 53.6720002 ], [ -1.801438, 53.6715966 ], [ -1.8012288, 53.6716602 ] ] } },
{ "type": "Feature", "properties": { "osm_id": "304746292", "name": "Moor Lane", "type": "road" }, "geometry": { "type": "LineString", "coordinates": [ [ -1.3462807, 53.9237972 ], [ -1.3463239, 53.9237149 ] ] } },
{ "type": "Feature", "properties": { "osm_id": "310493854", "type": "road" }, "geometry": { "type": "LineString", "coordinates": [ [ -1.4478202, 53.8288318 ], [ -1.4485618, 53.8292937 ] ] } },
{ "type": "Feature", "properties": { "osm_id": "337197288", "type": "road", "other_tags": "\"foot\"=>\"yes\",\"bicycle\"=>\"yes\",\"cycleway\"=>\"no\",\"sidewalk\"=>\"both\"" }, "geometry": { "type": "LineString", "coordinates": [ [ -1.8118734, 53.7842385 ], [ -1.8115276, 53.7842248 ], [ -1.811195, 53.7842137 ], [ -1.8112138, 53.7844261 ] ] } },
{ "type": "Feature", "properties": { "osm_id": "337208041", "type": "road" }, "geometry": { "type": "LineString", "coordinates": [ [ -1.8124739, 53.7833581 ], [ -1.8123852, 53.783378 ], [ -1.8119886, 53.7834797 ], [ -1.8118784, 53.7833417 ] ] } },
{ "type": "Feature", "properties": { "osm_id": "349194088", "type": "road", "other_tags": "\"layer\"=>\"-3\",\"tunnel\"=>\"yes\"" }, "geometry": { "type": "LineString", "coordinates": [ [ -1.838185, 53.639222 ], [ -1.8380804, 53.6391202 ] ] } },
{ "type": "Feature", "properties": { "osm_id": "352069085", "type": "road", "other_tags": "\"foot\"=>\"yes\",\"access\"=>\"permissive\",\"bicycle\"=>\"yes\",\"surface\"=>\"asphalt\",\"cycleway\"=>\"no\",\"sidewalk\"=>\"none\",\"designation\"=>\"Private Road\",\"motor_vehicle\"=>\"designated\"" }, "geometry": { "type": "LineString", "coordinates": [ [ -1.9233394, 53.7992163 ], [ -1.9232669, 53.7992892 ], [ -1.9232405, 53.7993725 ], [ -1.9233281, 53.8007209 ], [ -1.9233773, 53.8017471 ], [ -1.923329, 53.8018437 ], [ -1.9232888, 53.8018975 ], [ -1.9232133, 53.8019457 ], [ -1.9227604, 53.8020971 ], [ -1.9224206, 53.8022351 ], [ -1.9220965, 53.8024109 ], [ -1.9216201, 53.8027187 ], [ -1.9213716, 53.8028901 ] ] } },
{ "type": "Feature", "properties": { "osm_id": "353173711", "type": "road" }, "geometry": { "type": "LineString", "coordinates": [ [ -1.8907494, 53.78984 ], [ -1.8907695, 53.7899345 ], [ -1.8907944, 53.7901044 ], [ -1.8907622, 53.7903231 ], [ -1.8906818, 53.7904593 ], [ -1.8905066, 53.790619 ], [ -1.8904243, 53.7907699 ], [ -1.8904262, 53.7909074 ], [ -1.8904423, 53.7909708 ] ] } },
{ "type": "Feature", "properties": { "osm_id": "353173714", "type": "road" }, "geometry": { "type": "LineString", "coordinates": [ [ -1.8904423, 53.7909708 ], [ -1.8905388, 53.7910975 ], [ -1.8905817, 53.7912972 ], [ -1.8906246, 53.7914176 ] ] } },
{ "type": "Feature", "properties": { "osm_id": "353909995", "type": "road" }, "geometry": { "type": "LineString", "coordinates": [ [ -1.460469, 53.7173786 ], [ -1.4604468, 53.7173378 ], [ -1.4602426, 53.7167148 ] ] } },
{ "type": "Feature", "properties": { "osm_id": "353910010", "type": "road" }, "geometry": { "type": "LineString", "coordinates": [ [ -1.4602426, 53.7167148 ], [ -1.4602054, 53.7166013 ] ] } },
{ "type": "Feature", "properties": { "osm_id": "353919845", "type": "road" }, "geometry": { "type": "LineString", "coordinates": [ [ -1.2935855, 53.6765795 ], [ -1.2933952, 53.6765456 ] ] } },
{ "type": "Feature", "properties": { "osm_id": "353919849", "type": "road" }, "geometry": { "type": "LineString", "coordinates": [ [ -1.2933952, 53.6765456 ], [ -1.2933094, 53.6765138 ], [ -1.2916732, 53.6757449 ], [ -1.2921029, 53.6755194 ] ] } },
{ "type": "Feature", "properties": { "osm_id": "354164605", "type": "road" }, "geometry": { "type": "LineString", "coordinates": [ [ -1.2550198, 53.6135939 ], [ -1.254827, 53.6133937 ], [ -1.2546918, 53.6133296 ], [ -1.2545859, 53.6133187 ] ] } },
{ "type": "Feature", "properties": { "osm_id": "354164615", "type": "road", "other_tags": "\"oneway\"=>\"no\"" }, "geometry": { "type": "LineString", "coordinates": [ [ -1.2545859, 53.6133187 ], [ -1.254404, 53.6135152 ], [ -1.2541494, 53.6139459 ], [ -1.2540528, 53.6140473 ], [ -1.2539749, 53.614188 ], [ -1.2536138, 53.6145274 ] ] } },
{ "type": "Feature", "properties": { "osm_id": "354164623", "type": "road" }, "geometry": { "type": "LineString", "coordinates": [ [ -1.2543117, 53.6193558 ], [ -1.2540864, 53.6190481 ], [ -1.2540005, 53.6188699 ], [ -1.2539362, 53.6187235 ], [ -1.2538933, 53.618469 ], [ -1.2538718, 53.6182717 ], [ -1.2538261, 53.6179686 ] ] } },
{ "type": "Feature", "properties": { "osm_id": "354366246", "type": "road" }, "geometry": { "type": "LineString", "coordinates": [ [ -1.7874206, 53.6787176 ], [ -1.7869576, 53.6784242 ], [ -1.7867093, 53.6782692 ] ] } },
{ "type": "Feature", "properties": { "osm_id": "354366248", "type": "road" }, "geometry": { "type": "LineString", "coordinates": [ [ -1.7867093, 53.6782692 ], [ -1.7863541, 53.6780474 ], [ -1.7858981, 53.6777328 ], [ -1.7853724, 53.6774246 ] ] } },
{ "type": "Feature", "properties": { "osm_id": "354504573", "type": "road", "other_tags": "\"foot\"=>\"designated\",\"motor_vehicle\"=>\"destination\"" }, "geometry": { "type": "LineString", "coordinates": [ [ -1.9281491, 53.5975916 ], [ -1.9282097, 53.5974843 ], [ -1.928714, 53.5967584 ], [ -1.9293684, 53.5957524 ], [ -1.9295723, 53.5954595 ] ] } },
{ "type": "Feature", "properties": { "osm_id": "354586869", "type": "road" }, "geometry": { "type": "LineString", "coordinates": [ [ -1.8191046, 53.6406526 ], [ -1.8188806, 53.6405706 ], [ -1.8180989, 53.6407193 ], [ -1.8177016, 53.6407483 ], [ -1.8154284, 53.6410572 ] ] } },
{ "type": "Feature", "properties": { "osm_id": "354588323", "type": "road", "other_tags": "\"foot\"=>\"yes\",\"motor_vehicle\"=>\"permissive\"" }, "geometry": { "type": "LineString", "coordinates": [ [ -1.812258, 53.646287 ], [ -1.8124208, 53.6461601 ], [ -1.8128313, 53.6462276 ] ] } },
{ "type": "Feature", "properties": { "osm_id": "354623712", "type": "road" }, "geometry": { "type": "LineString", "coordinates": [ [ -1.6510629, 53.7372266 ], [ -1.6503923, 53.7372171 ], [ -1.649754, 53.7372203 ], [ -1.6492014, 53.737233 ], [ -1.6488878, 53.7372498 ] ] } },
{ "type": "Feature", "properties": { "osm_id": "401791237", "type": "road", "other_tags": "\"motor_vehicle\"=>\"destination\",\"surface\"=>\"asphalt\"" }, "geometry": { "type": "LineString", "coordinates": [ [ -1.9111522, 53.6166264 ], [ -1.9111445, 53.6162956 ], [ -1.9110607, 53.6161671 ], [ -1.9110838, 53.6161192 ], [ -1.9111618, 53.6160524 ], [ -1.9114102, 53.6158913 ] ] } },
{ "type": "Feature", "properties": { "osm_id": "428535967", "name": "1-4 Moor Cottages", "type": "road", "other_tags": "\"access\"=>\"private\"" }, "geometry": { "type": "LineString", "coordinates": [ [ -1.3889411, 53.7984525 ], [ -1.3886374, 53.7983745 ], [ -1.3881124, 53.7982859 ] ] } },
{ "type": "Feature", "properties": { "osm_id": "436546236", "type": "road" }, "geometry": { "type": "LineString", "coordinates": [ [ -1.7911682, 53.6989226 ], [ -1.7906837, 53.6988409 ] ] } },
{ "type": "Feature", "properties": { "osm_id": "440609818", "name": "Owler Park Road", "type": "road", "other_tags": "\"access\"=>\"private\"" }, "geometry": { "type": "LineString", "coordinates": [ [ -1.847742, 53.9407104 ], [ -1.8466137, 53.940332 ], [ -1.8456802, 53.9400415 ], [ -1.8450435, 53.9398812 ] ] } },
{ "type": "Feature", "properties": { "osm_id": "440609819", "name": "Owler Park Road", "type": "road", "other_tags": "\"access\"=>\"private\"" }, "geometry": { "type": "LineString", "coordinates": [ [ -1.8450435, 53.9398812 ], [ -1.8450161, 53.9391677 ], [ -1.8449912, 53.9390529 ], [ -1.8449153, 53.9389484 ], [ -1.8442235, 53.9386042 ], [ -1.8426324, 53.9374747 ], [ -1.8425906, 53.9371598 ], [ -1.842437, 53.9368604 ], [ -1.8420912, 53.9365189 ], [ -1.8416942, 53.9363231 ] ] } },
{ "type": "Feature", "properties": { "osm_id": "447050322", "type": "road" }, "geometry": { "type": "LineString", "coordinates": [ [ -1.6615304, 53.8702635 ], [ -1.6614256, 53.8701864 ], [ -1.6612731, 53.8700742 ], [ -1.6612651, 53.8700284 ], [ -1.6613027, 53.8700094 ], [ -1.6613778, 53.8699983 ], [ -1.6614743, 53.870011 ], [ -1.6616245, 53.8700442 ], [ -1.6617077, 53.8700631 ], [ -1.6618004, 53.8700649 ] ] } },
{ "type": "Feature", "properties": { "osm_id": "447050323", "type": "road" }, "geometry": { "type": "LineString", "coordinates": [ [ -1.6614256, 53.8701864 ], [ -1.6611952, 53.8703021 ], [ -1.6611578, 53.8703209 ] ] } },
{ "type": "Feature", "properties": { "osm_id": "447050325", "type": "road", "other_tags": "\"oneway\"=>\"yes\"" }, "geometry": { "type": "LineString", "coordinates": [ [ -1.6578914, 53.8697221 ], [ -1.6581457, 53.8697228 ], [ -1.6582825, 53.8697231 ], [ -1.6588592, 53.8696346 ], [ -1.659063, 53.8695808 ], [ -1.6593163, 53.8695973 ], [ -1.6593768, 53.8696002 ], [ -1.6594514, 53.8696038 ], [ -1.6595002, 53.8696061 ], [ -1.6598485, 53.8695672 ], [ -1.6599615, 53.8695539 ], [ -1.6600402, 53.8696046 ], [ -1.6600984, 53.8696436 ], [ -1.6601554, 53.8696818 ], [ -1.6603137, 53.869788 ], [ -1.6605543, 53.8699493 ], [ -1.6605919, 53.8700268 ], [ -1.6605838, 53.8700932 ], [ -1.6605074, 53.8702202 ], [ -1.6603802, 53.8703286 ] ] } },
{ "type": "Feature", "properties": { "osm_id": "447050326", "type": "road" }, "geometry": { "type": "LineString", "coordinates": [ [ -1.6593768, 53.8696002 ], [ -1.6594922, 53.8696251 ], [ -1.6599201, 53.869664 ], [ -1.6601554, 53.8696818 ] ] } },
{ "type": "Feature", "properties": { "osm_id": "447050327", "type": "road", "other_tags": "\"oneway\"=>\"yes\"" }, "geometry": { "type": "LineString", "coordinates": [ [ -1.6594514, 53.8696038 ], [ -1.6596457, 53.8695321 ], [ -1.6597631, 53.8695049 ], [ -1.6598382, 53.8694954 ], [ -1.6599615, 53.8695539 ] ] } },
{ "type": "Feature", "properties": { "osm_id": "447050328", "type": "road", "other_tags": "\"oneway\"=>\"yes\"" }, "geometry": { "type": "LineString", "coordinates": [ [ -1.659063, 53.8695808 ], [ -1.6591838, 53.8695425 ], [ -1.6593178, 53.8695001 ], [ -1.6594492, 53.8694859 ], [ -1.6594922, 53.8694764 ], [ -1.6596665, 53.8694669 ], [ -1.6598382, 53.8694954 ] ] } },
{ "type": "Feature", "properties": { "osm_id": "447050329", "type": "road", "other_tags": "\"oneway\"=>\"yes\"" }, "geometry": { "type": "LineString", "coordinates": [ [ -1.6588592, 53.8696346 ], [ -1.6589557, 53.8696583 ], [ -1.6589783, 53.8696702 ], [ -1.6590603, 53.8697136 ], [ -1.6591602, 53.8697331 ], [ -1.6592589, 53.8697523 ] ] } },
{ "type": "Feature", "properties": { "osm_id": "447050332", "type": "road" }, "geometry": { "type": "LineString", "coordinates": [ [ -1.6592992, 53.8696425 ], [ -1.6598614, 53.8696931 ] ] } },
{ "type": "Feature", "properties": { "osm_id": "447050333", "type": "road", "other_tags": "\"oneway\"=>\"yes\"" }, "geometry": { "type": "LineString", "coordinates": [ [ -1.6597976, 53.8697971 ], [ -1.6600501, 53.8698354 ], [ -1.6603137, 53.869788 ] ] } },
{ "type": "Feature", "properties": { "osm_id": "447050334", "type": "road", "other_tags": "\"oneway\"=>\"yes\"" }, "geometry": { "type": "LineString", "coordinates": [ [ -1.6591838, 53.8695425 ], [ -1.6593017, 53.8694622 ], [ -1.6593684, 53.869424 ], [ -1.6593983, 53.8694068 ], [ -1.6594411, 53.8693908 ], [ -1.6595699, 53.8693625 ], [ -1.6597979, 53.869361 ], [ -1.6599857, 53.8693958 ], [ -1.6601413, 53.8694685 ], [ -1.6602213, 53.8695114 ], [ -1.6602459, 53.8695365 ], [ -1.6602217, 53.8695713 ], [ -1.6601693, 53.8696021 ], [ -1.6600984, 53.8696436 ] ] } },
{ "type": "Feature", "properties": { "osm_id": "447102970", "type": "road" }, "geometry": { "type": "LineString", "coordinates": [ [ -1.6584649, 53.8668763 ], [ -1.6585507, 53.8669001 ], [ -1.6591416, 53.866919 ] ] } },
{ "type": "Feature", "properties": { "osm_id": "447102971", "type": "road" }, "geometry": { "type": "LineString", "coordinates": [ [ -1.6591416, 53.866919 ], [ -1.6591432, 53.8674282 ] ] } },
{ "type": "Feature", "properties": { "osm_id": "447102972", "type": "road" }, "geometry": { "type": "LineString", "coordinates": [ [ -1.6591436, 53.8668716 ], [ -1.6591416, 53.866919 ] ] } },
{ "type": "Feature", "properties": { "osm_id": "447102974", "type": "road" }, "geometry": { "type": "LineString", "coordinates": [ [ -1.6575904, 53.8664497 ], [ -1.6577836, 53.8664359 ] ] } },
{ "type": "Feature", "properties": { "osm_id": "447102979", "type": "road" }, "geometry": { "type": "LineString", "coordinates": [ [ -1.6507305, 53.8655666 ], [ -1.6503828, 53.8655927 ] ] } },
{ "type": "Feature", "properties": { "osm_id": "447102981", "type": "road" }, "geometry": { "type": "LineString", "coordinates": [ [ -1.6544933, 53.8642282 ], [ -1.6534344, 53.864197 ], [ -1.6527853, 53.8641432 ], [ -1.6525761, 53.8640863 ], [ -1.6520182, 53.8634663 ], [ -1.6516802, 53.8630961 ], [ -1.6515193, 53.8628652 ], [ -1.6514603, 53.8627229 ], [ -1.6513905, 53.8624255 ], [ -1.6512779, 53.8621692 ], [ -1.6511652, 53.8620648 ], [ -1.6510794, 53.8620205 ] ] } },
{ "type": "Feature", "properties": { "osm_id": "447102982", "type": "road" }, "geometry": { "type": "LineString", "coordinates": [ [ -1.6526831, 53.8607644 ], [ -1.6517178, 53.8612739 ], [ -1.6514281, 53.8616156 ], [ -1.6512243, 53.8619636 ], [ -1.6511652, 53.8620648 ] ] } },
{ "type": "Feature", "properties": { "osm_id": "447314229", "type": "road" }, "geometry": { "type": "LineString", "coordinates": [ [ -1.9446227, 53.9121262 ], [ -1.9438909, 53.9120246 ], [ -1.9437282, 53.9124407 ] ] } },
{ "type": "Feature", "properties": { "osm_id": "448580672", "type": "road" }, "geometry": { "type": "LineString", "coordinates": [ [ -1.5276256, 53.7967066 ], [ -1.527634, 53.7968367 ], [ -1.5276233, 53.7969983 ], [ -1.5276437, 53.7970289 ], [ -1.5276823, 53.797087 ], [ -1.52787, 53.7972486 ], [ -1.5279095, 53.7972617 ] ] } },
{ "type": "Feature", "properties": { "osm_id": "448580673", "type": "road" }, "geometry": { "type": "LineString", "coordinates": [ [ -1.5274731, 53.7969476 ], [ -1.5276437, 53.7970289 ] ] } },
{ "type": "Feature", "properties": { "osm_id": "448580676", "type": "road" }, "geometry": { "type": "LineString", "coordinates": [ [ -1.5253756, 53.7963392 ], [ -1.5254346, 53.7963234 ], [ -1.5256277, 53.7963709 ], [ -1.5266577, 53.7967099 ], [ -1.5268133, 53.7966529 ], [ -1.526902, 53.7966254 ], [ -1.5271673, 53.7966497 ], [ -1.5276256, 53.7967066 ], [ -1.5278057, 53.7967289 ] ] } },
{ "type": "Feature", "properties": { "osm_id": "448580677", "type": "road" }, "geometry": { "type": "LineString", "coordinates": [ [ -1.5272122, 53.7977566 ], [ -1.527178, 53.7976478 ], [ -1.5271137, 53.7975781 ], [ -1.5270547, 53.797521 ], [ -1.5266309, 53.7974482 ], [ -1.5266631, 53.7973911 ], [ -1.5263734, 53.797144 ] ] } },
{ "type": "Feature", "properties": { "osm_id": "448580678", "type": "road" }, "geometry": { "type": "LineString", "coordinates": [ [ -1.5261159, 53.7972993 ], [ -1.5262929, 53.7973753 ], [ -1.5266309, 53.7974482 ] ] } },
{ "type": "Feature", "properties": { "osm_id": "451718058", "type": "road" }, "geometry": { "type": "LineString", "coordinates": [ [ -1.5279669, 53.7972808 ], [ -1.5289851, 53.7973637 ], [ -1.528894, 53.797412 ] ] } },
{ "type": "Feature", "properties": { "osm_id": "451718060", "type": "road", "other_tags": "\"surface\"=>\"unpaved\"" }, "geometry": { "type": "LineString", "coordinates": [ [ -1.5292899, 53.7970331 ], [ -1.529436, 53.7970308 ], [ -1.52955, 53.7970157 ], [ -1.5296506, 53.7969904 ], [ -1.5297432, 53.7969888 ], [ -1.5298089, 53.7969991 ], [ -1.5298437, 53.7970173 ], [ -1.5299135, 53.7970403 ] ] } },
{ "type": "Feature", "properties": { "osm_id": "451718061", "type": "road", "other_tags": "\"oneway\"=>\"yes\"" }, "geometry": { "type": "LineString", "coordinates": [ [ -1.5299207, 53.7971169 ], [ -1.5299135, 53.7970403 ] ] } },
{ "type": "Feature", "properties": { "osm_id": "451718062", "type": "road", "other_tags": "\"oneway\"=>\"yes\"" }, "geometry": { "type": "LineString", "coordinates": [ [ -1.5299135, 53.7970403 ], [ -1.530136, 53.7970172 ] ] } },
{ "type": "Feature", "properties": { "osm_id": "453274129", "type": "road" }, "geometry": { "type": "LineString", "coordinates": [ [ -1.8658437, 53.8811583 ], [ -1.86572, 53.8811319 ], [ -1.8656235, 53.8811113 ], [ -1.8655455, 53.8810905 ] ] } }
]
}
