{
"type": "FeatureCollection",
"crs": { "type": "name", "properties": { "name": "urn:ogc:def:crs:OGC:1.3:CRS84" } },
"features": [
{ "type": "Feature", "properties": { "osm_id": 83628740, "centroid": { "latitude": 53.681187, "longitude": -1.480884 }, "area": 669, "type": "garden" }, "geometry": { "type": "MultiPolygon", "coordinates": [ [ [ [ -1.4807694, 53.6813963 ], [ -1.4807604, 53.6812838 ], [ -1.4807755, 53.6811921 ], [ -1.4808399, 53.6810868 ], [ -1.4809739, 53.6810162 ], [ -1.4811097, 53.6809815 ], [ -1.4808263, 53.6813307 ], [ -1.4808437, 53.6815016 ], [ -1.4807694, 53.6813963 ] ] ] ] } },
{ "type": "Feature", "properties": { "osm_id": 83629215, "centroid": { "latitude": 53.682101, "longitude": -1.481037 }, "area": 457, "type": "garden" }, "geometry": { "type": "MultiPolygon", "coordinates": [ [ [ [ -1.4810701, 53.6822198 ], [ -1.4809882, 53.682165 ], [ -1.4809272, 53.6820752 ], [ -1.4809293, 53.6820047 ], [ -1.4809546, 53.6819227 ], [ -1.4810185, 53.6819357 ], [ -1.4810802, 53.6821409 ], [ -1.481111, 53.6821736 ], [ -1.4811725, 53.6822102 ], [ -1.4812342, 53.6822382 ], [ -1.4812058, 53.6822815 ], [ -1.4810701, 53.6822198 ] ] ] ] } },
{ "type": "Feature", "properties": { "osm_id": 86122702, "centroid": { "latitude": 53.689362, "longitude": -1.499714 }, "area": 481, "type": "garden" }, "geometry": { "type": "MultiPolygon", "coordinates": [ [ [ [ -1.4997536, 53.6892322 ], [ -1.4998049, 53.689358 ], [ -1.4998404, 53.689445 ], [ -1.4997189, 53.6894598 ], [ -1.4997338, 53.6895025 ], [ -1.499689, 53.6895083 ], [ -1.4995901, 53.6892579 ], [ -1.4997536, 53.6892322 ] ] ] ] } },
{ "type": "Feature", "properties": { "osm_id": 87569910, "centroid": { "latitude": 53.680716, "longitude": -1.501512 }, "area": 72, "type": "garden" }, "geometry": { "type": "MultiPolygon", "coordinates": [ [ [ [ -1.5015832, 53.6807337 ], [ -1.5015344, 53.6807331 ], [ -1.5014929, 53.6807322 ], [ -1.5014656, 53.6807287 ], [ -1.5014424, 53.6807243 ], [ -1.5014309, 53.6807116 ], [ -1.5014375, 53.6807003 ], [ -1.5014507, 53.6806945 ], [ -1.5014738, 53.6806905 ], [ -1.5015733, 53.6806876 ], [ -1.5015832, 53.6807337 ] ] ] ] } }
]
}
