{
"type": "FeatureCollection",
"crs": { "type": "name", "properties": { "name": "urn:ogc:def:crs:OGC:1.3:CRS84" } },
"features": [
{ "type": "Feature", "properties": { "osm_id": 23188002, "centroid": { "latitude": 53.824262, "longitude": -1.546735 }, "area": 967, "name": "Scott Hall Early Years Centre", "type": "kindergarten", "building": "yes" }, "geometry": { "type": "MultiPolygon", "coordinates": [ [ [ [ -1.5468084, 53.8244141 ], [ -1.5469468, 53.824166 ], [ -1.5466623, 53.8241107 ], [ -1.5465239, 53.8243589 ], [ -1.5468084, 53.8244141 ] ] ] ] } },
{ "type": "Feature", "properties": { "osm_id": 26289429, "centroid": { "latitude": 53.728353, "longitude": -1.714239 }, "area": 1450, "type": "kindergarten", "building": "yes" }, "geometry": { "type": "MultiPolygon", "coordinates": [ [ [ [ -1.7145666, 53.728404 ], [ -1.7141495, 53.728161 ], [ -1.7139119, 53.7283038 ], [ -1.714329, 53.7285468 ], [ -1.7145666, 53.728404 ] ] ] ] } },
{ "type": "Feature", "properties": { "osm_id": 27368784, "centroid": { "latitude": 53.780134, "longitude": -1.776835 }, "area": 13805, "name": "Canterbury Nursery School and Centre for Children and Families", "type": "kindergarten", "other_tags": "\"addr:city\"=>\"Bradford\",\"addr:postcode\"=>\"BD5 9HL\",\"addr:street\"=>\"Basil Street\",\"phone\"=>\"01274 574539\",\"ref:edubase\"=>\"132815\",\"website\"=>\"http:\/\/www.canterburycc.co.uk\"" }, "geometry": { "type": "MultiPolygon", "coordinates": [ [ [ [ -1.7777573, 53.780727 ], [ -1.7761892, 53.7805535 ], [ -1.7763755, 53.779545 ], [ -1.7769521, 53.7795858 ], [ -1.7776415, 53.7800242 ], [ -1.7770733, 53.7803727 ], [ -1.7777573, 53.780727 ] ] ] ] } },
{ "type": "Feature", "properties": { "osm_id": 27571161, "centroid": { "latitude": 53.783886, "longitude": -1.763618 }, "area": 625, "name": "All Saint's CE", "type": "kindergarten" }, "geometry": { "type": "MultiPolygon", "coordinates": [ [ [ [ -1.7636997, 53.7839998 ], [ -1.7634178, 53.7839998 ], [ -1.7636543, 53.7837299 ], [ -1.7637475, 53.7837347 ], [ -1.7636997, 53.7839998 ] ] ] ] } },
{ "type": "Feature", "properties": { "osm_id": 29384001, "centroid": { "latitude": 53.753580, "longitude": -1.484886 }, "area": 7294, "name": "Rose Farm Early Years Centre", "type": "kindergarten" }, "geometry": { "type": "MultiPolygon", "coordinates": [ [ [ [ -1.4855565, 53.753728 ], [ -1.485123, 53.7538549 ], [ -1.4852512, 53.7540063 ], [ -1.4848042, 53.7539202 ], [ -1.4844975, 53.7537021 ], [ -1.4841537, 53.7533871 ], [ -1.4845611, 53.7532642 ], [ -1.4846412, 53.7533443 ], [ -1.4850743, 53.7532092 ], [ -1.4852519, 53.7534011 ], [ -1.4852793, 53.7534169 ], [ -1.4855036, 53.7536645 ], [ -1.4855565, 53.753728 ] ] ] ] } },
{ "type": "Feature", "properties": { "osm_id": 45065610, "centroid": { "latitude": 53.836714, "longitude": -1.795416 }, "area": 5122, "name": "Hirst Wood Nursery School & Children's Centre", "type": "kindergarten", "other_tags": "\"addr:city\"=>\"Shipley\",\"addr:postcode\"=>\"BD18 4NJ\",\"addr:street\"=>\"Clarence Road\",\"phone\"=>\"01274 584 368 \",\"ref:edubase\"=>\"107186\",\"website\"=>\"http:\/\/www.hirstwoodnscc.co.uk\"" }, "geometry": { "type": "MultiPolygon", "coordinates": [ [ [ [ -1.7950288, 53.8369989 ], [ -1.7950567, 53.8370037 ], [ -1.7956666, 53.8370728 ], [ -1.7957968, 53.8365402 ], [ -1.7954201, 53.8363439 ], [ -1.7953165, 53.8362471 ], [ -1.7952826, 53.8362402 ], [ -1.7951492, 53.8365544 ], [ -1.7950288, 53.8369989 ] ] ] ] } },
{ "type": "Feature", "properties": { "osm_id": 61112691, "centroid": { "latitude": 53.703621, "longitude": -1.503188 }, "area": 232, "name": "Little People Nursery", "type": "kindergarten", "building": "yes", "other_tags": "\"addr:city\"=>\"Wakefield\",\"addr:housenumber\"=>\"1a\",\"addr:postcode\"=>\"WF1 2HZ\",\"addr:street\"=>\"Silver Street\",\"fhrs:id\"=>\"283662\"" }, "geometry": { "type": "MultiPolygon", "coordinates": [ [ [ [ -1.5030373, 53.7036093 ], [ -1.5033023, 53.7035567 ], [ -1.5033384, 53.7036204 ], [ -1.5030734, 53.703673 ], [ -1.5030373, 53.7036093 ] ] ] ] } },
{ "type": "Feature", "properties": { "osm_id": 67519610, "centroid": { "latitude": 53.712963, "longitude": -1.500148 }, "area": 301, "name": "Future Einsteins", "type": "kindergarten", "building": "yes", "other_tags": "\"addr:city\"=>\"Wakefield\",\"addr:housenumber\"=>\"43\",\"addr:postcode\"=>\"WF1 2LS\",\"addr:street\"=>\"Philip Garth\",\"fhrs:id\"=>\"284025\"" }, "geometry": { "type": "MultiPolygon", "coordinates": [ [ [ [ -1.5003484, 53.7129702 ], [ -1.5001675, 53.7130558 ], [ -1.4999839, 53.7129198 ], [ -1.5000753, 53.7128765 ], [ -1.5002227, 53.7129857 ], [ -1.5003122, 53.7129434 ], [ -1.5003484, 53.7129702 ] ] ] ] } },
{ "type": "Feature", "properties": { "osm_id": 75095516, "centroid": { "latitude": 53.714282, "longitude": -1.474619 }, "area": 246, "name": "Stanley Day Nursery", "type": "kindergarten", "building": "yes", "other_tags": "\"addr:city\"=>\"Wakefield\",\"addr:housenumber\"=>\"78\",\"addr:postcode\"=>\"WF3 4HS\",\"addr:street\"=>\"Lake Lock Road\",\"fhrs:id\"=>\"284122\"" }, "geometry": { "type": "MultiPolygon", "coordinates": [ [ [ [ -1.4746772, 53.7142007 ], [ -1.4747542, 53.714275 ], [ -1.4745594, 53.7143458 ], [ -1.4744823, 53.7142716 ], [ -1.4746772, 53.7142007 ] ] ] ] } },
{ "type": "Feature", "properties": { "osm_id": 83665718, "centroid": { "latitude": 53.682585, "longitude": -1.490846 }, "area": 496, "name": "First Steps Day Nursery", "type": "kindergarten", "building": "yes", "other_tags": "\"addr:city\"=>\"Wakefield\",\"addr:postcode\"=>\"WF1 4JZ\",\"addr:street\"=>\"Upper Warrengate\",\"fhrs:id\"=>\"283822\"" }, "geometry": { "type": "MultiPolygon", "coordinates": [ [ [ [ -1.4910086, 53.6826591 ], [ -1.490734, 53.6826461 ], [ -1.4907389, 53.6826099 ], [ -1.4906945, 53.6826078 ], [ -1.490699, 53.682575 ], [ -1.4906286, 53.6825716 ], [ -1.4906353, 53.6825216 ], [ -1.4910247, 53.6825401 ], [ -1.4910086, 53.6826591 ] ] ] ] } },
{ "type": "Feature", "properties": { "osm_id": 85712157, "centroid": { "latitude": 53.690733, "longitude": -1.495014 }, "area": 276, "name": "College Grove Nursery", "type": "kindergarten", "building": "yes", "other_tags": "\"addr:city\"=>\"Wakefield\",\"addr:housenumber\"=>\"9\",\"addr:postcode\"=>\"WF1 3RZ\",\"addr:street\"=>\"Eastmoor Road\",\"fhrs:id\"=>\"284614\"" }, "geometry": { "type": "MultiPolygon", "coordinates": [ [ [ [ -1.4951493, 53.6907075 ], [ -1.4950533, 53.6908022 ], [ -1.4949892, 53.6907795 ], [ -1.4949653, 53.6908031 ], [ -1.4948777, 53.690772 ], [ -1.4949976, 53.6906536 ], [ -1.4951493, 53.6907075 ] ] ] ] } },
{ "type": "Feature", "properties": { "osm_id": 87266567, "centroid": { "latitude": 53.681692, "longitude": -1.500178 }, "area": 395, "name": "Toy Box", "type": "kindergarten", "building": "yes", "other_tags": "\"addr:city\"=>\"Wakefield\",\"addr:housenumber\"=>\"11\",\"addr:postcode\"=>\"WF1 1DD\",\"addr:street\"=>\"Market Street\",\"fhrs:id\"=>\"283848\"" }, "geometry": { "type": "MultiPolygon", "coordinates": [ [ [ [ -1.5003171, 53.6817457 ], [ -1.5000952, 53.6817785 ], [ -1.500038, 53.6816431 ], [ -1.5002599, 53.6816102 ], [ -1.5003171, 53.6817457 ] ] ] ] } },
{ "type": "Feature", "properties": { "osm_id": 87266763, "centroid": { "latitude": 53.686112, "longitude": -1.499324 }, "area": 274, "name": "Cherry Tree Day Nursery", "type": "kindergarten", "building": "yes", "other_tags": "\"addr:city\"=>\"Wakefield\",\"addr:housenumber\"=>\"16-18\",\"addr:postcode\"=>\"WF1 3LQ\",\"addr:street\"=>\"Upper York Street\",\"fhrs:id\"=>\"283946\"" }, "geometry": { "type": "MultiPolygon", "coordinates": [ [ [ [ -1.4994579, 53.6861354 ], [ -1.4993068, 53.6861963 ], [ -1.4991902, 53.6860966 ], [ -1.4993413, 53.6860357 ], [ -1.4994579, 53.6861354 ] ] ] ] } },
{ "type": "Feature", "properties": { "osm_id": 95575624, "centroid": { "latitude": 53.740214, "longitude": -2.011032 }, "area": 316, "name": "Crossley Mill Childrens Centre", "type": "kindergarten", "building": "yes" }, "geometry": { "type": "MultiPolygon", "coordinates": [ [ [ [ -2.011142, 53.7402849 ], [ -2.0108524, 53.7402215 ], [ -2.0108953, 53.7401612 ], [ -2.0111957, 53.7401866 ], [ -2.011142, 53.7402849 ] ] ] ] } },
{ "type": "Feature", "properties": { "osm_id": 118046701, "centroid": { "latitude": 53.720607, "longitude": -1.853989 }, "area": 783, "name": "Eureka! Nursery", "type": "kindergarten", "building": "yes" }, "geometry": { "type": "MultiPolygon", "coordinates": [ [ [ [ -1.8538649, 53.7209087 ], [ -1.8537738, 53.7208828 ], [ -1.8539928, 53.7205272 ], [ -1.8540914, 53.7202875 ], [ -1.8541801, 53.7202961 ], [ -1.8540502, 53.7206265 ], [ -1.8538649, 53.7209087 ] ] ] ] } },
{ "type": "Feature", "properties": { "osm_id": 142431253, "centroid": { "latitude": 53.792586, "longitude": -1.576599 }, "area": 3471, "name": "Castleton Children's Centre", "type": "kindergarten" }, "geometry": { "type": "MultiPolygon", "coordinates": [ [ [ [ -1.5764757, 53.7923715 ], [ -1.5770714, 53.7925376 ], [ -1.5768403, 53.7928768 ], [ -1.5762993, 53.7926812 ], [ -1.5762493, 53.7926361 ], [ -1.5762636, 53.7926122 ], [ -1.5761945, 53.7925995 ], [ -1.5762183, 53.79228 ], [ -1.5763065, 53.7923095 ], [ -1.5763088, 53.7923729 ], [ -1.5763527, 53.7923714 ], [ -1.5764757, 53.7923715 ] ] ] ] } },
{ "type": "Feature", "properties": { "osm_id": 142822416, "centroid": { "latitude": 53.805975, "longitude": -1.558614 }, "area": 1262, "name": "Bright Beginnings Childcare Centre", "type": "kindergarten", "building": "yes", "other_tags": "\"addr:street\"=>\"Mount Preston Street\",\"addr:postcode\"=>\"LS2 9NQ\"" }, "geometry": { "type": "MultiPolygon", "coordinates": [ [ [ [ -1.5588411, 53.80614 ], [ -1.5589686, 53.8060075 ], [ -1.5583862, 53.8058121 ], [ -1.5582586, 53.8059446 ], [ -1.5588411, 53.80614 ] ] ] ] } },
{ "type": "Feature", "properties": { "osm_id": 160973738, "centroid": { "latitude": 53.832353, "longitude": -1.520822 }, "area": 2999, "name": "Tiny Tots Nursery", "type": "kindergarten" }, "geometry": { "type": "MultiPolygon", "coordinates": [ [ [ [ -1.5207177, 53.832058 ], [ -1.521126, 53.8321019 ], [ -1.5209681, 53.8326322 ], [ -1.5204739, 53.8325768 ], [ -1.5206928, 53.8321447 ], [ -1.5207177, 53.832058 ] ] ] ] } },
{ "type": "Feature", "properties": { "osm_id": 199012902, "centroid": { "latitude": 53.634188, "longitude": -1.747498 }, "area": 910, "name": "Sure Start Children's Cente Almondbury", "type": "kindergarten", "building": "yes", "other_tags": "\"source:name\"=>\"survey\"" }, "geometry": { "type": "MultiPolygon", "coordinates": [ [ [ [ -1.7475075, 53.634343 ], [ -1.7477382, 53.6342317 ], [ -1.7474646, 53.634025 ], [ -1.7473251, 53.6340918 ], [ -1.7473681, 53.6341331 ], [ -1.7472798, 53.6341802 ], [ -1.7475075, 53.634343 ] ] ] ] } },
{ "type": "Feature", "properties": { "osm_id": 201118423, "centroid": { "latitude": 53.825176, "longitude": -1.577857 }, "area": 192, "name": "St Agnes Nursery School", "type": "kindergarten", "building": "house", "other_tags": "\"addr:city\"=>\"Leeds\",\"addr:country\"=>\"GB\",\"addr:housenumber\"=>\"25\",\"addr:postcode\"=>\"LS6 4DN\",\"addr:street\"=>\"Burton Crescent\",\"website\"=>\"http:\/\/www.stagnesleeds.com\/\"" }, "geometry": { "type": "MultiPolygon", "coordinates": [ [ [ [ -1.577927, 53.8251054 ], [ -1.5779841, 53.8251644 ], [ -1.577786, 53.8252312 ], [ -1.5777289, 53.8251722 ], [ -1.577927, 53.8251054 ] ] ] ] } },
{ "type": "Feature", "properties": { "osm_id": 203426735, "centroid": { "latitude": 53.737883, "longitude": -1.508016 }, "area": 250, "name": "Robin Hood Nursery", "type": "kindergarten", "building": "yes" }, "geometry": { "type": "MultiPolygon", "coordinates": [ [ [ [ -1.5080041, 53.7377877 ], [ -1.5080383, 53.7378528 ], [ -1.5080913, 53.7378431 ], [ -1.5081337, 53.7379239 ], [ -1.5079838, 53.7379515 ], [ -1.5079071, 53.7378055 ], [ -1.5080041, 53.7377877 ] ] ] ] } },
{ "type": "Feature", "properties": { "osm_id": 224345496, "centroid": { "latitude": 53.830219, "longitude": -1.820552 }, "area": 272, "name": "Kiddi-crèche Nursery", "type": "kindergarten", "other_tags": "\"addr:city\"=>\"Cottingley, Bingley\",\"addr:housename\"=>\"School House\",\"addr:housenumber\"=>\"51\",\"addr:postcode\"=>\"BD16 1TZ\",\"addr:street\"=>\"Cottingley New Road\",\"phone\"=>\"01274 510988\",\"website\"=>\"http:\/\/www.kiddi-creche.co.uk\/\"" }, "geometry": { "type": "MultiPolygon", "coordinates": [ [ [ [ -1.8206448, 53.8302966 ], [ -1.8207133, 53.830238 ], [ -1.8204588, 53.8301345 ], [ -1.8203904, 53.8301931 ], [ -1.8206448, 53.8302966 ] ] ] ] } },
{ "type": "Feature", "properties": { "osm_id": 229068325, "centroid": { "latitude": 53.848894, "longitude": -1.576745 }, "area": 544, "name": "Daisy Chain Nursery", "type": "kindergarten", "building": "yes" }, "geometry": { "type": "MultiPolygon", "coordinates": [ [ [ [ -1.5768395, 53.8490015 ], [ -1.5765439, 53.8489047 ], [ -1.576651, 53.8487909 ], [ -1.5769466, 53.8488876 ], [ -1.5768395, 53.8490015 ] ] ] ] } },
{ "type": "Feature", "properties": { "osm_id": 261520187, "centroid": { "latitude": 53.865617, "longitude": -1.683751 }, "area": 350, "name": "Cliffe House Day Nursery", "type": "kindergarten", "building": "yes", "other_tags": "\"operator\"=>\"First Class Childcare\"" }, "geometry": { "type": "MultiPolygon", "coordinates": [ [ [ [ -1.6839175, 53.8656485 ], [ -1.6838123, 53.8656509 ], [ -1.6838141, 53.8656785 ], [ -1.6836219, 53.8656827 ], [ -1.6836149, 53.865572 ], [ -1.6837919, 53.8655681 ], [ -1.6837928, 53.8655827 ], [ -1.6839131, 53.8655801 ], [ -1.6839175, 53.8656485 ] ] ] ] } },
{ "type": "Feature", "properties": { "osm_id": 279790506, "centroid": { "latitude": 53.825147, "longitude": -1.571865 }, "area": 422, "name": "Grove Nursery", "type": "kindergarten", "building": "yes" }, "geometry": { "type": "MultiPolygon", "coordinates": [ [ [ [ -1.5719137, 53.8252495 ], [ -1.571738, 53.8252223 ], [ -1.5717652, 53.8251598 ], [ -1.5717541, 53.8251575 ], [ -1.5717865, 53.8250843 ], [ -1.5718067, 53.8250874 ], [ -1.5718231, 53.8250504 ], [ -1.5719892, 53.8250759 ], [ -1.5719677, 53.8251224 ], [ -1.5719871, 53.8251257 ], [ -1.5719614, 53.8251836 ], [ -1.5719441, 53.8251809 ], [ -1.5719137, 53.8252495 ] ] ] ] } },
{ "type": "Feature", "properties": { "osm_id": 300447790, "centroid": { "latitude": 53.594833, "longitude": -1.311442 }, "area": 2370, "type": "kindergarten" }, "geometry": { "type": "MultiPolygon", "coordinates": [ [ [ [ -1.3110479, 53.5946635 ], [ -1.3111391, 53.5947145 ], [ -1.3112142, 53.5948769 ], [ -1.3112571, 53.5950074 ], [ -1.3115575, 53.5950392 ], [ -1.3117595, 53.595006 ], [ -1.3116165, 53.5946317 ], [ -1.3110479, 53.5946635 ] ] ] ] } },
{ "type": "Feature", "properties": { "osm_id": 300510673, "centroid": { "latitude": 53.835001, "longitude": -1.602545 }, "area": 680, "type": "kindergarten" }, "geometry": { "type": "MultiPolygon", "coordinates": [ [ [ [ -1.6026397, 53.8351152 ], [ -1.602347, 53.8350541 ], [ -1.6024529, 53.8348889 ], [ -1.6027366, 53.8349371 ], [ -1.6026397, 53.8351152 ] ] ] ] } },
{ "type": "Feature", "properties": { "osm_id": 389437724, "centroid": { "latitude": 53.870065, "longitude": -1.887908 }, "area": 5343, "name": "Strong Close Nursery School and Children's Centre", "type": "kindergarten", "other_tags": "\"addr:city\"=>\"Keighley\",\"addr:postcode\"=>\"BD21 4LW\",\"addr:street\"=>\"Airedale Road\",\"ref:edubase\"=>\"107185\",\"website\"=>\"http:\/\/www.strongclosenscc.co.uk\/\"" }, "geometry": { "type": "MultiPolygon", "coordinates": [ [ [ [ -1.8882001, 53.8704943 ], [ -1.88769, 53.8705001 ], [ -1.8876448, 53.8695929 ], [ -1.8878728, 53.8695819 ], [ -1.887964, 53.8695977 ], [ -1.8880257, 53.8696499 ], [ -1.888133, 53.8698412 ], [ -1.8881634, 53.8699679 ], [ -1.8882001, 53.8704943 ] ] ] ] } },
{ "type": "Feature", "properties": { "osm_id": 390268318, "centroid": { "latitude": 53.671354, "longitude": -1.525816 }, "area": 963, "name": "Sunbeam Children's Centre", "type": "kindergarten", "building": "yes", "other_tags": "\"addr:housenumber\"=>\"9-11\",\"addr:street\"=>\"Lupset Crescent\"" }, "geometry": { "type": "MultiPolygon", "coordinates": [ [ [ [ -1.5257032, 53.6712177 ], [ -1.5260076, 53.671277 ], [ -1.5259998, 53.6714619 ], [ -1.5256643, 53.6714602 ], [ -1.5256002, 53.6714061 ], [ -1.5257032, 53.6712177 ] ] ] ] } },
{ "type": "Feature", "properties": { "osm_id": 392333227, "centroid": { "latitude": 53.841840, "longitude": -1.652014 }, "area": 1660, "type": "kindergarten" }, "geometry": { "type": "MultiPolygon", "coordinates": [ [ [ [ -1.6523395, 53.8417847 ], [ -1.6518854, 53.8416545 ], [ -1.6516884, 53.8418937 ], [ -1.6521425, 53.8420238 ], [ -1.6523395, 53.8417847 ] ] ] ] } },
{ "type": "Feature", "properties": { "osm_id": 393204622, "centroid": { "latitude": 53.898776, "longitude": -1.343827 }, "area": 23320, "name": "High Trees Nursery", "type": "kindergarten", "other_tags": "\"addr:postcode\"=>\"LS23 6HH\",\"addr:street\"=>\"Cinder Lane\",\"fhrs:id\"=>\"320837\",\"source:addr\"=>\"FHRS Open Data\"" }, "geometry": { "type": "MultiPolygon", "coordinates": [ [ [ [ -1.3451467, 53.8990569 ], [ -1.3450388, 53.8983011 ], [ -1.3438988, 53.898402 ], [ -1.3424309, 53.8985319 ], [ -1.3426649, 53.8992475 ], [ -1.343988, 53.899128 ], [ -1.3451467, 53.8990569 ] ] ] ] } },
{ "type": "Feature", "properties": { "osm_id": 395076783, "centroid": { "latitude": 53.846480, "longitude": -1.635198 }, "area": 277, "name": "Brownberrie Lane Preschool", "type": "kindergarten", "building": "yes", "other_tags": "\"addr:city\"=>\"Horsforth\",\"addr:postcode\"=>\"LS18 5SB\",\"addr:street\"=>\"Brownberrie Lane\"" }, "geometry": { "type": "MultiPolygon", "coordinates": [ [ [ [ -1.6352589, 53.8463964 ], [ -1.6350507, 53.8464853 ], [ -1.6351374, 53.846556 ], [ -1.6353456, 53.8464672 ], [ -1.6352589, 53.8463964 ] ] ] ] } },
{ "type": "Feature", "properties": { "osm_id": 395344444, "centroid": { "latitude": 53.801949, "longitude": -1.768084 }, "area": 12141, "name": "Abbey Green Nursery School & Children's Centre", "type": "kindergarten", "other_tags": "\"addr:city\"=>\"Manningham, Bradford\",\"addr:postcode\"=>\"BD8 8HT\",\"addr:street\"=>\"Green Lane\",\"phone\"=>\"01274 722070\",\"ref:edubase\"=>\"107188\",\"website\"=>\"http:\/\/abbeygreen.org\/\"" }, "geometry": { "type": "MultiPolygon", "coordinates": [ [ [ [ -1.7674692, 53.8023267 ], [ -1.76716, 53.8017812 ], [ -1.7672188, 53.8017713 ], [ -1.7686964, 53.8015261 ], [ -1.7689923, 53.8021034 ], [ -1.7684751, 53.8022127 ], [ -1.7674955, 53.8023738 ], [ -1.7674692, 53.8023267 ] ] ] ] } },
{ "type": "Feature", "properties": { "osm_id": 397645482, "centroid": { "latitude": 53.806402, "longitude": -1.760161 }, "area": 4401, "name": "Midland Road Nursery School and Children's Centre", "type": "kindergarten", "other_tags": "\"addr:city\"=>\"Bradford\",\"addr:postcode\"=>\"BD8 7DJ\",\"addr:street\"=>\"Bateman Street\",\"phone\"=>\"01274 546492\",\"ref:edubase\"=>\"107189\",\"website\"=>\"http:\/\/www.midlandroadnursery.org.uk\/\"" }, "geometry": { "type": "MultiPolygon", "coordinates": [ [ [ [ -1.760717, 53.8064739 ], [ -1.7600298, 53.8066975 ], [ -1.7600011, 53.8067118 ], [ -1.75976, 53.8064344 ], [ -1.7596272, 53.8062816 ], [ -1.7598755, 53.8062064 ], [ -1.7601166, 53.8061322 ], [ -1.7601881, 53.8062131 ], [ -1.7603496, 53.8061634 ], [ -1.7604135, 53.8062357 ], [ -1.7604867, 53.8062132 ], [ -1.760717, 53.8064739 ] ] ] ] } },
{ "type": "Feature", "properties": { "osm_id": 440046846, "centroid": { "latitude": 53.642948, "longitude": -1.523490 }, "area": 591, "name": "Crigglestone Nursery School", "type": "kindergarten", "building": "yes" }, "geometry": { "type": "MultiPolygon", "coordinates": [ [ [ [ -1.5233258, 53.6428975 ], [ -1.5234161, 53.6428649 ], [ -1.5233875, 53.6428371 ], [ -1.523486, 53.6428015 ], [ -1.52368, 53.6429902 ], [ -1.5234115, 53.6430872 ], [ -1.5233435, 53.643021 ], [ -1.5235189, 53.6429577 ], [ -1.5234523, 53.6428928 ], [ -1.5234175, 53.6429054 ], [ -1.5234607, 53.6429474 ], [ -1.523398, 53.64297 ], [ -1.5233447, 53.6429182 ], [ -1.5233258, 53.6428975 ] ] ] ] } },
{ "type": "Feature", "properties": { "osm_id": 456675049, "centroid": { "latitude": 53.867512, "longitude": -1.932092 }, "area": 10632, "name": "Rainbow Children's centre", "type": "kindergarten" }, "geometry": { "type": "MultiPolygon", "coordinates": [ [ [ [ -1.9312739, 53.8677626 ], [ -1.9312806, 53.8678417 ], [ -1.9322932, 53.8679109 ], [ -1.9325245, 53.8676815 ], [ -1.9328162, 53.8673395 ], [ -1.9328631, 53.8670074 ], [ -1.9316695, 53.8673099 ], [ -1.931341, 53.8675471 ], [ -1.9312739, 53.8677626 ] ] ] ] } },
{ "type": "Feature", "properties": { "osm_id": 457015062, "centroid": { "latitude": 53.711227, "longitude": -1.422873 }, "area": 240, "name": "Altofts Private Day Nursery", "type": "kindergarten", "building": "yes", "other_tags": "\"addr:city\"=>\"Wakefield\",\"addr:housenumber\"=>\"102b-102c\",\"addr:postcode\"=>\"WF6 2QS\",\"addr:street\"=>\"Church Road\",\"fhrs:id\"=>\"283456\"" }, "geometry": { "type": "MultiPolygon", "coordinates": [ [ [ [ -1.4229416, 53.71116 ], [ -1.4230094, 53.7112323 ], [ -1.422804, 53.7112999 ], [ -1.4227361, 53.7112276 ], [ -1.4229416, 53.71116 ] ] ] ] } },
{ "type": "Feature", "properties": { "osm_id": 458711877, "centroid": { "latitude": 53.701047, "longitude": -1.412824 }, "area": 666, "name": "Little Stars Nursery", "type": "kindergarten", "building": "yes", "other_tags": "\"addr:housenumber\"=>\"31\",\"addr:postcode\"=>\"WF6 2DP\",\"addr:street\"=>\"Castleford Road\",\"fhrs:id\"=>\"760960\"" }, "geometry": { "type": "MultiPolygon", "coordinates": [ [ [ [ -1.4127451, 53.7011738 ], [ -1.4126049, 53.7010431 ], [ -1.4126999, 53.7010074 ], [ -1.41271, 53.7010168 ], [ -1.4127407, 53.7010052 ], [ -1.4127222, 53.700988 ], [ -1.4127826, 53.7009653 ], [ -1.4128011, 53.7009825 ], [ -1.4128411, 53.7009675 ], [ -1.412831, 53.7009581 ], [ -1.4129204, 53.7009245 ], [ -1.4130448, 53.7010405 ], [ -1.4128654, 53.7011079 ], [ -1.4128812, 53.7011227 ], [ -1.4127451, 53.7011738 ] ] ] ] } },
{ "type": "Feature", "properties": { "osm_id": 460522004, "centroid": { "latitude": 53.789068, "longitude": -1.660755 }, "area": 471, "name": "Treetop Nursery", "type": "kindergarten", "building": "yes" }, "geometry": { "type": "MultiPolygon", "coordinates": [ [ [ [ -1.6607139, 53.7890164 ], [ -1.6607163, 53.788993 ], [ -1.6608083, 53.7889962 ], [ -1.6608059, 53.7890196 ], [ -1.6609163, 53.7890236 ], [ -1.6609098, 53.789087 ], [ -1.6608637, 53.7890853 ], [ -1.660863, 53.7890921 ], [ -1.6609047, 53.7890936 ], [ -1.6609002, 53.789138 ], [ -1.6608585, 53.7891366 ], [ -1.6608579, 53.7891424 ], [ -1.6605903, 53.7891329 ], [ -1.6606004, 53.7890335 ], [ -1.6606573, 53.7890355 ], [ -1.6606595, 53.7890145 ], [ -1.6607139, 53.7890164 ] ] ] ] } },
{ "type": "Feature", "properties": { "osm_id": 462780563, "centroid": { "latitude": 53.799887, "longitude": -1.636006 }, "area": 299, "name": "New Beginnings Nursery", "type": "kindergarten", "building": "yes" }, "geometry": { "type": "MultiPolygon", "coordinates": [ [ [ [ -1.6361497, 53.7999136 ], [ -1.6360187, 53.7999842 ], [ -1.6358631, 53.7998834 ], [ -1.6359942, 53.7998128 ], [ -1.6361497, 53.7999136 ] ] ] ] } },
{ "type": "Feature", "properties": { "osm_id": 462802054, "centroid": { "latitude": 53.829557, "longitude": -1.585631 }, "area": 138, "type": "kindergarten", "building": "yes" }, "geometry": { "type": "MultiPolygon", "coordinates": [ [ [ [ -1.5857524, 53.8295447 ], [ -1.5855544, 53.8296277 ], [ -1.5855093, 53.8295903 ], [ -1.5855329, 53.8295805 ], [ -1.5856751, 53.8295208 ], [ -1.5857074, 53.8295073 ], [ -1.5857524, 53.8295447 ] ] ] ] } }
]
}
