{
"type": "FeatureCollection",
"crs": { "type": "name", "properties": { "name": "urn:ogc:def:crs:OGC:1.3:CRS84" } },
"features": [
{ "type": "Feature", "properties": { "osm_id": 87266436, "centroid": { "latitude": 53.682982, "longitude": -1.496811 }, "area": 3198, "name": "Wakefield Cathedral", "amenity": "place_of_worship", "type": "cathedral", "other_tags": "\"website\"=>\"http:\/\/www.wakefieldcathedral.org.uk\/\",\"religion\"=>\"christian\",\"wikipedia\"=>\"en:Wakefield Cathedral\",\"denomination\"=>\"anglican\"" }, "geometry": { "type": "MultiPolygon", "coordinates": [ [ [ [ -1.4967815, 53.6830744 ], [ -1.4969028, 53.6831393 ], [ -1.4970016, 53.6831393 ], [ -1.4970337, 53.6831124 ], [ -1.4971298, 53.6831156 ], [ -1.4971752, 53.6831424 ], [ -1.4971725, 53.6831867 ], [ -1.4971058, 53.6832199 ], [ -1.497039, 53.6832199 ], [ -1.4969883, 53.6831962 ], [ -1.4968868, 53.6831931 ], [ -1.4967373, 53.683109 ], [ -1.4965449, 53.6831076 ], [ -1.4963392, 53.6830491 ], [ -1.4963405, 53.6829863 ], [ -1.4962303, 53.6829855 ], [ -1.496232, 53.6829032 ], [ -1.4963359, 53.682904 ], [ -1.4963372, 53.6828441 ], [ -1.4970507, 53.6828492 ], [ -1.4970515, 53.6828092 ], [ -1.4971356, 53.6828098 ], [ -1.4971347, 53.6828549 ], [ -1.497252, 53.6828558 ], [ -1.4972508, 53.6829118 ], [ -1.4973738, 53.6829127 ], [ -1.4973719, 53.6830045 ], [ -1.4972492, 53.6830036 ], [ -1.4972481, 53.6830563 ], [ -1.4967819, 53.683053 ], [ -1.4967815, 53.6830744 ] ] ] ] } },
{ "type": "Feature", "properties": { "osm_id": 98014681, "centroid": { "latitude": 53.795421, "longitude": -1.747750 }, "area": 3369, "name": "Bradford Cathedral", "amenity": "place_of_worship", "type": "cathedral", "other_tags": "\"denomination\"=>\"anglican\",\"postal_code\"=>\"BD1 4EH\",\"religion\"=>\"christian\",\"website\"=>\"http:\/\/www.bradfordcathedral.co.uk\/\",\"wikipedia\"=>\"en:Bradford Cathedral\"" }, "geometry": { "type": "MultiPolygon", "coordinates": [ [ [ [ -1.7483037, 53.7954992 ], [ -1.7481502, 53.7955249 ], [ -1.7480923, 53.7954451 ], [ -1.7478241, 53.7954989 ], [ -1.7478211, 53.795535 ], [ -1.7478188, 53.7955623 ], [ -1.7474057, 53.7956415 ], [ -1.7473574, 53.7956162 ], [ -1.7472609, 53.7956098 ], [ -1.7471697, 53.7954799 ], [ -1.7473252, 53.7954355 ], [ -1.7473038, 53.7954007 ], [ -1.7474701, 53.795369 ], [ -1.7474701, 53.7953183 ], [ -1.7479743, 53.7952423 ], [ -1.7479368, 53.7951916 ], [ -1.7481138, 53.795163 ], [ -1.7482215, 53.7953302 ], [ -1.7483037, 53.7954992 ] ] ] ] } },
{ "type": "Feature", "properties": { "osm_id": 177863486, "centroid": { "latitude": 53.800607, "longitude": -1.546848 }, "area": 1673, "name": "St Anne's Cathedral", "amenity": "place_of_worship", "type": "cathedral", "other_tags": "\"phone\"=>\"0113 245 4545\",\"website\"=>\"http:\/\/www.leedscathedral.org.uk\/\",\"religion\"=>\"christian\",\"addr:city\"=>\"Leeds\",\"addr:street\"=>\"Great George Street\",\"denomination\"=>\"roman_catholic\",\"addr:postcode\"=>\"LS2 8BE\"" }, "geometry": { "type": "MultiPolygon", "coordinates": [ [ [ [ -1.54656, 53.8007091 ], [ -1.5465442, 53.8005677 ], [ -1.5465369, 53.8005081 ], [ -1.5466362, 53.8005038 ], [ -1.5466347, 53.8004917 ], [ -1.5469638, 53.8004774 ], [ -1.5469675, 53.800507 ], [ -1.5471218, 53.8005003 ], [ -1.5471242, 53.8005193 ], [ -1.547162, 53.8005177 ], [ -1.5471764, 53.8006371 ], [ -1.5471372, 53.8006388 ], [ -1.5471411, 53.8006722 ], [ -1.5470987, 53.8006739 ], [ -1.5471052, 53.80073 ], [ -1.5470691, 53.8007315 ], [ -1.5470642, 53.8006888 ], [ -1.5469338, 53.800694 ], [ -1.5469414, 53.8007615 ], [ -1.5468423, 53.8007654 ], [ -1.5468392, 53.8007375 ], [ -1.5467512, 53.8007409 ], [ -1.5467468, 53.8007018 ], [ -1.54656, 53.8007091 ] ] ] ] } }
]
}
