{
"type": "FeatureCollection",
"crs": { "type": "name", "properties": { "name": "urn:ogc:def:crs:OGC:1.3:CRS84" } },
"features": [
{ "type": "Feature", "properties": { "osm_id": 393031714, "centroid": { "latitude": 53.790578, "longitude": -1.627662 }, "area": 2953, "name": "Foxhill Fold", "type": "stables", "landuse": "farmyard" }, "geometry": { "type": "MultiPolygon", "coordinates": [ [ [ [ -1.6278076, 53.7903262 ], [ -1.6272902, 53.7904171 ], [ -1.6274942, 53.7908258 ], [ -1.6280501, 53.7907297 ], [ -1.6278076, 53.7903262 ] ] ] ] } }
]
}
