{
"type": "FeatureCollection",
"crs": { "type": "name", "properties": { "name": "urn:ogc:def:crs:OGC:1.3:CRS84" } },
"features": [
{ "type": "Feature", "properties": { "osm_id": 157919458, "centroid": { "latitude": 53.832079, "longitude": -1.687682 }, "area": 24135, "type": "horticulture" }, "geometry": { "type": "MultiPolygon", "coordinates": [ [ [ [ -1.6869325, 53.8304547 ], [ -1.6872839, 53.8303771 ], [ -1.6873778, 53.831319 ], [ -1.6875395, 53.8320183 ], [ -1.6877479, 53.8324587 ], [ -1.6882629, 53.8323415 ], [ -1.6890703, 53.8321738 ], [ -1.6893331, 53.8324603 ], [ -1.6873429, 53.8331631 ], [ -1.6872759, 53.8329921 ], [ -1.6872786, 53.8328671 ], [ -1.6872759, 53.8327784 ], [ -1.6872061, 53.8326787 ], [ -1.6870908, 53.8322038 ], [ -1.6870345, 53.8319996 ], [ -1.686954, 53.8317622 ], [ -1.6869401, 53.831506 ], [ -1.6869218, 53.8311702 ], [ -1.6869325, 53.8304547 ] ] ] ] } }
]
}
