{
"type": "FeatureCollection",
"crs": { "type": "name", "properties": { "name": "urn:ogc:def:crs:OGC:1.3:CRS84" } },
"features": [
{ "type": "Feature", "properties": { "osm_id": 60522973, "centroid": { "latitude": 53.698940, "longitude": -1.510189 }, "area": 1070, "name": "Just Learning Creche", "type": "preschool", "building": "yes" }, "geometry": { "type": "MultiPolygon", "coordinates": [ [ [ [ -1.510041, 53.6989487 ], [ -1.5100238, 53.6989437 ], [ -1.5100491, 53.6989131 ], [ -1.5100216, 53.6989052 ], [ -1.5100421, 53.6988803 ], [ -1.5100692, 53.6988882 ], [ -1.5100915, 53.6988611 ], [ -1.5101081, 53.6988659 ], [ -1.5101937, 53.6987621 ], [ -1.5104045, 53.6988231 ], [ -1.5103184, 53.6989274 ], [ -1.5103936, 53.6989491 ], [ -1.5103232, 53.6990345 ], [ -1.5102488, 53.699013 ], [ -1.5101648, 53.6991148 ], [ -1.5099542, 53.6990539 ], [ -1.510041, 53.6989487 ] ] ] ] } },
{ "type": "Feature", "properties": { "osm_id": 73616630, "centroid": { "latitude": 53.781532, "longitude": -1.824094 }, "area": 2417, "name": "Green Top", "type": "preschool", "landuse": "commercial" }, "geometry": { "type": "MultiPolygon", "coordinates": [ [ [ [ -1.8240191, 53.7813133 ], [ -1.8239839, 53.7812234 ], [ -1.8238152, 53.7813577 ], [ -1.823665, 53.7814971 ], [ -1.8238152, 53.7815605 ], [ -1.8239225, 53.7816113 ], [ -1.8241586, 53.781681 ], [ -1.8243195, 53.7817697 ], [ -1.8244912, 53.7817634 ], [ -1.8245233, 53.7816683 ], [ -1.8244053, 53.7815732 ], [ -1.8242229, 53.7814845 ], [ -1.8241371, 53.781383 ], [ -1.8240191, 53.7813133 ] ] ] ] } }
]
}
