{
"type": "FeatureCollection",
"crs": { "type": "name", "properties": { "name": "urn:ogc:def:crs:OGC:1.3:CRS84" } },
"features": [
{ "type": "Feature", "properties": { "osm_id": 43565900, "centroid": { "latitude": 53.892261, "longitude": -1.735542 }, "area": 346, "name": "Mention Railway Station", "type": "railway" }, "geometry": { "type": "MultiPolygon", "coordinates": [ [ [ [ -1.7357349, 53.8922911 ], [ -1.7356666, 53.8923535 ], [ -1.7353498, 53.8922336 ], [ -1.7354176, 53.892171 ], [ -1.7357349, 53.8922911 ] ] ] ] } },
{ "type": "Feature", "properties": { "osm_id": 226523330, "centroid": { "latitude": 53.892495, "longitude": -1.735389 }, "area": 43, "name": "Waiting Room", "type": "railway" }, "geometry": { "type": "MultiPolygon", "coordinates": [ [ [ [ -1.7353115, 53.8924314 ], [ -1.7353302, 53.8924124 ], [ -1.7354644, 53.8924614 ], [ -1.7354456, 53.8924804 ], [ -1.7353115, 53.8924314 ] ] ] ] } }
]
}
