{
"type": "FeatureCollection",
"crs": { "type": "name", "properties": { "name": "urn:ogc:def:crs:OGC:1.3:CRS84" } },
"features": [
{ "type": "Feature", "properties": { "osm_id": 23814353, "centroid": { "latitude": 53.675627, "longitude": -1.514719 }, "area": 4701, "type": "sports_hall" }, "geometry": { "type": "MultiPolygon", "coordinates": [ [ [ [ -1.5148854, 53.676076 ], [ -1.5146394, 53.6760655 ], [ -1.514436, 53.6760569 ], [ -1.5146076, 53.6751069 ], [ -1.5149492, 53.6751166 ], [ -1.514851, 53.6756961 ], [ -1.5149843, 53.6756975 ], [ -1.514924, 53.6760285 ], [ -1.5148917, 53.6760303 ], [ -1.5148854, 53.676076 ] ] ] ] } },
{ "type": "Feature", "properties": { "osm_id": 106846319, "centroid": { "latitude": 53.694105, "longitude": -1.644749 }, "area": 469, "type": "sports_hall" }, "geometry": { "type": "MultiPolygon", "coordinates": [ [ [ [ -1.6447396, 53.6939906 ], [ -1.6449217, 53.6940659 ], [ -1.6447556, 53.6942067 ], [ -1.6446967, 53.6941824 ], [ -1.6446512, 53.6941636 ], [ -1.6445771, 53.6941329 ], [ -1.6446825, 53.694039 ], [ -1.6447396, 53.6939906 ] ] ] ] } },
{ "type": "Feature", "properties": { "osm_id": 106846321, "centroid": { "latitude": 53.693719, "longitude": -1.644945 }, "area": 1126, "type": "sports_hall" }, "geometry": { "type": "MultiPolygon", "coordinates": [ [ [ [ -1.6448146, 53.6935596 ], [ -1.6452436, 53.693737 ], [ -1.6450753, 53.6938796 ], [ -1.6449376, 53.6938227 ], [ -1.6448322, 53.6937791 ], [ -1.6446463, 53.6937022 ], [ -1.6448146, 53.6935596 ] ] ] ] } }
]
}
