{
"type": "FeatureCollection",
"crs": { "type": "name", "properties": { "name": "urn:ogc:def:crs:OGC:1.3:CRS84" } },
"features": [
{ "type": "Feature", "properties": { "osm_id": 87337414, "centroid": { "latitude": 53.914148, "longitude": -1.713094 }, "area": 1065, "type": "liesure" }, "geometry": { "type": "MultiPolygon", "coordinates": [ [ [ [ -1.7132574, 53.9142713 ], [ -1.7128292, 53.9142215 ], [ -1.7128839, 53.9140582 ], [ -1.7131064, 53.914084 ], [ -1.7131275, 53.9140209 ], [ -1.7133333, 53.9140448 ], [ -1.7132574, 53.9142713 ] ] ] ] } }
]
}
