{
"type": "FeatureCollection",
"crs": { "type": "name", "properties": { "name": "urn:ogc:def:crs:OGC:1.3:CRS84" } },
"features": [
{ "type": "Feature", "properties": { "osm_id": 1298768, "centroid": { "latitude": 53.683799, "longitude": -1.501346 }, "area": 1939, "name": "Wakefield Town Hall", "type": "public_building", "building": "yes", "other_tags": "\"addr:city\"=>\"Wakefield\",\"addr:postcode\"=>\"WF1 2HQ\",\"addr:street\"=>\"Wood Street\",\"fhrs:id\"=>\"852364\",\"use\"=>\"civic\"" }, "geometry": { "type": "MultiPolygon", "coordinates": [ [ [ [ -1.5017228, 53.6836923 ], [ -1.5012375, 53.6840366 ], [ -1.5009691, 53.6839038 ], [ -1.5014545, 53.6835596 ], [ -1.5017228, 53.6836923 ] ], [ [ -1.5013869, 53.6838599 ], [ -1.5014468, 53.6838134 ], [ -1.5013001, 53.6837471 ], [ -1.5012401, 53.6837936 ], [ -1.5013869, 53.6838599 ] ] ] ] } },
{ "type": "Feature", "properties": { "osm_id": 4431297, "centroid": { "latitude": 53.672759, "longitude": -1.503516 }, "area": 138, "name": "Clarence Park Band Stand", "type": "public_building", "building": "bandstand", "other_tags": "\"layer\"=>\"2\"" }, "geometry": { "type": "MultiPolygon", "coordinates": [ [ [ [ -1.5035457, 53.6728221 ], [ -1.5034495, 53.6728078 ], [ -1.5034886, 53.6726957 ], [ -1.5035817, 53.6727099 ], [ -1.5035457, 53.6728221 ] ] ] ] } },
{ "type": "Feature", "properties": { "osm_id": 11026093, "centroid": { "latitude": 53.730001, "longitude": -1.984787 }, "area": 5473, "name": "Mytholmroyd Community & Leisure Centre", "type": "public_building", "leisure": "sports_centre", "other_tags": "\"addr:street\"=>\"Elphaborough\",\"addr:postcode\"=>\"HX7 5DY\",\"addr:housename\"=>\"Mytholmroyd Community & Leisure Centre\"" }, "geometry": { "type": "MultiPolygon", "coordinates": [ [ [ [ -1.9853464, 53.7302805 ], [ -1.9855763, 53.7300073 ], [ -1.9841708, 53.729706 ], [ -1.9840733, 53.7300258 ], [ -1.9853464, 53.7302805 ] ] ] ] } },
{ "type": "Feature", "properties": { "osm_id": 28684282, "centroid": { "latitude": 53.813110, "longitude": -1.772991 }, "area": 321, "name": "Bandstand", "type": "public_building", "building": "bandstand", "leisure": "bandstand" }, "geometry": { "type": "MultiPolygon", "coordinates": [ [ [ [ -1.7728831, 53.8130744 ], [ -1.7729165, 53.8130495 ], [ -1.772948, 53.8130388 ], [ -1.7729906, 53.8130341 ], [ -1.7730172, 53.8130357 ], [ -1.7730568, 53.8130456 ], [ -1.773078, 53.8130561 ], [ -1.7731011, 53.8130769 ], [ -1.7731106, 53.8131007 ], [ -1.7731092, 53.813116 ], [ -1.773096, 53.8131386 ], [ -1.7730576, 53.8131634 ], [ -1.7730212, 53.813173 ], [ -1.7729999, 53.8131751 ], [ -1.7729601, 53.8131728 ], [ -1.7729286, 53.8131648 ], [ -1.7728981, 53.813149 ], [ -1.772876, 53.8131236 ], [ -1.772872, 53.813099 ], [ -1.7728831, 53.8130744 ] ] ] ] } },
{ "type": "Feature", "properties": { "osm_id": 28711385, "centroid": { "latitude": 53.643196, "longitude": -1.782729 }, "area": 1621, "type": "public_building", "building": "yes" }, "geometry": { "type": "MultiPolygon", "coordinates": [ [ [ [ -1.7826575, 53.6429782 ], [ -1.782975, 53.6430202 ], [ -1.7827895, 53.6434225 ], [ -1.7824891, 53.6433716 ], [ -1.7826575, 53.6429782 ] ] ] ] } },
{ "type": "Feature", "properties": { "osm_id": 30156911, "centroid": { "latitude": 53.647928, "longitude": -1.781909 }, "area": 556, "type": "public_building", "building": "yes" }, "geometry": { "type": "MultiPolygon", "coordinates": [ [ [ [ -1.7821084, 53.6479654 ], [ -1.7817628, 53.6480176 ], [ -1.7817103, 53.6478953 ], [ -1.7820559, 53.6478432 ], [ -1.7821084, 53.6479654 ] ] ] ] } },
{ "type": "Feature", "properties": { "osm_id": 34027224, "centroid": { "latitude": 53.743556, "longitude": -1.548353 }, "area": 7689, "name": "Middleton Community Centre", "type": "public_building" }, "geometry": { "type": "MultiPolygon", "coordinates": [ [ [ [ -1.5476903, 53.7433258 ], [ -1.5490172, 53.7433188 ], [ -1.5490258, 53.7437786 ], [ -1.547701, 53.743802 ], [ -1.5476867, 53.7433875 ], [ -1.5476903, 53.7433258 ] ] ] ] } },
{ "type": "Feature", "properties": { "osm_id": 34058804, "centroid": { "latitude": 53.747804, "longitude": -1.532263 }, "area": 17578, "name": "St George's Centre", "type": "public_building" }, "geometry": { "type": "MultiPolygon", "coordinates": [ [ [ [ -1.5314735, 53.7475524 ], [ -1.5316798, 53.7475027 ], [ -1.5330652, 53.7471692 ], [ -1.5330624, 53.7472806 ], [ -1.5330267, 53.7481221 ], [ -1.5315867, 53.7483654 ], [ -1.53138, 53.7481999 ], [ -1.5314738, 53.7476341 ], [ -1.5314735, 53.7475524 ] ] ] ] } },
{ "type": "Feature", "properties": { "osm_id": 34298721, "centroid": { "latitude": 53.755854, "longitude": -1.523705 }, "area": 4933, "name": "Nesfield Family Resources Centre", "type": "public_building" }, "geometry": { "type": "MultiPolygon", "coordinates": [ [ [ [ -1.5231453, 53.7559926 ], [ -1.5240246, 53.7561587 ], [ -1.5241787, 53.7556796 ], [ -1.5237861, 53.755603 ], [ -1.5234886, 53.7555513 ], [ -1.5231453, 53.7559926 ] ] ] ] } },
{ "type": "Feature", "properties": { "osm_id": 35225532, "centroid": { "latitude": 53.757329, "longitude": -1.662087 }, "area": 1954, "name": "Drighlington Scouts & Guides", "type": "public_building" }, "geometry": { "type": "MultiPolygon", "coordinates": [ [ [ [ -1.6617119, 53.7572732 ], [ -1.6618411, 53.757179 ], [ -1.6619956, 53.7571126 ], [ -1.6624605, 53.7573767 ], [ -1.6622009, 53.7575552 ], [ -1.6617119, 53.7572732 ] ] ] ] } },
{ "type": "Feature", "properties": { "osm_id": 49199350, "centroid": { "latitude": 53.690154, "longitude": -1.627235 }, "area": 1316, "name": "jobcentreplus", "type": "public_building", "building": "yes" }, "geometry": { "type": "MultiPolygon", "coordinates": [ [ [ [ -1.6276571, 53.6901562 ], [ -1.6275877, 53.6900438 ], [ -1.627177, 53.6901326 ], [ -1.6271466, 53.6900834 ], [ -1.6270779, 53.6900982 ], [ -1.6270692, 53.6900841 ], [ -1.627035, 53.6900287 ], [ -1.6268853, 53.6900611 ], [ -1.6269802, 53.6902148 ], [ -1.6269362, 53.6902243 ], [ -1.6269675, 53.6902752 ], [ -1.6270221, 53.6902634 ], [ -1.6270386, 53.6902901 ], [ -1.6276571, 53.6901562 ] ] ] ] } },
{ "type": "Feature", "properties": { "osm_id": 53559635, "centroid": { "latitude": 53.770016, "longitude": -1.701995 }, "area": 7025, "name": "Pit Hall Community Environment Centre", "type": "public_building" }, "geometry": { "type": "MultiPolygon", "coordinates": [ [ [ [ -1.7016016, 53.7703032 ], [ -1.7013772, 53.7698361 ], [ -1.7014869, 53.7697909 ], [ -1.7020617, 53.7696757 ], [ -1.7021738, 53.7696477 ], [ -1.7026948, 53.7702287 ], [ -1.702451, 53.7702834 ], [ -1.7021566, 53.7702834 ], [ -1.7016016, 53.7703032 ] ] ] ] } },
{ "type": "Feature", "properties": { "osm_id": 60173652, "centroid": { "latitude": 53.889371, "longitude": -1.738922 }, "area": 462, "name": "Menston Hall", "type": "public_building", "building": "public_building" }, "geometry": { "type": "MultiPolygon", "coordinates": [ [ [ [ -1.7391233, 53.889348 ], [ -1.7390637, 53.8894519 ], [ -1.738684, 53.8893762 ], [ -1.7387196, 53.8893142 ], [ -1.7388616, 53.8893425 ], [ -1.7388856, 53.8893006 ], [ -1.7391233, 53.889348 ] ] ] ] } },
{ "type": "Feature", "properties": { "osm_id": 61740602, "centroid": { "latitude": 53.711345, "longitude": -1.500349 }, "area": 682, "name": "Outwood Institute", "type": "public_building", "building": "yes", "other_tags": "\"addr:city\"=>\"Wakefield\",\"addr:housenumber\"=>\"560a\",\"addr:postcode\"=>\"WF1 2DT\",\"addr:street\"=>\"Leeds Road\",\"fhrs:id\"=>\"314228\"" }, "geometry": { "type": "MultiPolygon", "coordinates": [ [ [ [ -1.5002923, 53.7112222 ], [ -1.5005578, 53.7113125 ], [ -1.5004059, 53.7114688 ], [ -1.5001405, 53.7113784 ], [ -1.5002923, 53.7112222 ] ] ] ] } },
{ "type": "Feature", "properties": { "osm_id": 63121330, "centroid": { "latitude": 53.614557, "longitude": -1.516824 }, "area": 462, "name": "Wooley Village Hall", "type": "public_building", "building": "yes", "other_tags": "\"addr:city\"=>\"Wakefield\",\"addr:postcode\"=>\"WF4 2JG\",\"addr:street\"=>\"The Green\",\"fhrs:id\"=>\"314128\"" }, "geometry": { "type": "MultiPolygon", "coordinates": [ [ [ [ -1.5168977, 53.6144563 ], [ -1.5169833, 53.614598 ], [ -1.5167495, 53.6146476 ], [ -1.516664, 53.6145059 ], [ -1.5168977, 53.6144563 ] ] ] ] } },
{ "type": "Feature", "properties": { "osm_id": 65494252, "centroid": { "latitude": 53.707682, "longitude": -1.499273 }, "area": 169, "name": "Community Centre", "type": "public_building", "building": "yes", "other_tags": "\"building:roof\"=>\"tile\",\"building:levels\"=>\"2\",\"building:cladding\"=>\"brick\",\"building:roof:shape\"=>\"pitched\"" }, "geometry": { "type": "MultiPolygon", "coordinates": [ [ [ [ -1.4993426, 53.7076338 ], [ -1.4993874, 53.707697 ], [ -1.4992037, 53.7077427 ], [ -1.4991588, 53.7076795 ], [ -1.4993426, 53.7076338 ] ] ] ] } },
{ "type": "Feature", "properties": { "osm_id": 65494257, "centroid": { "latitude": 53.713931, "longitude": -1.477072 }, "area": 834, "name": "Stanley Community Centre", "type": "public_building", "building": "yes" }, "geometry": { "type": "MultiPolygon", "coordinates": [ [ [ [ -1.4772615, 53.7137681 ], [ -1.4773454, 53.7138468 ], [ -1.4770446, 53.7139591 ], [ -1.4771591, 53.7140666 ], [ -1.4770272, 53.7141158 ], [ -1.4769132, 53.7140089 ], [ -1.4768287, 53.7139297 ], [ -1.4772615, 53.7137681 ] ] ] ] } },
{ "type": "Feature", "properties": { "osm_id": 74079309, "centroid": { "latitude": 53.783834, "longitude": -1.809333 }, "area": 371, "type": "public_building", "building": "yes" }, "geometry": { "type": "MultiPolygon", "coordinates": [ [ [ [ -1.8094952, 53.7838269 ], [ -1.8093832, 53.7839211 ], [ -1.80917, 53.7838326 ], [ -1.8092819, 53.7837384 ], [ -1.8094952, 53.7838269 ] ] ] ] } },
{ "type": "Feature", "properties": { "osm_id": 84749830, "centroid": { "latitude": 53.712465, "longitude": -1.631224 }, "area": 699, "name": "Job Centre Pluss", "type": "public_building", "building": "yes" }, "geometry": { "type": "MultiPolygon", "coordinates": [ [ [ [ -1.6314782, 53.712476 ], [ -1.6312107, 53.7124974 ], [ -1.6312263, 53.7125657 ], [ -1.6310564, 53.7125793 ], [ -1.6310178, 53.7124107 ], [ -1.6314552, 53.7123757 ], [ -1.6314782, 53.712476 ] ] ] ] } },
{ "type": "Feature", "properties": { "osm_id": 95848343, "centroid": { "latitude": 53.779487, "longitude": -1.737888 }, "area": 9695, "name": "Flockton House", "type": "public_building", "building": "yes" }, "geometry": { "type": "MultiPolygon", "coordinates": [ [ [ [ -1.7377819, 53.7799733 ], [ -1.7371167, 53.7792855 ], [ -1.7380126, 53.7790097 ], [ -1.738651, 53.7796746 ], [ -1.7377819, 53.7799733 ] ] ] ] } },
{ "type": "Feature", "properties": { "osm_id": 102602286, "centroid": { "latitude": 53.792989, "longitude": -1.751530 }, "area": 4274, "name": "Brittania House", "type": "public_building", "building": "yes" }, "geometry": { "type": "MultiPolygon", "coordinates": [ [ [ [ -1.7521175, 53.7928983 ], [ -1.751563, 53.7931891 ], [ -1.7511553, 53.7932683 ], [ -1.7510824, 53.793273 ], [ -1.7509269, 53.7932202 ], [ -1.7509269, 53.7931812 ], [ -1.751244, 53.7929518 ], [ -1.7515042, 53.7927567 ], [ -1.7515844, 53.7926979 ], [ -1.7516637, 53.7926883 ], [ -1.7518949, 53.7927628 ], [ -1.7520083, 53.7927993 ], [ -1.7520888, 53.792831 ], [ -1.7521175, 53.7928983 ] ] ] ] } },
{ "type": "Feature", "properties": { "osm_id": 108258744, "centroid": { "latitude": 53.724203, "longitude": -1.858938 }, "area": 2658, "name": "Northgate House", "type": "public_building", "building": "yes", "other_tags": "\"addr:postcode\"=>\"HX1 1BF\"" }, "geometry": { "type": "MultiPolygon", "coordinates": [ [ [ [ -1.8596356, 53.7242273 ], [ -1.8587542, 53.7244084 ], [ -1.8586146, 53.724437 ], [ -1.8585463, 53.7243206 ], [ -1.858717, 53.7242855 ], [ -1.8585223, 53.7239536 ], [ -1.8587638, 53.723904 ], [ -1.8589655, 53.7242477 ], [ -1.8595742, 53.7241227 ], [ -1.8596356, 53.7242273 ] ] ] ] } },
{ "type": "Feature", "properties": { "osm_id": 108258750, "centroid": { "latitude": 53.724357, "longitude": -1.860687 }, "area": 2034, "name": "Town Hall", "type": "public_building", "building": "yes", "other_tags": "\"addr:street\"=>\"Crossley Street\",\"addr:postcode\"=>\"HX1 1UJ\",\"addr:housename\"=>\"Town Hall\"" }, "geometry": { "type": "MultiPolygon", "coordinates": [ [ [ [ -1.8607657, 53.7241235 ], [ -1.8609888, 53.7245273 ], [ -1.860605, 53.7245792 ], [ -1.8603818, 53.7242009 ], [ -1.8607657, 53.7241235 ] ] ] ] } },
{ "type": "Feature", "properties": { "osm_id": 108258752, "centroid": { "latitude": 53.723840, "longitude": -1.859017 }, "area": 2234, "type": "public_building", "building": "yes", "other_tags": "\"addr:street\"=>\"Northgate\",\"addr:postcode\"=>\"HX1 1UN\",\"addr:housename\"=>\"Central Library\"" }, "geometry": { "type": "MultiPolygon", "coordinates": [ [ [ [ -1.8593166, 53.7236564 ], [ -1.859363, 53.7237355 ], [ -1.8593261, 53.7237431 ], [ -1.8594381, 53.7239339 ], [ -1.8590431, 53.724015 ], [ -1.8589549, 53.7238647 ], [ -1.8587638, 53.723904 ], [ -1.8585223, 53.7239536 ], [ -1.8584521, 53.723834 ], [ -1.8593166, 53.7236564 ] ] ] ] } },
{ "type": "Feature", "properties": { "osm_id": 140691973, "centroid": { "latitude": 53.906465, "longitude": -1.692404 }, "area": 571, "name": "Otley Courthouse", "type": "public_building", "building": "yes", "other_tags": "\"website\"=>\"www.otleycourthouse.org.uk\",\"description\"=>\"Otley community art and resource cenre.\"" }, "geometry": { "type": "MultiPolygon", "coordinates": [ [ [ [ -1.6927498, 53.9064708 ], [ -1.6927584, 53.9065206 ], [ -1.6926941, 53.9065245 ], [ -1.6924573, 53.9065383 ], [ -1.6924495, 53.9064918 ], [ -1.6923607, 53.906497 ], [ -1.6923647, 53.9065208 ], [ -1.6922202, 53.9065292 ], [ -1.6921913, 53.9063574 ], [ -1.6923381, 53.9063489 ], [ -1.6923473, 53.9064036 ], [ -1.6923565, 53.9064577 ], [ -1.6925031, 53.9064491 ], [ -1.6925092, 53.906485 ], [ -1.6926852, 53.9064746 ], [ -1.6927498, 53.9064708 ] ] ] ] } },
{ "type": "Feature", "properties": { "osm_id": 142255606, "centroid": { "latitude": 53.797433, "longitude": -1.383197 }, "area": 5371, "type": "public_building", "building": "yes" }, "geometry": { "type": "MultiPolygon", "coordinates": [ [ [ [ -1.3835802, 53.7977169 ], [ -1.3826361, 53.7975902 ], [ -1.3826958, 53.7974261 ], [ -1.3827442, 53.7974276 ], [ -1.3827781, 53.7972767 ], [ -1.3828399, 53.7971402 ], [ -1.3834937, 53.7972291 ], [ -1.3834857, 53.7972623 ], [ -1.3837519, 53.7973113 ], [ -1.3835802, 53.7977169 ] ] ] ] } },
{ "type": "Feature", "properties": { "osm_id": 147433383, "centroid": { "latitude": 53.824379, "longitude": -1.424567 }, "area": 261, "name": "Manor House", "type": "public_building", "building": "yes" }, "geometry": { "type": "MultiPolygon", "coordinates": [ [ [ [ -1.4246436, 53.8244481 ], [ -1.424622, 53.8242897 ], [ -1.4244907, 53.8242977 ], [ -1.4245122, 53.8244576 ], [ -1.4246436, 53.8244481 ] ] ] ] } },
{ "type": "Feature", "properties": { "osm_id": 148844617, "centroid": { "latitude": 53.820276, "longitude": -1.577869 }, "area": 1303, "name": "HEART: Headingley Enterprise and Art Centre", "type": "public_building", "building": "yes", "other_tags": "\"url\"=>\"http:\/\/www.heartcentre.org.uk\/\",\"old_name\"=>\"Headingley Primary School\",\"addr:street\"=>\"Bennett Road\"" }, "geometry": { "type": "MultiPolygon", "coordinates": [ [ [ [ -1.5776319, 53.8204481 ], [ -1.5776076, 53.8202138 ], [ -1.5778117, 53.8202064 ], [ -1.5778067, 53.8201576 ], [ -1.5781206, 53.8201462 ], [ -1.5781256, 53.8201945 ], [ -1.5781986, 53.8201919 ], [ -1.5782093, 53.8202953 ], [ -1.5778377, 53.8203088 ], [ -1.5778514, 53.8204401 ], [ -1.5776319, 53.8204481 ] ] ] ] } },
{ "type": "Feature", "properties": { "osm_id": 154149486, "centroid": { "latitude": 53.810944, "longitude": -1.954848 }, "area": 558, "name": "Oxenhope Community Centre", "type": "public_building", "building": "yes", "other_tags": "\"addr:postcode\"=>\"BD22 9LY\"" }, "geometry": { "type": "MultiPolygon", "coordinates": [ [ [ [ -1.9550379, 53.8109922 ], [ -1.9549628, 53.8108718 ], [ -1.9548673, 53.8108904 ], [ -1.9548421, 53.8108417 ], [ -1.9546651, 53.8108845 ], [ -1.9547777, 53.811046 ], [ -1.9550379, 53.8109922 ] ] ] ] } },
{ "type": "Feature", "properties": { "osm_id": 154924078, "centroid": { "latitude": 53.848017, "longitude": -1.839156 }, "area": 222, "name": "Bingley Market Hall", "type": "public_building", "building": "yes" }, "geometry": { "type": "MultiPolygon", "coordinates": [ [ [ [ -1.8392497, 53.8481201 ], [ -1.8391478, 53.8479239 ], [ -1.8391398, 53.8479081 ], [ -1.8390627, 53.8479234 ], [ -1.83917, 53.8481321 ], [ -1.8392497, 53.8481201 ] ] ] ] } },
{ "type": "Feature", "properties": { "osm_id": 157474228, "centroid": { "latitude": 53.867681, "longitude": -1.909975 }, "area": 1477, "name": "Keighley Civic Centre", "type": "public_building", "building": "yes", "other_tags": "\"website\"=>\"http:\/\/www.keighleyciviccentre.com\/\",\"old_name\"=>\"Keighley Police Station\"" }, "geometry": { "type": "MultiPolygon", "coordinates": [ [ [ [ -1.9101647, 53.8678418 ], [ -1.9101724, 53.8675319 ], [ -1.9097612, 53.8675284 ], [ -1.9097575, 53.8676745 ], [ -1.9097998, 53.8676749 ], [ -1.9097963, 53.8678153 ], [ -1.9098417, 53.8678156 ], [ -1.9098411, 53.867839 ], [ -1.9101647, 53.8678418 ] ] ] ] } },
{ "type": "Feature", "properties": { "osm_id": 159177531, "centroid": { "latitude": 53.793151, "longitude": -1.747050 }, "area": 1442, "name": "Job Centre Plus", "type": "public_building", "building": "yes" }, "geometry": { "type": "MultiPolygon", "coordinates": [ [ [ [ -1.7474113, 53.7931694 ], [ -1.7473603, 53.7932645 ], [ -1.7472933, 53.7932534 ], [ -1.7472772, 53.7932914 ], [ -1.7467944, 53.7932011 ], [ -1.7468105, 53.7931726 ], [ -1.7467461, 53.7931647 ], [ -1.7467675, 53.7931298 ], [ -1.7466898, 53.7931156 ], [ -1.7466668, 53.7931008 ], [ -1.7466937, 53.7930481 ], [ -1.7467324, 53.7930394 ], [ -1.7468054, 53.7930554 ], [ -1.7468341, 53.7930169 ], [ -1.7473596, 53.7931153 ], [ -1.7473417, 53.7931545 ], [ -1.7474113, 53.7931694 ] ] ] ] } },
{ "type": "Feature", "properties": { "osm_id": 165464828, "centroid": { "latitude": 53.846735, "longitude": -1.833767 }, "area": 257, "name": "Star", "type": "public_building" }, "geometry": { "type": "MultiPolygon", "coordinates": [ [ [ [ -1.8337564, 53.8468143 ], [ -1.8336341, 53.8467448 ], [ -1.833778, 53.8466566 ], [ -1.8339004, 53.8467261 ], [ -1.8337564, 53.8468143 ] ] ] ] } },
{ "type": "Feature", "properties": { "osm_id": 169962105, "centroid": { "latitude": 53.913805, "longitude": -1.696841 }, "area": 305, "name": "Newall Church Hall", "type": "public_building", "building": "public" }, "geometry": { "type": "MultiPolygon", "coordinates": [ [ [ [ -1.69668, 53.9137905 ], [ -1.6969528, 53.9137316 ], [ -1.6970023, 53.9138112 ], [ -1.6967295, 53.9138701 ], [ -1.69668, 53.9137905 ] ] ] ] } },
{ "type": "Feature", "properties": { "osm_id": 173643507, "centroid": { "latitude": 53.698965, "longitude": -1.422054 }, "area": 716, "name": "Normanton Community Centre", "type": "public_building", "building": "yes" }, "geometry": { "type": "MultiPolygon", "coordinates": [ [ [ [ -1.4219533, 53.6990883 ], [ -1.421933, 53.6990512 ], [ -1.4219794, 53.6990423 ], [ -1.4218822, 53.6988649 ], [ -1.4220979, 53.6988234 ], [ -1.4221943, 53.6989994 ], [ -1.4222246, 53.6989936 ], [ -1.4222482, 53.6990366 ], [ -1.4221653, 53.6990526 ], [ -1.4221751, 53.6990703 ], [ -1.4220485, 53.6990947 ], [ -1.4220363, 53.6990724 ], [ -1.4219533, 53.6990883 ] ] ] ] } },
{ "type": "Feature", "properties": { "osm_id": 175936575, "centroid": { "latitude": 53.798184, "longitude": -1.553679 }, "area": 1657, "name": "Jobcentre Plus", "type": "public_building", "building": "yes", "other_tags": "\"addr:street\"=>\"Park Place\",\"addr:postcode\"=>\"LS1 2SL\",\"addr:housenumber\"=>\"21-22\"" }, "geometry": { "type": "MultiPolygon", "coordinates": [ [ [ [ -1.5535195, 53.7979609 ], [ -1.5539111, 53.7980116 ], [ -1.5539328, 53.79804 ], [ -1.5538041, 53.7983632 ], [ -1.5537126, 53.7983917 ], [ -1.5533639, 53.798341 ], [ -1.5533961, 53.7982269 ], [ -1.5536161, 53.7982555 ], [ -1.5536858, 53.798094 ], [ -1.5534884, 53.7980658 ], [ -1.5535195, 53.7979609 ] ] ] ] } },
{ "type": "Feature", "properties": { "osm_id": 175997919, "centroid": { "latitude": 53.806609, "longitude": -1.555911 }, "area": 4834, "name": "Leeds University Union", "type": "public_building", "building": "yes" }, "geometry": { "type": "MultiPolygon", "coordinates": [ [ [ [ -1.5553056, 53.8067888 ], [ -1.5554031, 53.8067972 ], [ -1.5553971, 53.8068214 ], [ -1.5556336, 53.8068419 ], [ -1.5556383, 53.806823 ], [ -1.5557927, 53.8068363 ], [ -1.5559427, 53.8068493 ], [ -1.555937, 53.8068724 ], [ -1.5561817, 53.8068936 ], [ -1.5561996, 53.8068217 ], [ -1.5562232, 53.8067273 ], [ -1.5562402, 53.806659 ], [ -1.5562991, 53.8066641 ], [ -1.5563321, 53.8065312 ], [ -1.556363, 53.8065339 ], [ -1.556399, 53.8063892 ], [ -1.5561165, 53.8063647 ], [ -1.5561322, 53.8063015 ], [ -1.556284, 53.8063146 ], [ -1.5562962, 53.8062653 ], [ -1.5559636, 53.8062365 ], [ -1.5559472, 53.8063026 ], [ -1.5559169, 53.8063 ], [ -1.5558737, 53.8064743 ], [ -1.5558515, 53.8064724 ], [ -1.5558308, 53.8065559 ], [ -1.5554082, 53.8065193 ], [ -1.5553949, 53.8065729 ], [ -1.5554917, 53.8065813 ], [ -1.5554802, 53.8066277 ], [ -1.5554674, 53.8066266 ], [ -1.5554643, 53.8066389 ], [ -1.5553454, 53.8066286 ], [ -1.5553056, 53.8067888 ] ] ] ] } },
{ "type": "Feature", "properties": { "osm_id": 177133367, "centroid": { "latitude": 53.851229, "longitude": -1.841758 }, "area": 309, "name": "Church House", "type": "public_building", "building": "yes", "other_tags": "\"addr:street\"=>\"Old Main Street\",\"addr:postcode\"=>\"BD16 2RH\",\"addr:housename\"=>\"Church House\"" }, "geometry": { "type": "MultiPolygon", "coordinates": [ [ [ [ -1.8418927, 53.85127 ], [ -1.8417554, 53.8513165 ], [ -1.8416222, 53.8511796 ], [ -1.8417595, 53.8511331 ], [ -1.8418927, 53.85127 ] ] ] ] } },
{ "type": "Feature", "properties": { "osm_id": 177210271, "centroid": { "latitude": 53.873052, "longitude": -1.901109 }, "area": 2546, "name": "Victoria Hall", "type": "public_building", "building": "yes" }, "geometry": { "type": "MultiPolygon", "coordinates": [ [ [ [ -1.9007353, 53.8728715 ], [ -1.9015297, 53.8730021 ], [ -1.9015288, 53.8730039 ], [ -1.9016232, 53.8730195 ], [ -1.901586, 53.8730981 ], [ -1.9015413, 53.8730908 ], [ -1.9014815, 53.8732172 ], [ -1.9013687, 53.8731987 ], [ -1.9013695, 53.8731968 ], [ -1.9011603, 53.8731624 ], [ -1.9011393, 53.8732067 ], [ -1.9008196, 53.8731541 ], [ -1.9008401, 53.8731107 ], [ -1.9006379, 53.8730774 ], [ -1.9007353, 53.8728715 ] ] ] ] } },
{ "type": "Feature", "properties": { "osm_id": 230770238, "centroid": { "latitude": 53.859001, "longitude": -1.887874 }, "area": 151, "name": "Long Lee Village Hall", "type": "public_building", "building": "yes" }, "geometry": { "type": "MultiPolygon", "coordinates": [ [ [ [ -1.8879941, 53.8590053 ], [ -1.8879596, 53.8589538 ], [ -1.8877549, 53.8590014 ], [ -1.8877894, 53.8590529 ], [ -1.8879941, 53.8590053 ] ] ] ] } },
{ "type": "Feature", "properties": { "osm_id": 370747641, "centroid": { "latitude": 53.846656, "longitude": -1.840295 }, "area": 1243, "name": "Bingley Town Hall", "type": "public_building", "building": "yes", "other_tags": "\"addr:city\"=>\"Bingley\",\"addr:housename\"=>\"Bingley Town Hall\",\"addr:postcode\"=>\"BD16 2LQ\"" }, "geometry": { "type": "MultiPolygon", "coordinates": [ [ [ [ -1.8398867, 53.8469348 ], [ -1.8401227, 53.846767 ], [ -1.8400342, 53.8467196 ], [ -1.8402997, 53.8465297 ], [ -1.8403668, 53.8465661 ], [ -1.840686, 53.846362 ], [ -1.8407427, 53.84638 ], [ -1.8406591, 53.8464427 ], [ -1.8406887, 53.8464537 ], [ -1.839951, 53.8469696 ], [ -1.8398867, 53.8469348 ] ] ] ] } },
{ "type": "Feature", "properties": { "osm_id": 384363798, "centroid": { "latitude": 53.702050, "longitude": -1.552008 }, "area": 266, "name": "Kirkhamgate Village Hall", "type": "public_building", "building": "yes" }, "geometry": { "type": "MultiPolygon", "coordinates": [ [ [ [ -1.5520708, 53.7019796 ], [ -1.5521214, 53.702067 ], [ -1.552027, 53.7020862 ], [ -1.5520567, 53.7021375 ], [ -1.5519774, 53.7021536 ], [ -1.5518971, 53.7020148 ], [ -1.5520708, 53.7019796 ] ] ] ] } },
{ "type": "Feature", "properties": { "osm_id": 391040826, "centroid": { "latitude": 53.670968, "longitude": -1.536438 }, "area": 981, "name": "St Georges Community Centre", "type": "public_building", "building": "yes", "other_tags": "\"addr:city\"=>\"Wakefield\",\"addr:housename\"=>\"St Georges Hall\",\"addr:postcode\"=>\"WF2 8AA\",\"addr:street\"=>\"Broadway\",\"fhrs:id\"=>\"284943;869589\"" }, "geometry": { "type": "MultiPolygon", "coordinates": [ [ [ [ -1.5363386, 53.6708873 ], [ -1.5365366, 53.6708294 ], [ -1.5365574, 53.6708544 ], [ -1.536625, 53.6708347 ], [ -1.5367076, 53.6709339 ], [ -1.5366202, 53.6709594 ], [ -1.5366318, 53.6709734 ], [ -1.5364822, 53.6710172 ], [ -1.5365209, 53.6710636 ], [ -1.536306, 53.6711264 ], [ -1.5362079, 53.6710086 ], [ -1.5362472, 53.6709971 ], [ -1.536207, 53.6709488 ], [ -1.5362956, 53.6709228 ], [ -1.5363069, 53.6709364 ], [ -1.5363484, 53.6709243 ], [ -1.5363333, 53.6709061 ], [ -1.5363386, 53.6708873 ] ] ] ] } },
{ "type": "Feature", "properties": { "osm_id": 440013153, "centroid": { "latitude": 53.643652, "longitude": -1.510684 }, "area": 667, "name": "The Place", "type": "public_building", "building": "yes" }, "geometry": { "type": "MultiPolygon", "coordinates": [ [ [ [ -1.5104788, 53.6436182 ], [ -1.5108009, 53.6435406 ], [ -1.5108696, 53.643641 ], [ -1.5108445, 53.6436471 ], [ -1.5108638, 53.6436752 ], [ -1.5108105, 53.6436881 ], [ -1.5108303, 53.643717 ], [ -1.5107164, 53.6437445 ], [ -1.5107086, 53.6437331 ], [ -1.5105789, 53.6437644 ], [ -1.5104788, 53.6436182 ] ] ] ] } },
{ "type": "Feature", "properties": { "osm_id": 440047008, "centroid": { "latitude": 53.642605, "longitude": -1.525057 }, "area": 310, "name": "Crigglestone Village Institute", "type": "public_building", "building": "house", "other_tags": "\"addr:housenumber\"=>\"36\",\"addr:street\"=>\"High Street\"" }, "geometry": { "type": "MultiPolygon", "coordinates": [ [ [ [ -1.5249416, 53.6425634 ], [ -1.5251637, 53.6425375 ], [ -1.5251879, 53.6426104 ], [ -1.5250985, 53.6426209 ], [ -1.5251185, 53.6426809 ], [ -1.5249858, 53.6426964 ], [ -1.5249416, 53.6425634 ] ] ] ] } },
{ "type": "Feature", "properties": { "osm_id": 448652188, "centroid": { "latitude": 53.633270, "longitude": -1.520237 }, "area": 130, "name": "Hall Green Community Centre", "type": "public_building", "building": "yes", "other_tags": "\"addr:housenumber\"=>\"1a\",\"addr:street\"=>\"Painthorpe Lane\"" }, "geometry": { "type": "MultiPolygon", "coordinates": [ [ [ [ -1.5202456, 53.6333256 ], [ -1.5203278, 53.6332507 ], [ -1.5202478, 53.6332198 ], [ -1.5201462, 53.6333123 ], [ -1.5202261, 53.6333432 ], [ -1.5202456, 53.6333256 ] ] ] ] } },
{ "type": "Feature", "properties": { "osm_id": 459859411, "centroid": { "latitude": 53.689697, "longitude": -1.413078 }, "area": 285, "name": "Woodhouse Community Centre", "type": "public_building", "building": "yes" }, "geometry": { "type": "MultiPolygon", "coordinates": [ [ [ [ -1.4130045, 53.6897909 ], [ -1.4130274, 53.6896078 ], [ -1.4131527, 53.6896133 ], [ -1.4131297, 53.6897964 ], [ -1.4130045, 53.6897909 ] ] ] ] } },
{ "type": "Feature", "properties": { "osm_id": 459860003, "centroid": { "latitude": 53.693119, "longitude": -1.422710 }, "area": 1427, "name": "Woodhouse Business Centre", "type": "public_building", "building": "yes" }, "geometry": { "type": "MultiPolygon", "coordinates": [ [ [ [ -1.4223788, 53.6932291 ], [ -1.4224032, 53.6931699 ], [ -1.422637, 53.6932037 ], [ -1.4226557, 53.6931581 ], [ -1.422585, 53.6931479 ], [ -1.4226267, 53.6930468 ], [ -1.4225138, 53.6930305 ], [ -1.4225248, 53.693004 ], [ -1.4224677, 53.6929957 ], [ -1.4224931, 53.6929341 ], [ -1.4229658, 53.6930024 ], [ -1.4228447, 53.6932964 ], [ -1.4223788, 53.6932291 ] ] ] ] } }
]
}
