{
"type": "FeatureCollection",
"crs": { "type": "name", "properties": { "name": "urn:ogc:def:crs:OGC:1.3:CRS84" } },
"features": [
{ "type": "Feature", "properties": { "osm_id": 24321863, "centroid": { "latitude": 53.715277, "longitude": -1.631330 }, "area": 2452, "type": "fuel", "other_tags": "\"operator\"=>\"Tesco\"" }, "geometry": { "type": "MultiPolygon", "coordinates": [ [ [ [ -1.6313968, 53.7154901 ], [ -1.6308631, 53.7152361 ], [ -1.6310813, 53.715139 ], [ -1.6313369, 53.7150784 ], [ -1.6314478, 53.7151099 ], [ -1.6316812, 53.715253 ], [ -1.6316382, 53.7153898 ], [ -1.6316287, 53.7154468 ], [ -1.6315488, 53.7154423 ], [ -1.6314938, 53.7154838 ], [ -1.6313968, 53.7154901 ] ] ] ] } },
{ "type": "Feature", "properties": { "osm_id": 61669990, "centroid": { "latitude": 53.697152, "longitude": -1.265616 }, "area": 4127, "name": "Esso Ferrybridge Services", "type": "fuel", "landuse": "retail", "other_tags": "\"surface\"=>\"concrete\",\"operator\"=>\"Esso\"" }, "geometry": { "type": "MultiPolygon", "coordinates": [ [ [ [ -1.2660643, 53.697316 ], [ -1.2654206, 53.6974177 ], [ -1.2650843, 53.6969767 ], [ -1.2657119, 53.6969323 ], [ -1.2659694, 53.6969704 ], [ -1.2659989, 53.6969974 ], [ -1.2660643, 53.697316 ] ] ] ] } },
{ "type": "Feature", "properties": { "osm_id": 76278887, "centroid": { "latitude": 53.700542, "longitude": -1.481917 }, "area": 760, "type": "fuel", "building": "yes", "other_tags": "\"operator\"=>\"Total\"" }, "geometry": { "type": "MultiPolygon", "coordinates": [ [ [ [ -1.4821785, 53.7005221 ], [ -1.4817721, 53.7006765 ], [ -1.4816559, 53.7005693 ], [ -1.4820623, 53.7004149 ], [ -1.4821785, 53.7005221 ] ] ] ] } },
{ "type": "Feature", "properties": { "osm_id": 80509447, "centroid": { "latitude": 53.793153, "longitude": -1.432487 }, "area": 1032, "name": "Sainsbury's Leeds Colton", "type": "fuel", "building": "yes", "other_tags": "\"phone\"=>\"+44 (0)113 232 8151\",\"operator\"=>\"Sainsbury's\",\"designation\"=>\"PFS0466\",\"fuel:diesel\"=>\"yes\",\"fuel:octane_95\"=>\"yes\"" }, "geometry": { "type": "MultiPolygon", "coordinates": [ [ [ [ -1.4325277, 53.7933358 ], [ -1.4326807, 53.7930044 ], [ -1.4324487, 53.7929665 ], [ -1.4322915, 53.7932972 ], [ -1.4324128, 53.7933173 ], [ -1.4325277, 53.7933358 ] ] ] ] } },
{ "type": "Feature", "properties": { "osm_id": 82260618, "centroid": { "latitude": 53.821469, "longitude": -1.458672 }, "area": 1091, "name": "Tesco Extra Petrol Station", "type": "fuel", "building": "yes", "other_tags": "\"operator\"=>\"Tesco\"" }, "geometry": { "type": "MultiPolygon", "coordinates": [ [ [ [ -1.4587702, 53.8216226 ], [ -1.458835, 53.8215117 ], [ -1.458872, 53.8214232 ], [ -1.4588232, 53.8214088 ], [ -1.4588507, 53.8213519 ], [ -1.4586311, 53.8212992 ], [ -1.4585962, 53.8213588 ], [ -1.4585584, 53.8213566 ], [ -1.4584363, 53.8215513 ], [ -1.4587702, 53.8216226 ] ] ] ] } },
{ "type": "Feature", "properties": { "osm_id": 83688259, "centroid": { "latitude": 53.805079, "longitude": -1.478777 }, "area": 557, "name": "Asda", "type": "fuel", "building": "roof", "other_tags": "\"brand\"=>\"Asda\",\"operator\"=>\"ASDA\"" }, "geometry": { "type": "MultiPolygon", "coordinates": [ [ [ [ -1.478735, 53.805196 ], [ -1.4785785, 53.8050815 ], [ -1.4788217, 53.8049696 ], [ -1.4789755, 53.8050842 ], [ -1.478735, 53.805196 ] ] ] ] } },
{ "type": "Feature", "properties": { "osm_id": 87832139, "centroid": { "latitude": 53.901065, "longitude": -1.684706 }, "area": 344, "name": "Pace", "type": "fuel", "building": "yes", "other_tags": "\"alt_name\"=>\"Colin Pitt\"" }, "geometry": { "type": "MultiPolygon", "coordinates": [ [ [ [ -1.6847757, 53.9011388 ], [ -1.6845814, 53.9011142 ], [ -1.6846179, 53.9010143 ], [ -1.684653, 53.9010188 ], [ -1.6846748, 53.9009653 ], [ -1.6848052, 53.9009801 ], [ -1.684786, 53.9010327 ], [ -1.6848132, 53.9010361 ], [ -1.6847941, 53.9010884 ], [ -1.6847757, 53.9011388 ] ] ] ] } },
{ "type": "Feature", "properties": { "osm_id": 87907715, "centroid": { "latitude": 53.903600, "longitude": -1.690555 }, "area": 137, "name": "Premire Garage", "type": "fuel", "building": "yes", "other_tags": "\"brand\"=>\"Premier\"" }, "geometry": { "type": "MultiPolygon", "coordinates": [ [ [ [ -1.6906146, 53.9035501 ], [ -1.6906161, 53.9036417 ], [ -1.6904954, 53.9036424 ], [ -1.6904939, 53.9035508 ], [ -1.6906146, 53.9035501 ] ] ] ] } },
{ "type": "Feature", "properties": { "osm_id": 118709500, "centroid": { "latitude": 53.726324, "longitude": -1.854686 }, "area": 236, "type": "fuel", "building": "yes", "other_tags": "\"operator\"=>\"Sainsburys\"" }, "geometry": { "type": "MultiPolygon", "coordinates": [ [ [ [ -1.854716, 53.7264103 ], [ -1.8547796, 53.7262638 ], [ -1.8546571, 53.7262452 ], [ -1.8545935, 53.7263916 ], [ -1.854716, 53.7264103 ] ] ] ] } },
{ "type": "Feature", "properties": { "osm_id": 118792262, "centroid": { "latitude": 53.904075, "longitude": -1.631077 }, "area": 146, "name": "Shell", "type": "fuel", "building": "yes" }, "geometry": { "type": "MultiPolygon", "coordinates": [ [ [ [ -1.6311321, 53.9041454 ], [ -1.6310262, 53.9041463 ], [ -1.6310257, 53.9041249 ], [ -1.6310241, 53.9040538 ], [ -1.6310236, 53.9040349 ], [ -1.6311294, 53.9040341 ], [ -1.6311321, 53.9041454 ] ] ] ] } },
{ "type": "Feature", "properties": { "osm_id": 119236344, "centroid": { "latitude": 53.703362, "longitude": -1.670444 }, "area": 1002, "type": "fuel" }, "geometry": { "type": "MultiPolygon", "coordinates": [ [ [ [ -1.6707261, 53.7033764 ], [ -1.6704531, 53.7035048 ], [ -1.6701701, 53.703361 ], [ -1.670423, 53.7032125 ], [ -1.6707261, 53.7033764 ] ] ] ] } },
{ "type": "Feature", "properties": { "osm_id": 121121137, "centroid": { "latitude": 53.706866, "longitude": -1.677766 }, "area": 2227, "type": "fuel", "other_tags": "\"operator\"=>\"Morrisons\",\"fuel:diesel\"=>\"yes\",\"fuel:octane_95\"=>\"yes\",\"fuel:octane_98\"=>\"yes\"" }, "geometry": { "type": "MultiPolygon", "coordinates": [ [ [ [ -1.6780616, 53.706863 ], [ -1.6780631, 53.706982 ], [ -1.6779665, 53.707032 ], [ -1.6777187, 53.7070588 ], [ -1.6775209, 53.7069632 ], [ -1.6774197, 53.706906 ], [ -1.6774529, 53.7068228 ], [ -1.6777535, 53.7066333 ], [ -1.6779106, 53.7067057 ], [ -1.6780079, 53.706784 ], [ -1.6780616, 53.706863 ] ] ] ] } },
{ "type": "Feature", "properties": { "osm_id": 126434158, "centroid": { "latitude": 53.805024, "longitude": -1.752915 }, "area": 2436, "type": "fuel", "other_tags": "\"brand\"=>\"Shell\"" }, "geometry": { "type": "MultiPolygon", "coordinates": [ [ [ [ -1.7532421, 53.8052131 ], [ -1.7528818, 53.8051966 ], [ -1.7526215, 53.8051351 ], [ -1.7525654, 53.8049246 ], [ -1.7527336, 53.8048632 ], [ -1.7531308, 53.8048222 ], [ -1.7532421, 53.8052131 ] ] ] ] } },
{ "type": "Feature", "properties": { "osm_id": 128918701, "centroid": { "latitude": 53.691505, "longitude": -1.612203 }, "area": 2007, "type": "fuel", "other_tags": "\"brand\"=>\"Esso\"" }, "geometry": { "type": "MultiPolygon", "coordinates": [ [ [ [ -1.6124617, 53.6913386 ], [ -1.6117844, 53.6914765 ], [ -1.6118101, 53.6915122 ], [ -1.6118815, 53.691639 ], [ -1.6119057, 53.691681 ], [ -1.6126274, 53.6915308 ], [ -1.6124936, 53.6913356 ], [ -1.6124617, 53.6913386 ] ] ] ] } },
{ "type": "Feature", "properties": { "osm_id": 140410202, "centroid": { "latitude": 53.864772, "longitude": -1.683468 }, "area": 548, "name": "Morrison's Petrol Filling Station", "type": "fuel", "building": "yes", "other_tags": "\"addr:postcode\"=>\"LS19 7QP\",\"addr:street\"=>\"Harper Lane\"" }, "geometry": { "type": "MultiPolygon", "coordinates": [ [ [ [ -1.6834575, 53.8648631 ], [ -1.6834521, 53.8648236 ], [ -1.6836693, 53.8648092 ], [ -1.6836471, 53.8647052 ], [ -1.683436, 53.8647192 ], [ -1.683428, 53.8646892 ], [ -1.6833073, 53.8646987 ], [ -1.6833334, 53.8648712 ], [ -1.6834575, 53.8648631 ] ] ] ] } },
{ "type": "Feature", "properties": { "osm_id": 146935848, "centroid": { "latitude": 53.686088, "longitude": -1.724588 }, "area": 3203, "type": "fuel", "other_tags": "\"brand\"=>\"Shell\"" }, "geometry": { "type": "MultiPolygon", "coordinates": [ [ [ [ -1.7249779, 53.6862888 ], [ -1.7248664, 53.6862888 ], [ -1.7247911, 53.6862424 ], [ -1.7244657, 53.6862656 ], [ -1.7243783, 53.6862978 ], [ -1.7243211, 53.6863459 ], [ -1.7242066, 53.6863513 ], [ -1.7243241, 53.6862442 ], [ -1.7243361, 53.6861711 ], [ -1.7241928, 53.6861408 ], [ -1.724316, 53.6858662 ], [ -1.7243828, 53.6858385 ], [ -1.7251255, 53.6860372 ], [ -1.724993, 53.6860765 ], [ -1.7249568, 53.6861211 ], [ -1.7249056, 53.6861943 ], [ -1.7249176, 53.6862353 ], [ -1.7249779, 53.6862888 ] ] ] ] } },
{ "type": "Feature", "properties": { "osm_id": 147518982, "centroid": { "latitude": 53.808959, "longitude": -1.463935 }, "area": 1122, "type": "fuel", "building": "yes" }, "geometry": { "type": "MultiPolygon", "coordinates": [ [ [ [ -1.463828, 53.8091183 ], [ -1.4641457, 53.8089979 ], [ -1.4640979, 53.8089539 ], [ -1.4642029, 53.8089141 ], [ -1.4640735, 53.8087951 ], [ -1.4636508, 53.8089553 ], [ -1.463828, 53.8091183 ] ] ] ] } },
{ "type": "Feature", "properties": { "osm_id": 150331820, "centroid": { "latitude": 53.709372, "longitude": -1.683179 }, "area": 1330, "type": "fuel", "other_tags": "\"brand\"=>\"Texaco\"" }, "geometry": { "type": "MultiPolygon", "coordinates": [ [ [ [ -1.6834158, 53.7094564 ], [ -1.683495, 53.7093392 ], [ -1.6829968, 53.7092157 ], [ -1.682875, 53.7094203 ], [ -1.6833533, 53.7095114 ], [ -1.6834158, 53.7094564 ] ] ] ] } },
{ "type": "Feature", "properties": { "osm_id": 153212097, "centroid": { "latitude": 53.649733, "longitude": -1.499130 }, "area": 440, "type": "fuel", "building": "roof", "other_tags": "\"fuel:diesel\"=>\"yes\",\"fuel:unleaded\"=>\"yes\",\"layer\"=>\"1\",\"operator\"=>\"ASDA\"" }, "geometry": { "type": "MultiPolygon", "coordinates": [ [ [ [ -1.499263, 53.6498087 ], [ -1.4991925, 53.6496369 ], [ -1.4989969, 53.6496651 ], [ -1.4990674, 53.6498369 ], [ -1.499263, 53.6498087 ] ] ] ] } },
{ "type": "Feature", "properties": { "osm_id": 155224828, "centroid": { "latitude": 53.791845, "longitude": -1.542346 }, "area": 989, "name": "Asda", "type": "fuel", "building": "yes", "other_tags": "\"brand\"=>\"Asda\"" }, "geometry": { "type": "MultiPolygon", "coordinates": [ [ [ [ -1.5423887, 53.7920059 ], [ -1.5420845, 53.7918857 ], [ -1.5422128, 53.7917724 ], [ -1.5422924, 53.7918039 ], [ -1.5423535, 53.79175 ], [ -1.5422885, 53.7917243 ], [ -1.5423495, 53.7916705 ], [ -1.5425762, 53.7917601 ], [ -1.5424522, 53.7918695 ], [ -1.542515, 53.7918943 ], [ -1.5423887, 53.7920059 ] ] ] ] } },
{ "type": "Feature", "properties": { "osm_id": 157075814, "centroid": { "latitude": 53.867080, "longitude": -1.903533 }, "area": 1889, "name": "Sainsburys Petrol Station", "type": "fuel", "shop": "convenience", "other_tags": "\"wheelchair\"=>\"yes\"" }, "geometry": { "type": "MultiPolygon", "coordinates": [ [ [ [ -1.9033895, 53.8673138 ], [ -1.9039152, 53.8669959 ], [ -1.9036577, 53.866852 ], [ -1.9032232, 53.8671161 ], [ -1.9031945, 53.8671912 ], [ -1.9033895, 53.8673138 ] ] ] ] } },
{ "type": "Feature", "properties": { "osm_id": 159384180, "centroid": { "latitude": 53.642928, "longitude": -1.732031 }, "area": 792, "type": "fuel", "building": "yes", "other_tags": "\"brand\"=>\"Morrisons\"" }, "geometry": { "type": "MultiPolygon", "coordinates": [ [ [ [ -1.7321196, 53.6430308 ], [ -1.7320881, 53.6429599 ], [ -1.732308, 53.6429255 ], [ -1.7322739, 53.6428487 ], [ -1.7320588, 53.6428823 ], [ -1.7320296, 53.6428166 ], [ -1.7318247, 53.6428486 ], [ -1.7319196, 53.6430621 ], [ -1.7321196, 53.6430308 ] ] ] ] } },
{ "type": "Feature", "properties": { "osm_id": 164960346, "centroid": { "latitude": 53.736076, "longitude": -1.608851 }, "area": 258, "name": "ASDA Morley (Fuel Shop)", "type": "fuel", "building": "retail" }, "geometry": { "type": "MultiPolygon", "coordinates": [ [ [ [ -1.6088957, 53.7361486 ], [ -1.6087526, 53.7361307 ], [ -1.6088033, 53.7359928 ], [ -1.6089519, 53.7360148 ], [ -1.6088957, 53.7361486 ] ] ] ] } },
{ "type": "Feature", "properties": { "osm_id": 164960347, "centroid": { "latitude": 53.736147, "longitude": -1.609161 }, "area": 490, "name": "ASDA Morley (Fuel)", "type": "fuel", "building": "retail" }, "geometry": { "type": "MultiPolygon", "coordinates": [ [ [ [ -1.6092356, 53.7362426 ], [ -1.6090127, 53.7362126 ], [ -1.6090399, 53.736138 ], [ -1.6090768, 53.7360508 ], [ -1.6093166, 53.7360867 ], [ -1.6092761, 53.7361711 ], [ -1.6092356, 53.7362426 ] ] ] ] } },
{ "type": "Feature", "properties": { "osm_id": 173273548, "centroid": { "latitude": 53.772025, "longitude": -1.516731 }, "area": 417, "name": "Queens Service Station", "type": "fuel", "building": "roof" }, "geometry": { "type": "MultiPolygon", "coordinates": [ [ [ [ -1.5168956, 53.7720796 ], [ -1.516809, 53.7720634 ], [ -1.5167838, 53.7721047 ], [ -1.5165738, 53.7720667 ], [ -1.5166326, 53.7719426 ], [ -1.5168707, 53.7719858 ], [ -1.5168956, 53.7720796 ] ] ] ] } },
{ "type": "Feature", "properties": { "osm_id": 173516098, "centroid": { "latitude": 53.656596, "longitude": -1.579202 }, "area": 1352, "type": "fuel", "other_tags": "\"brand\"=>\"JET\"" }, "geometry": { "type": "MultiPolygon", "coordinates": [ [ [ [ -1.5790398, 53.6567436 ], [ -1.5789511, 53.6565749 ], [ -1.578859, 53.6565388 ], [ -1.5793772, 53.6564452 ], [ -1.5794876, 53.6566503 ], [ -1.579376, 53.6566715 ], [ -1.579366, 53.6566936 ], [ -1.5790398, 53.6567436 ] ] ] ] } },
{ "type": "Feature", "properties": { "osm_id": 173524221, "centroid": { "latitude": 53.656184, "longitude": -1.579763 }, "area": 1391, "type": "fuel", "other_tags": "\"brand\"=>\"JET\"" }, "geometry": { "type": "MultiPolygon", "coordinates": [ [ [ [ -1.5801496, 53.6561797 ], [ -1.5801105, 53.6561554 ], [ -1.5799838, 53.6560767 ], [ -1.579888, 53.6560897 ], [ -1.5797322, 53.6560637 ], [ -1.5794645, 53.6561145 ], [ -1.5795424, 53.6563288 ], [ -1.5797202, 53.656298 ], [ -1.5799898, 53.6562329 ], [ -1.5801496, 53.6561797 ] ] ] ] } },
{ "type": "Feature", "properties": { "osm_id": 180170344, "centroid": { "latitude": 53.745603, "longitude": -1.604176 }, "area": 865, "name": "Morrisons", "type": "fuel", "building": "retail", "other_tags": "\"operator\"=>\"Morrisons\"" }, "geometry": { "type": "MultiPolygon", "coordinates": [ [ [ [ -1.6043701, 53.7457072 ], [ -1.6042112, 53.7457575 ], [ -1.604133, 53.7456704 ], [ -1.6041136, 53.7456487 ], [ -1.604083, 53.7456573 ], [ -1.6040286, 53.7456726 ], [ -1.6039296, 53.7455638 ], [ -1.6039813, 53.7455468 ], [ -1.6040746, 53.7455162 ], [ -1.6041739, 53.7454836 ], [ -1.6042586, 53.7454558 ], [ -1.6043617, 53.7455696 ], [ -1.6042793, 53.7455954 ], [ -1.6042697, 53.7455984 ], [ -1.604293, 53.7456237 ], [ -1.6043701, 53.7457072 ] ] ] ] } },
{ "type": "Feature", "properties": { "osm_id": 187420965, "centroid": { "latitude": 53.905814, "longitude": -1.348877 }, "area": 565, "name": "Boston Spa Garage", "type": "fuel", "shop": "yes", "other_tags": "\"brand\"=>\"Unknown\"" }, "geometry": { "type": "MultiPolygon", "coordinates": [ [ [ [ -1.3490478, 53.9058345 ], [ -1.3490736, 53.9057948 ], [ -1.3489129, 53.9057434 ], [ -1.348788, 53.9057154 ], [ -1.3486888, 53.9058532 ], [ -1.3487186, 53.9058661 ], [ -1.3487788, 53.9058864 ], [ -1.3488522, 53.9059094 ], [ -1.3488713, 53.9058731 ], [ -1.3489922, 53.9059058 ], [ -1.3490478, 53.9058345 ] ] ] ] } },
{ "type": "Feature", "properties": { "osm_id": 190310392, "centroid": { "latitude": 53.703537, "longitude": -1.629487 }, "area": 2287, "type": "fuel", "other_tags": "\"brand\"=>\"Shell\"" }, "geometry": { "type": "MultiPolygon", "coordinates": [ [ [ [ -1.6298191, 53.7033367 ], [ -1.6295051, 53.7038043 ], [ -1.6291506, 53.7037324 ], [ -1.6294781, 53.7032668 ], [ -1.6298191, 53.7033367 ] ] ] ] } },
{ "type": "Feature", "properties": { "osm_id": 191453263, "centroid": { "latitude": 53.726965, "longitude": -1.663578 }, "area": 2258, "type": "fuel", "other_tags": "\"operator\"=>\"Texaco\"" }, "geometry": { "type": "MultiPolygon", "coordinates": [ [ [ [ -1.6639878, 53.7269026 ], [ -1.663766, 53.7268306 ], [ -1.6635703, 53.7267354 ], [ -1.6631833, 53.7270132 ], [ -1.6634181, 53.7271239 ], [ -1.663579, 53.7271959 ], [ -1.6639878, 53.7269026 ] ] ] ] } },
{ "type": "Feature", "properties": { "osm_id": 198832251, "centroid": { "latitude": 53.793736, "longitude": -1.430115 }, "area": 1349, "name": "Pace Austhorpe", "type": "fuel", "building": "yes", "other_tags": "\"addr:postcode\"=>\"LS15 8QN\",\"addr:street\"=>\"Selby Road\",\"addr:town\"=>\"Austhorpe, Leeds\",\"brand\"=>\"Jet\",\"fuel:diesel\"=>\"yes\",\"fuel:octane_95\"=>\"yes\",\"operator\"=>\"BP\",\"telephone\"=>\"+44 (0)113 2840100\"" }, "geometry": { "type": "MultiPolygon", "coordinates": [ [ [ [ -1.4301886, 53.7939114 ], [ -1.4304166, 53.7937134 ], [ -1.4300977, 53.7935787 ], [ -1.4300512, 53.793624 ], [ -1.4299573, 53.7935907 ], [ -1.429842, 53.7936937 ], [ -1.429915, 53.7937197 ], [ -1.4298507, 53.7937783 ], [ -1.4301886, 53.7939114 ] ] ] ] } },
{ "type": "Feature", "properties": { "osm_id": 201078241, "centroid": { "latitude": 53.780870, "longitude": -1.525767 }, "area": 146, "name": "Shell", "type": "fuel", "building": "yes" }, "geometry": { "type": "MultiPolygon", "coordinates": [ [ [ [ -1.5256646, 53.7809177 ], [ -1.5257961, 53.7808217 ], [ -1.5258704, 53.7808572 ], [ -1.5257576, 53.7809397 ], [ -1.5257389, 53.7809533 ], [ -1.5256646, 53.7809177 ] ] ] ] } },
{ "type": "Feature", "properties": { "osm_id": 201078242, "centroid": { "latitude": 53.780966, "longitude": -1.525951 }, "area": 587, "name": "Shell", "type": "fuel", "building": "roof" }, "geometry": { "type": "MultiPolygon", "coordinates": [ [ [ [ -1.5258889, 53.7808437 ], [ -1.5261522, 53.7809696 ], [ -1.5259928, 53.781086 ], [ -1.5258248, 53.7810057 ], [ -1.5258528, 53.7809852 ], [ -1.5257576, 53.7809397 ], [ -1.5258704, 53.7808572 ], [ -1.5258889, 53.7808437 ] ] ] ] } },
{ "type": "Feature", "properties": { "osm_id": 201505235, "centroid": { "latitude": 53.741380, "longitude": -1.508991 }, "area": 32, "name": "NW", "type": "fuel", "building": "yes" }, "geometry": { "type": "MultiPolygon", "coordinates": [ [ [ [ -1.5090199, 53.7413158 ], [ -1.5090053, 53.741372 ], [ -1.5089605, 53.7413679 ], [ -1.5089751, 53.7413118 ], [ -1.5090199, 53.7413158 ] ] ] ] } },
{ "type": "Feature", "properties": { "osm_id": 201505236, "centroid": { "latitude": 53.741343, "longitude": -1.508885 }, "area": 150, "name": "NW", "type": "fuel", "building": "roof" }, "geometry": { "type": "MultiPolygon", "coordinates": [ [ [ [ -1.5089684, 53.7412952 ], [ -1.508944, 53.7413778 ], [ -1.5088015, 53.7413631 ], [ -1.5088259, 53.7412805 ], [ -1.5089684, 53.7412952 ] ] ] ] } },
{ "type": "Feature", "properties": { "osm_id": 201505244, "centroid": { "latitude": 53.787048, "longitude": -1.533851 }, "area": 730, "name": "Jet", "type": "fuel", "building": "roof", "other_tags": "\"addr:county\"=>\"West Yorkshire\",\"addr:housenumber\"=>\"169-171\",\"addr:postcode\"=>\"LS10 1JU\",\"addr:street\"=>\"Hunslet Road\",\"addr:town\"=>\"Leeds\",\"brand\"=>\"Murco\",\"fuel:diesel\"=>\"yes\",\"fuel:octane_95\"=>\"yes\",\"telephone\"=>\"+44 (0)113 244 9635\"" }, "geometry": { "type": "MultiPolygon", "coordinates": [ [ [ [ -1.5339526, 53.7869499 ], [ -1.5340174, 53.7869909 ], [ -1.5340012, 53.7871057 ], [ -1.5338555, 53.7871836 ], [ -1.5336843, 53.7870688 ], [ -1.5336958, 53.7869431 ], [ -1.5339526, 53.7869499 ] ] ] ] } },
{ "type": "Feature", "properties": { "osm_id": 201738287, "centroid": { "latitude": 53.635626, "longitude": -1.791357 }, "area": 403, "type": "fuel", "building": "yes", "other_tags": "\"brand\"=>\"Texaco\",\"operator\"=>\"The Co-operative Group\"" }, "geometry": { "type": "MultiPolygon", "coordinates": [ [ [ [ -1.791395, 53.6357179 ], [ -1.7915273, 53.6355995 ], [ -1.7913649, 53.6355366 ], [ -1.7912929, 53.6355994 ], [ -1.7912277, 53.6355731 ], [ -1.7911671, 53.635626 ], [ -1.791395, 53.6357179 ] ] ] ] } },
{ "type": "Feature", "properties": { "osm_id": 201826314, "centroid": { "latitude": 53.771975, "longitude": -1.516963 }, "area": 339, "name": "Stourton Service Station", "type": "fuel", "building": "retail", "other_tags": "\"brand\"=>\"Jet\"" }, "geometry": { "type": "MultiPolygon", "coordinates": [ [ [ [ -1.5168707, 53.7719858 ], [ -1.5169071, 53.7719824 ], [ -1.5168829, 53.7718911 ], [ -1.517028, 53.7718777 ], [ -1.5170634, 53.7720114 ], [ -1.5169957, 53.7720177 ], [ -1.5170093, 53.7720691 ], [ -1.5168956, 53.7720796 ], [ -1.5168707, 53.7719858 ] ] ] ] } },
{ "type": "Feature", "properties": { "osm_id": 202136626, "centroid": { "latitude": 53.715149, "longitude": -2.087537 }, "area": 1646, "name": "Springs Garage", "type": "fuel", "building": "yes" }, "geometry": { "type": "MultiPolygon", "coordinates": [ [ [ [ -2.0877872, 53.715299 ], [ -2.0875682, 53.7151951 ], [ -2.087425, 53.7153008 ], [ -2.0871661, 53.7151781 ], [ -2.0874615, 53.71496 ], [ -2.0879393, 53.7151866 ], [ -2.0877872, 53.715299 ] ] ] ] } },
{ "type": "Feature", "properties": { "osm_id": 202687663, "centroid": { "latitude": 53.637133, "longitude": -1.729330 }, "area": 310, "type": "fuel", "building": "yes", "other_tags": "\"brand\"=>\"BP\",\"operator\"=>\"The Co-operative Group\",\"fuel:diesel\"=>\"yes\",\"fuel:octane_95\"=>\"yes\"" }, "geometry": { "type": "MultiPolygon", "coordinates": [ [ [ [ -1.729475, 53.6371324 ], [ -1.7293843, 53.6371772 ], [ -1.729298, 53.6372199 ], [ -1.7291827, 53.6371372 ], [ -1.7292465, 53.6371056 ], [ -1.7293643, 53.6370473 ], [ -1.729475, 53.6371324 ] ] ] ] } },
{ "type": "Feature", "properties": { "osm_id": 220574769, "centroid": { "latitude": 53.645728, "longitude": -1.759535 }, "area": 3542, "name": "Tesco", "type": "fuel", "building": "yes" }, "geometry": { "type": "MultiPolygon", "coordinates": [ [ [ [ -1.759759, 53.6459242 ], [ -1.7597255, 53.6458511 ], [ -1.7599655, 53.6458082 ], [ -1.7597586, 53.6454589 ], [ -1.759224, 53.6455519 ], [ -1.7591577, 53.6455623 ], [ -1.7591739, 53.6455992 ], [ -1.7591769, 53.645606 ], [ -1.7591957, 53.6456483 ], [ -1.7592369, 53.6457426 ], [ -1.7592969, 53.6458792 ], [ -1.7591643, 53.6458962 ], [ -1.7592306, 53.6460049 ], [ -1.759759, 53.6459242 ] ] ] ] } },
{ "type": "Feature", "properties": { "osm_id": 220574772, "centroid": { "latitude": 53.645610, "longitude": -1.759570 }, "area": 326, "type": "fuel" }, "geometry": { "type": "MultiPolygon", "coordinates": [ [ [ [ -1.7597033, 53.6456553 ], [ -1.759626, 53.6455283 ], [ -1.7594383, 53.6455623 ], [ -1.7595112, 53.6456867 ], [ -1.7597033, 53.6456553 ] ] ] ] } },
{ "type": "Feature", "properties": { "osm_id": 224883206, "centroid": { "latitude": 53.761449, "longitude": -1.683852 }, "area": 513, "type": "fuel", "building": "roof", "other_tags": "\"operator\"=>\"Shell\"" }, "geometry": { "type": "MultiPolygon", "coordinates": [ [ [ [ -1.683915, 53.761524 ], [ -1.6836815, 53.7615001 ], [ -1.6837218, 53.7613621 ], [ -1.6839477, 53.7613852 ], [ -1.68394, 53.7614117 ], [ -1.6840483, 53.7614227 ], [ -1.6840244, 53.7615047 ], [ -1.6839236, 53.7614944 ], [ -1.683915, 53.761524 ] ] ] ] } },
{ "type": "Feature", "properties": { "osm_id": 234003769, "centroid": { "latitude": 53.804169, "longitude": -1.576119 }, "area": 577, "name": "Shell", "type": "fuel", "building": "retail" }, "geometry": { "type": "MultiPolygon", "coordinates": [ [ [ [ -1.5760579, 53.8042466 ], [ -1.5759265, 53.8042038 ], [ -1.5760901, 53.8040343 ], [ -1.5762265, 53.8040711 ], [ -1.5761571, 53.8041452 ], [ -1.5762027, 53.8041674 ], [ -1.5762939, 53.8041753 ], [ -1.5762778, 53.804264 ], [ -1.5761892, 53.8042582 ], [ -1.5761827, 53.8042644 ], [ -1.5760781, 53.8042292 ], [ -1.5760579, 53.8042466 ] ] ] ] } },
{ "type": "Feature", "properties": { "osm_id": 234818415, "centroid": { "latitude": 53.798195, "longitude": -1.576470 }, "area": 565, "name": "Esso", "type": "fuel", "building": "yes" }, "geometry": { "type": "MultiPolygon", "coordinates": [ [ [ [ -1.5765469, 53.7983206 ], [ -1.5766798, 53.7981292 ], [ -1.5765801, 53.798105 ], [ -1.5765354, 53.7981695 ], [ -1.57628, 53.7981076 ], [ -1.5762255, 53.7981861 ], [ -1.5764816, 53.7982482 ], [ -1.5764479, 53.7982967 ], [ -1.5765469, 53.7983206 ] ] ] ] } },
{ "type": "Feature", "properties": { "osm_id": 241439301, "centroid": { "latitude": 53.834690, "longitude": -1.650710 }, "area": 355, "name": "Esso", "type": "fuel", "building": "yes", "other_tags": "\"addr:city\"=>\"Horsforth\",\"addr:postcode\"=>\"LS18 4DY\",\"addr:street\"=>\"Broadway\",\"opening_hours\"=>\"24\/7\"" }, "geometry": { "type": "MultiPolygon", "coordinates": [ [ [ [ -1.6507896, 53.8347727 ], [ -1.650843, 53.8346447 ], [ -1.6506316, 53.8346148 ], [ -1.6505777, 53.8347435 ], [ -1.6507896, 53.8347727 ] ] ] ] } },
{ "type": "Feature", "properties": { "osm_id": 279871050, "centroid": { "latitude": 53.747936, "longitude": -1.531024 }, "area": 3374, "name": "Asda fuel station", "type": "fuel", "building": "yes", "other_tags": "\"operator\"=>\"Asda\",\"addr:city\"=>\"Leeds\"" }, "geometry": { "type": "MultiPolygon", "coordinates": [ [ [ [ -1.5313641, 53.747727 ], [ -1.5308211, 53.7476597 ], [ -1.530809, 53.7477336 ], [ -1.5307581, 53.7478755 ], [ -1.5306669, 53.7481295 ], [ -1.5312299, 53.7482148 ], [ -1.5313641, 53.747727 ] ] ] ] } },
{ "type": "Feature", "properties": { "osm_id": 284436751, "centroid": { "latitude": 53.796806, "longitude": -1.622475 }, "area": 1491, "name": "BP Pudsey Road Service Station", "type": "fuel", "shop": "convenience", "other_tags": "\"brand\"=>\"BP\",\"operator\"=>\"BP\"" }, "geometry": { "type": "MultiPolygon", "coordinates": [ [ [ [ -1.6223153, 53.7966271 ], [ -1.6228813, 53.7968632 ], [ -1.6228402, 53.7968976 ], [ -1.622793, 53.7968779 ], [ -1.6226805, 53.7969721 ], [ -1.6224856, 53.7968908 ], [ -1.6224408, 53.7969282 ], [ -1.6221169, 53.7967931 ], [ -1.6223153, 53.7966271 ] ] ] ] } },
{ "type": "Feature", "properties": { "osm_id": 286249803, "centroid": { "latitude": 53.755145, "longitude": -1.571010 }, "area": 772, "type": "fuel", "building": "yes" }, "geometry": { "type": "MultiPolygon", "coordinates": [ [ [ [ -1.5711458, 53.7552891 ], [ -1.5709649, 53.7552972 ], [ -1.5709543, 53.7552144 ], [ -1.5708844, 53.7552176 ], [ -1.5708603, 53.7550299 ], [ -1.5711112, 53.7550187 ], [ -1.5711458, 53.7552891 ] ] ] ] } },
{ "type": "Feature", "properties": { "osm_id": 286249824, "centroid": { "latitude": 53.754422, "longitude": -1.572283 }, "area": 2901, "name": "Sainsburys", "type": "fuel", "building": "yes" }, "geometry": { "type": "MultiPolygon", "coordinates": [ [ [ [ -1.5718701, 53.7543006 ], [ -1.572087, 53.7546529 ], [ -1.5727186, 53.754517 ], [ -1.5726852, 53.7544604 ], [ -1.5726136, 53.7543421 ], [ -1.5725836, 53.7542977 ], [ -1.5722671, 53.7542152 ], [ -1.5718701, 53.7543006 ] ] ] ] } },
{ "type": "Feature", "properties": { "osm_id": 302567056, "centroid": { "latitude": 53.838348, "longitude": -1.605927 }, "area": 1565, "type": "fuel", "building": "yes", "other_tags": "\"operator\"=>\"Texaco\"" }, "geometry": { "type": "MultiPolygon", "coordinates": [ [ [ [ -1.6060931, 53.8384741 ], [ -1.6060785, 53.8383925 ], [ -1.6062273, 53.8383832 ], [ -1.6061966, 53.8382117 ], [ -1.6056542, 53.8382455 ], [ -1.6056995, 53.8384987 ], [ -1.6060931, 53.8384741 ] ] ] ] } },
{ "type": "Feature", "properties": { "osm_id": 302567340, "centroid": { "latitude": 53.836111, "longitude": -1.618302 }, "area": 284, "type": "fuel", "building": "yes", "other_tags": "\"brand\"=>\"Shell\"" }, "geometry": { "type": "MultiPolygon", "coordinates": [ [ [ [ -1.6184091, 53.8361789 ], [ -1.6182714, 53.8361978 ], [ -1.6182629, 53.8361762 ], [ -1.6182101, 53.8361834 ], [ -1.6181904, 53.8361335 ], [ -1.6182419, 53.8361264 ], [ -1.6182156, 53.8360597 ], [ -1.6183535, 53.8360408 ], [ -1.6183601, 53.836051 ], [ -1.61839, 53.8361302 ], [ -1.6184091, 53.8361789 ] ] ] ] } },
{ "type": "Feature", "properties": { "osm_id": 319277529, "centroid": { "latitude": 53.680530, "longitude": -1.313325 }, "area": 223, "type": "fuel", "building": "yes" }, "geometry": { "type": "MultiPolygon", "coordinates": [ [ [ [ -1.3134321, 53.6805775 ], [ -1.313206, 53.6805645 ], [ -1.3132189, 53.6804864 ], [ -1.3133172, 53.6804901 ], [ -1.313445, 53.6804994 ], [ -1.3134321, 53.6805775 ] ] ] ] } },
{ "type": "Feature", "properties": { "osm_id": 321869258, "centroid": { "latitude": 53.835280, "longitude": -1.763221 }, "area": 283, "name": "School Service Station", "type": "fuel", "building": "yes", "other_tags": "\"addr:city\"=>\"Shipley\",\"addr:street\"=>\"Leeds Road\",\"addr:postcode\"=>\"BD18 1BX\",\"addr:housenumber\"=>\"194\"" }, "geometry": { "type": "MultiPolygon", "coordinates": [ [ [ [ -1.7633586, 53.8353403 ], [ -1.7632543, 53.8353802 ], [ -1.7630846, 53.8352257 ], [ -1.7631888, 53.8351858 ], [ -1.7633586, 53.8353403 ] ] ] ] } },
{ "type": "Feature", "properties": { "osm_id": 331675740, "centroid": { "latitude": 53.840256, "longitude": -1.470242 }, "area": 924, "name": "Esso", "type": "fuel", "building": "commercial" }, "geometry": { "type": "MultiPolygon", "coordinates": [ [ [ [ -1.470242, 53.8400876 ], [ -1.4700194, 53.8403614 ], [ -1.4702393, 53.8404247 ], [ -1.4704646, 53.8401478 ], [ -1.470242, 53.8400876 ] ] ] ] } },
{ "type": "Feature", "properties": { "osm_id": 331793522, "centroid": { "latitude": 53.844016, "longitude": -1.466564 }, "area": 2571, "name": "Shell", "type": "fuel", "landuse": "commercial" }, "geometry": { "type": "MultiPolygon", "coordinates": [ [ [ [ -1.4664557, 53.8437647 ], [ -1.4669117, 53.8438715 ], [ -1.4666877, 53.8442482 ], [ -1.4666506, 53.8443092 ], [ -1.4665568, 53.8442228 ], [ -1.4662062, 53.8441566 ], [ -1.4664557, 53.8437647 ] ] ] ] } },
{ "type": "Feature", "properties": { "osm_id": 333368967, "centroid": { "latitude": 53.610655, "longitude": -1.786472 }, "area": 2230, "name": "Texaco", "type": "fuel", "other_tags": "\"fuel:lpg\"=>\"yes\",\"fuel:diesel\"=>\"yes\",\"fuel:octane_95\"=>\"yes\"" }, "geometry": { "type": "MultiPolygon", "coordinates": [ [ [ [ -1.7862699, 53.6106373 ], [ -1.7861602, 53.6105933 ], [ -1.7863479, 53.6104157 ], [ -1.7868254, 53.6105743 ], [ -1.7864839, 53.6109307 ], [ -1.7862976, 53.6108546 ], [ -1.7862699, 53.6106373 ] ] ] ] } },
{ "type": "Feature", "properties": { "osm_id": 333368972, "centroid": { "latitude": 53.605709, "longitude": -1.788668 }, "area": 1918, "type": "fuel", "landuse": "retail", "other_tags": "\"brand\"=>\"Texaco\"" }, "geometry": { "type": "MultiPolygon", "coordinates": [ [ [ [ -1.7886694, 53.605498 ], [ -1.7883836, 53.6055363 ], [ -1.7884207, 53.6056735 ], [ -1.7884692, 53.6057659 ], [ -1.7885071, 53.6057948 ], [ -1.7885625, 53.6059047 ], [ -1.7885818, 53.6059031 ], [ -1.788966, 53.6058582 ], [ -1.7889192, 53.6057152 ], [ -1.7888724, 53.6055861 ], [ -1.7887127, 53.6056106 ], [ -1.7886694, 53.605498 ] ] ] ] } },
{ "type": "Feature", "properties": { "osm_id": 333368973, "centroid": { "latitude": 53.631438, "longitude": -1.794851 }, "area": 1798, "type": "fuel", "landuse": "retail", "other_tags": "\"brand\"=>\"Shell\",\"fuel:lpg\"=>\"yes\",\"fuel:diesel\"=>\"yes\",\"old_operator\"=>\"Jet\",\"fuel:octane_95\"=>\"yes\"" }, "geometry": { "type": "MultiPolygon", "coordinates": [ [ [ [ -1.7949054, 53.6312044 ], [ -1.795196, 53.6313196 ], [ -1.7947892, 53.6316682 ], [ -1.7946872, 53.6316299 ], [ -1.7945392, 53.6315743 ], [ -1.7945082, 53.6315626 ], [ -1.7949054, 53.6312044 ] ] ] ] } },
{ "type": "Feature", "properties": { "osm_id": 359079349, "centroid": { "latitude": 53.666265, "longitude": -1.822053 }, "area": 961, "type": "fuel", "building": "yes", "other_tags": "\"fuel:lpg\"=>\"yes\",\"operator\"=>\"Central England Co-operative Society\",\"fuel:diesel\"=>\"yes\",\"fuel:octane_95\"=>\"yes\"" }, "geometry": { "type": "MultiPolygon", "coordinates": [ [ [ [ -1.8220484, 53.6661055 ], [ -1.8222976, 53.6663336 ], [ -1.8220574, 53.6664257 ], [ -1.8218082, 53.6661976 ], [ -1.8220484, 53.6661055 ] ] ] ] } },
{ "type": "Feature", "properties": { "osm_id": 359079559, "centroid": { "latitude": 53.574992, "longitude": -1.705941 }, "area": 1166, "type": "fuel", "building": "yes", "other_tags": "\"operator\"=>\"Central England Co-operative Society\"" }, "geometry": { "type": "MultiPolygon", "coordinates": [ [ [ [ -1.7061888, 53.5748938 ], [ -1.7061778, 53.5750635 ], [ -1.7060931, 53.5750616 ], [ -1.7060891, 53.5751228 ], [ -1.7059436, 53.5751195 ], [ -1.7059467, 53.5750706 ], [ -1.7056727, 53.5750644 ], [ -1.7056701, 53.5750643 ], [ -1.7056769, 53.5749087 ], [ -1.7058554, 53.5749108 ], [ -1.7058569, 53.5748863 ], [ -1.7061888, 53.5748938 ] ] ] ] } },
{ "type": "Feature", "properties": { "osm_id": 359283621, "centroid": { "latitude": 53.792851, "longitude": -1.758742 }, "area": 402, "type": "fuel", "building": "yes", "other_tags": "\"operator\"=>\"The Co-operative Group\"" }, "geometry": { "type": "MultiPolygon", "coordinates": [ [ [ [ -1.7588219, 53.7929255 ], [ -1.758766, 53.7929158 ], [ -1.7587481, 53.7929515 ], [ -1.7586099, 53.7929275 ], [ -1.7586969, 53.7927531 ], [ -1.7588108, 53.7927729 ], [ -1.7587988, 53.792797 ], [ -1.7588791, 53.7928109 ], [ -1.7588219, 53.7929255 ] ] ] ] } },
{ "type": "Feature", "properties": { "osm_id": 359284669, "centroid": { "latitude": 53.711168, "longitude": -1.688311 }, "area": 484, "name": "Texaco", "type": "fuel", "building": "yes", "other_tags": "\"operator\"=>\"The Co-operative Group\"" }, "geometry": { "type": "MultiPolygon", "coordinates": [ [ [ [ -1.6883657, 53.7110543 ], [ -1.6884393, 53.7111074 ], [ -1.6883957, 53.7111286 ], [ -1.6884758, 53.7111863 ], [ -1.6882802, 53.71128 ], [ -1.688135, 53.7111664 ], [ -1.6883657, 53.7110543 ] ] ] ] } },
{ "type": "Feature", "properties": { "osm_id": 359639042, "centroid": { "latitude": 53.636827, "longitude": -1.828142 }, "area": 283, "type": "fuel", "building": "yes", "other_tags": "\"brand\"=>\"BP\",\"operator\"=>\"The Co-operative Group\"" }, "geometry": { "type": "MultiPolygon", "coordinates": [ [ [ [ -1.8282112, 53.6367291 ], [ -1.8281957, 53.636914 ], [ -1.828072, 53.6369104 ], [ -1.8280875, 53.6367255 ], [ -1.8282112, 53.6367291 ] ] ] ] } },
{ "type": "Feature", "properties": { "osm_id": 359644556, "centroid": { "latitude": 53.668456, "longitude": -1.534106 }, "area": 338, "type": "fuel", "building": "roof", "other_tags": "\"brand\"=>\"BP\",\"operator\"=>\"The Co-operative Group\"" }, "geometry": { "type": "MultiPolygon", "coordinates": [ [ [ [ -1.5340927, 53.6683675 ], [ -1.5341162, 53.66839 ], [ -1.5341408, 53.6683807 ], [ -1.5342574, 53.6684886 ], [ -1.5341139, 53.668543 ], [ -1.5340097, 53.6684466 ], [ -1.5339699, 53.6684617 ], [ -1.5339354, 53.6684288 ], [ -1.5340927, 53.6683675 ] ] ] ] } },
{ "type": "Feature", "properties": { "osm_id": 361046525, "centroid": { "latitude": 53.613031, "longitude": -1.713283 }, "area": 3470, "name": "Dene Service Station", "type": "fuel", "building": "yes", "other_tags": "\"addr:city\"=>\"Kirkburton\",\"addr:street\"=>\"Penistone Road\"" }, "geometry": { "type": "MultiPolygon", "coordinates": [ [ [ [ -1.713546, 53.6133068 ], [ -1.7135316, 53.6131629 ], [ -1.7135249, 53.6128049 ], [ -1.7135373, 53.6127449 ], [ -1.7130402, 53.6127466 ], [ -1.7130301, 53.6133159 ], [ -1.713546, 53.6133068 ] ] ] ] } },
{ "type": "Feature", "properties": { "osm_id": 369508314, "centroid": { "latitude": 53.719185, "longitude": -1.906570 }, "area": 318, "type": "fuel", "building": "yes" }, "geometry": { "type": "MultiPolygon", "coordinates": [ [ [ [ -1.9065655, 53.7192735 ], [ -1.9065158, 53.7192077 ], [ -1.9064564, 53.7192235 ], [ -1.9064121, 53.7191649 ], [ -1.9066158, 53.719111 ], [ -1.9067098, 53.7192353 ], [ -1.9065655, 53.7192735 ] ] ] ] } },
{ "type": "Feature", "properties": { "osm_id": 375296806, "centroid": { "latitude": 53.804190, "longitude": -1.638080 }, "area": 885, "type": "fuel", "shop": "convenience", "other_tags": "\"operator\"=>\"Morrisons\",\"fuel:diesel\"=>\"yes\"" }, "geometry": { "type": "MultiPolygon", "coordinates": [ [ [ [ -1.6383517, 53.8042603 ], [ -1.6381863, 53.8041685 ], [ -1.638203, 53.804158 ], [ -1.6379867, 53.804038 ], [ -1.637813, 53.8041471 ], [ -1.6380306, 53.8042679 ], [ -1.6380431, 53.80426 ], [ -1.6381273, 53.8043068 ], [ -1.6381401, 53.8042987 ], [ -1.6382199, 53.804343 ], [ -1.6383517, 53.8042603 ] ] ] ] } },
{ "type": "Feature", "properties": { "osm_id": 378675880, "centroid": { "latitude": 53.650700, "longitude": -1.782379 }, "area": 1549, "name": "Tesco", "type": "fuel", "building": "yes", "other_tags": "\"operator\"=>\"Tesco\"" }, "geometry": { "type": "MultiPolygon", "coordinates": [ [ [ [ -1.7820234, 53.6507053 ], [ -1.7819479, 53.650683 ], [ -1.7827432, 53.650535 ], [ -1.7825401, 53.6508344 ], [ -1.7825052, 53.6508464 ], [ -1.7823833, 53.6508275 ], [ -1.7822701, 53.6508103 ], [ -1.7821801, 53.6507913 ], [ -1.7820582, 53.6507587 ], [ -1.7819595, 53.650726 ], [ -1.7820234, 53.6507053 ] ] ] ] } },
{ "type": "Feature", "properties": { "osm_id": 391213650, "centroid": { "latitude": 53.672355, "longitude": -1.521917 }, "area": 566, "type": "fuel", "building": "roof", "other_tags": "\"brand\"=>\"bp\"" }, "geometry": { "type": "MultiPolygon", "coordinates": [ [ [ [ -1.5217239, 53.6723286 ], [ -1.5219315, 53.6722765 ], [ -1.5219421, 53.6722914 ], [ -1.5220458, 53.6722654 ], [ -1.5221163, 53.6723641 ], [ -1.522008, 53.6723913 ], [ -1.5220258, 53.672416 ], [ -1.5218228, 53.672467 ], [ -1.5217239, 53.6723286 ] ] ] ] } },
{ "type": "Feature", "properties": { "osm_id": 394953590, "centroid": { "latitude": 53.626628, "longitude": -1.238694 }, "area": 381, "name": "Shell Barnsdale Bar (North)", "type": "fuel", "building": "canopy", "other_tags": "\"brand\"=>\"Shell\",\"fuel:diesel\"=>\"yes\",\"fuel:GTL_diesel\"=>\"yes\",\"fuel:lpg\"=>\"yes\",\"fuel:octane_100\"=>\"yes\",\"fuel:octane_95\"=>\"yes\"" }, "geometry": { "type": "MultiPolygon", "coordinates": [ [ [ [ -1.2385555, 53.6266885 ], [ -1.2385022, 53.6266203 ], [ -1.2385497, 53.6266073 ], [ -1.2386026, 53.6265927 ], [ -1.2386727, 53.6265735 ], [ -1.2387239, 53.6265594 ], [ -1.238755, 53.6265509 ], [ -1.2388614, 53.6266873 ], [ -1.2387417, 53.6267201 ], [ -1.2387279, 53.6267025 ], [ -1.2386885, 53.626652 ], [ -1.2386567, 53.6266607 ], [ -1.2385987, 53.6266767 ], [ -1.2385555, 53.6266885 ] ] ] ] } },
{ "type": "Feature", "properties": { "osm_id": 394953591, "centroid": { "latitude": 53.626962, "longitude": -1.238077 }, "area": 379, "name": "Shell Barnsdale Bar (South)", "type": "fuel", "building": "canopy", "other_tags": "\"brand\"=>\"Shell\"" }, "geometry": { "type": "MultiPolygon", "coordinates": [ [ [ [ -1.237972, 53.6270401 ], [ -1.2379032, 53.6269478 ], [ -1.2379294, 53.6269409 ], [ -1.237993, 53.6269242 ], [ -1.2380767, 53.6269023 ], [ -1.2381437, 53.6268848 ], [ -1.2381812, 53.6268749 ], [ -1.23825, 53.6269673 ], [ -1.2382035, 53.6269795 ], [ -1.2381492, 53.6269937 ], [ -1.2380643, 53.6270159 ], [ -1.2379963, 53.6270338 ], [ -1.237972, 53.6270401 ] ] ] ] } },
{ "type": "Feature", "properties": { "osm_id": 406154295, "centroid": { "latitude": 53.865444, "longitude": -1.699201 }, "area": 187, "type": "fuel", "building": "yes", "other_tags": "\"fuel:diesel\"=>\"yes\",\"fuel:lpg\"=>\"yes\",\"fuel:octane_95\"=>\"yes\",\"operator\"=>\"Morrisons\"" }, "geometry": { "type": "MultiPolygon", "coordinates": [ [ [ [ -1.6991267, 53.8655172 ], [ -1.6990732, 53.8654603 ], [ -1.6991116, 53.8654477 ], [ -1.6992226, 53.8654115 ], [ -1.6992769, 53.8653938 ], [ -1.6993304, 53.8654508 ], [ -1.6991267, 53.8655172 ] ] ] ] } },
{ "type": "Feature", "properties": { "osm_id": 426157920, "centroid": { "latitude": 53.802760, "longitude": -1.532489 }, "area": 1774, "type": "fuel", "other_tags": "\"operator\"=>\"shell\"" }, "geometry": { "type": "MultiPolygon", "coordinates": [ [ [ [ -1.5326656, 53.8029408 ], [ -1.5322455, 53.8028995 ], [ -1.5323063, 53.8027124 ], [ -1.5322225, 53.8027015 ], [ -1.5322615, 53.8025802 ], [ -1.5327701, 53.8026432 ], [ -1.5326656, 53.8029408 ] ] ] ] } },
{ "type": "Feature", "properties": { "osm_id": 432919512, "centroid": { "latitude": 53.848750, "longitude": -1.592342 }, "area": 292, "type": "fuel", "building": "yes" }, "geometry": { "type": "MultiPolygon", "coordinates": [ [ [ [ -1.5924911, 53.8487851 ], [ -1.5924985, 53.8487073 ], [ -1.5921914, 53.8486971 ], [ -1.5921848, 53.8487682 ], [ -1.592184, 53.8487748 ], [ -1.5923176, 53.8487772 ], [ -1.5924911, 53.8487851 ] ] ] ] } },
{ "type": "Feature", "properties": { "osm_id": 433828128, "centroid": { "latitude": 53.806120, "longitude": -1.529582 }, "area": 561, "type": "fuel", "building": "yes", "shop": "yes", "other_tags": "\"brand\"=>\"Esso\"" }, "geometry": { "type": "MultiPolygon", "coordinates": [ [ [ [ -1.5295096, 53.8060021 ], [ -1.5296207, 53.8060496 ], [ -1.5296102, 53.8060582 ], [ -1.5297877, 53.8061339 ], [ -1.5296655, 53.8062338 ], [ -1.5293768, 53.8061106 ], [ -1.5295096, 53.8060021 ] ] ] ] } },
{ "type": "Feature", "properties": { "osm_id": 436720183, "centroid": { "latitude": 53.650173, "longitude": -1.491653 }, "area": 1789, "type": "fuel", "other_tags": "\"addr:city\"=>\"Wakefield\",\"addr:postcode\"=>\"WF2 6BH\",\"addr:street\"=>\"Barnsley Road\",\"brand\"=>\"Texaco\"" }, "geometry": { "type": "MultiPolygon", "coordinates": [ [ [ [ -1.4912765, 53.6502061 ], [ -1.4917955, 53.6499629 ], [ -1.4920101, 53.6501425 ], [ -1.4915501, 53.6503786 ], [ -1.4912765, 53.6502061 ] ] ] ] } },
{ "type": "Feature", "properties": { "osm_id": 436877670, "centroid": { "latitude": 53.810345, "longitude": -1.526419 }, "area": 3122, "type": "fuel", "other_tags": "\"operator\"=>\"Tesco\"" }, "geometry": { "type": "MultiPolygon", "coordinates": [ [ [ [ -1.5261237, 53.8105892 ], [ -1.5259252, 53.8103674 ], [ -1.5259762, 53.8103168 ], [ -1.5267191, 53.8101014 ], [ -1.526931, 53.8103468 ], [ -1.5261237, 53.8105892 ] ] ] ] } },
{ "type": "Feature", "properties": { "osm_id": 445548692, "centroid": { "latitude": 53.805261, "longitude": -1.479031 }, "area": 27, "type": "fuel" }, "geometry": { "type": "MultiPolygon", "coordinates": [ [ [ [ -1.4790227, 53.8052097 ], [ -1.4790737, 53.8052465 ], [ -1.4790375, 53.8052643 ], [ -1.4789885, 53.8052291 ], [ -1.4790227, 53.8052097 ] ] ] ] } },
{ "type": "Feature", "properties": { "osm_id": 445548693, "centroid": { "latitude": 53.805334, "longitude": -1.478906 }, "area": 33, "type": "fuel" }, "geometry": { "type": "MultiPolygon", "coordinates": [ [ [ [ -1.4789523, 53.8053059 ], [ -1.4788926, 53.8052636 ], [ -1.4788584, 53.8052838 ], [ -1.4789174, 53.8053257 ], [ -1.4789523, 53.8053059 ] ] ] ] } },
{ "type": "Feature", "properties": { "osm_id": 445825805, "centroid": { "latitude": 53.770441, "longitude": -1.759701 }, "area": 597, "name": "Morrisons", "type": "fuel" }, "geometry": { "type": "MultiPolygon", "coordinates": [ [ [ [ -1.759552, 53.7703662 ], [ -1.7595064, 53.7704335 ], [ -1.7596043, 53.7704549 ], [ -1.7595628, 53.7705128 ], [ -1.7597639, 53.770558 ], [ -1.7598819, 53.7703796 ], [ -1.7596888, 53.7703329 ], [ -1.7596526, 53.7703892 ], [ -1.759552, 53.7703662 ] ] ] ] } },
{ "type": "Feature", "properties": { "osm_id": 446121749, "centroid": { "latitude": 53.807527, "longitude": -1.469771 }, "area": 806, "name": "Somerville Petrol Station", "type": "fuel", "other_tags": "\"operator\"=>\"BP\"" }, "geometry": { "type": "MultiPolygon", "coordinates": [ [ [ [ -1.4699198, 53.8074053 ], [ -1.4700169, 53.8075602 ], [ -1.4697849, 53.8076101 ], [ -1.4697661, 53.8075808 ], [ -1.4696454, 53.8076077 ], [ -1.4696736, 53.8076402 ], [ -1.4695931, 53.8076647 ], [ -1.4695086, 53.8075388 ], [ -1.469569, 53.8075254 ], [ -1.4695663, 53.8075182 ], [ -1.4697111, 53.8074874 ], [ -1.4696923, 53.8074533 ], [ -1.4699198, 53.8074053 ] ] ] ] } },
{ "type": "Feature", "properties": { "osm_id": 449244298, "centroid": { "latitude": 53.698851, "longitude": -1.503453 }, "area": 3309, "name": "Newton Hill Garage", "type": "fuel", "other_tags": "\"addr:city\"=>\"Wakefield\",\"addr:housenumber\"=>\"267\",\"addr:postcode\"=>\"WF1 2JQ\",\"addr:street\"=>\"Leeds Road\"" }, "geometry": { "type": "MultiPolygon", "coordinates": [ [ [ [ -1.5033031, 53.6985634 ], [ -1.5035096, 53.6985745 ], [ -1.5036169, 53.6986364 ], [ -1.5038986, 53.6989429 ], [ -1.5035888, 53.6990056 ], [ -1.5035939, 53.6990827 ], [ -1.5031086, 53.6990893 ], [ -1.5031555, 53.698863 ], [ -1.5033031, 53.6985634 ] ] ] ] } },
{ "type": "Feature", "properties": { "osm_id": 450079521, "centroid": { "latitude": 53.791657, "longitude": -1.784573 }, "area": 56, "name": "YAS", "type": "fuel" }, "geometry": { "type": "MultiPolygon", "coordinates": [ [ [ [ -1.7846088, 53.7916006 ], [ -1.7845247, 53.7916061 ], [ -1.7845346, 53.7916592 ], [ -1.7846187, 53.7916537 ], [ -1.7846088, 53.7916006 ] ] ] ] } },
{ "type": "Feature", "properties": { "osm_id": 450146939, "centroid": { "latitude": 53.655425, "longitude": -1.397025 }, "area": 56, "type": "fuel" }, "geometry": { "type": "MultiPolygon", "coordinates": [ [ [ [ -1.3970998, 53.6554293 ], [ -1.3969844, 53.6553912 ], [ -1.3969496, 53.6554182 ], [ -1.3970649, 53.6554579 ], [ -1.3970998, 53.6554293 ] ] ] ] } },
{ "type": "Feature", "properties": { "osm_id": 450799771, "centroid": { "latitude": 53.681639, "longitude": -1.548528 }, "area": 3136, "type": "fuel", "other_tags": "\"operator\"=>\"shell\"" }, "geometry": { "type": "MultiPolygon", "coordinates": [ [ [ [ -1.5490548, 53.6817208 ], [ -1.5485519, 53.6818757 ], [ -1.5481013, 53.6816731 ], [ -1.5482394, 53.6814634 ], [ -1.5483588, 53.6813626 ], [ -1.5485961, 53.6814682 ], [ -1.5488858, 53.6816175 ], [ -1.5490548, 53.6817208 ] ] ] ] } },
{ "type": "Feature", "properties": { "osm_id": 451361277, "centroid": { "latitude": 53.678870, "longitude": -1.498033 }, "area": 2566, "type": "fuel", "building": "yes", "other_tags": "\"operator\"=>\"Sainsburys\"" }, "geometry": { "type": "MultiPolygon", "coordinates": [ [ [ [ -1.4986657, 53.6788581 ], [ -1.4983465, 53.6788915 ], [ -1.4982352, 53.6790829 ], [ -1.4977095, 53.6789725 ], [ -1.4976572, 53.6786993 ], [ -1.4977443, 53.6786738 ], [ -1.4986657, 53.6788581 ] ] ] ] } },
{ "type": "Feature", "properties": { "osm_id": 451877050, "centroid": { "latitude": 53.655921, "longitude": -1.515565 }, "area": 2104, "type": "fuel", "other_tags": "\"brand\"=>\"Total\"" }, "geometry": { "type": "MultiPolygon", "coordinates": [ [ [ [ -1.5155698, 53.6556703 ], [ -1.5159118, 53.6558872 ], [ -1.5155739, 53.6561527 ], [ -1.5152614, 53.6560224 ], [ -1.5152761, 53.6559214 ], [ -1.5155698, 53.6556703 ] ] ] ] } },
{ "type": "Feature", "properties": { "osm_id": 451935909, "centroid": { "latitude": 53.712216, "longitude": -1.333952 }, "area": 471, "type": "fuel", "building": "roof", "other_tags": "\"brand\"=>\"BP\",\"fuel:diesel\"=>\"yes\",\"fuel:GTL_diesel\"=>\"yes\",\"fuel:lpg\"=>\"yes\",\"fuel:octane_100\"=>\"yes\",\"fuel:octane_95\"=>\"yes\",\"layer\"=>\"1\"" }, "geometry": { "type": "MultiPolygon", "coordinates": [ [ [ [ -1.3341361, 53.7121393 ], [ -1.3341728, 53.7122279 ], [ -1.3337678, 53.7122867 ], [ -1.3337311, 53.712198 ], [ -1.3341361, 53.7121393 ] ] ] ] } },
{ "type": "Feature", "properties": { "osm_id": 458307274, "centroid": { "latitude": 53.704695, "longitude": -1.404689 }, "area": 1057, "type": "fuel", "other_tags": "\"operator\"=>\"Jet\"" }, "geometry": { "type": "MultiPolygon", "coordinates": [ [ [ [ -1.4049542, 53.7047264 ], [ -1.4046802, 53.7048551 ], [ -1.4044235, 53.7046636 ], [ -1.4046975, 53.7045349 ], [ -1.4049542, 53.7047264 ] ] ] ] } },
{ "type": "Feature", "properties": { "osm_id": 460588018, "centroid": { "latitude": 53.791947, "longitude": -1.660791 }, "area": 136, "name": "Robin Lane Services (Texaco)", "type": "fuel", "building": "yes" }, "geometry": { "type": "MultiPolygon", "coordinates": [ [ [ [ -1.6607724, 53.791871 ], [ -1.6608659, 53.7918883 ], [ -1.6608089, 53.7919957 ], [ -1.6607154, 53.7919783 ], [ -1.6607724, 53.791871 ] ] ] ] } },
{ "type": "Feature", "properties": { "osm_id": 460766546, "centroid": { "latitude": 53.700072, "longitude": -1.414236 }, "area": 2645, "type": "fuel", "other_tags": "\"operator\"=>\"Total\"" }, "geometry": { "type": "MultiPolygon", "coordinates": [ [ [ [ -1.413924, 53.7003092 ], [ -1.4137067, 53.7001401 ], [ -1.4145677, 53.6998209 ], [ -1.4147327, 53.7000265 ], [ -1.413924, 53.7003092 ] ] ] ] } },
{ "type": "Feature", "properties": { "osm_id": 462793828, "centroid": { "latitude": 53.829068, "longitude": -1.820477 }, "area": 931, "type": "fuel", "other_tags": "\"operator\"=>\"Texaco\"" }, "geometry": { "type": "MultiPolygon", "coordinates": [ [ [ [ -1.8202869, 53.8291687 ], [ -1.8206996, 53.8291471 ], [ -1.8206528, 53.8289599 ], [ -1.8202625, 53.8289851 ], [ -1.8202869, 53.8291687 ] ] ] ] } },
{ "type": "Feature", "properties": { "osm_id": 463644213, "centroid": { "latitude": 53.678412, "longitude": -1.525736 }, "area": 2115, "type": "fuel", "other_tags": "\"addr:city\"=>\"Wakefield\",\"addr:postcode\"=>\"WF2 9BY\",\"addr:street\"=>\"Dewsbury Road\",\"fhrs:id\"=>\"313247\",\"fuel:diesel\"=>\"yes\",\"fuel:lpg\"=>\"yes\",\"fuel:octane_95\"=>\"yes\",\"operator\"=>\"Morisons\"" }, "geometry": { "type": "MultiPolygon", "coordinates": [ [ [ [ -1.5261159, 53.6783318 ], [ -1.5260663, 53.6783945 ], [ -1.5261535, 53.6784136 ], [ -1.5261293, 53.6785161 ], [ -1.5259724, 53.6785002 ], [ -1.5258316, 53.6785614 ], [ -1.5254695, 53.6785232 ], [ -1.5254789, 53.6784795 ], [ -1.5253354, 53.6784295 ], [ -1.5253796, 53.6782945 ], [ -1.5254829, 53.6783072 ], [ -1.525499, 53.6782603 ], [ -1.5261159, 53.6783318 ] ] ] ] } },
{ "type": "Feature", "properties": { "osm_id": 466781856, "centroid": { "latitude": 53.683744, "longitude": -1.861925 }, "area": 859, "name": "West Vale Filling Station", "type": "fuel", "other_tags": "\"addr:city\"=>\"Halifax\",\"addr:postcode\"=>\"HX4 8BQ\",\"addr:street\"=>\"Stainland Road\",\"fhrs:id\"=>\"348736\",\"fuel:1_25\"=>\"no\",\"fuel:1_50\"=>\"no\",\"fuel:biodiesel\"=>\"no\",\"fuel:biogas\"=>\"no\",\"fuel:cng\"=>\"no\",\"fuel:diesel\"=>\"yes\",\"fuel:e10\"=>\"no\",\"fuel:e85\"=>\"no\",\"fuel:electricity\"=>\"no\",\"fuel:GTL_diesel\"=>\"no\",\"fuel:octane_100\"=>\"no\",\"fuel:octane_91\"=>\"no\",\"fuel:octane_95\"=>\"yes\",\"fuel:octane_98\"=>\"no\"" }, "geometry": { "type": "MultiPolygon", "coordinates": [ [ [ [ -1.8616673, 53.6837873 ], [ -1.8618417, 53.6839064 ], [ -1.8620797, 53.6837198 ], [ -1.8621401, 53.6837396 ], [ -1.862187, 53.6837039 ], [ -1.8620462, 53.6835808 ], [ -1.8616673, 53.6837873 ] ] ] ] } },
{ "type": "Feature", "properties": { "osm_id": 467665194, "centroid": { "latitude": 53.710743, "longitude": -1.538957 }, "area": 85, "type": "fuel" }, "geometry": { "type": "MultiPolygon", "coordinates": [ [ [ [ -1.5389972, 53.7106048 ], [ -1.5390277, 53.7106126 ], [ -1.5389771, 53.7106836 ], [ -1.5389945, 53.7106935 ], [ -1.5389649, 53.7107334 ], [ -1.5389455, 53.7107276 ], [ -1.5389049, 53.7107802 ], [ -1.5388757, 53.7107731 ], [ -1.5389089, 53.7107273 ], [ -1.5389099, 53.7107217 ], [ -1.5389109, 53.7107165 ], [ -1.538915, 53.7107151 ], [ -1.538922, 53.7107148 ], [ -1.5389297, 53.7107167 ], [ -1.5389394, 53.7107034 ], [ -1.5389327, 53.7107017 ], [ -1.5389465, 53.710682 ], [ -1.5389411, 53.7106808 ], [ -1.5389972, 53.7106048 ] ] ] ] } }
]
}
