{
"type": "FeatureCollection",
"crs": { "type": "name", "properties": { "name": "urn:ogc:def:crs:OGC:1.3:CRS84" } },
"features": [
{ "type": "Feature", "properties": { "osm_id": 27421816, "centroid": { "latitude": 53.798580, "longitude": -1.788053 }, "area": 11717, "name": "The Range", "type": "shop" }, "geometry": { "type": "MultiPolygon", "coordinates": [ [ [ [ -1.7886354, 53.7981799 ], [ -1.7873908, 53.7982277 ], [ -1.7874535, 53.7989752 ], [ -1.7887286, 53.7989311 ], [ -1.7886354, 53.7981799 ] ] ] ] } },
{ "type": "Feature", "properties": { "osm_id": 47318377, "centroid": { "latitude": 53.699171, "longitude": -1.653052 }, "area": 282, "name": "Nisa Local", "type": "shop", "shop": "convenience" }, "geometry": { "type": "MultiPolygon", "coordinates": [ [ [ [ -1.6530841, 53.6990953 ], [ -1.6531756, 53.6992185 ], [ -1.6530205, 53.6992589 ], [ -1.6529291, 53.6991357 ], [ -1.6530841, 53.6990953 ] ] ] ] } },
{ "type": "Feature", "properties": { "osm_id": 98892060, "centroid": { "latitude": 53.683344, "longitude": -1.517868 }, "area": 48, "name": "Poppies", "type": "shop", "shop": "florist", "other_tags": "\"addr:housenumber\"=>\"128\",\"addr:street\"=>\"Alverthorpe Road\",\"not:addr:postcode\"=>\"WF1 2BS\",\"phone\"=>\"+44 1924 377646\",\"url\"=>\"http:\/\/www.floristswakefield.co.uk\/\"" }, "geometry": { "type": "MultiPolygon", "coordinates": [ [ [ [ -1.5179054, 53.6833551 ], [ -1.5179243, 53.6833942 ], [ -1.5178322, 53.6834099 ], [ -1.5178132, 53.6833708 ], [ -1.5179054, 53.6833551 ] ] ] ] } },
{ "type": "Feature", "properties": { "osm_id": 98892062, "centroid": { "latitude": 53.683387, "longitude": -1.517887 }, "area": 48, "name": "Scufflers", "amenity": "fast_food", "type": "shop", "other_tags": "\"addr:city\"=>\"Wakefield\",\"addr:housenumber\"=>\"128a\",\"addr:postcode\"=>\"WF2 9PL\",\"addr:street\"=>\"Alverthorpe Road\",\"fhrs:id\"=>\"871602\"" }, "geometry": { "type": "MultiPolygon", "coordinates": [ [ [ [ -1.5179243, 53.6833942 ], [ -1.5179433, 53.6834332 ], [ -1.5178511, 53.6834489 ], [ -1.5178322, 53.6834099 ], [ -1.5179243, 53.6833942 ] ] ] ] } },
{ "type": "Feature", "properties": { "osm_id": 161930729, "centroid": { "latitude": 53.879377, "longitude": -1.726395 }, "area": 506, "name": "Spar", "type": "shop", "shop": "convenience" }, "geometry": { "type": "MultiPolygon", "coordinates": [ [ [ [ -1.7265627, 53.8792847 ], [ -1.7264151, 53.8792413 ], [ -1.7262272, 53.8794633 ], [ -1.7263748, 53.8795067 ], [ -1.7265627, 53.8792847 ] ] ] ] } },
{ "type": "Feature", "properties": { "osm_id": 190821083, "centroid": { "latitude": 53.808046, "longitude": -1.458771 }, "area": 265, "name": "Model Shop", "type": "shop" }, "geometry": { "type": "MultiPolygon", "coordinates": [ [ [ [ -1.4586776, 53.8080182 ], [ -1.4586775, 53.8079868 ], [ -1.4588643, 53.8079865 ], [ -1.4588648, 53.8081012 ], [ -1.458678, 53.8081014 ], [ -1.4586776, 53.8080182 ] ] ] ] } },
{ "type": "Feature", "properties": { "osm_id": 190821084, "centroid": { "latitude": 53.808067, "longitude": -1.458625 }, "area": 122, "name": "Premier", "type": "shop", "shop": "convenience" }, "geometry": { "type": "MultiPolygon", "coordinates": [ [ [ [ -1.4585792, 53.8079859 ], [ -1.4586303, 53.8079858 ], [ -1.4586304, 53.8080182 ], [ -1.4586776, 53.8080182 ], [ -1.458678, 53.8081014 ], [ -1.4585792, 53.8081016 ], [ -1.4585792, 53.8079859 ] ] ] ] } },
{ "type": "Feature", "properties": { "osm_id": 199741163, "centroid": { "latitude": 53.649924, "longitude": -1.459828 }, "area": 126, "name": "Cherry Tree Stores", "type": "shop", "shop": "convenience", "other_tags": "\"old_name\"=>\"Andys\"" }, "geometry": { "type": "MultiPolygon", "coordinates": [ [ [ [ -1.4599133, 53.6499464 ], [ -1.4598766, 53.649878 ], [ -1.4597418, 53.6499034 ], [ -1.4597784, 53.6499718 ], [ -1.4599133, 53.6499464 ] ] ] ] } },
{ "type": "Feature", "properties": { "osm_id": 246461589, "centroid": { "latitude": 53.849082, "longitude": -1.837958 }, "area": 149, "type": "shop", "shop": "charity", "other_tags": "\"addr:street\"=>\"Park Road\",\"operator\"=>\"Sue Ryder\"" }, "geometry": { "type": "MultiPolygon", "coordinates": [ [ [ [ -1.8378631, 53.849058 ], [ -1.8379382, 53.8491393 ], [ -1.8380523, 53.849103 ], [ -1.8379781, 53.8490214 ], [ -1.8378631, 53.849058 ] ] ] ] } },
{ "type": "Feature", "properties": { "osm_id": 426119654, "centroid": { "latitude": 53.806086, "longitude": -1.532812 }, "area": 855, "name": "Eastern Pride Cash & Carry", "type": "shop", "shop": "trade", "other_tags": "\"addr:housenumber\"=>\"27\",\"addr:street\"=>\"Sheepscar Street South\",\"trade\"=>\"catering\"" }, "geometry": { "type": "MultiPolygon", "coordinates": [ [ [ [ -1.5332257, 53.806145 ], [ -1.5324507, 53.806107 ], [ -1.5323861, 53.8061038 ], [ -1.5323976, 53.806022 ], [ -1.5332372, 53.8060632 ], [ -1.5332257, 53.806145 ] ] ] ] } }
]
}
