{
"type": "FeatureCollection",
"crs": { "type": "name", "properties": { "name": "urn:ogc:def:crs:OGC:1.3:CRS84" } },
"features": [
{ "type": "Feature", "properties": { "osm_id": 35225515, "centroid": { "latitude": 53.760427, "longitude": -1.679567 }, "area": 21065, "name": "Tong Lane End Equestrian Centre", "landuse": "farmyard", "type": "horse_riding", "sport": "equestrian" }, "geometry": { "type": "MultiPolygon", "coordinates": [ [ [ [ -1.6785261, 53.7608055 ], [ -1.6788222, 53.7601266 ], [ -1.6792251, 53.7598121 ], [ -1.6797706, 53.7598726 ], [ -1.6798299, 53.7600127 ], [ -1.6804671, 53.7599952 ], [ -1.6806519, 53.7601112 ], [ -1.680028, 53.761049 ], [ -1.6798323, 53.7610134 ], [ -1.6791881, 53.7609136 ], [ -1.678866, 53.7608575 ], [ -1.6785261, 53.7608055 ] ] ] ] } },
{ "type": "Feature", "properties": { "osm_id": 453589715, "centroid": { "latitude": 53.887495, "longitude": -1.876359 }, "area": 1851, "type": "horse_riding" }, "geometry": { "type": "MultiPolygon", "coordinates": [ [ [ [ -1.8760538, 53.8875784 ], [ -1.8765529, 53.8876819 ], [ -1.8766762, 53.8874141 ], [ -1.8761509, 53.8873069 ], [ -1.8760538, 53.8875784 ] ] ] ] } },
{ "type": "Feature", "properties": { "osm_id": 460924945, "centroid": { "latitude": 53.791830, "longitude": -1.646304 }, "area": 284, "name": "Acres Hall Stables", "building": "stable", "type": "horse_riding" }, "geometry": { "type": "MultiPolygon", "coordinates": [ [ [ [ -1.6463955, 53.7919041 ], [ -1.6462585, 53.7919178 ], [ -1.6462116, 53.7917546 ], [ -1.6463485, 53.7917409 ], [ -1.6463955, 53.7919041 ] ] ] ] } }
]
}
