{
"type": "FeatureCollection",
"crs": { "type": "name", "properties": { "name": "urn:ogc:def:crs:OGC:1.3:CRS84" } },
"features": [
{ "type": "Feature", "properties": { "osm_id": 2344212, "centroid": { "latitude": 53.894496, "longitude": -1.454830 }, "area": 5810, "name": "East Keswick Graveyard", "type": "grave_yard" }, "geometry": { "type": "MultiPolygon", "coordinates": [ [ [ [ -1.4546511, 53.8948127 ], [ -1.4546357, 53.8947562 ], [ -1.4546287, 53.8946942 ], [ -1.45441, 53.8941183 ], [ -1.4550308, 53.8940651 ], [ -1.4551817, 53.8949124 ], [ -1.4550965, 53.894922 ], [ -1.4547182, 53.8949644 ], [ -1.4546511, 53.8948127 ] ], [ [ -1.4550734, 53.8948263 ], [ -1.4550225, 53.8948342 ], [ -1.4547316, 53.8948794 ], [ -1.4546941, 53.8947954 ], [ -1.4547414, 53.8947881 ], [ -1.454712, 53.8947223 ], [ -1.4547978, 53.894709 ], [ -1.4548261, 53.8947721 ], [ -1.4550347, 53.8947398 ], [ -1.4550734, 53.8948263 ] ] ] ] } },
{ "type": "Feature", "properties": { "osm_id": 2617509, "centroid": { "latitude": 53.909656, "longitude": -1.407715 }, "area": 8937, "name": "Collingham Grave Yard", "type": "grave_yard" }, "geometry": { "type": "MultiPolygon", "coordinates": [ [ [ [ -1.4072485, 53.9098967 ], [ -1.4071304, 53.9093087 ], [ -1.4079506, 53.9092381 ], [ -1.408133, 53.909483 ], [ -1.408285, 53.909556 ], [ -1.4081476, 53.9096381 ], [ -1.4082731, 53.9101549 ], [ -1.4072485, 53.9098967 ] ], [ [ -1.407787, 53.9095764 ], [ -1.4074609, 53.9096021 ], [ -1.4074388, 53.909505 ], [ -1.407765, 53.9094793 ], [ -1.407787, 53.9095764 ] ] ] ] } },
{ "type": "Feature", "properties": { "osm_id": 4052059, "centroid": { "latitude": 53.797303, "longitude": -1.449557 }, "area": 7858, "type": "grave_yard", "other_tags": "\"denomination\"=>\"anglican\",\"religion\"=>\"christian\"" }, "geometry": { "type": "MultiPolygon", "coordinates": [ [ [ [ -1.4499558, 53.7975637 ], [ -1.4498815, 53.7975925 ], [ -1.4493293, 53.7977713 ], [ -1.4492631, 53.7975616 ], [ -1.4490426, 53.7975795 ], [ -1.4490968, 53.797291 ], [ -1.4491864, 53.7970326 ], [ -1.4494963, 53.7967331 ], [ -1.4494824, 53.7969531 ], [ -1.4501333, 53.7970641 ], [ -1.4499558, 53.7975637 ] ], [ [ -1.4499427, 53.7973065 ], [ -1.4498677, 53.7972935 ], [ -1.4498854, 53.7972578 ], [ -1.4498205, 53.7972466 ], [ -1.4498396, 53.7972081 ], [ -1.4497666, 53.7971955 ], [ -1.4497495, 53.79723 ], [ -1.4494578, 53.7971796 ], [ -1.4494374, 53.7972206 ], [ -1.4493878, 53.797212 ], [ -1.4493418, 53.7973048 ], [ -1.4498095, 53.7973857 ], [ -1.4498306, 53.7973432 ], [ -1.4499171, 53.7973581 ], [ -1.4499427, 53.7973065 ] ] ] ] } },
{ "type": "Feature", "properties": { "osm_id": 5818806, "centroid": { "latitude": 53.840616, "longitude": -1.625491 }, "area": 5040, "type": "grave_yard" }, "geometry": { "type": "MultiPolygon", "coordinates": [ [ [ [ -1.6257302, 53.8409292 ], [ -1.6249443, 53.8407631 ], [ -1.6251187, 53.8404893 ], [ -1.6255398, 53.8402582 ], [ -1.6259904, 53.8405621 ], [ -1.6257302, 53.8409292 ] ], [ [ -1.6257413, 53.8405441 ], [ -1.6254499, 53.8404826 ], [ -1.6254196, 53.8405325 ], [ -1.6253086, 53.8405091 ], [ -1.6252719, 53.8405697 ], [ -1.6253823, 53.8405929 ], [ -1.6253549, 53.8406381 ], [ -1.625647, 53.8406997 ], [ -1.6257413, 53.8405441 ] ] ] ] } },
{ "type": "Feature", "properties": { "osm_id": 19671270, "centroid": { "latitude": 53.647617, "longitude": -1.780984 }, "area": 11403, "type": "grave_yard" }, "geometry": { "type": "MultiPolygon", "coordinates": [ [ [ [ -1.7807911, 53.6482001 ], [ -1.7808275, 53.6482154 ], [ -1.7808721, 53.6482139 ], [ -1.7812735, 53.6481338 ], [ -1.7815366, 53.6480819 ], [ -1.781549, 53.648062 ], [ -1.7815527, 53.6480225 ], [ -1.7814434, 53.6476643 ], [ -1.781256, 53.6470835 ], [ -1.7812408, 53.6470631 ], [ -1.7812111, 53.6470596 ], [ -1.7804911, 53.6471325 ], [ -1.7804204, 53.6471687 ], [ -1.7803932, 53.647201 ], [ -1.7803826, 53.647222 ], [ -1.7803936, 53.6472781 ], [ -1.7807911, 53.6482001 ] ] ] ] } },
{ "type": "Feature", "properties": { "osm_id": 24524978, "centroid": { "latitude": 53.689413, "longitude": -1.628871 }, "area": 17124, "type": "grave_yard" }, "geometry": { "type": "MultiPolygon", "coordinates": [ [ [ [ -1.6294943, 53.68887 ], [ -1.6297001, 53.6896624 ], [ -1.6292679, 53.6898098 ], [ -1.6288767, 53.689927 ], [ -1.6283932, 53.6900122 ], [ -1.6282046, 53.6898373 ], [ -1.6280914, 53.6895697 ], [ -1.6283134, 53.6889351 ], [ -1.6294943, 53.68887 ] ] ] ] } },
{ "type": "Feature", "properties": { "osm_id": 27143975, "centroid": { "latitude": 53.643866, "longitude": -1.864099 }, "area": 766, "type": "grave_yard" }, "geometry": { "type": "MultiPolygon", "coordinates": [ [ [ [ -1.8642127, 53.6437119 ], [ -1.8642556, 53.6439561 ], [ -1.8639638, 53.6439867 ], [ -1.8639294, 53.6438187 ], [ -1.8642127, 53.6437119 ] ] ] ] } },
{ "type": "Feature", "properties": { "osm_id": 27164718, "centroid": { "latitude": 53.809885, "longitude": -1.632459 }, "area": 26412, "type": "grave_yard" }, "geometry": { "type": "MultiPolygon", "coordinates": [ [ [ [ -1.6321711, 53.8090398 ], [ -1.6336946, 53.8095678 ], [ -1.6335936, 53.8097074 ], [ -1.6330192, 53.8102197 ], [ -1.6322579, 53.8108441 ], [ -1.6315078, 53.8105909 ], [ -1.6321454, 53.810019 ], [ -1.6313707, 53.8097582 ], [ -1.6319199, 53.8092913 ], [ -1.6321711, 53.8090398 ] ] ] ] } },
{ "type": "Feature", "properties": { "osm_id": 28018059, "centroid": { "latitude": 53.691753, "longitude": -1.650812 }, "area": 14750, "name": "St Johns Church", "type": "grave_yard", "other_tags": "\"religion\"=>\"christian\",\"denomination\"=>\"anglican\"" }, "geometry": { "type": "MultiPolygon", "coordinates": [ [ [ [ -1.6510822, 53.6926088 ], [ -1.651555, 53.6915047 ], [ -1.6504652, 53.6910938 ], [ -1.6499949, 53.6918375 ], [ -1.6506329, 53.6921429 ], [ -1.6508572, 53.6923243 ], [ -1.6510822, 53.6926088 ] ] ] ] } },
{ "type": "Feature", "properties": { "osm_id": 29192897, "centroid": { "latitude": 53.818534, "longitude": -1.598284 }, "area": 9638, "type": "grave_yard", "barrier": "wall" }, "geometry": { "type": "MultiPolygon", "coordinates": [ [ [ [ -1.5991032, 53.8182256 ], [ -1.5990571, 53.8182805 ], [ -1.5984188, 53.8190405 ], [ -1.5977227, 53.818748 ], [ -1.5975737, 53.8182677 ], [ -1.5981035, 53.8182675 ], [ -1.5980993, 53.818195 ], [ -1.5991032, 53.8182256 ] ] ] ] } },
{ "type": "Feature", "properties": { "osm_id": 33461832, "centroid": { "latitude": 53.753064, "longitude": -1.600276 }, "area": 15814, "type": "grave_yard" }, "geometry": { "type": "MultiPolygon", "coordinates": [ [ [ [ -1.6013076, 53.7530906 ], [ -1.6001728, 53.7536743 ], [ -1.5992726, 53.7531031 ], [ -1.5995734, 53.7529085 ], [ -1.5999698, 53.7526134 ], [ -1.6002388, 53.7524607 ], [ -1.6002919, 53.7524398 ], [ -1.6005396, 53.752649 ], [ -1.6006423, 53.7526155 ], [ -1.6013076, 53.7530906 ] ] ] ] } },
{ "type": "Feature", "properties": { "osm_id": 34601346, "centroid": { "latitude": 53.758791, "longitude": -1.634227 }, "area": 12365, "name": "Gildersome Cemetery", "type": "grave_yard", "other_tags": "\"operator\"=>\"Leeds Council\"" }, "geometry": { "type": "MultiPolygon", "coordinates": [ [ [ [ -1.6347274, 53.7589432 ], [ -1.6348625, 53.7583953 ], [ -1.6337547, 53.7582895 ], [ -1.6335658, 53.7588508 ], [ -1.6338361, 53.7589038 ], [ -1.6336978, 53.75915 ], [ -1.6344306, 53.759381 ], [ -1.6345518, 53.7593994 ], [ -1.6347274, 53.7589432 ] ] ] ] } },
{ "type": "Feature", "properties": { "osm_id": 35011858, "centroid": { "latitude": 53.680520, "longitude": -1.681020 }, "area": 53139, "name": "St. Mary the Virgin", "type": "grave_yard", "other_tags": "\"religion\"=>\"christian\",\"denomination\"=>\"anglican\"" }, "geometry": { "type": "MultiPolygon", "coordinates": [ [ [ [ -1.6834713, 53.6807073 ], [ -1.6820869, 53.6815307 ], [ -1.6811492, 53.6809643 ], [ -1.6809055, 53.6807856 ], [ -1.6800909, 53.6811636 ], [ -1.6798147, 53.6812929 ], [ -1.6796917, 53.6812028 ], [ -1.6794978, 53.6810569 ], [ -1.6791927, 53.6808275 ], [ -1.678877, 53.6805911 ], [ -1.6791602, 53.6804523 ], [ -1.6798348, 53.6801286 ], [ -1.679564, 53.6795432 ], [ -1.680728, 53.6792484 ], [ -1.6808766, 53.6794541 ], [ -1.6808953, 53.6794814 ], [ -1.6808797, 53.6796718 ], [ -1.6807639, 53.680088 ], [ -1.681148, 53.6805849 ], [ -1.6820381, 53.6803444 ], [ -1.6826009, 53.6801423 ], [ -1.6829746, 53.6803918 ], [ -1.6834713, 53.6807073 ] ] ] ] } },
{ "type": "Feature", "properties": { "osm_id": 35225539, "centroid": { "latitude": 53.758481, "longitude": -1.660534 }, "area": 20581, "type": "grave_yard" }, "geometry": { "type": "MultiPolygon", "coordinates": [ [ [ [ -1.6600802, 53.7577212 ], [ -1.6608396, 53.7581922 ], [ -1.6617683, 53.7586161 ], [ -1.6616274, 53.7587014 ], [ -1.6609672, 53.7592372 ], [ -1.6603193, 53.7589109 ], [ -1.6599897, 53.7587245 ], [ -1.6597108, 53.7586987 ], [ -1.6597976, 53.7585647 ], [ -1.6598227, 53.7584217 ], [ -1.6595868, 53.7582154 ], [ -1.6594222, 53.7579983 ], [ -1.6595833, 53.7579421 ], [ -1.6597407, 53.7578865 ], [ -1.6600802, 53.7577212 ] ] ] ] } },
{ "type": "Feature", "properties": { "osm_id": 38308456, "centroid": { "latitude": 53.773988, "longitude": -1.564843 }, "area": 23408, "type": "grave_yard" }, "geometry": { "type": "MultiPolygon", "coordinates": [ [ [ [ -1.5660215, 53.773637 ], [ -1.5646038, 53.7747535 ], [ -1.5633462, 53.7745093 ], [ -1.5636307, 53.7743088 ], [ -1.5639454, 53.7740904 ], [ -1.5642477, 53.7739108 ], [ -1.5645981, 53.7737059 ], [ -1.5648731, 53.7735287 ], [ -1.5653297, 53.7732358 ], [ -1.5654967, 53.7731594 ], [ -1.5657448, 53.7730385 ], [ -1.5658783, 53.7731578 ], [ -1.5659943, 53.7733587 ], [ -1.565786, 53.7734657 ], [ -1.5660215, 53.773637 ] ] ] ] } },
{ "type": "Feature", "properties": { "osm_id": 38723323, "centroid": { "latitude": 53.667167, "longitude": -1.415364 }, "area": 4280, "type": "grave_yard" }, "geometry": { "type": "MultiPolygon", "coordinates": [ [ [ [ -1.4152169, 53.6675012 ], [ -1.4148505, 53.6672029 ], [ -1.415505, 53.6668126 ], [ -1.4158609, 53.6671595 ], [ -1.415606, 53.6673089 ], [ -1.4152169, 53.6675012 ] ] ] ] } },
{ "type": "Feature", "properties": { "osm_id": 49169592, "centroid": { "latitude": 53.816450, "longitude": -1.788442 }, "area": 7561, "name": "Heaton Graveyard", "type": "grave_yard" }, "geometry": { "type": "MultiPolygon", "coordinates": [ [ [ [ -1.7887979, 53.8168278 ], [ -1.7888947, 53.8160859 ], [ -1.7888156, 53.8160873 ], [ -1.7880997, 53.8160465 ], [ -1.7879936, 53.8168354 ], [ -1.7887979, 53.8168278 ] ] ] ] } },
{ "type": "Feature", "properties": { "osm_id": 50262609, "centroid": { "latitude": 53.835723, "longitude": -1.805335 }, "area": 7957, "name": "Hirst Wood Burial Ground", "type": "grave_yard", "other_tags": "\"layer\"=>\"1\"" }, "geometry": { "type": "MultiPolygon", "coordinates": [ [ [ [ -1.8059246, 53.8356255 ], [ -1.8056286, 53.8356288 ], [ -1.8056204, 53.8355651 ], [ -1.8046917, 53.8355872 ], [ -1.8041235, 53.8355874 ], [ -1.8041295, 53.8358533 ], [ -1.8045443, 53.8358538 ], [ -1.8065841, 53.8358563 ], [ -1.8065916, 53.8355891 ], [ -1.8059246, 53.8356255 ] ] ] ] } },
{ "type": "Feature", "properties": { "osm_id": 72660882, "centroid": { "latitude": 53.783604, "longitude": -1.821072 }, "area": 9184, "type": "grave_yard" }, "geometry": { "type": "MultiPolygon", "coordinates": [ [ [ [ -1.8203883, 53.7833561 ], [ -1.8205063, 53.7834639 ], [ -1.8206457, 53.7835716 ], [ -1.8205277, 53.7836667 ], [ -1.8207852, 53.7838315 ], [ -1.8210368, 53.7841025 ], [ -1.8218791, 53.7837841 ], [ -1.8216864, 53.7836414 ], [ -1.8213002, 53.7833878 ], [ -1.8210427, 53.7831976 ], [ -1.8208711, 53.7830645 ], [ -1.8204345, 53.7833282 ], [ -1.8203883, 53.7833561 ] ] ] ] } },
{ "type": "Feature", "properties": { "osm_id": 83467989, "centroid": { "latitude": 53.744601, "longitude": -2.015937 }, "area": 1011, "type": "grave_yard" }, "geometry": { "type": "MultiPolygon", "coordinates": [ [ [ [ -2.0157138, 53.7446785 ], [ -2.0162096, 53.7447089 ], [ -2.0160703, 53.7445003 ], [ -2.0157478, 53.7444808 ], [ -2.0157138, 53.7446785 ] ] ] ] } },
{ "type": "Feature", "properties": { "osm_id": 95803739, "centroid": { "latitude": 53.763830, "longitude": -1.898208 }, "area": 18341, "type": "grave_yard" }, "geometry": { "type": "MultiPolygon", "coordinates": [ [ [ [ -1.8991076, 53.7642699 ], [ -1.8983279, 53.7643148 ], [ -1.8983799, 53.7644582 ], [ -1.8977271, 53.7645272 ], [ -1.8975451, 53.7634578 ], [ -1.8974747, 53.7634195 ], [ -1.8980543, 53.7630465 ], [ -1.8982367, 53.7630719 ], [ -1.8988928, 53.7637632 ], [ -1.8991076, 53.7642699 ] ] ] ] } },
{ "type": "Feature", "properties": { "osm_id": 109313473, "centroid": { "latitude": 53.807738, "longitude": -1.656525 }, "area": 12930, "type": "grave_yard" }, "geometry": { "type": "MultiPolygon", "coordinates": [ [ [ [ -1.6558082, 53.8082904 ], [ -1.6565058, 53.8082727 ], [ -1.6565765, 53.8078596 ], [ -1.6572917, 53.8078437 ], [ -1.6575924, 53.807837 ], [ -1.6575159, 53.8075347 ], [ -1.6574285, 53.8074854 ], [ -1.656949, 53.8074539 ], [ -1.6564986, 53.807351 ], [ -1.6561451, 53.8071537 ], [ -1.6560007, 53.8073408 ], [ -1.6558082, 53.8082904 ] ] ] ] } },
{ "type": "Feature", "properties": { "osm_id": 113444620, "centroid": { "latitude": 53.657485, "longitude": -1.951889 }, "area": 7452, "type": "grave_yard" }, "geometry": { "type": "MultiPolygon", "coordinates": [ [ [ [ -1.9514199, 53.6575907 ], [ -1.9511698, 53.6573912 ], [ -1.9516898, 53.6572596 ], [ -1.9522086, 53.6570886 ], [ -1.9525929, 53.6575772 ], [ -1.9516099, 53.6578545 ], [ -1.9512608, 53.6576481 ], [ -1.9514199, 53.6575907 ] ] ] ] } },
{ "type": "Feature", "properties": { "osm_id": 114552971, "centroid": { "latitude": 53.914126, "longitude": -1.939265 }, "area": 10780, "name": "St James' Graveyard", "type": "grave_yard" }, "geometry": { "type": "MultiPolygon", "coordinates": [ [ [ [ -1.9400123, 53.9144975 ], [ -1.9400499, 53.9138862 ], [ -1.9385505, 53.9138324 ], [ -1.9380033, 53.9141026 ], [ -1.9385076, 53.9141358 ], [ -1.9384888, 53.9142369 ], [ -1.9393364, 53.9143032 ], [ -1.9393337, 53.9145386 ], [ -1.9400123, 53.9144975 ] ] ] ] } },
{ "type": "Feature", "properties": { "osm_id": 117007510, "centroid": { "latitude": 53.876388, "longitude": -1.849098 }, "area": 173, "type": "grave_yard" }, "geometry": { "type": "MultiPolygon", "coordinates": [ [ [ [ -1.8490806, 53.8762754 ], [ -1.8491899, 53.8764851 ], [ -1.8490251, 53.8764243 ], [ -1.8490806, 53.8762754 ] ] ] ] } },
{ "type": "Feature", "properties": { "osm_id": 118791572, "centroid": { "latitude": 53.902369, "longitude": -1.630088 }, "area": 7130, "type": "grave_yard" }, "geometry": { "type": "MultiPolygon", "coordinates": [ [ [ [ -1.6307763, 53.9025016 ], [ -1.6300711, 53.9026058 ], [ -1.6294656, 53.9026351 ], [ -1.6294171, 53.9023177 ], [ -1.6293933, 53.9022516 ], [ -1.6294109, 53.9022209 ], [ -1.6301568, 53.9021318 ], [ -1.63052, 53.9021197 ], [ -1.6307532, 53.9021426 ], [ -1.6307763, 53.9025016 ] ] ] ] } },
{ "type": "Feature", "properties": { "osm_id": 120516344, "centroid": { "latitude": 53.943211, "longitude": -1.871564 }, "area": 11084, "type": "grave_yard", "other_tags": "\"religion\"=>\"christian\"" }, "geometry": { "type": "MultiPolygon", "coordinates": [ [ [ [ -1.8712982, 53.9429333 ], [ -1.8714868, 53.9427275 ], [ -1.8710563, 53.9427843 ], [ -1.8705622, 53.9428574 ], [ -1.8707707, 53.9429509 ], [ -1.8706121, 53.9431754 ], [ -1.8721801, 53.9436938 ], [ -1.8725866, 53.9432846 ], [ -1.87259, 53.943231 ], [ -1.8723902, 53.9432008 ], [ -1.8712982, 53.9429333 ] ] ] ] } },
{ "type": "Feature", "properties": { "osm_id": 140684049, "centroid": { "latitude": 53.884435, "longitude": -1.719527 }, "area": 27670, "name": "Guiseley Cemetery", "type": "grave_yard", "landuse": "cemetery" }, "geometry": { "type": "MultiPolygon", "coordinates": [ [ [ [ -1.7190895, 53.8852853 ], [ -1.7186739, 53.8839837 ], [ -1.7187422, 53.8835711 ], [ -1.7197469, 53.8836993 ], [ -1.7201089, 53.8837383 ], [ -1.7201785, 53.8840539 ], [ -1.7204149, 53.8851718 ], [ -1.7190895, 53.8852853 ] ] ] ] } },
{ "type": "Feature", "properties": { "osm_id": 144560778, "centroid": { "latitude": 53.898535, "longitude": -1.499997 }, "area": 9815, "type": "grave_yard" }, "geometry": { "type": "MultiPolygon", "coordinates": [ [ [ [ -1.5009157, 53.8987284 ], [ -1.4991312, 53.8987936 ], [ -1.4991398, 53.8983267 ], [ -1.500821, 53.8982818 ], [ -1.5009157, 53.8987284 ] ] ] ] } },
{ "type": "Feature", "properties": { "osm_id": 147082645, "centroid": { "latitude": 53.838542, "longitude": -1.883095 }, "area": 189, "type": "grave_yard" }, "geometry": { "type": "MultiPolygon", "coordinates": [ [ [ [ -1.8831481, 53.8384711 ], [ -1.8831629, 53.8385982 ], [ -1.8830309, 53.8386009 ], [ -1.8830366, 53.8384773 ], [ -1.8831481, 53.8384711 ] ] ] ] } },
{ "type": "Feature", "properties": { "osm_id": 147518426, "centroid": { "latitude": 53.700011, "longitude": -1.900924 }, "area": 4140, "type": "grave_yard" }, "geometry": { "type": "MultiPolygon", "coordinates": [ [ [ [ -1.9016996, 53.699841 ], [ -1.9004051, 53.7003479 ], [ -1.9001743, 53.7001832 ], [ -1.900777, 53.6999427 ], [ -1.9010659, 53.699807 ], [ -1.9013119, 53.6996891 ], [ -1.9016996, 53.699841 ] ] ] ] } },
{ "type": "Feature", "properties": { "osm_id": 150363808, "centroid": { "latitude": 53.830129, "longitude": -1.684235 }, "area": 31000, "name": "St Wilfrid's", "type": "grave_yard" }, "geometry": { "type": "MultiPolygon", "coordinates": [ [ [ [ -1.6853017, 53.830564 ], [ -1.6844112, 53.8307539 ], [ -1.684166, 53.8308266 ], [ -1.6833159, 53.8309086 ], [ -1.6832807, 53.8296044 ], [ -1.6843897, 53.8294084 ], [ -1.684784, 53.8292762 ], [ -1.6852373, 53.8299023 ], [ -1.6852695, 53.8301904 ], [ -1.6852963, 53.8303012 ], [ -1.6852802, 53.8304342 ], [ -1.6853017, 53.830564 ] ] ] ] } },
{ "type": "Feature", "properties": { "osm_id": 150736206, "centroid": { "latitude": 53.582833, "longitude": -1.790453 }, "area": 9930, "type": "grave_yard" }, "geometry": { "type": "MultiPolygon", "coordinates": [ [ [ [ -1.7903822, 53.5822812 ], [ -1.7908435, 53.5827613 ], [ -1.791219, 53.5831514 ], [ -1.7913095, 53.58318 ], [ -1.7910313, 53.5832522 ], [ -1.7907523, 53.5833621 ], [ -1.7901787, 53.58303 ], [ -1.7896133, 53.5826286 ], [ -1.7903822, 53.5822812 ] ] ] ] } },
{ "type": "Feature", "properties": { "osm_id": 150851601, "centroid": { "latitude": 53.799092, "longitude": -1.597937 }, "area": 14564, "type": "grave_yard" }, "geometry": { "type": "MultiPolygon", "coordinates": [ [ [ [ -1.598954, 53.7994458 ], [ -1.598161, 53.7985728 ], [ -1.5977329, 53.7986984 ], [ -1.5973744, 53.7986815 ], [ -1.5968003, 53.7988857 ], [ -1.597292, 53.7991779 ], [ -1.5980247, 53.7996088 ], [ -1.598954, 53.7994458 ] ] ] ] } },
{ "type": "Feature", "properties": { "osm_id": 151569281, "centroid": { "latitude": 53.827725, "longitude": -1.586726 }, "area": 17834, "type": "grave_yard" }, "geometry": { "type": "MultiPolygon", "coordinates": [ [ [ [ -1.5879429, 53.8276859 ], [ -1.5867842, 53.8283477 ], [ -1.586432, 53.8280578 ], [ -1.586355, 53.8279709 ], [ -1.5857864, 53.8280279 ], [ -1.5856523, 53.8275435 ], [ -1.5864301, 53.827268 ], [ -1.586988, 53.827287 ], [ -1.5874333, 53.8274231 ], [ -1.5879429, 53.8276859 ] ] ] ] } },
{ "type": "Feature", "properties": { "osm_id": 152490485, "centroid": { "latitude": 53.568663, "longitude": -1.793740 }, "area": 3680, "type": "grave_yard" }, "geometry": { "type": "MultiPolygon", "coordinates": [ [ [ [ -1.7940758, 53.5684338 ], [ -1.794277, 53.5687619 ], [ -1.7933945, 53.5688703 ], [ -1.7931719, 53.5685963 ], [ -1.7940758, 53.5684338 ] ] ] ] } },
{ "type": "Feature", "properties": { "osm_id": 152490498, "centroid": { "latitude": 53.569211, "longitude": -1.794861 }, "area": 9429, "type": "grave_yard" }, "geometry": { "type": "MultiPolygon", "coordinates": [ [ [ [ -1.795433, 53.5694755 ], [ -1.7953472, 53.5688703 ], [ -1.794741, 53.568832 ], [ -1.7942984, 53.5688591 ], [ -1.7942394, 53.568891 ], [ -1.7944486, 53.5694484 ], [ -1.7945559, 53.5696714 ], [ -1.7952876, 53.5695374 ], [ -1.795433, 53.5694755 ] ] ] ] } },
{ "type": "Feature", "properties": { "osm_id": 154166280, "centroid": { "latitude": 53.808512, "longitude": -1.948284 }, "area": 656, "name": "Lowertown Old Burial Ground", "type": "grave_yard" }, "geometry": { "type": "MultiPolygon", "coordinates": [ [ [ [ -1.9484666, 53.808493 ], [ -1.9484103, 53.8084455 ], [ -1.9483003, 53.8084043 ], [ -1.948252, 53.8083901 ], [ -1.9480804, 53.8085421 ], [ -1.9483352, 53.8086419 ], [ -1.9484666, 53.808493 ] ] ] ] } },
{ "type": "Feature", "properties": { "osm_id": 154397535, "centroid": { "latitude": 53.854832, "longitude": -1.916681 }, "area": 18269, "type": "grave_yard" }, "geometry": { "type": "MultiPolygon", "coordinates": [ [ [ [ -1.9177887, 53.8545049 ], [ -1.9172811, 53.8541279 ], [ -1.9161188, 53.8545659 ], [ -1.9160248, 53.8548264 ], [ -1.9159089, 53.8550093 ], [ -1.9156489, 53.8553623 ], [ -1.9160906, 53.8555877 ], [ -1.9166232, 53.8552828 ], [ -1.9175725, 53.8548486 ], [ -1.9173688, 53.8546878 ], [ -1.9177887, 53.8545049 ] ] ] ] } },
{ "type": "Feature", "properties": { "osm_id": 157472443, "centroid": { "latitude": 53.817781, "longitude": -1.598716 }, "area": 14658, "type": "grave_yard", "barrier": "wall" }, "geometry": { "type": "MultiPolygon", "coordinates": [ [ [ [ -1.5991032, 53.8182256 ], [ -1.5980993, 53.818195 ], [ -1.5980231, 53.8178717 ], [ -1.5979794, 53.8177533 ], [ -1.5978623, 53.8174622 ], [ -1.5979135, 53.8174538 ], [ -1.5990337, 53.8172686 ], [ -1.599157, 53.8174608 ], [ -1.5993092, 53.8175867 ], [ -1.5998, 53.8179927 ], [ -1.5996646, 53.8179828 ], [ -1.5995504, 53.8179927 ], [ -1.5994489, 53.8180052 ], [ -1.5993643, 53.8180377 ], [ -1.5992881, 53.8180752 ], [ -1.5992204, 53.8181151 ], [ -1.599157, 53.8181626 ], [ -1.5991032, 53.8182256 ] ] ] ] } },
{ "type": "Feature", "properties": { "osm_id": 158938464, "centroid": { "latitude": 53.544815, "longitude": -1.781894 }, "area": 4274, "type": "grave_yard" }, "geometry": { "type": "MultiPolygon", "coordinates": [ [ [ [ -1.7823522, 53.5450129 ], [ -1.7823559, 53.5446303 ], [ -1.781416, 53.544627 ], [ -1.7814333, 53.5449884 ], [ -1.7823522, 53.5450129 ] ] ] ] } },
{ "type": "Feature", "properties": { "osm_id": 159473791, "centroid": { "latitude": 53.600993, "longitude": -1.930320 }, "area": 19702, "type": "grave_yard", "other_tags": "\"religion\"=>\"christian\"" }, "geometry": { "type": "MultiPolygon", "coordinates": [ [ [ [ -1.9314024, 53.6005944 ], [ -1.9307778, 53.6015793 ], [ -1.9301525, 53.601473 ], [ -1.9295065, 53.6014504 ], [ -1.929356, 53.6013791 ], [ -1.9295141, 53.6011133 ], [ -1.9294177, 53.6009302 ], [ -1.9294284, 53.6007297 ], [ -1.9297501, 53.6005769 ], [ -1.9301981, 53.6005037 ], [ -1.9303885, 53.6004782 ], [ -1.9314024, 53.6005944 ] ] ] ] } },
{ "type": "Feature", "properties": { "osm_id": 167057798, "centroid": { "latitude": 53.929865, "longitude": -1.386489 }, "area": 5119, "type": "grave_yard" }, "geometry": { "type": "MultiPolygon", "coordinates": [ [ [ [ -1.387056, 53.9296892 ], [ -1.3869669, 53.9301184 ], [ -1.3858973, 53.9299829 ], [ -1.3858597, 53.9299419 ], [ -1.385878, 53.9298689 ], [ -1.3859402, 53.9298345 ], [ -1.3860046, 53.9296355 ], [ -1.3868039, 53.9297113 ], [ -1.3868039, 53.9296702 ], [ -1.387056, 53.9296892 ] ] ] ] } },
{ "type": "Feature", "properties": { "osm_id": 175402477, "centroid": { "latitude": 53.819011, "longitude": -1.576136 }, "area": 10910, "type": "grave_yard" }, "geometry": { "type": "MultiPolygon", "coordinates": [ [ [ [ -1.5764578, 53.818718 ], [ -1.5768333, 53.8188542 ], [ -1.576836, 53.8188922 ], [ -1.5767689, 53.8189998 ], [ -1.576785, 53.8190394 ], [ -1.5767609, 53.8190806 ], [ -1.5768816, 53.8191059 ], [ -1.5769453, 53.8191169 ], [ -1.5768942, 53.8192564 ], [ -1.5763527, 53.8193601 ], [ -1.576005, 53.8194145 ], [ -1.5758983, 53.8193713 ], [ -1.5753081, 53.8191245 ], [ -1.5753291, 53.819102 ], [ -1.5758717, 53.8185205 ], [ -1.5764578, 53.818718 ] ] ] ] } },
{ "type": "Feature", "properties": { "osm_id": 177319655, "centroid": { "latitude": 53.696082, "longitude": -1.300810 }, "area": 12093, "type": "grave_yard" }, "geometry": { "type": "MultiPolygon", "coordinates": [ [ [ [ -1.3018759, 53.69609 ], [ -1.3017032, 53.6961718 ], [ -1.3015528, 53.6962237 ], [ -1.301406, 53.6962539 ], [ -1.3012899, 53.6962777 ], [ -1.3007572, 53.6963647 ], [ -1.2998954, 53.6965053 ], [ -1.2997449, 53.6965128 ], [ -1.2995705, 53.6964875 ], [ -1.3007032, 53.6957444 ], [ -1.3010505, 53.6955166 ], [ -1.3016541, 53.6959587 ], [ -1.3018759, 53.69609 ] ] ] ] } },
{ "type": "Feature", "properties": { "osm_id": 178780500, "centroid": { "latitude": 53.903988, "longitude": -1.342476 }, "area": 2066, "type": "grave_yard" }, "geometry": { "type": "MultiPolygon", "coordinates": [ [ [ [ -1.3424811, 53.9041735 ], [ -1.3425883, 53.9042024 ], [ -1.3428219, 53.9039074 ], [ -1.3423548, 53.9037727 ], [ -1.3421363, 53.9040737 ], [ -1.3422165, 53.9040969 ], [ -1.3424811, 53.9041735 ] ] ] ] } },
{ "type": "Feature", "properties": { "osm_id": 181588963, "centroid": { "latitude": 53.906952, "longitude": -1.348920 }, "area": 14945, "type": "grave_yard" }, "geometry": { "type": "MultiPolygon", "coordinates": [ [ [ [ -1.3500626, 53.9061792 ], [ -1.3493316, 53.9059392 ], [ -1.3492665, 53.906002 ], [ -1.3493781, 53.9060421 ], [ -1.349283, 53.9061321 ], [ -1.3495437, 53.9062364 ], [ -1.3494845, 53.9062873 ], [ -1.3496055, 53.9063274 ], [ -1.3495156, 53.9064004 ], [ -1.3494106, 53.906361 ], [ -1.3493536, 53.9064002 ], [ -1.3489591, 53.9062462 ], [ -1.3488522, 53.9063386 ], [ -1.3491459, 53.906458 ], [ -1.3478234, 53.9076496 ], [ -1.3482462, 53.9079255 ], [ -1.348323, 53.9079053 ], [ -1.3500626, 53.9061792 ] ] ] ] } },
{ "type": "Feature", "properties": { "osm_id": 181594539, "centroid": { "latitude": 53.908956, "longitude": -1.334613 }, "area": 10509, "type": "grave_yard" }, "geometry": { "type": "MultiPolygon", "coordinates": [ [ [ [ -1.3348491, 53.9094001 ], [ -1.3340022, 53.9093328 ], [ -1.334137, 53.908663 ], [ -1.3341568, 53.9085647 ], [ -1.3346506, 53.9085629 ], [ -1.3352524, 53.9085607 ], [ -1.3351112, 53.9091546 ], [ -1.3348491, 53.9094001 ] ] ] ] } },
{ "type": "Feature", "properties": { "osm_id": 183848641, "centroid": { "latitude": 53.722821, "longitude": -1.873748 }, "area": 20585, "type": "grave_yard" }, "geometry": { "type": "MultiPolygon", "coordinates": [ [ [ [ -1.8745637, 53.7232278 ], [ -1.8728686, 53.7234008 ], [ -1.8729812, 53.7223264 ], [ -1.8746764, 53.7223264 ], [ -1.8745637, 53.7232278 ] ] ] ] } },
{ "type": "Feature", "properties": { "osm_id": 183948412, "centroid": { "latitude": 53.712546, "longitude": -1.881714 }, "area": 10573, "type": "grave_yard" }, "geometry": { "type": "MultiPolygon", "coordinates": [ [ [ [ -1.880717, 53.7124056 ], [ -1.8813071, 53.7121373 ], [ -1.8814171, 53.7120929 ], [ -1.8816477, 53.7120834 ], [ -1.8825919, 53.7126802 ], [ -1.8821976, 53.7131581 ], [ -1.881755, 53.7130041 ], [ -1.8821252, 53.712766 ], [ -1.8817711, 53.7125564 ], [ -1.8813446, 53.7127882 ], [ -1.880717, 53.7124056 ] ] ] ] } },
{ "type": "Feature", "properties": { "osm_id": 183975493, "centroid": { "latitude": 53.704710, "longitude": -1.918478 }, "area": 2538, "type": "grave_yard" }, "geometry": { "type": "MultiPolygon", "coordinates": [ [ [ [ -1.918949, 53.7046316 ], [ -1.9188766, 53.7045903 ], [ -1.9187693, 53.7045332 ], [ -1.9186352, 53.7045268 ], [ -1.9185037, 53.7045681 ], [ -1.9183267, 53.7044982 ], [ -1.9182761, 53.7045104 ], [ -1.9181836, 53.7047843 ], [ -1.9181849, 53.7049486 ], [ -1.918214, 53.7050079 ], [ -1.9184367, 53.7048952 ], [ -1.918949, 53.7046316 ] ] ] ] } },
{ "type": "Feature", "properties": { "osm_id": 183977627, "centroid": { "latitude": 53.730890, "longitude": -1.888460 }, "area": 15430, "type": "grave_yard" }, "geometry": { "type": "MultiPolygon", "coordinates": [ [ [ [ -1.8887021, 53.7304634 ], [ -1.8869533, 53.7309235 ], [ -1.8883212, 53.7312726 ], [ -1.8885465, 53.7313107 ], [ -1.8893888, 53.7311203 ], [ -1.8892225, 53.730841 ], [ -1.8897964, 53.7306951 ], [ -1.8887021, 53.7304634 ] ] ] ] } },
{ "type": "Feature", "properties": { "osm_id": 184841609, "centroid": { "latitude": 53.703156, "longitude": -1.894271 }, "area": 1123, "type": "grave_yard" }, "geometry": { "type": "MultiPolygon", "coordinates": [ [ [ [ -1.8941555, 53.7033171 ], [ -1.8945087, 53.7031947 ], [ -1.8944648, 53.7030189 ], [ -1.8940069, 53.7030913 ], [ -1.8941555, 53.7033171 ] ] ] ] } },
{ "type": "Feature", "properties": { "osm_id": 185137503, "centroid": { "latitude": 53.692151, "longitude": -1.846318 }, "area": 57915, "type": "grave_yard" }, "geometry": { "type": "MultiPolygon", "coordinates": [ [ [ [ -1.8456872, 53.6930603 ], [ -1.8460252, 53.6928888 ], [ -1.8464973, 53.6928316 ], [ -1.8488093, 53.6925807 ], [ -1.8484821, 53.6922122 ], [ -1.8479779, 53.6919041 ], [ -1.8472, 53.6916437 ], [ -1.8461867, 53.6914588 ], [ -1.8447377, 53.6912244 ], [ -1.8444481, 53.6918342 ], [ -1.8445768, 53.6921296 ], [ -1.8448885, 53.6925134 ], [ -1.8451615, 53.6927681 ], [ -1.8454941, 53.6929555 ], [ -1.8456872, 53.6930603 ] ] ] ] } },
{ "type": "Feature", "properties": { "osm_id": 185137504, "centroid": { "latitude": 53.700299, "longitude": -1.859467 }, "area": 23192, "type": "grave_yard" }, "geometry": { "type": "MultiPolygon", "coordinates": [ [ [ [ -1.8592919, 53.7009617 ], [ -1.8590237, 53.7007616 ], [ -1.8587555, 53.7008791 ], [ -1.8584551, 53.7008569 ], [ -1.8582829, 53.700851 ], [ -1.8582942, 53.7001709 ], [ -1.8592008, 53.6998025 ], [ -1.8599518, 53.6998978 ], [ -1.8603219, 53.6997612 ], [ -1.8609656, 53.700047 ], [ -1.8607001, 53.7007035 ], [ -1.8602602, 53.7007105 ], [ -1.8603522, 53.700472 ], [ -1.8607329, 53.700513 ], [ -1.8607924, 53.7003197 ], [ -1.8601923, 53.700255 ], [ -1.8601328, 53.7004483 ], [ -1.8594322, 53.7004372 ], [ -1.859414, 53.7008977 ], [ -1.8592919, 53.7009617 ] ] ] ] } },
{ "type": "Feature", "properties": { "osm_id": 185140432, "centroid": { "latitude": 53.710341, "longitude": -1.902225 }, "area": 4250, "type": "grave_yard" }, "geometry": { "type": "MultiPolygon", "coordinates": [ [ [ [ -1.9027684, 53.7104324 ], [ -1.9019141, 53.7105914 ], [ -1.9018632, 53.7105375 ], [ -1.9016513, 53.7102216 ], [ -1.9026464, 53.7101184 ], [ -1.9027684, 53.7104324 ] ] ] ] } },
{ "type": "Feature", "properties": { "osm_id": 185201498, "centroid": { "latitude": 53.694233, "longitude": -1.921535 }, "area": 1130, "type": "grave_yard" }, "geometry": { "type": "MultiPolygon", "coordinates": [ [ [ [ -1.9212501, 53.6943244 ], [ -1.9214325, 53.6941863 ], [ -1.9215827, 53.6940402 ], [ -1.9218295, 53.6942069 ], [ -1.9213795, 53.6944072 ], [ -1.9212501, 53.6943244 ] ] ] ] } },
{ "type": "Feature", "properties": { "osm_id": 185489273, "centroid": { "latitude": 53.706648, "longitude": -2.065375 }, "area": 4308, "type": "grave_yard" }, "geometry": { "type": "MultiPolygon", "coordinates": [ [ [ [ -2.0651776, 53.7069386 ], [ -2.0649067, 53.7064256 ], [ -2.0653359, 53.7063843 ], [ -2.0656548, 53.7064496 ], [ -2.0658509, 53.7068321 ], [ -2.0651776, 53.7069386 ] ] ] ] } },
{ "type": "Feature", "properties": { "osm_id": 185490491, "centroid": { "latitude": 53.709327, "longitude": -1.957773 }, "area": 4198, "type": "grave_yard" }, "geometry": { "type": "MultiPolygon", "coordinates": [ [ [ [ -1.9583455, 53.7094091 ], [ -1.9581974, 53.7090893 ], [ -1.9571863, 53.7092533 ], [ -1.9573212, 53.7095448 ], [ -1.9575882, 53.7095015 ], [ -1.9576013, 53.7095298 ], [ -1.9583455, 53.7094091 ] ] ] ] } },
{ "type": "Feature", "properties": { "osm_id": 185611763, "centroid": { "latitude": 53.828670, "longitude": -1.343721 }, "area": 10010, "type": "grave_yard" }, "geometry": { "type": "MultiPolygon", "coordinates": [ [ [ [ -1.3432867, 53.8285099 ], [ -1.343464, 53.8284645 ], [ -1.3435527, 53.8284157 ], [ -1.3437537, 53.8281854 ], [ -1.3438778, 53.8281488 ], [ -1.3441882, 53.828154 ], [ -1.3441609, 53.8287163 ], [ -1.344259, 53.8287183 ], [ -1.3442884, 53.8289457 ], [ -1.3443097, 53.8290463 ], [ -1.343332, 53.8290425 ], [ -1.343332, 53.8289653 ], [ -1.3430535, 53.8289633 ], [ -1.3430615, 53.8285238 ], [ -1.3432867, 53.8285099 ] ] ] ] } },
{ "type": "Feature", "properties": { "osm_id": 185859559, "centroid": { "latitude": 53.691297, "longitude": -1.958063 }, "area": 4955, "type": "grave_yard" }, "geometry": { "type": "MultiPolygon", "coordinates": [ [ [ [ -1.9577121, 53.6915833 ], [ -1.9576289, 53.6914816 ], [ -1.9575941, 53.6913514 ], [ -1.9575538, 53.6912434 ], [ -1.9582673, 53.6909654 ], [ -1.9586643, 53.6912878 ], [ -1.957989, 53.6915755 ], [ -1.9578066, 53.6916009 ], [ -1.9577121, 53.6915833 ] ] ] ] } },
{ "type": "Feature", "properties": { "osm_id": 185904380, "centroid": { "latitude": 53.711609, "longitude": -1.948104 }, "area": 2055, "type": "grave_yard" }, "geometry": { "type": "MultiPolygon", "coordinates": [ [ [ [ -1.9476912, 53.7116979 ], [ -1.9483445, 53.7117653 ], [ -1.9484906, 53.7115535 ], [ -1.948142, 53.7114725 ], [ -1.9481715, 53.7114186 ], [ -1.9480721, 53.7113994 ], [ -1.9480345, 53.711482 ], [ -1.947879, 53.7114788 ], [ -1.9476912, 53.7116979 ] ] ] ] } },
{ "type": "Feature", "properties": { "osm_id": 185963320, "centroid": { "latitude": 53.675290, "longitude": -1.919336 }, "area": 6232, "type": "grave_yard" }, "geometry": { "type": "MultiPolygon", "coordinates": [ [ [ [ -1.9194372, 53.6748464 ], [ -1.9192789, 53.6749376 ], [ -1.9186808, 53.6754343 ], [ -1.9189195, 53.6755477 ], [ -1.9199012, 53.6755572 ], [ -1.9196089, 53.6749703 ], [ -1.9194372, 53.6748464 ] ] ] ] } },
{ "type": "Feature", "properties": { "osm_id": 186969981, "centroid": { "latitude": 53.757126, "longitude": -1.803525 }, "area": 5852, "name": "St. Michael & All Angels", "type": "grave_yard" }, "geometry": { "type": "MultiPolygon", "coordinates": [ [ [ [ -1.8029997, 53.7573873 ], [ -1.8028629, 53.7570004 ], [ -1.8039866, 53.7568704 ], [ -1.8042521, 53.7572319 ], [ -1.8029997, 53.7573873 ] ] ] ] } },
{ "type": "Feature", "properties": { "osm_id": 187371153, "centroid": { "latitude": 53.677573, "longitude": -1.740268 }, "area": 8943, "type": "grave_yard", "other_tags": "\"religion\"=>\"christian\",\"denomination\"=>\"anglican\"" }, "geometry": { "type": "MultiPolygon", "coordinates": [ [ [ [ -1.7406134, 53.6778909 ], [ -1.7410931, 53.6776349 ], [ -1.7400163, 53.6770776 ], [ -1.7395309, 53.677622 ], [ -1.7399411, 53.6777793 ], [ -1.7403069, 53.6780241 ], [ -1.7406134, 53.6778909 ] ] ] ] } },
{ "type": "Feature", "properties": { "osm_id": 187371886, "centroid": { "latitude": 53.705387, "longitude": -1.936346 }, "area": 9352, "type": "grave_yard" }, "geometry": { "type": "MultiPolygon", "coordinates": [ [ [ [ -1.9371985, 53.7053073 ], [ -1.9371971, 53.705256 ], [ -1.9369906, 53.7051179 ], [ -1.9368028, 53.7050623 ], [ -1.9361537, 53.7050544 ], [ -1.9356924, 53.7052814 ], [ -1.9357648, 53.7056498 ], [ -1.9358292, 53.7057831 ], [ -1.9358855, 53.7058371 ], [ -1.9361967, 53.7058006 ], [ -1.9363925, 53.7057149 ], [ -1.936422, 53.7056434 ], [ -1.9365802, 53.7055577 ], [ -1.9367867, 53.7055275 ], [ -1.9371985, 53.7053073 ] ] ] ] } },
{ "type": "Feature", "properties": { "osm_id": 191008677, "centroid": { "latitude": 53.672063, "longitude": -1.887696 }, "area": 4168, "type": "grave_yard" }, "geometry": { "type": "MultiPolygon", "coordinates": [ [ [ [ -1.8873753, 53.6722945 ], [ -1.8882833, 53.6721166 ], [ -1.8881975, 53.6720149 ], [ -1.8882806, 53.6719863 ], [ -1.8881842, 53.6718758 ], [ -1.8881197, 53.671899 ], [ -1.8880581, 53.6718297 ], [ -1.8873904, 53.6719549 ], [ -1.887081, 53.6720143 ], [ -1.8871459, 53.6721047 ], [ -1.8872615, 53.6722657 ], [ -1.8873753, 53.6722945 ] ] ] ] } },
{ "type": "Feature", "properties": { "osm_id": 191103186, "centroid": { "latitude": 53.673745, "longitude": -1.878171 }, "area": 3706, "type": "grave_yard" }, "geometry": { "type": "MultiPolygon", "coordinates": [ [ [ [ -1.8779754, 53.6740313 ], [ -1.8785416, 53.6739759 ], [ -1.8785441, 53.6739757 ], [ -1.8783371, 53.6734349 ], [ -1.8780752, 53.6734825 ], [ -1.8778066, 53.673542 ], [ -1.8779754, 53.6740313 ] ] ] ] } },
{ "type": "Feature", "properties": { "osm_id": 191726903, "centroid": { "latitude": 53.688783, "longitude": -1.872156 }, "area": 9342, "type": "grave_yard" }, "geometry": { "type": "MultiPolygon", "coordinates": [ [ [ [ -1.8719032, 53.6892611 ], [ -1.8715545, 53.6883971 ], [ -1.8724331, 53.6883285 ], [ -1.8727494, 53.6891458 ], [ -1.8719032, 53.6892611 ] ] ] ] } },
{ "type": "Feature", "properties": { "osm_id": 193549482, "centroid": { "latitude": 53.766553, "longitude": -1.848018 }, "area": 32597, "type": "grave_yard" }, "geometry": { "type": "MultiPolygon", "coordinates": [ [ [ [ -1.8496192, 53.7668245 ], [ -1.8482165, 53.7673824 ], [ -1.84735, 53.7670909 ], [ -1.8469235, 53.7670053 ], [ -1.8470898, 53.7663029 ], [ -1.8472286, 53.7659271 ], [ -1.8476287, 53.765414 ], [ -1.8484792, 53.7659383 ], [ -1.8481118, 53.7661777 ], [ -1.8488333, 53.7665851 ], [ -1.8491766, 53.7664472 ], [ -1.8496192, 53.7668245 ] ] ] ] } },
{ "type": "Feature", "properties": { "osm_id": 194135756, "centroid": { "latitude": 53.719061, "longitude": -1.918814 }, "area": 12593, "name": "Graveyard", "type": "grave_yard" }, "geometry": { "type": "MultiPolygon", "coordinates": [ [ [ [ -1.9196034, 53.7188187 ], [ -1.9196758, 53.718952 ], [ -1.9195848, 53.7192546 ], [ -1.9188014, 53.719198 ], [ -1.9187451, 53.7196901 ], [ -1.9182034, 53.7196895 ], [ -1.9183589, 53.7185251 ], [ -1.9186861, 53.7185489 ], [ -1.9196034, 53.7188187 ] ] ] ] } },
{ "type": "Feature", "properties": { "osm_id": 194772238, "centroid": { "latitude": 53.697230, "longitude": -1.872749 }, "area": 7309, "type": "grave_yard" }, "geometry": { "type": "MultiPolygon", "coordinates": [ [ [ [ -1.8733884, 53.6974814 ], [ -1.8718944, 53.6973226 ], [ -1.8719078, 53.6969781 ], [ -1.873772, 53.6971623 ], [ -1.8733884, 53.6974814 ] ] ] ] } },
{ "type": "Feature", "properties": { "osm_id": 194942252, "centroid": { "latitude": 53.891937, "longitude": -1.745480 }, "area": 4591, "type": "grave_yard" }, "geometry": { "type": "MultiPolygon", "coordinates": [ [ [ [ -1.7455955, 53.8915481 ], [ -1.7450618, 53.8920492 ], [ -1.7449652, 53.892193 ], [ -1.7453729, 53.8923305 ], [ -1.746022, 53.8916872 ], [ -1.7455955, 53.8915481 ] ] ] ] } },
{ "type": "Feature", "properties": { "osm_id": 195529011, "centroid": { "latitude": 53.690458, "longitude": -1.861025 }, "area": 2301, "type": "grave_yard" }, "geometry": { "type": "MultiPolygon", "coordinates": [ [ [ [ -1.8607705, 53.6907266 ], [ -1.8607169, 53.6904518 ], [ -1.8607088, 53.6903375 ], [ -1.8608991, 53.6903231 ], [ -1.8611085, 53.6903073 ], [ -1.8614384, 53.6903216 ], [ -1.8615376, 53.6903629 ], [ -1.8607705, 53.6907266 ] ] ] ] } },
{ "type": "Feature", "properties": { "osm_id": 197512009, "centroid": { "latitude": 53.727764, "longitude": -1.982908 }, "area": 5529, "type": "grave_yard" }, "geometry": { "type": "MultiPolygon", "coordinates": [ [ [ [ -1.9829921, 53.7281218 ], [ -1.982512, 53.7278346 ], [ -1.9823054, 53.7277315 ], [ -1.9826675, 53.7274236 ], [ -1.9834105, 53.7276474 ], [ -1.9833274, 53.7277759 ], [ -1.9834534, 53.72786 ], [ -1.9830243, 53.7281452 ], [ -1.9829921, 53.7281218 ] ] ] ] } },
{ "type": "Feature", "properties": { "osm_id": 197524812, "centroid": { "latitude": 53.734666, "longitude": -1.960199 }, "area": 2951, "type": "grave_yard" }, "geometry": { "type": "MultiPolygon", "coordinates": [ [ [ [ -1.9604418, 53.7349317 ], [ -1.9600002, 53.7349352 ], [ -1.9599519, 53.7344068 ], [ -1.9603355, 53.7343894 ], [ -1.9603865, 53.7343989 ], [ -1.9604052, 53.7344465 ], [ -1.9604418, 53.7349317 ] ] ] ] } },
{ "type": "Feature", "properties": { "osm_id": 197529240, "centroid": { "latitude": 53.733400, "longitude": -1.938665 }, "area": 14796, "type": "grave_yard" }, "geometry": { "type": "MultiPolygon", "coordinates": [ [ [ [ -1.9385862, 53.7341564 ], [ -1.9389135, 53.7338295 ], [ -1.93923, 53.7334329 ], [ -1.9393641, 53.7331314 ], [ -1.9392192, 53.7328585 ], [ -1.9387311, 53.7326332 ], [ -1.9385452, 53.7329266 ], [ -1.9383038, 53.7331772 ], [ -1.937964, 53.7335566 ], [ -1.937803, 53.7338295 ], [ -1.9382644, 53.7338676 ], [ -1.9385862, 53.7341564 ] ] ] ] } },
{ "type": "Feature", "properties": { "osm_id": 204998844, "centroid": { "latitude": 53.705893, "longitude": -1.730294 }, "area": 9455, "type": "grave_yard" }, "geometry": { "type": "MultiPolygon", "coordinates": [ [ [ [ -1.7298852, 53.7063924 ], [ -1.7299818, 53.7053509 ], [ -1.7306577, 53.7053699 ], [ -1.7306899, 53.7058367 ], [ -1.7305719, 53.7064527 ], [ -1.7298852, 53.7063924 ] ] ] ] } },
{ "type": "Feature", "properties": { "osm_id": 205985655, "centroid": { "latitude": 53.859595, "longitude": -1.423510 }, "area": 15835, "type": "grave_yard" }, "geometry": { "type": "MultiPolygon", "coordinates": [ [ [ [ -1.4241157, 53.8600501 ], [ -1.4237854, 53.8600619 ], [ -1.4232856, 53.8600433 ], [ -1.4228711, 53.8600097 ], [ -1.4227319, 53.8599668 ], [ -1.4227604, 53.8595657 ], [ -1.4227952, 53.8592335 ], [ -1.4230831, 53.8591738 ], [ -1.42339, 53.8591645 ], [ -1.4236769, 53.8591494 ], [ -1.4238837, 53.8591275 ], [ -1.4240005, 53.8591067 ], [ -1.4242346, 53.8590917 ], [ -1.4242541, 53.8591367 ], [ -1.4243169, 53.8592821 ], [ -1.424086, 53.8593212 ], [ -1.4241524, 53.8594649 ], [ -1.4242589, 53.8594427 ], [ -1.4242608, 53.8594538 ], [ -1.4242662, 53.8594796 ], [ -1.4242741, 53.8595171 ], [ -1.4242655, 53.859605 ], [ -1.4242289, 53.859715 ], [ -1.4241865, 53.8598354 ], [ -1.4241287, 53.8599687 ], [ -1.4241157, 53.8600501 ] ] ] ] } },
{ "type": "Feature", "properties": { "osm_id": 212439487, "centroid": { "latitude": 53.829546, "longitude": -1.989159 }, "area": 798, "name": "Quaker Burial Ground", "type": "grave_yard" }, "geometry": { "type": "MultiPolygon", "coordinates": [ [ [ [ -1.9892713, 53.8294148 ], [ -1.9890299, 53.8294527 ], [ -1.989003, 53.8296807 ], [ -1.9890513, 53.8296848 ], [ -1.989282, 53.8296237 ], [ -1.9893517, 53.8296057 ], [ -1.9893035, 53.8295224 ], [ -1.9892713, 53.8294148 ] ] ] ] } },
{ "type": "Feature", "properties": { "osm_id": 217799375, "centroid": { "latitude": 53.848902, "longitude": -1.535103 }, "area": 13878, "type": "grave_yard" }, "geometry": { "type": "MultiPolygon", "coordinates": [ [ [ [ -1.5342749, 53.8492244 ], [ -1.5343085, 53.8492284 ], [ -1.5343156, 53.8492074 ], [ -1.5344589, 53.8492243 ], [ -1.5344466, 53.8492607 ], [ -1.5345509, 53.849273 ], [ -1.5345238, 53.849353 ], [ -1.5345209, 53.849354 ], [ -1.5353155, 53.8494419 ], [ -1.5353939, 53.8491758 ], [ -1.5354582, 53.849004 ], [ -1.5354883, 53.8489151 ], [ -1.5359433, 53.8489744 ], [ -1.5360835, 53.8485601 ], [ -1.5360461, 53.8485552 ], [ -1.5349995, 53.8484771 ], [ -1.534931, 53.8484771 ], [ -1.5348295, 53.8484862 ], [ -1.534761, 53.8484992 ], [ -1.5346837, 53.8485161 ], [ -1.5346263, 53.8485357 ], [ -1.5345402, 53.8485696 ], [ -1.5345093, 53.8486269 ], [ -1.5342749, 53.8492244 ] ] ] ] } },
{ "type": "Feature", "properties": { "osm_id": 219276953, "centroid": { "latitude": 53.893677, "longitude": -1.346418 }, "area": 14384, "type": "grave_yard" }, "geometry": { "type": "MultiPolygon", "coordinates": [ [ [ [ -1.3457309, 53.8936044 ], [ -1.3455378, 53.8934384 ], [ -1.3453876, 53.8933404 ], [ -1.3457416, 53.8932883 ], [ -1.346549, 53.8932424 ], [ -1.346777, 53.8932219 ], [ -1.3468601, 53.8932377 ], [ -1.3469352, 53.893282 ], [ -1.3469889, 53.8933547 ], [ -1.3472544, 53.8939648 ], [ -1.3468246, 53.8940772 ], [ -1.3461697, 53.8942606 ], [ -1.3457309, 53.8936044 ] ] ] ] } },
{ "type": "Feature", "properties": { "osm_id": 219276955, "centroid": { "latitude": 53.891424, "longitude": -1.353445 }, "area": 7730, "type": "grave_yard" }, "geometry": { "type": "MultiPolygon", "coordinates": [ [ [ [ -1.3529755, 53.8918199 ], [ -1.3540257, 53.891642 ], [ -1.3539055, 53.8913085 ], [ -1.3538442, 53.8910292 ], [ -1.3536584, 53.8910532 ], [ -1.3533511, 53.891107 ], [ -1.3529782, 53.891137 ], [ -1.3529729, 53.891567 ], [ -1.3529595, 53.8916571 ], [ -1.3529514, 53.8917061 ], [ -1.3529755, 53.8918199 ] ] ] ] } },
{ "type": "Feature", "properties": { "osm_id": 223292078, "centroid": { "latitude": 53.703958, "longitude": -1.609224 }, "area": 21142, "type": "grave_yard" }, "geometry": { "type": "MultiPolygon", "coordinates": [ [ [ [ -1.6077842, 53.7038575 ], [ -1.6098574, 53.7033563 ], [ -1.6100055, 53.7035824 ], [ -1.6100919, 53.7037141 ], [ -1.6102433, 53.7039448 ], [ -1.6104949, 53.7043767 ], [ -1.6094174, 53.7043129 ], [ -1.6093796, 53.7042536 ], [ -1.6092338, 53.7042846 ], [ -1.6088536, 53.7043376 ], [ -1.6089048, 53.7044663 ], [ -1.6088882, 53.7045132 ], [ -1.6086689, 53.7045646 ], [ -1.6084988, 53.704267 ], [ -1.6081245, 53.7041641 ], [ -1.6077842, 53.7038575 ] ] ] ] } },
{ "type": "Feature", "properties": { "osm_id": 226914625, "centroid": { "latitude": 53.851650, "longitude": -1.840279 }, "area": 3648, "type": "grave_yard" }, "geometry": { "type": "MultiPolygon", "coordinates": [ [ [ [ -1.8407672, 53.8517508 ], [ -1.8399631, 53.8518911 ], [ -1.8398076, 53.8515357 ], [ -1.840587, 53.8514161 ], [ -1.8407672, 53.8517508 ] ] ] ] } },
{ "type": "Feature", "properties": { "osm_id": 232836556, "centroid": { "latitude": 53.728807, "longitude": -1.495995 }, "area": 2899, "type": "grave_yard" }, "geometry": { "type": "MultiPolygon", "coordinates": [ [ [ [ -1.4955844, 53.7289799 ], [ -1.4955201, 53.728726 ], [ -1.4963677, 53.728628 ], [ -1.4964803, 53.7288688 ], [ -1.4964857, 53.7288895 ], [ -1.4955844, 53.7289799 ] ] ] ] } },
{ "type": "Feature", "properties": { "osm_id": 245269759, "centroid": { "latitude": 53.830833, "longitude": -1.489825 }, "area": 5883, "type": "grave_yard" }, "geometry": { "type": "MultiPolygon", "coordinates": [ [ [ [ -1.4902051, 53.8305328 ], [ -1.4893045, 53.8306188 ], [ -1.4894457, 53.8311336 ], [ -1.4903463, 53.8310476 ], [ -1.4902051, 53.8305328 ] ] ] ] } },
{ "type": "Feature", "properties": { "osm_id": 248771570, "centroid": { "latitude": 53.725788, "longitude": -1.270907 }, "area": 4415, "name": "Graveyard", "type": "grave_yard" }, "geometry": { "type": "MultiPolygon", "coordinates": [ [ [ [ -1.2713203, 53.725988 ], [ -1.2710306, 53.7254104 ], [ -1.2704727, 53.7256452 ], [ -1.2704674, 53.7257563 ], [ -1.2709555, 53.7261562 ], [ -1.2713203, 53.725988 ] ] ] ] } },
{ "type": "Feature", "properties": { "osm_id": 270017063, "centroid": { "latitude": 53.900404, "longitude": -1.523908 }, "area": 14805, "type": "grave_yard" }, "geometry": { "type": "MultiPolygon", "coordinates": [ [ [ [ -1.5246427, 53.9009248 ], [ -1.5236395, 53.9009438 ], [ -1.5235519, 53.9009463 ], [ -1.5234611, 53.9009488 ], [ -1.5232209, 53.9000083 ], [ -1.5243262, 53.8997332 ], [ -1.5243822, 53.9002551 ], [ -1.5243972, 53.9003946 ], [ -1.5246427, 53.9009248 ] ] ] ] } },
{ "type": "Feature", "properties": { "osm_id": 296416289, "centroid": { "latitude": 53.610432, "longitude": -1.753137 }, "area": 8425, "type": "grave_yard" }, "geometry": { "type": "MultiPolygon", "coordinates": [ [ [ [ -1.7530879, 53.6109545 ], [ -1.7537249, 53.6105996 ], [ -1.7533011, 53.6099162 ], [ -1.7525216, 53.6102574 ], [ -1.7527587, 53.6106206 ], [ -1.7530879, 53.6109545 ] ] ] ] } },
{ "type": "Feature", "properties": { "osm_id": 297458684, "centroid": { "latitude": 53.630571, "longitude": -1.638563 }, "area": 10814, "type": "grave_yard", "landuse": "religious" }, "geometry": { "type": "MultiPolygon", "coordinates": [ [ [ [ -1.6393694, 53.6309746 ], [ -1.6389155, 53.630445 ], [ -1.6385603, 53.6300305 ], [ -1.6381185, 53.6301196 ], [ -1.6377044, 53.6302979 ], [ -1.6381332, 53.6307086 ], [ -1.6382842, 53.6306453 ], [ -1.6388026, 53.6311783 ], [ -1.6393694, 53.6309746 ] ] ] ] } },
{ "type": "Feature", "properties": { "osm_id": 300232439, "centroid": { "latitude": 53.651232, "longitude": -1.731309 }, "area": 13667, "type": "grave_yard" }, "geometry": { "type": "MultiPolygon", "coordinates": [ [ [ [ -1.7318621, 53.6516651 ], [ -1.7310749, 53.6517826 ], [ -1.7306806, 53.6515159 ], [ -1.7305265, 53.6513151 ], [ -1.7312259, 53.6513205 ], [ -1.7312013, 53.6510722 ], [ -1.7304002, 53.6510959 ], [ -1.730394, 53.6508896 ], [ -1.7310349, 53.6507526 ], [ -1.7320703, 53.6508702 ], [ -1.7318621, 53.6516651 ] ] ] ] } },
{ "type": "Feature", "properties": { "osm_id": 306191707, "centroid": { "latitude": 53.629271, "longitude": -1.300946 }, "area": 7660, "type": "grave_yard" }, "geometry": { "type": "MultiPolygon", "coordinates": [ [ [ [ -1.3012481, 53.6288683 ], [ -1.3009745, 53.6289574 ], [ -1.3009182, 53.6289065 ], [ -1.3006929, 53.6289685 ], [ -1.3007465, 53.6290464 ], [ -1.3003549, 53.6291673 ], [ -1.3005454, 53.6294711 ], [ -1.3002718, 53.6295268 ], [ -1.3003737, 53.6297192 ], [ -1.3006634, 53.6296524 ], [ -1.3006205, 53.6295952 ], [ -1.301696, 53.6293455 ], [ -1.3014439, 53.629048 ], [ -1.3013581, 53.6290194 ], [ -1.3012481, 53.6288683 ] ] ] ] } },
{ "type": "Feature", "properties": { "osm_id": 310489222, "centroid": { "latitude": 53.818578, "longitude": -1.459584 }, "area": 6065, "type": "grave_yard" }, "geometry": { "type": "MultiPolygon", "coordinates": [ [ [ [ -1.4602398, 53.8186473 ], [ -1.4600682, 53.8189118 ], [ -1.4589363, 53.8186093 ], [ -1.4589041, 53.818584 ], [ -1.458939, 53.8183148 ], [ -1.4599528, 53.8183924 ], [ -1.4602398, 53.8186473 ] ] ] ] } },
{ "type": "Feature", "properties": { "osm_id": 315987544, "centroid": { "latitude": 53.650419, "longitude": -1.384414 }, "area": 14841, "type": "grave_yard" }, "geometry": { "type": "MultiPolygon", "coordinates": [ [ [ [ -1.3837264, 53.6499704 ], [ -1.3836486, 53.649999 ], [ -1.3835414, 53.6506858 ], [ -1.3835869, 53.6507207 ], [ -1.3853384, 53.6508114 ], [ -1.3853706, 53.6502756 ], [ -1.3847591, 53.650239 ], [ -1.3847778, 53.6500308 ], [ -1.3837264, 53.6499704 ] ] ] ] } },
{ "type": "Feature", "properties": { "osm_id": 317877581, "centroid": { "latitude": 53.711814, "longitude": -1.694124 }, "area": 12866, "type": "grave_yard" }, "geometry": { "type": "MultiPolygon", "coordinates": [ [ [ [ -1.6933968, 53.7124279 ], [ -1.6951831, 53.7117675 ], [ -1.6945072, 53.7113326 ], [ -1.6941424, 53.7114151 ], [ -1.6939869, 53.7114945 ], [ -1.6935309, 53.7115421 ], [ -1.6935416, 53.7115929 ], [ -1.6933646, 53.7117231 ], [ -1.6933592, 53.7118564 ], [ -1.6934933, 53.7121231 ], [ -1.6933968, 53.7124279 ] ] ] ] } },
{ "type": "Feature", "properties": { "osm_id": 322574512, "centroid": { "latitude": 53.770448, "longitude": -1.732460 }, "area": 4592, "type": "grave_yard" }, "geometry": { "type": "MultiPolygon", "coordinates": [ [ [ [ -1.7319923, 53.7706158 ], [ -1.7325046, 53.7707109 ], [ -1.732577, 53.7706697 ], [ -1.7329203, 53.770546 ], [ -1.7331483, 53.7704208 ], [ -1.7321076, 53.7701434 ], [ -1.7319923, 53.7706158 ] ] ] ] } },
{ "type": "Feature", "properties": { "osm_id": 357271254, "centroid": { "latitude": 53.848926, "longitude": -1.665472 }, "area": 18423, "type": "grave_yard" }, "geometry": { "type": "MultiPolygon", "coordinates": [ [ [ [ -1.6664258, 53.8490514 ], [ -1.6663132, 53.8494375 ], [ -1.666045, 53.8494216 ], [ -1.6659404, 53.8497966 ], [ -1.6655193, 53.8498046 ], [ -1.6655688, 53.8495934 ], [ -1.6656748, 53.8491416 ], [ -1.6644383, 53.8490482 ], [ -1.664897, 53.8481432 ], [ -1.6655997, 53.8484169 ], [ -1.6660128, 53.8487381 ], [ -1.6663078, 53.8489944 ], [ -1.6664258, 53.8490514 ] ] ] ] } },
{ "type": "Feature", "properties": { "osm_id": 358675080, "centroid": { "latitude": 53.769351, "longitude": -1.417336 }, "area": 11917, "type": "grave_yard" }, "geometry": { "type": "MultiPolygon", "coordinates": [ [ [ [ -1.4177993, 53.7688579 ], [ -1.41711, 53.7688515 ], [ -1.4164555, 53.7692241 ], [ -1.417405, 53.7696695 ], [ -1.417066, 53.7699551 ], [ -1.4175772, 53.7701764 ], [ -1.4176196, 53.7698391 ], [ -1.4176357, 53.7696933 ], [ -1.417692, 53.7696061 ], [ -1.4178073, 53.7695316 ], [ -1.4179227, 53.7694888 ], [ -1.4177993, 53.7688579 ] ] ] ] } },
{ "type": "Feature", "properties": { "osm_id": 367573125, "centroid": { "latitude": 53.785293, "longitude": -1.559136 }, "area": 1545, "type": "grave_yard" }, "geometry": { "type": "MultiPolygon", "coordinates": [ [ [ [ -1.5595993, 53.7853605 ], [ -1.559594, 53.7852178 ], [ -1.5595484, 53.785183 ], [ -1.558918, 53.7851988 ], [ -1.5588295, 53.7852353 ], [ -1.5587786, 53.7854413 ], [ -1.55902, 53.7854936 ], [ -1.5590086, 53.785418 ], [ -1.5590031, 53.7853465 ], [ -1.5591285, 53.7853431 ], [ -1.5591251, 53.7852992 ], [ -1.5595177, 53.7852886 ], [ -1.5595234, 53.7853624 ], [ -1.5595993, 53.7853605 ] ] ] ] } },
{ "type": "Feature", "properties": { "osm_id": 367573128, "centroid": { "latitude": 53.786039, "longitude": -1.559303 }, "area": 9607, "type": "grave_yard" }, "geometry": { "type": "MultiPolygon", "coordinates": [ [ [ [ -1.5597173, 53.7865759 ], [ -1.5595267, 53.7865643 ], [ -1.5593915, 53.7865812 ], [ -1.5592888, 53.78655 ], [ -1.5588644, 53.7864745 ], [ -1.5589372, 53.7860697 ], [ -1.5589516, 53.7856431 ], [ -1.5589556, 53.7855253 ], [ -1.55902, 53.7854936 ], [ -1.5595093, 53.7854827 ], [ -1.5596127, 53.7854809 ], [ -1.5596852, 53.7862624 ], [ -1.5597173, 53.7865759 ] ] ] ] } },
{ "type": "Feature", "properties": { "osm_id": 374492442, "centroid": { "latitude": 53.793461, "longitude": -1.666929 }, "area": 13263, "type": "grave_yard" }, "geometry": { "type": "MultiPolygon", "coordinates": [ [ [ [ -1.6668526, 53.7942423 ], [ -1.6670146, 53.7941571 ], [ -1.6671984, 53.7940018 ], [ -1.6673268, 53.7938524 ], [ -1.6674236, 53.7936587 ], [ -1.667477, 53.7935443 ], [ -1.6675027, 53.7934077 ], [ -1.6675125, 53.793326 ], [ -1.6673485, 53.7929128 ], [ -1.6669079, 53.7929572 ], [ -1.6661179, 53.793052 ], [ -1.6663483, 53.7932815 ], [ -1.666554, 53.79372 ], [ -1.6668526, 53.7942423 ] ] ] ] } },
{ "type": "Feature", "properties": { "osm_id": 389019935, "centroid": { "latitude": 53.745016, "longitude": -2.063330 }, "area": 3711, "type": "grave_yard" }, "geometry": { "type": "MultiPolygon", "coordinates": [ [ [ [ -2.0632749, 53.7453447 ], [ -2.0630764, 53.7451797 ], [ -2.0629799, 53.7451908 ], [ -2.0627358, 53.7449862 ], [ -2.0639964, 53.7447197 ], [ -2.0632749, 53.7453447 ] ] ] ] } },
{ "type": "Feature", "properties": { "osm_id": 392120893, "centroid": { "latitude": 53.672843, "longitude": -1.501733 }, "area": 15938, "type": "grave_yard", "other_tags": "\"denomination\"=>\"anglican\",\"religion\"=>\"christian\"" }, "geometry": { "type": "MultiPolygon", "coordinates": [ [ [ [ -1.5004742, 53.6733056 ], [ -1.5010562, 53.6726761 ], [ -1.5023989, 53.6722421 ], [ -1.5023528, 53.6725207 ], [ -1.5027828, 53.6724254 ], [ -1.5024312, 53.6731624 ], [ -1.5023835, 53.6731392 ], [ -1.5004742, 53.6733056 ] ] ] ] } },
{ "type": "Feature", "properties": { "osm_id": 394923193, "centroid": { "latitude": 53.756288, "longitude": -1.895156 }, "area": 24066, "type": "grave_yard" }, "geometry": { "type": "MultiPolygon", "coordinates": [ [ [ [ -1.8966166, 53.7564692 ], [ -1.8957532, 53.7566247 ], [ -1.8953096, 53.7566809 ], [ -1.8949861, 53.7566913 ], [ -1.8938022, 53.7566936 ], [ -1.8937952, 53.7558857 ], [ -1.8937952, 53.7558413 ], [ -1.8938435, 53.7558222 ], [ -1.8939186, 53.7558 ], [ -1.8942082, 53.7558 ], [ -1.8943531, 53.7561267 ], [ -1.8951363, 53.756076 ], [ -1.8952382, 53.7560506 ], [ -1.8952275, 53.7559142 ], [ -1.8956513, 53.7559047 ], [ -1.8965522, 53.7558444 ], [ -1.8966166, 53.7564692 ] ] ] ] } },
{ "type": "Feature", "properties": { "osm_id": 396013349, "centroid": { "latitude": 53.675749, "longitude": -1.267168 }, "area": 6729, "type": "grave_yard" }, "geometry": { "type": "MultiPolygon", "coordinates": [ [ [ [ -1.2668703, 53.6753447 ], [ -1.2666343, 53.6759834 ], [ -1.266794, 53.6760049 ], [ -1.2675516, 53.6761073 ], [ -1.2676857, 53.6755464 ], [ -1.2671841, 53.6754749 ], [ -1.267219, 53.6753876 ], [ -1.2670799, 53.6753705 ], [ -1.2668703, 53.6753447 ] ] ] ] } },
{ "type": "Feature", "properties": { "osm_id": 400159240, "centroid": { "latitude": 53.815994, "longitude": -1.719848 }, "area": 8523, "type": "grave_yard" }, "geometry": { "type": "MultiPolygon", "coordinates": [ [ [ [ -1.7191083, 53.8159854 ], [ -1.7195596, 53.815783 ], [ -1.7201141, 53.8155499 ], [ -1.7206174, 53.8159958 ], [ -1.719634, 53.8164256 ], [ -1.7192612, 53.8161991 ], [ -1.7191083, 53.8159854 ] ] ] ] } },
{ "type": "Feature", "properties": { "osm_id": 402788159, "centroid": { "latitude": 53.729255, "longitude": -1.688525 }, "area": 11673, "type": "grave_yard" }, "geometry": { "type": "MultiPolygon", "coordinates": [ [ [ [ -1.6892894, 53.7288554 ], [ -1.6875245, 53.7291617 ], [ -1.6877525, 53.7296504 ], [ -1.6894369, 53.7293727 ], [ -1.689504, 53.7293124 ], [ -1.6892894, 53.7288554 ] ] ] ] } },
{ "type": "Feature", "properties": { "osm_id": 421784485, "centroid": { "latitude": 53.690186, "longitude": -1.791514 }, "area": 11551, "name": "St Matthews Churchyard", "type": "grave_yard", "other_tags": "\"denomination\"=>\"methodist\",\"religion\"=>\"christian\"" }, "geometry": { "type": "MultiPolygon", "coordinates": [ [ [ [ -1.7915714, 53.6908293 ], [ -1.7918263, 53.6907622 ], [ -1.7919289, 53.6907203 ], [ -1.7920492, 53.690647 ], [ -1.792074, 53.6906155 ], [ -1.7919537, 53.690297 ], [ -1.7920563, 53.6900455 ], [ -1.7914794, 53.6899805 ], [ -1.7917449, 53.6893497 ], [ -1.7913278, 53.6892992 ], [ -1.7909819, 53.6907637 ], [ -1.791367, 53.6906785 ], [ -1.7914781, 53.6906483 ], [ -1.7915522, 53.6907916 ], [ -1.7915714, 53.6908293 ] ] ] ] } },
{ "type": "Feature", "properties": { "osm_id": 423131668, "centroid": { "latitude": 53.792619, "longitude": -1.378857 }, "area": 5192, "type": "grave_yard" }, "geometry": { "type": "MultiPolygon", "coordinates": [ [ [ [ -1.3793855, 53.7928241 ], [ -1.3793953, 53.7925634 ], [ -1.3792807, 53.7925721 ], [ -1.3791368, 53.7923753 ], [ -1.3783377, 53.7923967 ], [ -1.3784477, 53.7928745 ], [ -1.3785356, 53.7928659 ], [ -1.3785377, 53.7928144 ], [ -1.3786477, 53.7927997 ], [ -1.3787135, 53.792853 ], [ -1.3793855, 53.7928241 ] ] ] ] } },
{ "type": "Feature", "properties": { "osm_id": 435492486, "centroid": { "latitude": 53.659635, "longitude": -1.481082 }, "area": 31861, "type": "grave_yard" }, "geometry": { "type": "MultiPolygon", "coordinates": [ [ [ [ -1.4814156, 53.65868 ], [ -1.4824924, 53.6589482 ], [ -1.4824254, 53.6590552 ], [ -1.4824296, 53.6590829 ], [ -1.4824576, 53.6592459 ], [ -1.4818568, 53.6594955 ], [ -1.4819004, 53.6596828 ], [ -1.4817435, 53.6596909 ], [ -1.4814631, 53.6597373 ], [ -1.4811454, 53.6599225 ], [ -1.4814573, 53.6600684 ], [ -1.481433, 53.6600939 ], [ -1.4809595, 53.6604406 ], [ -1.4814355, 53.6606689 ], [ -1.4814803, 53.6606957 ], [ -1.4813113, 53.6608172 ], [ -1.4811187, 53.6608128 ], [ -1.479659, 53.6599307 ], [ -1.4814156, 53.65868 ] ] ] ] } },
{ "type": "Feature", "properties": { "osm_id": 436839380, "centroid": { "latitude": 53.594642, "longitude": -1.696784 }, "area": 1751, "type": "grave_yard" }, "geometry": { "type": "MultiPolygon", "coordinates": [ [ [ [ -1.6965716, 53.5949563 ], [ -1.6967648, 53.5945567 ], [ -1.6972663, 53.5946252 ], [ -1.6973253, 53.5945153 ], [ -1.6967594, 53.5944357 ], [ -1.6967218, 53.5945472 ], [ -1.696585, 53.5945376 ], [ -1.6963946, 53.594926 ], [ -1.6965716, 53.5949563 ] ] ] ] } },
{ "type": "Feature", "properties": { "osm_id": 440679904, "centroid": { "latitude": 53.679426, "longitude": -1.635251 }, "area": 20791, "type": "grave_yard" }, "geometry": { "type": "MultiPolygon", "coordinates": [ [ [ [ -1.6353123, 53.6785433 ], [ -1.6357742, 53.6786167 ], [ -1.6360375, 53.6785975 ], [ -1.636067, 53.6786198 ], [ -1.6359141, 53.6789375 ], [ -1.6357505, 53.6795078 ], [ -1.6355262, 53.6802829 ], [ -1.6343277, 53.6800072 ], [ -1.634994, 53.6788788 ], [ -1.6353123, 53.6785433 ] ] ] ] } },
{ "type": "Feature", "properties": { "osm_id": 441341606, "centroid": { "latitude": 53.672476, "longitude": -1.876854 }, "area": 3659, "type": "grave_yard" }, "geometry": { "type": "MultiPolygon", "coordinates": [ [ [ [ -1.8774056, 53.6726474 ], [ -1.8766053, 53.6727544 ], [ -1.8764578, 53.6724722 ], [ -1.8767475, 53.6724114 ], [ -1.8765973, 53.6721605 ], [ -1.8769456, 53.6721087 ], [ -1.8770385, 53.6723632 ], [ -1.8770868, 53.6724474 ], [ -1.87719, 53.6725547 ], [ -1.8773228, 53.672619 ], [ -1.8774056, 53.6726474 ] ] ] ] } },
{ "type": "Feature", "properties": { "osm_id": 441341626, "centroid": { "latitude": 53.673167, "longitude": -1.878017 }, "area": 3391, "type": "grave_yard" }, "geometry": { "type": "MultiPolygon", "coordinates": [ [ [ [ -1.8783528, 53.673404 ], [ -1.8778914, 53.6734898 ], [ -1.8777372, 53.6731204 ], [ -1.8777788, 53.6731124 ], [ -1.8777265, 53.6729976 ], [ -1.8776997, 53.6729328 ], [ -1.8781556, 53.6728272 ], [ -1.8781784, 53.6729273 ], [ -1.8781598, 53.67293 ], [ -1.8782093, 53.673052 ], [ -1.8783528, 53.673404 ] ] ] ] } },
{ "type": "Feature", "properties": { "osm_id": 441465744, "centroid": { "latitude": 53.670100, "longitude": -1.889739 }, "area": 707, "type": "grave_yard" }, "geometry": { "type": "MultiPolygon", "coordinates": [ [ [ [ -1.8900119, 53.6701975 ], [ -1.8892279, 53.6700486 ], [ -1.8892655, 53.6700375 ], [ -1.8900408, 53.6700696 ], [ -1.8900119, 53.6701975 ] ] ] ] } }
]
}
