{
"type": "FeatureCollection",
"crs": { "type": "name", "properties": { "name": "urn:ogc:def:crs:OGC:1.3:CRS84" } },
"features": [
{ "type": "Feature", "properties": { "osm_id": 85712384, "centroid": { "latitude": 53.692606, "longitude": -1.486452 }, "area": 252, "type": "construction" }, "geometry": { "type": "MultiPolygon", "coordinates": [ [ [ [ -1.4865762, 53.6926674 ], [ -1.48631, 53.6926433 ], [ -1.4863293, 53.6925686 ], [ -1.4865956, 53.6925927 ], [ -1.4865762, 53.6926674 ] ] ] ] } },
{ "type": "Feature", "properties": { "osm_id": 162258106, "centroid": { "latitude": 53.788312, "longitude": -1.536711 }, "area": 17081, "name": "Leeds City College", "type": "construction" }, "geometry": { "type": "MultiPolygon", "coordinates": [ [ [ [ -1.5361836, 53.7883505 ], [ -1.5360736, 53.7883967 ], [ -1.535769, 53.7881257 ], [ -1.5359758, 53.7880391 ], [ -1.5359495, 53.7880013 ], [ -1.5367654, 53.7876326 ], [ -1.5371339, 53.7877836 ], [ -1.5377055, 53.7879991 ], [ -1.537606, 53.7880494 ], [ -1.5374006, 53.7881533 ], [ -1.5367918, 53.7884611 ], [ -1.5374122, 53.7889254 ], [ -1.5369046, 53.7891653 ], [ -1.5360285, 53.7884723 ], [ -1.536225, 53.7883952 ], [ -1.5361836, 53.7883505 ] ] ] ] } },
{ "type": "Feature", "properties": { "osm_id": 309267627, "centroid": { "latitude": 53.802763, "longitude": -1.546865 }, "area": 3442, "name": "Hilton Leeds Arena", "type": "construction", "other_tags": "\"building:levels\"=>\"14\"" }, "geometry": { "type": "MultiPolygon", "coordinates": [ [ [ [ -1.5467144, 53.8030617 ], [ -1.5463729, 53.802993 ], [ -1.5463922, 53.8028328 ], [ -1.5465671, 53.8026642 ], [ -1.5468112, 53.8027561 ], [ -1.5472049, 53.8023942 ], [ -1.5474499, 53.8024802 ], [ -1.5470797, 53.8028162 ], [ -1.5467144, 53.8030617 ] ] ] ] } },
{ "type": "Feature", "properties": { "osm_id": 461483675, "centroid": { "latitude": 53.802071, "longitude": -1.485931 }, "area": 396, "type": "construction" }, "geometry": { "type": "MultiPolygon", "coordinates": [ [ [ [ -1.4860047, 53.8019814 ], [ -1.4860825, 53.8021058 ], [ -1.4859336, 53.8021422 ], [ -1.4859443, 53.8021588 ], [ -1.4858934, 53.8021731 ], [ -1.4858478, 53.8021145 ], [ -1.4858773, 53.8021082 ], [ -1.4858491, 53.8020654 ], [ -1.485825, 53.8020717 ], [ -1.485818, 53.8020616 ], [ -1.4857719, 53.8020751 ], [ -1.4857416, 53.8020399 ], [ -1.4857941, 53.8020266 ], [ -1.4860047, 53.8019814 ] ] ] ] } }
]
}
