{
"type": "FeatureCollection",
"crs": { "type": "name", "properties": { "name": "urn:ogc:def:crs:OGC:1.3:CRS84" } },
"features": [
{ "type": "Feature", "properties": { "osm_id": 159638223, "centroid": { "latitude": 53.640005, "longitude": -1.788825 }, "area": 9893, "name": "Mecca Grosvenor Casino", "type": "casino" }, "geometry": { "type": "MultiPolygon", "coordinates": [ [ [ [ -1.7893882, 53.6403659 ], [ -1.7896872, 53.6398137 ], [ -1.7892552, 53.6397315 ], [ -1.7892279, 53.6397819 ], [ -1.7889222, 53.6397238 ], [ -1.7889017, 53.6397617 ], [ -1.7886171, 53.6397075 ], [ -1.7886052, 53.6397297 ], [ -1.7882493, 53.6396619 ], [ -1.7879527, 53.6402095 ], [ -1.7883227, 53.6402799 ], [ -1.7883636, 53.6402044 ], [ -1.7888148, 53.6402902 ], [ -1.7888736, 53.6401817 ], [ -1.7889833, 53.6402026 ], [ -1.7889409, 53.6402808 ], [ -1.7893882, 53.6403659 ] ] ] ] } }
]
}
