{
"type": "FeatureCollection",
"crs": { "type": "name", "properties": { "name": "urn:ogc:def:crs:OGC:1.3:CRS84" } },
"features": [
{ "type": "Feature", "properties": { "osm_id": 365719066, "centroid": { "latitude": 53.812013, "longitude": -1.701217 }, "area": 50, "type": "sand", "other_tags": "\"golf\"=>\"bunker\"" }, "geometry": { "type": "MultiPolygon", "coordinates": [ [ [ [ -1.7012793, 53.8120277 ], [ -1.7012524, 53.8120349 ], [ -1.7012149, 53.8120285 ], [ -1.7011773, 53.8120206 ], [ -1.7011599, 53.8120119 ], [ -1.7011572, 53.8119937 ], [ -1.7011948, 53.8119834 ], [ -1.7012162, 53.8119858 ], [ -1.7012672, 53.812004 ], [ -1.7012793, 53.8120277 ] ] ] ] } }
]
}
