{
"type": "FeatureCollection",
"crs": { "type": "name", "properties": { "name": "urn:ogc:def:crs:OGC:1.3:CRS84" } },
"features": [
{ "type": "Feature", "properties": { "osm_id": 402251933, "centroid": { "latitude": 53.806033, "longitude": -1.559836 }, "area": 63, "type": "service" }, "geometry": { "type": "MultiPolygon", "coordinates": [ [ [ [ -1.5598725, 53.8060785 ], [ -1.5597702, 53.8060539 ], [ -1.5597998, 53.8060109 ], [ -1.5599021, 53.8060355 ], [ -1.5598725, 53.8060785 ] ] ] ] } },
{ "type": "Feature", "properties": { "osm_id": 402251935, "centroid": { "latitude": 53.806146, "longitude": -1.559924 }, "area": 407, "type": "service" }, "geometry": { "type": "MultiPolygon", "coordinates": [ [ [ [ -1.5600979, 53.8060836 ], [ -1.5599957, 53.8062317 ], [ -1.5596971, 53.8061598 ], [ -1.5597336, 53.8061069 ], [ -1.5599014, 53.8061473 ], [ -1.559967, 53.8060521 ], [ -1.5600979, 53.8060836 ] ] ] ] } }
]
}
