{
"type": "FeatureCollection",
"crs": { "type": "name", "properties": { "name": "urn:ogc:def:crs:OGC:1.3:CRS84" } },
"features": [
{ "type": "Feature", "properties": { "osm_id": 4516976, "centroid": { "latitude": 53.908163, "longitude": -1.656779 }, "area": 83891, "name": "Knotford Nook Gravel Workings", "type": "fishing", "natural": "water", "other_tags": "\"description\"=>\"disused gravel workings\",\"fishing\"=>\"private\"" }, "geometry": { "type": "MultiPolygon", "coordinates": [ [ [ [ -1.655202, 53.9075155 ], [ -1.6554096, 53.9068026 ], [ -1.655556, 53.9066 ], [ -1.655684, 53.906572 ], [ -1.6565233, 53.9069591 ], [ -1.6577558, 53.9076051 ], [ -1.6585135, 53.9080786 ], [ -1.6591415, 53.9090768 ], [ -1.6591188, 53.9091443 ], [ -1.656994, 53.9092154 ], [ -1.655301, 53.9089479 ], [ -1.6550972, 53.908732 ], [ -1.6550518, 53.9085018 ], [ -1.655202, 53.9075155 ] ] ] ] } },
{ "type": "Feature", "properties": { "osm_id": 4516978, "centroid": { "latitude": 53.911062, "longitude": -1.659111 }, "area": 144578, "name": "Knotford Nook Gravel Workings", "type": "fishing", "natural": "water", "other_tags": "\"description\"=>\"Disused gravel workings\",\"fishing\"=>\"private\"" }, "geometry": { "type": "MultiPolygon", "coordinates": [ [ [ [ -1.6587369, 53.9113143 ], [ -1.6584279, 53.911471 ], [ -1.658463, 53.9116608 ], [ -1.6584661, 53.9116775 ], [ -1.6584881, 53.9117708 ], [ -1.6583958, 53.9119554 ], [ -1.6580831, 53.9122892 ], [ -1.6577929, 53.912321 ], [ -1.6574513, 53.9122753 ], [ -1.6569034, 53.9121984 ], [ -1.656834, 53.9121913 ], [ -1.6565748, 53.9121644 ], [ -1.6563905, 53.9120006 ], [ -1.6563742, 53.9117745 ], [ -1.6563943, 53.9115808 ], [ -1.6564316, 53.911213 ], [ -1.6565319, 53.9110452 ], [ -1.6568283, 53.9106907 ], [ -1.6568087, 53.910541 ], [ -1.6568966, 53.9104933 ], [ -1.657064, 53.9099928 ], [ -1.6573269, 53.9096274 ], [ -1.6578515, 53.9096639 ], [ -1.6586382, 53.9097321 ], [ -1.6589059, 53.9098464 ], [ -1.6593764, 53.9097944 ], [ -1.6598162, 53.9098876 ], [ -1.660486, 53.9099759 ], [ -1.6613408, 53.9101478 ], [ -1.6617753, 53.91024 ], [ -1.66204, 53.9103739 ], [ -1.6620497, 53.9105139 ], [ -1.6624044, 53.9107264 ], [ -1.6624035, 53.9108215 ], [ -1.6620832, 53.9109108 ], [ -1.6616825, 53.9109875 ], [ -1.6615123, 53.9110338 ], [ -1.6614688, 53.911047 ], [ -1.6613542, 53.9110817 ], [ -1.6610442, 53.9112753 ], [ -1.6608411, 53.9114947 ], [ -1.6610763, 53.9116784 ], [ -1.6613943, 53.9117383 ], [ -1.6614661, 53.9118765 ], [ -1.6614023, 53.9121063 ], [ -1.6612089, 53.9123582 ], [ -1.6609238, 53.9124831 ], [ -1.6605448, 53.912497 ], [ -1.6594132, 53.9124351 ], [ -1.6591341, 53.9122978 ], [ -1.6589191, 53.9119508 ], [ -1.6589242, 53.9117237 ], [ -1.6589221, 53.9116668 ], [ -1.6589184, 53.9115627 ], [ -1.6589174, 53.9115352 ], [ -1.6587369, 53.9113143 ] ] ] ] } },
{ "type": "Feature", "properties": { "osm_id": 53559741, "centroid": { "latitude": 53.787692, "longitude": -1.691240 }, "area": 3656, "name": "Tyersal Hall Farm Fishery", "type": "fishing", "natural": "water", "other_tags": "\"fee\"=>\"yes\",\"water\"=>\"pond\"" }, "geometry": { "type": "MultiPolygon", "coordinates": [ [ [ [ -1.6916126, 53.7878159 ], [ -1.6916286, 53.7876407 ], [ -1.6915035, 53.7874505 ], [ -1.6913725, 53.7874328 ], [ -1.6911075, 53.7875145 ], [ -1.6909772, 53.7875546 ], [ -1.6907802, 53.7876606 ], [ -1.690797, 53.7877502 ], [ -1.6909591, 53.7878672 ], [ -1.6910863, 53.7879245 ], [ -1.6914264, 53.7878929 ], [ -1.6916126, 53.7878159 ] ] ] ] } },
{ "type": "Feature", "properties": { "osm_id": 60663708, "centroid": { "latitude": 53.905959, "longitude": -1.654228 }, "area": 7164, "type": "fishing", "natural": "water", "other_tags": "\"description\"=>\"disused gravel workings\",\"fishing\"=>\"private\"" }, "geometry": { "type": "MultiPolygon", "coordinates": [ [ [ [ -1.653607, 53.9057303 ], [ -1.6537143, 53.9057493 ], [ -1.6538752, 53.9057367 ], [ -1.6540039, 53.9057367 ], [ -1.6542185, 53.9057177 ], [ -1.6544009, 53.905743 ], [ -1.654594, 53.9057746 ], [ -1.6548301, 53.9058568 ], [ -1.6549481, 53.9059452 ], [ -1.6550661, 53.9061159 ], [ -1.6550232, 53.9061981 ], [ -1.654955, 53.9063212 ], [ -1.6548732, 53.9064056 ], [ -1.6547764, 53.9064066 ], [ -1.6546294, 53.9063485 ], [ -1.6545726, 53.9063055 ], [ -1.6546048, 53.9061791 ], [ -1.6546048, 53.9061033 ], [ -1.654594, 53.9059958 ], [ -1.6545511, 53.9059579 ], [ -1.6544009, 53.9060084 ], [ -1.65424, 53.9060021 ], [ -1.654079, 53.9060148 ], [ -1.6539181, 53.906059 ], [ -1.6537679, 53.9060021 ], [ -1.6536606, 53.9060084 ], [ -1.6534997, 53.9060084 ], [ -1.653328, 53.9059516 ], [ -1.6531778, 53.905882 ], [ -1.6531778, 53.9058188 ], [ -1.6532207, 53.9057746 ], [ -1.6533388, 53.9057114 ], [ -1.6534353, 53.9057114 ], [ -1.653607, 53.9057303 ] ] ] ] } },
{ "type": "Feature", "properties": { "osm_id": 143159172, "centroid": { "latitude": 53.828541, "longitude": -1.571532 }, "area": 2726, "name": "Mill Pond", "type": "fishing", "natural": "water", "other_tags": "\"water\"=>\"pond\"" }, "geometry": { "type": "MultiPolygon", "coordinates": [ [ [ [ -1.5718012, 53.8287781 ], [ -1.5717493, 53.828825 ], [ -1.57171, 53.8288604 ], [ -1.5716268, 53.8287976 ], [ -1.5715383, 53.8287464 ], [ -1.5714739, 53.8287148 ], [ -1.571372, 53.8286958 ], [ -1.5712164, 53.8285913 ], [ -1.5711809, 53.8285349 ], [ -1.5711842, 53.8284837 ], [ -1.5712379, 53.8284203 ], [ -1.5713076, 53.8283728 ], [ -1.5714353, 53.8283472 ], [ -1.5715758, 53.8283159 ], [ -1.5716767, 53.828287 ], [ -1.5717582, 53.8283 ], [ -1.571784, 53.8283662 ], [ -1.5717947, 53.8284454 ], [ -1.5717582, 53.8285185 ], [ -1.5717142, 53.8286068 ], [ -1.5717679, 53.8286955 ], [ -1.5718012, 53.8287781 ] ] ] ] } },
{ "type": "Feature", "properties": { "osm_id": 178668727, "centroid": { "latitude": 53.825700, "longitude": -1.835230 }, "area": 5571, "name": "Farview Fishing Lakes", "type": "fishing", "natural": "water", "sport": "angling" }, "geometry": { "type": "MultiPolygon", "coordinates": [ [ [ [ -1.8348429, 53.825217 ], [ -1.8351003, 53.8254021 ], [ -1.8351965, 53.825486 ], [ -1.835346, 53.8255715 ], [ -1.8354392, 53.8256283 ], [ -1.8356434, 53.8257523 ], [ -1.8357662, 53.8258292 ], [ -1.8358283, 53.8258807 ], [ -1.8358402, 53.8259322 ], [ -1.8357987, 53.825989 ], [ -1.8357425, 53.8260309 ], [ -1.8355146, 53.82612 ], [ -1.8354155, 53.8261279 ], [ -1.835309, 53.8260641 ], [ -1.8351876, 53.8259488 ], [ -1.8349953, 53.8257384 ], [ -1.8347689, 53.8255191 ], [ -1.8346653, 53.8254073 ], [ -1.8346061, 53.8253427 ], [ -1.8346416, 53.8252755 ], [ -1.834686, 53.8252379 ], [ -1.8347482, 53.8252152 ], [ -1.8348429, 53.825217 ] ] ] ] } },
{ "type": "Feature", "properties": { "osm_id": 178668728, "centroid": { "latitude": 53.825160, "longitude": -1.835392 }, "area": 4486, "name": "Farview Fishing Lakes", "type": "fishing", "natural": "water", "sport": "angling" }, "geometry": { "type": "MultiPolygon", "coordinates": [ [ [ [ -1.8353046, 53.8248069 ], [ -1.8355748, 53.8249938 ], [ -1.8356212, 53.8250486 ], [ -1.8356381, 53.8251134 ], [ -1.8355917, 53.8251931 ], [ -1.8356001, 53.8252629 ], [ -1.8356719, 53.8253526 ], [ -1.8357775, 53.8254323 ], [ -1.8358788, 53.8255021 ], [ -1.8359881, 53.8255672 ], [ -1.8360044, 53.8256161 ], [ -1.8359733, 53.825644 ], [ -1.8359038, 53.8256571 ], [ -1.8358032, 53.8256266 ], [ -1.8356892, 53.8255715 ], [ -1.8354303, 53.8254047 ], [ -1.8351758, 53.8252292 ], [ -1.8350115, 53.8250982 ], [ -1.8349168, 53.824996 ], [ -1.8349346, 53.8249174 ], [ -1.8349657, 53.824851 ], [ -1.8350278, 53.8248065 ], [ -1.8350766, 53.8247776 ], [ -1.8351639, 53.8247645 ], [ -1.8352394, 53.8247776 ], [ -1.8353046, 53.8248069 ] ] ] ] } },
{ "type": "Feature", "properties": { "osm_id": 189697659, "centroid": { "latitude": 53.911659, "longitude": -1.655830 }, "area": 1163, "type": "fishing", "natural": "water" }, "geometry": { "type": "MultiPolygon", "coordinates": [ [ [ [ -1.655969, 53.9116663 ], [ -1.6559046, 53.9118084 ], [ -1.6558188, 53.9118811 ], [ -1.6557866, 53.9119064 ], [ -1.6557356, 53.911907 ], [ -1.6556739, 53.9118969 ], [ -1.6556793, 53.9118148 ], [ -1.6557383, 53.9117168 ], [ -1.6557678, 53.9116195 ], [ -1.6557812, 53.9115557 ], [ -1.6557007, 53.9114514 ], [ -1.6558778, 53.9114071 ], [ -1.6559636, 53.9115367 ], [ -1.655969, 53.9116663 ] ] ] ] } }
]
}
