{
"type": "FeatureCollection",
"crs": { "type": "name", "properties": { "name": "urn:ogc:def:crs:OGC:1.3:CRS84" } },
"features": [
{ "type": "Feature", "properties": { "osm_id": 78509752, "centroid": { "latitude": 53.803245, "longitude": -1.570464 }, "area": 18848, "name": "ITV Yorkshire", "type": "video", "type": "studio", "building": "yes" }, "geometry": { "type": "MultiPolygon", "coordinates": [ [ [ [ -1.5708083, 53.8039475 ], [ -1.570532, 53.8038265 ], [ -1.5708839, 53.8035465 ], [ -1.5706951, 53.8034637 ], [ -1.5703649, 53.8037264 ], [ -1.5696398, 53.8034086 ], [ -1.5695322, 53.8034943 ], [ -1.5690845, 53.803298 ], [ -1.5693646, 53.8030751 ], [ -1.5698633, 53.8032937 ], [ -1.5704462, 53.8028299 ], [ -1.5702916, 53.8027621 ], [ -1.5698726, 53.8030955 ], [ -1.5695637, 53.8029601 ], [ -1.5700872, 53.8025436 ], [ -1.5716899, 53.803246 ], [ -1.5708083, 53.8039475 ] ] ] ] } },
{ "type": "Feature", "properties": { "osm_id": 84962945, "centroid": { "latitude": 53.797399, "longitude": -1.533616 }, "area": 2224, "name": "BBC Yorkshire", "type": "studio", "building": "yes", "other_tags": "\"access\"=>\"private\"" }, "geometry": { "type": "MultiPolygon", "coordinates": [ [ [ [ -1.534005, 53.7974285 ], [ -1.5334692, 53.7976168 ], [ -1.5333156, 53.7974612 ], [ -1.5332497, 53.7974861 ], [ -1.5332594, 53.7974348 ], [ -1.5332808, 53.7973873 ], [ -1.533313, 53.7973873 ], [ -1.5333311, 53.7973635 ], [ -1.5333617, 53.7973335 ], [ -1.5333868, 53.7973116 ], [ -1.5334167, 53.7972898 ], [ -1.5334538, 53.7972685 ], [ -1.5334945, 53.7972483 ], [ -1.5335483, 53.7972311 ], [ -1.533603, 53.7972193 ], [ -1.5336707, 53.7972109 ], [ -1.5337717, 53.7972079 ], [ -1.5338279, 53.7972125 ], [ -1.5338516, 53.7972145 ], [ -1.5338082, 53.7972314 ], [ -1.5338434, 53.7972666 ], [ -1.534005, 53.7974285 ] ] ] ] } },
{ "type": "Feature", "properties": { "osm_id": 196171962, "centroid": { "latitude": 53.886876, "longitude": -1.539033 }, "area": 167307, "name": "Emmerdale Film Set", "type": "studio", "landuse": "commercial", "other_tags": "\"owner\"=>\"ITV Yorkshire\",\"access\"=>\"private\",\"old_name\"=>\"Stub House Farm\",\"not:landuse\"=>\"residential\"" }, "geometry": { "type": "MultiPolygon", "coordinates": [ [ [ [ -1.5417724, 53.8868367 ], [ -1.5419317, 53.8876648 ], [ -1.5417437, 53.8885906 ], [ -1.5408685, 53.888584 ], [ -1.5399833, 53.8885808 ], [ -1.5392857, 53.8885127 ], [ -1.538495, 53.888031 ], [ -1.5363575, 53.8866681 ], [ -1.5358331, 53.886337 ], [ -1.5354898, 53.885698 ], [ -1.5355006, 53.8852895 ], [ -1.5367558, 53.8853875 ], [ -1.5370509, 53.8851536 ], [ -1.5372976, 53.8850524 ], [ -1.5377941, 53.8850617 ], [ -1.5380087, 53.8851534 ], [ -1.5381559, 53.8854286 ], [ -1.5382149, 53.8858681 ], [ -1.5388402, 53.8858838 ], [ -1.5393951, 53.885846 ], [ -1.5402105, 53.8859914 ], [ -1.541176, 53.8861043 ], [ -1.5412962, 53.886349 ], [ -1.5413339, 53.8864258 ], [ -1.5415847, 53.8864292 ], [ -1.5418027, 53.8864474 ], [ -1.541932, 53.886531 ], [ -1.5419373, 53.8867978 ], [ -1.5417724, 53.8868367 ] ] ] ] } },
{ "type": "Feature", "properties": { "osm_id": 421787624, "centroid": { "latitude": 53.690720, "longitude": -1.791463 }, "area": 182, "name": "Limelight Studio", "type": "studio", "building": "yes", "other_tags": "\"addr:city\"=>\"Rastrick, Brighouse\",\"addr:housename\"=>\"Limelight Studio\",\"addr:housenumber\"=>\"15\",\"addr:postcode\"=>\"HD6 3NF\",\"addr:street\"=>\"Church Street\",\"studio\"=>\"dance\"" }, "geometry": { "type": "MultiPolygon", "coordinates": [ [ [ [ -1.7915522, 53.6907916 ], [ -1.79148, 53.690806 ], [ -1.7914455, 53.6907473 ], [ -1.7914118, 53.6907526 ], [ -1.791367, 53.6906785 ], [ -1.7914781, 53.6906483 ], [ -1.7915522, 53.6907916 ] ] ] ] } }
]
}
