{
"type": "FeatureCollection",
"crs": { "type": "name", "properties": { "name": "urn:ogc:def:crs:OGC:1.3:CRS84" } },
"features": [
{ "type": "Feature", "properties": { "osm_id": 2421755, "centroid": { "latitude": 53.640757, "longitude": -1.780788 }, "area": 12357, "name": "University of Huddersfield", "type": "university" }, "geometry": { "type": "MultiPolygon", "coordinates": [ [ [ [ -1.7811914, 53.6412117 ], [ -1.7816076, 53.6401686 ], [ -1.781275, 53.6402185 ], [ -1.7805724, 53.6405087 ], [ -1.7800473, 53.640764 ], [ -1.7795929, 53.6409986 ], [ -1.7811914, 53.6412117 ] ] ], [ [ [ -1.7809449, 53.6419478 ], [ -1.7806832, 53.6427189 ], [ -1.7802996, 53.643566 ], [ -1.7801425, 53.6438138 ], [ -1.7798607, 53.6439332 ], [ -1.7793309, 53.644034 ], [ -1.7787496, 53.6441676 ], [ -1.7782078, 53.6443715 ], [ -1.7776819, 53.644695 ], [ -1.7771046, 53.6450771 ], [ -1.7768313, 53.6451169 ], [ -1.77534, 53.6444745 ], [ -1.7757473, 53.6441786 ], [ -1.7751871, 53.6438989 ], [ -1.775583, 53.6435856 ], [ -1.7753025, 53.6432597 ], [ -1.777813, 53.6411799 ], [ -1.7784889, 53.6407013 ], [ -1.7791702, 53.6411783 ], [ -1.7790562, 53.6414846 ], [ -1.7784702, 53.6419161 ], [ -1.7785202, 53.6425689 ], [ -1.7794416, 53.6427001 ], [ -1.7797855, 53.6417852 ], [ -1.7809449, 53.6419478 ] ], [ [ -1.7760287, 53.6447522 ], [ -1.7756478, 53.6445773 ], [ -1.7757927, 53.6444501 ], [ -1.7755352, 53.6443102 ], [ -1.7755907, 53.6442995 ], [ -1.7757473, 53.6441786 ], [ -1.7759268, 53.6440399 ], [ -1.7763828, 53.6443165 ], [ -1.7763828, 53.6444565 ], [ -1.7763474, 53.644486 ], [ -1.7760287, 53.6447522 ] ], [ [ -1.7794904, 53.6437643 ], [ -1.7794504, 53.6437422 ], [ -1.7794508, 53.6437105 ], [ -1.779485, 53.6436912 ], [ -1.7795333, 53.6436864 ], [ -1.7795333, 53.6436641 ], [ -1.7796057, 53.6436657 ], [ -1.7796057, 53.6436419 ], [ -1.7800134, 53.6436419 ], [ -1.7800094, 53.6436848 ], [ -1.7800859, 53.6436864 ], [ -1.7800912, 53.6437659 ], [ -1.7800108, 53.6437659 ], [ -1.7800108, 53.6438168 ], [ -1.7796138, 53.6438136 ], [ -1.7796165, 53.6437929 ], [ -1.7795306, 53.6437898 ], [ -1.7795333, 53.6437707 ], [ -1.7794904, 53.6437643 ] ], [ [ -1.7782847, 53.6433675 ], [ -1.7782805, 53.6433076 ], [ -1.7782216, 53.6433107 ], [ -1.7782115, 53.6431314 ], [ -1.7782402, 53.6431318 ], [ -1.778273, 53.6431322 ], [ -1.7782947, 53.6431422 ], [ -1.7783292, 53.6431488 ], [ -1.7783577, 53.6431416 ], [ -1.7783758, 53.6431294 ], [ -1.7783734, 53.6430948 ], [ -1.7788171, 53.6430851 ], [ -1.7788591, 53.642973 ], [ -1.7789875, 53.6429938 ], [ -1.7788498, 53.6433564 ], [ -1.7782847, 53.6433675 ] ] ] ] } },
{ "type": "Feature", "properties": { "osm_id": 32008652, "centroid": { "latitude": 53.786330, "longitude": -1.761471 }, "area": 8176, "name": "Unity Building", "type": "university" }, "geometry": { "type": "MultiPolygon", "coordinates": [ [ [ [ -1.7621243, 53.7865976 ], [ -1.7614536, 53.7865795 ], [ -1.760803, 53.7865617 ], [ -1.7608257, 53.7860503 ], [ -1.7621546, 53.7861131 ], [ -1.7621243, 53.7865976 ] ] ] ] } },
{ "type": "Feature", "properties": { "osm_id": 55082456, "centroid": { "latitude": 53.844972, "longitude": -1.588755 }, "area": 123734, "name": "Bodington Hall - University of Leeds Halls of Residence", "type": "university", "landuse": "residential" }, "geometry": { "type": "MultiPolygon", "coordinates": [ [ [ [ -1.5899175, 53.8459933 ], [ -1.5906186, 53.8461462 ], [ -1.5908452, 53.8461746 ], [ -1.5908885, 53.8463345 ], [ -1.5911979, 53.8463953 ], [ -1.5914842, 53.8464435 ], [ -1.5915864, 53.8464631 ], [ -1.5918471, 53.8463892 ], [ -1.5920235, 53.846252 ], [ -1.5921181, 53.8460515 ], [ -1.5921488, 53.845783 ], [ -1.5921564, 53.8455478 ], [ -1.5921916, 53.8452236 ], [ -1.5913966, 53.8450546 ], [ -1.5909186, 53.8448903 ], [ -1.5901505, 53.8445748 ], [ -1.5894383, 53.8443348 ], [ -1.5894336, 53.844227 ], [ -1.589427, 53.844074 ], [ -1.5893643, 53.8438905 ], [ -1.589172, 53.8436728 ], [ -1.5889068, 53.8435121 ], [ -1.5888323, 53.843604 ], [ -1.5884239, 53.8441075 ], [ -1.5881236, 53.8440841 ], [ -1.5876759, 53.84385 ], [ -1.5868541, 53.8438199 ], [ -1.5861911, 53.843937 ], [ -1.5857547, 53.8439704 ], [ -1.5854173, 53.844179 ], [ -1.585137, 53.8445354 ], [ -1.5861456, 53.8452957 ], [ -1.5866821, 53.8454603 ], [ -1.5890424, 53.8456375 ], [ -1.589973, 53.8458793 ], [ -1.5899175, 53.8459933 ] ] ] ] } },
{ "type": "Feature", "properties": { "osm_id": 71891363, "centroid": { "latitude": 53.791226, "longitude": -1.766522 }, "area": 207693, "name": "University of Bradford", "type": "university", "other_tags": "\"url\"=>\"http:\/\/www.brad.ac.uk\"" }, "geometry": { "type": "MultiPolygon", "coordinates": [ [ [ [ -1.7688533, 53.7894948 ], [ -1.768574, 53.7894289 ], [ -1.7681466, 53.7895146 ], [ -1.7679312, 53.7895536 ], [ -1.7672826, 53.7896938 ], [ -1.7668049, 53.7897611 ], [ -1.7665021, 53.7898157 ], [ -1.7653229, 53.7900472 ], [ -1.764996, 53.790124 ], [ -1.7648713, 53.7901579 ], [ -1.7641358, 53.7905393 ], [ -1.7639934, 53.7906464 ], [ -1.7635595, 53.7908437 ], [ -1.7634422, 53.7908895 ], [ -1.7633187, 53.7909274 ], [ -1.762601, 53.7911267 ], [ -1.7625476, 53.7911558 ], [ -1.7625583, 53.7911542 ], [ -1.7629334, 53.7914948 ], [ -1.76278, 53.7916113 ], [ -1.7624556, 53.7918171 ], [ -1.762833, 53.7921183 ], [ -1.762486, 53.792276 ], [ -1.7624913, 53.792276 ], [ -1.7628078, 53.792501 ], [ -1.7632781, 53.792773 ], [ -1.7649299, 53.7918944 ], [ -1.7652282, 53.7921568 ], [ -1.7663657, 53.7931264 ], [ -1.767578, 53.7925744 ], [ -1.7690687, 53.7918958 ], [ -1.7705853, 53.7912435 ], [ -1.7704008, 53.7910803 ], [ -1.7699143, 53.7906605 ], [ -1.7695158, 53.790362 ], [ -1.7693212, 53.7901591 ], [ -1.7688533, 53.7894948 ] ] ] ] } },
{ "type": "Feature", "properties": { "osm_id": 82141601, "centroid": { "latitude": 53.610751, "longitude": -1.728908 }, "area": 170382, "name": "Storthes Hall Park Campus", "type": "university", "landuse": "residential", "place": "hamlet", "other_tags": "\"operator\"=>\"University of Huddersfield\"" }, "geometry": { "type": "MultiPolygon", "coordinates": [ [ [ [ -1.7319044, 53.6098939 ], [ -1.7319784, 53.6098034 ], [ -1.7312538, 53.6092763 ], [ -1.731101, 53.6091652 ], [ -1.7301757, 53.6084921 ], [ -1.7300688, 53.6084144 ], [ -1.7287087, 53.6091247 ], [ -1.7255864, 53.6122119 ], [ -1.7258671, 53.6128209 ], [ -1.7260902, 53.6127899 ], [ -1.7281395, 53.6124724 ], [ -1.7300905, 53.6117274 ], [ -1.7310148, 53.6110259 ], [ -1.7319044, 53.6098939 ] ] ] ] } },
{ "type": "Feature", "properties": { "osm_id": 84656164, "centroid": { "latitude": 53.806310, "longitude": -1.556260 }, "area": 749332, "name": "University of Leeds", "type": "university" }, "geometry": { "type": "MultiPolygon", "coordinates": [ [ [ [ -1.5564715, 53.8105802 ], [ -1.5565168, 53.8105723 ], [ -1.5568867, 53.810429 ], [ -1.5573092, 53.810241 ], [ -1.5575829, 53.8100762 ], [ -1.5578242, 53.8098925 ], [ -1.5580211, 53.8096801 ], [ -1.5581353, 53.8095568 ], [ -1.5583821, 53.8090816 ], [ -1.5586503, 53.8086572 ], [ -1.5593476, 53.8080477 ], [ -1.5595762, 53.807911 ], [ -1.5624268, 53.8086318 ], [ -1.563427, 53.8072874 ], [ -1.563384, 53.8072307 ], [ -1.5627165, 53.8070734 ], [ -1.5604087, 53.8064982 ], [ -1.5603454, 53.8059773 ], [ -1.5609033, 53.8050903 ], [ -1.5609784, 53.8047735 ], [ -1.5609677, 53.8043047 ], [ -1.5609141, 53.8039309 ], [ -1.5607209, 53.8036457 ], [ -1.5615855, 53.8031529 ], [ -1.5610118, 53.803033 ], [ -1.5601152, 53.8028198 ], [ -1.5598347, 53.8033383 ], [ -1.5581264, 53.8030362 ], [ -1.5580938, 53.8031044 ], [ -1.5579744, 53.8033485 ], [ -1.5578536, 53.8035985 ], [ -1.5576095, 53.8035445 ], [ -1.5573808, 53.8034969 ], [ -1.5571808, 53.8034738 ], [ -1.5570047, 53.8034912 ], [ -1.556714, 53.8036109 ], [ -1.5564509, 53.8036267 ], [ -1.5564482, 53.8035721 ], [ -1.5564187, 53.8029678 ], [ -1.5539723, 53.8029969 ], [ -1.5539725, 53.8036335 ], [ -1.552972, 53.8036394 ], [ -1.5516573, 53.8043423 ], [ -1.5504258, 53.8047464 ], [ -1.5489031, 53.8051395 ], [ -1.5492625, 53.8056479 ], [ -1.5500647, 53.8061607 ], [ -1.5512231, 53.806871 ], [ -1.551759, 53.8071898 ], [ -1.5523232, 53.8072242 ], [ -1.5525323, 53.8073769 ], [ -1.5522715, 53.8078876 ], [ -1.5523655, 53.808149 ], [ -1.5525888, 53.8085512 ], [ -1.5527216, 53.8087164 ], [ -1.5528883, 53.8088585 ], [ -1.5529876, 53.8089343 ], [ -1.5531609, 53.8090397 ], [ -1.5533339, 53.8091346 ], [ -1.5536066, 53.8092698 ], [ -1.553774, 53.8093441 ], [ -1.5539317, 53.8094048 ], [ -1.5541155, 53.8094792 ], [ -1.5546554, 53.809664 ], [ -1.5547346, 53.8097014 ], [ -1.5551599, 53.8098404 ], [ -1.5555675, 53.8099815 ], [ -1.5557275, 53.8100534 ], [ -1.5558715, 53.8101396 ], [ -1.5561526, 53.8103749 ], [ -1.5564063, 53.8105624 ], [ -1.5564715, 53.8105802 ] ] ] ] } },
{ "type": "Feature", "properties": { "osm_id": 128547348, "centroid": { "latitude": 53.848262, "longitude": -1.645364 }, "area": 271111, "name": "Leeds Trinity University", "type": "university", "other_tags": "\"operator\"=>\"University\"" }, "geometry": { "type": "MultiPolygon", "coordinates": [ [ [ [ -1.6496109, 53.8494868 ], [ -1.648368, 53.8465392 ], [ -1.6469831, 53.8467248 ], [ -1.6458497, 53.8468186 ], [ -1.6450957, 53.8464823 ], [ -1.6435078, 53.8464443 ], [ -1.642281, 53.8479073 ], [ -1.6410257, 53.847901 ], [ -1.6409436, 53.8484001 ], [ -1.6405884, 53.8492111 ], [ -1.6428856, 53.8495077 ], [ -1.6452958, 53.8498124 ], [ -1.646139, 53.8497963 ], [ -1.646705, 53.8497608 ], [ -1.6481299, 53.8496231 ], [ -1.6496109, 53.8494868 ] ] ] ] } },
{ "type": "Feature", "properties": { "osm_id": 164510614, "centroid": { "latitude": 53.826698, "longitude": -1.594993 }, "area": 721594, "name": "Leeds Beckett University, Headingley Campus", "type": "university", "other_tags": "\"wikipedia\"=>\"en:Leeds Beckett University\"" }, "geometry": { "type": "MultiPolygon", "coordinates": [ [ [ [ -1.5856981, 53.8259196 ], [ -1.5856151, 53.8263687 ], [ -1.5858404, 53.8268943 ], [ -1.5860462, 53.8271119 ], [ -1.5860979, 53.8271666 ], [ -1.5864301, 53.827268 ], [ -1.586988, 53.827287 ], [ -1.5874333, 53.8274231 ], [ -1.5879429, 53.8276859 ], [ -1.5886581, 53.828093 ], [ -1.5895757, 53.8283421 ], [ -1.5897243, 53.8283824 ], [ -1.5898351, 53.8284133 ], [ -1.5914516, 53.8288636 ], [ -1.5944664, 53.828927 ], [ -1.5967088, 53.8290093 ], [ -1.5970521, 53.8294589 ], [ -1.5987486, 53.8290665 ], [ -1.5992206, 53.8290202 ], [ -1.5995205, 53.8290529 ], [ -1.6001927, 53.8288015 ], [ -1.600367, 53.8286703 ], [ -1.6005388, 53.8285534 ], [ -1.6007787, 53.8284075 ], [ -1.6010638, 53.8282911 ], [ -1.6010339, 53.8280523 ], [ -1.6013336, 53.8279285 ], [ -1.6013786, 53.8277693 ], [ -1.6013786, 53.8276012 ], [ -1.6015077, 53.8274331 ], [ -1.6017083, 53.8271854 ], [ -1.6018582, 53.8267874 ], [ -1.6019181, 53.8265485 ], [ -1.6018536, 53.8264204 ], [ -1.6017241, 53.8263563 ], [ -1.6015584, 53.8262743 ], [ -1.6014535, 53.8261062 ], [ -1.6014086, 53.8259205 ], [ -1.6013786, 53.8255312 ], [ -1.6013336, 53.8251951 ], [ -1.6012287, 53.8248147 ], [ -1.6010053, 53.8244632 ], [ -1.6007616, 53.8242202 ], [ -1.6004899, 53.8240946 ], [ -1.6001238, 53.8240247 ], [ -1.5998799, 53.8237885 ], [ -1.5997674, 53.8237214 ], [ -1.5993187, 53.8233839 ], [ -1.5989813, 53.823184 ], [ -1.5986677, 53.8231646 ], [ -1.597238, 53.8240601 ], [ -1.5970173, 53.8241777 ], [ -1.5959232, 53.8246024 ], [ -1.5953237, 53.8248943 ], [ -1.5949041, 53.8250978 ], [ -1.5948303, 53.825211 ], [ -1.5937343, 53.8253135 ], [ -1.5925402, 53.8253207 ], [ -1.5912278, 53.8252588 ], [ -1.590863, 53.8252462 ], [ -1.5907109, 53.8252574 ], [ -1.5896381, 53.8253651 ], [ -1.5882505, 53.8255596 ], [ -1.5874405, 53.8257085 ], [ -1.587146, 53.8257257 ], [ -1.5869286, 53.8256444 ], [ -1.5868859, 53.8258973 ], [ -1.5865736, 53.8259032 ], [ -1.5856981, 53.8259196 ] ] ] ] } },
{ "type": "Feature", "properties": { "osm_id": 175866660, "centroid": { "latitude": 53.682082, "longitude": -1.712927 }, "area": 2149, "name": "College of the Resurrection", "type": "university", "building": "school", "other_tags": "\"addr:postcode\"=>\"WF14 0BW\",\"addr:street\"=>\"Stocks Bank Road\",\"alt_name\"=>\"Mirfield\"" }, "geometry": { "type": "MultiPolygon", "coordinates": [ [ [ [ -1.712776, 53.6817518 ], [ -1.7126851, 53.6817389 ], [ -1.7125825, 53.6819926 ], [ -1.7124593, 53.6819752 ], [ -1.712449, 53.6820007 ], [ -1.7125718, 53.6820181 ], [ -1.7125584, 53.6820513 ], [ -1.7128854, 53.6820975 ], [ -1.712903, 53.6820537 ], [ -1.7130363, 53.6820725 ], [ -1.7129326, 53.6823307 ], [ -1.7127513, 53.6823052 ], [ -1.7127303, 53.6823575 ], [ -1.7129126, 53.6823831 ], [ -1.7128508, 53.6825373 ], [ -1.7129551, 53.6825519 ], [ -1.7130422, 53.6823346 ], [ -1.7131171, 53.6821485 ], [ -1.7131417, 53.6820862 ], [ -1.7131968, 53.6819433 ], [ -1.7132486, 53.6819503 ], [ -1.7132767, 53.6818774 ], [ -1.7132979, 53.681825 ], [ -1.7131092, 53.6817982 ], [ -1.7130252, 53.6820059 ], [ -1.7126923, 53.6819587 ], [ -1.712776, 53.6817518 ] ] ] ] } },
{ "type": "Feature", "properties": { "osm_id": 178346500, "centroid": { "latitude": 53.805916, "longitude": -1.548569 }, "area": 18704, "name": "Leeds Beckett University (Broadcasting Place)", "type": "university", "other_tags": "\"addr:street\"=>\"Woodhouse Lane\"" }, "geometry": { "type": "MultiPolygon", "coordinates": [ [ [ [ -1.5488698, 53.8065143 ], [ -1.5486808, 53.8065685 ], [ -1.548493, 53.8065685 ], [ -1.5482785, 53.8064481 ], [ -1.5480585, 53.8062645 ], [ -1.5478064, 53.8059984 ], [ -1.5477098, 53.8058337 ], [ -1.5477045, 53.805688 ], [ -1.5477581, 53.8055866 ], [ -1.5477933, 53.8055715 ], [ -1.5486862, 53.8051875 ], [ -1.5490348, 53.8055993 ], [ -1.54955, 53.8059962 ], [ -1.5493889, 53.806141 ], [ -1.5489297, 53.8064997 ], [ -1.5488698, 53.8065143 ] ] ] ] } },
{ "type": "Feature", "properties": { "osm_id": 219384076, "centroid": { "latitude": 53.809704, "longitude": -1.556839 }, "area": 2038, "name": "Energy Building", "type": "university", "building": "yes", "other_tags": "\"addr:housename\"=>\"Energy Building\"" }, "geometry": { "type": "MultiPolygon", "coordinates": [ [ [ [ -1.5572155, 53.8097029 ], [ -1.5570067, 53.8095642 ], [ -1.556755, 53.8095278 ], [ -1.5564548, 53.8096678 ], [ -1.5568191, 53.8099212 ], [ -1.5571994, 53.8097267 ], [ -1.5571806, 53.8097156 ], [ -1.5572155, 53.8097029 ] ] ] ] } }
]
}
