{
"type": "FeatureCollection",
"crs": { "type": "name", "properties": { "name": "urn:ogc:def:crs:OGC:1.3:CRS84" } },
"features": [
{ "type": "Feature", "properties": { "osm_id": 87266756, "centroid": { "latitude": 53.683308, "longitude": -1.500449 }, "area": 133, "name": "Elliots Bar", "type": "bar", "building": "yes", "other_tags": "\"addr:city\"=>\"Wakefield\",\"addr:housenumber\"=>\"5\",\"addr:postcode\"=>\"WF1 1UQ\",\"addr:street\"=>\"George & Crown Yard\",\"fhrs:id\"=>\"313590\"" }, "geometry": { "type": "MultiPolygon", "coordinates": [ [ [ [ -1.5005471, 53.6832984 ], [ -1.5004747, 53.6833495 ], [ -1.5003509, 53.683288 ], [ -1.5004232, 53.6832369 ], [ -1.5005471, 53.6832984 ] ] ] ] } },
{ "type": "Feature", "properties": { "osm_id": 87307577, "centroid": { "latitude": 53.682521, "longitude": -1.500151 }, "area": 365, "name": "Koco Bongos", "type": "bar", "building": "yes" }, "geometry": { "type": "MultiPolygon", "coordinates": [ [ [ [ -1.5000153, 53.6824758 ], [ -1.500207, 53.6824501 ], [ -1.500241, 53.6824496 ], [ -1.5002743, 53.6824587 ], [ -1.5002972, 53.6824769 ], [ -1.5003005, 53.6824989 ], [ -1.5002898, 53.6825187 ], [ -1.50026, 53.6825387 ], [ -1.5000713, 53.6826129 ], [ -1.5000291, 53.6825645 ], [ -1.5000479, 53.6825601 ], [ -1.5000153, 53.6824758 ] ] ] ] } },
{ "type": "Feature", "properties": { "osm_id": 87552728, "centroid": { "latitude": 53.681206, "longitude": -1.501354 }, "area": 637, "name": "Fanny And Bacardi", "type": "bar", "building": "yes", "other_tags": "\"addr:city\"=>\"Wakefield\",\"addr:postcode\"=>\"WF1 1BB\",\"addr:street\"=>\"Bank Street\",\"fhrs:id\"=>\"679918\"" }, "geometry": { "type": "MultiPolygon", "coordinates": [ [ [ [ -1.5014484, 53.6810907 ], [ -1.5014943, 53.6813078 ], [ -1.5012607, 53.6813251 ], [ -1.5012148, 53.681108 ], [ -1.5014484, 53.6810907 ] ] ] ] } },
{ "type": "Feature", "properties": { "osm_id": 154045693, "centroid": { "latitude": 53.865531, "longitude": -1.909872 }, "area": 270, "name": "K2", "type": "bar", "building": "yes" }, "geometry": { "type": "MultiPolygon", "coordinates": [ [ [ [ -1.9099562, 53.8655922 ], [ -1.9097818, 53.8655889 ], [ -1.9097885, 53.8654641 ], [ -1.909963, 53.8654673 ], [ -1.9099562, 53.8655922 ] ] ] ] } },
{ "type": "Feature", "properties": { "osm_id": 176016244, "centroid": { "latitude": 53.820528, "longitude": -1.576587 }, "area": 843, "name": "The Box", "type": "bar", "building": "yes", "other_tags": "\"addr:street\"=>\"Otley Road\"" }, "geometry": { "type": "MultiPolygon", "coordinates": [ [ [ [ -1.5768653, 53.8205756 ], [ -1.5767178, 53.8204411 ], [ -1.5765515, 53.8204775 ], [ -1.5764939, 53.820405 ], [ -1.5763325, 53.8204575 ], [ -1.5765076, 53.820644 ], [ -1.5768653, 53.8205756 ] ] ] ] } },
{ "type": "Feature", "properties": { "osm_id": 177294184, "centroid": { "latitude": 53.820728, "longitude": -1.580956 }, "area": 926, "name": "The Arc", "type": "bar", "building": "yes" }, "geometry": { "type": "MultiPolygon", "coordinates": [ [ [ [ -1.5810657, 53.8208956 ], [ -1.5808109, 53.8208877 ], [ -1.5808082, 53.8208085 ], [ -1.5808592, 53.8208117 ], [ -1.5808688, 53.8207973 ], [ -1.5808779, 53.8207721 ], [ -1.5808822, 53.8207577 ], [ -1.5808833, 53.8207293 ], [ -1.5808753, 53.820704 ], [ -1.5808565, 53.8206755 ], [ -1.580827, 53.8206502 ], [ -1.5807948, 53.8206267 ], [ -1.5809226, 53.8205339 ], [ -1.580952, 53.8205566 ], [ -1.5809799, 53.8205742 ], [ -1.5810228, 53.8205694 ], [ -1.5810362, 53.8205868 ], [ -1.5810539, 53.8206073 ], [ -1.5810737, 53.820628 ], [ -1.5810888, 53.8206468 ], [ -1.5811075, 53.8206769 ], [ -1.5811075, 53.8206975 ], [ -1.5810657, 53.8206977 ], [ -1.5810737, 53.8207262 ], [ -1.5810657, 53.8208956 ] ] ] ] } },
{ "type": "Feature", "properties": { "osm_id": 178218446, "centroid": { "latitude": 53.820201, "longitude": -1.581263 }, "area": 530, "name": "Trio", "type": "bar", "building": "yes", "other_tags": "\"addr:street\"=>\"North Lane\"" }, "geometry": { "type": "MultiPolygon", "coordinates": [ [ [ [ -1.5812265, 53.8202892 ], [ -1.5810854, 53.8202195 ], [ -1.5812855, 53.8200675 ], [ -1.5813982, 53.8201752 ], [ -1.5813562, 53.8202031 ], [ -1.5813834, 53.8203037 ], [ -1.5812768, 53.8203168 ], [ -1.5812265, 53.8202892 ] ] ] ] } },
{ "type": "Feature", "properties": { "osm_id": 178334001, "centroid": { "latitude": 53.805610, "longitude": -1.549447 }, "area": 134, "name": "Strawberry Fields", "type": "bar", "building": "yes" }, "geometry": { "type": "MultiPolygon", "coordinates": [ [ [ [ -1.5494074, 53.8056479 ], [ -1.5493492, 53.805587 ], [ -1.5494857, 53.8055415 ], [ -1.5495464, 53.8055964 ], [ -1.5494074, 53.8056479 ] ] ] ] } },
{ "type": "Feature", "properties": { "osm_id": 201621380, "centroid": { "latitude": 53.655816, "longitude": -1.786737 }, "area": 2313, "name": "Magic Rock Tap", "type": "bar", "building": "yes", "other_tags": "\"addr:city\"=>\"Huddersfield\",\"addr:postcode\"=>\"HD1 5EB\",\"addr:street\"=>\"Willow Lane\"" }, "geometry": { "type": "MultiPolygon", "coordinates": [ [ [ [ -1.7867891, 53.6560274 ], [ -1.7863121, 53.6557022 ], [ -1.7866509, 53.6555277 ], [ -1.7868046, 53.6556325 ], [ -1.7867, 53.6556864 ], [ -1.7869043, 53.6558257 ], [ -1.7869365, 53.6558091 ], [ -1.7871289, 53.6559403 ], [ -1.7870915, 53.6559596 ], [ -1.7871993, 53.6560331 ], [ -1.7870782, 53.6560955 ], [ -1.7868968, 53.6559719 ], [ -1.7867891, 53.6560274 ] ] ] ] } },
{ "type": "Feature", "properties": { "osm_id": 210737155, "centroid": { "latitude": 53.707966, "longitude": -1.626454 }, "area": 536, "name": "Brooklands", "type": "bar", "building": "yes" }, "geometry": { "type": "MultiPolygon", "coordinates": [ [ [ [ -1.6264478, 53.7078071 ], [ -1.6265321, 53.7079003 ], [ -1.6265504, 53.7081007 ], [ -1.6263899, 53.7081058 ], [ -1.6263673, 53.7078104 ], [ -1.6264478, 53.7078071 ] ] ] ] } },
{ "type": "Feature", "properties": { "osm_id": 242037121, "centroid": { "latitude": 53.799940, "longitude": -1.481371 }, "area": 911, "name": "Wyke Beck Arms", "type": "bar", "building": "public" }, "geometry": { "type": "MultiPolygon", "coordinates": [ [ [ [ -1.481391, 53.8000999 ], [ -1.4814401, 53.8000416 ], [ -1.4815182, 53.8000646 ], [ -1.4816319, 53.7999295 ], [ -1.4811684, 53.7997934 ], [ -1.4810913, 53.799885 ], [ -1.4813466, 53.79996 ], [ -1.481261, 53.8000617 ], [ -1.481391, 53.8000999 ] ] ] ] } },
{ "type": "Feature", "properties": { "osm_id": 333332506, "centroid": { "latitude": 53.622142, "longitude": -1.881391 }, "area": 161, "name": "The Little Bridge", "type": "bar", "building": "yes" }, "geometry": { "type": "MultiPolygon", "coordinates": [ [ [ [ -1.8813099, 53.6222128 ], [ -1.8812704, 53.6221433 ], [ -1.8815261, 53.6221344 ], [ -1.881534, 53.6221629 ], [ -1.8814722, 53.6221663 ], [ -1.8814801, 53.6221851 ], [ -1.8813099, 53.6222128 ] ] ] ] } },
{ "type": "Feature", "properties": { "osm_id": 333922846, "centroid": { "latitude": 53.649644, "longitude": -1.782499 }, "area": 291, "name": "Chad's Bar", "type": "bar", "building": "retail", "other_tags": "\"building:levels\"=>\"3\"" }, "geometry": { "type": "MultiPolygon", "coordinates": [ [ [ [ -1.7825391, 53.6496048 ], [ -1.7826044, 53.6497362 ], [ -1.7824908, 53.649756 ], [ -1.7824449, 53.6496685 ], [ -1.7823932, 53.64957 ], [ -1.7825111, 53.6495499 ], [ -1.7825391, 53.6496048 ] ] ] ] } },
{ "type": "Feature", "properties": { "osm_id": 333925560, "centroid": { "latitude": 53.648790, "longitude": -1.782238 }, "area": 289, "name": "Cleopatra's Lounge", "type": "bar", "other_tags": "\"level\"=>\"0\"" }, "geometry": { "type": "MultiPolygon", "coordinates": [ [ [ [ -1.7821192, 53.6488425 ], [ -1.7823934, 53.6488066 ], [ -1.7823662, 53.6487414 ], [ -1.7823193, 53.648729 ], [ -1.7821143, 53.6487576 ], [ -1.7820859, 53.6487839 ], [ -1.7821192, 53.6488425 ] ] ] ] } },
{ "type": "Feature", "properties": { "osm_id": 333928657, "centroid": { "latitude": 53.646801, "longitude": -1.781392 }, "area": 272, "name": "Chaos", "type": "bar" }, "geometry": { "type": "MultiPolygon", "coordinates": [ [ [ [ -1.7813621, 53.6469005 ], [ -1.7813357, 53.6467983 ], [ -1.7813246, 53.6466878 ], [ -1.7814245, 53.6466897 ], [ -1.7814645, 53.6468912 ], [ -1.7813621, 53.6469005 ] ] ] ] } },
{ "type": "Feature", "properties": { "osm_id": 334437774, "centroid": { "latitude": 53.569353, "longitude": -1.789703 }, "area": 147, "name": "Cellar 88", "type": "bar", "building": "retail", "other_tags": "\"building:levels\"=>\"3\",\"building:material\"=>\"stone\"" }, "geometry": { "type": "MultiPolygon", "coordinates": [ [ [ [ -1.7896885, 53.5694219 ], [ -1.7896082, 53.5693463 ], [ -1.7897072, 53.5693033 ], [ -1.7898038, 53.56938 ], [ -1.7896885, 53.5694219 ] ] ] ] } },
{ "type": "Feature", "properties": { "osm_id": 337487460, "centroid": { "latitude": 53.601601, "longitude": -1.927247 }, "area": 133, "name": "Peel One", "type": "bar", "building": "retail", "other_tags": "\"website\"=>\"https:\/\/www.facebook.com\/Peelonemarsden\",\"addr:city\"=>\"Marsden\",\"addr:street\"=>\"Peel Street\",\"roof:levels\"=>\"1\",\"addr:postcode\"=>\"HD7 6BR\",\"building:levels\"=>\"2\",\"addr:housenumber\"=>\"1\",\"building:material\"=>\"stone\"" }, "geometry": { "type": "MultiPolygon", "coordinates": [ [ [ [ -1.927118, 53.6016016 ], [ -1.9271368, 53.6016246 ], [ -1.9271807, 53.6016119 ], [ -1.9272028, 53.6016389 ], [ -1.9273564, 53.6015946 ], [ -1.9273155, 53.6015446 ], [ -1.927118, 53.6016016 ] ] ] ] } },
{ "type": "Feature", "properties": { "osm_id": 337860710, "centroid": { "latitude": 53.795658, "longitude": -1.544234 }, "area": 178, "name": "Dish", "type": "bar" }, "geometry": { "type": "MultiPolygon", "coordinates": [ [ [ [ -1.5443174, 53.7957499 ], [ -1.544227, 53.795572 ], [ -1.5441808, 53.7955803 ], [ -1.5441569, 53.7956031 ], [ -1.544228, 53.7957405 ], [ -1.544269, 53.7957568 ], [ -1.5443174, 53.7957499 ] ] ] ] } },
{ "type": "Feature", "properties": { "osm_id": 337860731, "centroid": { "latitude": 53.795749, "longitude": -1.542288 }, "area": 187, "name": "Hedonist", "type": "bar", "building": "yes", "other_tags": "\"addr:city\"=>\"Leeds\",\"addr:housenumber\"=>\"156\",\"addr:postcode\"=>\"LS1 6LY\",\"addr:street\"=>\"Lower Briggate\"" }, "geometry": { "type": "MultiPolygon", "coordinates": [ [ [ [ -1.5423291, 53.7957284 ], [ -1.5424208, 53.7957301 ], [ -1.5424215, 53.7957861 ], [ -1.5422622, 53.7957858 ], [ -1.5421521, 53.7957822 ], [ -1.5421496, 53.7957303 ], [ -1.5423291, 53.7957284 ] ] ] ] } },
{ "type": "Feature", "properties": { "osm_id": 350899278, "centroid": { "latitude": 53.609544, "longitude": -1.729269 }, "area": 1654, "name": "D-Bar", "type": "bar", "building": "yes" }, "geometry": { "type": "MultiPolygon", "coordinates": [ [ [ [ -1.7296416, 53.6096007 ], [ -1.7295329, 53.6096483 ], [ -1.7294712, 53.6095987 ], [ -1.7291707, 53.6097304 ], [ -1.7289745, 53.609573 ], [ -1.7290171, 53.6095543 ], [ -1.728934, 53.6094876 ], [ -1.7290491, 53.6094372 ], [ -1.7290996, 53.6094777 ], [ -1.729242, 53.6094153 ], [ -1.7291908, 53.6093743 ], [ -1.7292697, 53.6093397 ], [ -1.7293526, 53.6094062 ], [ -1.7293829, 53.609393 ], [ -1.7296416, 53.6096007 ] ] ] ] } },
{ "type": "Feature", "properties": { "osm_id": 356277030, "centroid": { "latitude": 53.685324, "longitude": -1.841708 }, "area": 950, "name": "Fleece", "type": "bar", "building": "yes", "other_tags": "\"toilets:wheelchair\"=>\"no\",\"wheelchair\"=>\"no\"" }, "geometry": { "type": "MultiPolygon", "coordinates": [ [ [ [ -1.8419866, 53.6853482 ], [ -1.8415692, 53.6854411 ], [ -1.8415389, 53.6853934 ], [ -1.8414771, 53.6854071 ], [ -1.8414143, 53.6853081 ], [ -1.8418935, 53.6852015 ], [ -1.8419866, 53.6853482 ] ] ] ] } },
{ "type": "Feature", "properties": { "osm_id": 385229033, "centroid": { "latitude": 53.836816, "longitude": -1.641953 }, "area": 379, "name": "Medusa Lounge Bar", "type": "bar", "building": "yes", "other_tags": "\"addr:city\"=>\"Horsforth\",\"addr:housenumber\"=>\"8-10\",\"addr:postcode\"=>\"LS18 4RJ\",\"addr:street\"=>\"Town Street\",\"smoking\"=>\"outside\"" }, "geometry": { "type": "MultiPolygon", "coordinates": [ [ [ [ -1.6420679, 53.8369183 ], [ -1.6421452, 53.8368469 ], [ -1.6420334, 53.8368036 ], [ -1.6418372, 53.8367276 ], [ -1.6417589, 53.8367935 ], [ -1.6420679, 53.8369183 ] ] ] ] } },
{ "type": "Feature", "properties": { "osm_id": 385291939, "centroid": { "latitude": 53.838298, "longitude": -1.639726 }, "area": 330, "name": "Maverick's 80's Lounge", "type": "bar", "building": "yes", "other_tags": "\"addr:city\"=>\"Horsforth\",\"addr:housenumber\"=>\"62\",\"addr:postcode\"=>\"LS18 4AP\",\"addr:street\"=>\"Town Street\",\"old_name\"=>\"Bar SixtyToo\",\"opening_hours\"=>\"Mo,We-Th,Su 12:00-23:00; Tu 17:00-23:00; Fr-Sa 12:00-01:00; Su 12:00-23:00\",\"phone\"=>\"01132 588599\",\"smoking\"=>\"outside\",\"website\"=>\"http:\/\/www.maverickslounge.co.uk\/index.php\/venues\/horsforth\"" }, "geometry": { "type": "MultiPolygon", "coordinates": [ [ [ [ -1.6398789, 53.838248 ], [ -1.6397061, 53.8384041 ], [ -1.6396498, 53.8383824 ], [ -1.6395963, 53.8383618 ], [ -1.6396825, 53.8382839 ], [ -1.6396187, 53.8382593 ], [ -1.6396672, 53.8382155 ], [ -1.6397674, 53.8382541 ], [ -1.6398055, 53.8382197 ], [ -1.6398789, 53.838248 ] ] ] ] } },
{ "type": "Feature", "properties": { "osm_id": 437349596, "centroid": { "latitude": 53.681357, "longitude": -1.500527 }, "area": 616, "name": "Velvet", "type": "bar", "building": "yes" }, "geometry": { "type": "MultiPolygon", "coordinates": [ [ [ [ -1.5003786, 53.681455 ], [ -1.5003206, 53.6813232 ], [ -1.5006746, 53.6812685 ], [ -1.5007327, 53.6814003 ], [ -1.5003786, 53.681455 ] ] ] ] } },
{ "type": "Feature", "properties": { "osm_id": 448331933, "centroid": { "latitude": 53.681950, "longitude": -1.493986 }, "area": 440, "name": "Wine Bar", "type": "bar", "building": "yes", "other_tags": "\"addr:city\"=>\"Wakefield\",\"addr:housenumber\"=>\"80\",\"addr:postcode\"=>\"WF1 1TB\",\"addr:street\"=>\"Kirkgate\"" }, "geometry": { "type": "MultiPolygon", "coordinates": [ [ [ [ -1.4939499, 53.6820286 ], [ -1.4938924, 53.6820395 ], [ -1.4938242, 53.6819127 ], [ -1.493847, 53.6819084 ], [ -1.4940406, 53.681872 ], [ -1.494079, 53.6818648 ], [ -1.4941472, 53.6819913 ], [ -1.4939499, 53.6820286 ] ] ] ] } },
{ "type": "Feature", "properties": { "osm_id": 462406387, "centroid": { "latitude": 53.687319, "longitude": -1.855937 }, "area": 217, "name": "Vine", "type": "bar", "other_tags": "\"addr:city\"=>\"West Vale\",\"addr:housename\"=>\"Unit 2 Victoria Mill\",\"addr:postcode\"=>\"HX4 8AD\",\"addr:street\"=>\"Stainland Road\",\"email\"=>\"bookings@vinebars.co.uk\",\"fhrs:id\"=>\"805963\",\"phone\"=>\"01422 375444\",\"website\"=>\"http:\/\/www.vinebars.co.uk\"" }, "geometry": { "type": "MultiPolygon", "coordinates": [ [ [ [ -1.8559699, 53.6873905 ], [ -1.8560655, 53.6873389 ], [ -1.8559006, 53.687242 ], [ -1.8558102, 53.6872989 ], [ -1.8559699, 53.6873905 ] ] ] ] } }
]
}
